{"type":"data","nodes":[{"type":"data","data":[{"categories":1,"event_categories":27},[2,9,15,21],{"id":3,"attributes":4},1,{"slug":5,"name":6,"description":7,"createdAt":8,"updatedAt":8},"nutrition","營養隨筆",null,"2023-02-12T02:39:02.691Z",{"id":10,"attributes":11},2,{"slug":12,"name":13,"description":7,"createdAt":14,"updatedAt":14},"reflection","感悟隨筆","2023-02-12T02:39:02.692Z",{"id":16,"attributes":17},3,{"slug":18,"name":19,"description":7,"createdAt":20,"updatedAt":20},"fitness","運動筆記","2023-02-12T02:39:02.697Z",{"id":22,"attributes":23},4,{"slug":24,"name":25,"description":7,"createdAt":26,"updatedAt":26},"spiritual","心靈勵志","2023-02-12T02:39:02.698Z",[28,33,38,43,47,52],{"id":3,"attributes":29},{"name":30,"slug":31,"description":7,"createdAt":32,"updatedAt":32},"讀書會","book-sharing","2023-02-12T02:38:55.939Z",{"id":16,"attributes":34},{"name":35,"slug":36,"description":7,"createdAt":37,"updatedAt":37},"文化導賞","cultural","2023-02-12T02:38:55.943Z",{"id":22,"attributes":39},{"name":40,"slug":41,"description":7,"createdAt":42,"updatedAt":42},"遊山玩水","hiking","2023-02-12T02:38:55.946Z",{"id":44,"attributes":45},5,{"name":46,"slug":18,"description":7,"createdAt":42,"updatedAt":42},"健體運動",{"id":48,"attributes":49},6,{"name":50,"slug":5,"description":7,"createdAt":51,"updatedAt":51},"活學營養","2023-02-12T02:38:55.947Z",{"id":10,"attributes":53},{"name":54,"slug":55,"description":7,"createdAt":56,"updatedAt":57},"名人面對面","be-our-guest","2023-02-12T02:38:55.942Z","2023-03-08T13:16:12.875Z"],"uses":{"dependencies":["http://127.0.0.1:1337/api/categories?","http://127.0.0.1:1337/api/event-categories?"]},"slash":"always"},{"type":"data","data":[{"data":1,"meta":195},[2,22,40,57,77,95,109,123,137,152,166,181],{"id":3,"attributes":4},76,{"title":5,"content":6,"start_date":7,"excerpt":8,"slug":9,"end_date":10,"tags":11,"createdAt":12,"updatedAt":12,"event_categories":13,"image":21},"XS Keep Fit 工作坊","\n\n想告別肚腩及手臂ByeBye肉？一於動起來，齊齊塑造理想身型！\u003Cbr\u003E\nXS Keep Fit消脂班針對平日無運動習慣的朋友，循序漸進由基礎起步，讓大家起動💥\u003Cbr\u003E\nTabata - 全身性運動，簡單有效的肌力訓練配合心肺功能訓練，塑造理想身型！\u003Cbr\u003E\n日期：2018年10月15日\u003Cbr\u003E\n時間：下午2:30-4:00\u003Cbr\u003E\n地點：旺角登打士街家樂坊安利體驗館15樓C室\u003Cbr\u003E\n費用：$50\u003Cbr\u003E\n備註：請自備瑜珈墊及水樽（現場有飲用水提供）\u003Cbr\u003E\n*若需借用瑜珈墊，可以$10租用一張，但必須事先通知。","2018-10-15","","keepfitworkshop1810",null,"肌肉鍛錬,Tabata","2018-10-15T00:00:00.000Z",{"data":14},[15],{"id":16,"attributes":17},5,{"name":18,"slug":19,"description":10,"createdAt":20,"updatedAt":20},"健體運動","fitness","2023-02-12T02:38:55.946Z",{"data":10},{"id":23,"attributes":24},64,{"title":25,"content":26,"start_date":27,"excerpt":8,"slug":28,"end_date":10,"tags":29,"createdAt":30,"updatedAt":30,"event_categories":31,"image":39},"「數碼敦煌—天上人間的故事","\n\n此乃香港文化博物館本年度的重點展覽，展品逾100件，包括首次在香港展出、建於西魏時期而極具代表性的莫高窟285窟，按1:1比例複製，重現洞內的壁畫和塑像，還有以數碼技術展現的莫高窟61窟的五代時期大型壁畫《五臺山圖》，以及都督夫人禮佛圖、勞度叉鬥聖變、彌勒下生經變、各國王子聽法圖等；亦有各時代的精美飛天、藻井圖案，全方位展現敦煌的歷史、文化與藝術。\n\nEmpower 榮幸邀得深諳敦煌歷史文化的李婉賢女士(Rosa)任嘉賓導賞，帶領一眾 Empower 友好深入認識敦煌，細味佛國世界與平凡眾生的故事。\n\n日期：2018年10月14日(星期日)\u003Cbr\u003E\n時間：上午10時 (博物館於上午10時開館)\u003Cbr\u003E\n地點：新界沙田文林路1號香港文化博物館大堂\u003Cbr\u003E\n門券：$10 (持博物館通行證免費入場)\u003Cbr\u003E\n名額：35人\u003Cbr\u003E\n午膳時間：12:45-14:00 (自費用膳)\u003Cbr\u003E\n鼓勵大家留下一起午膳，互相交流","2018-10-14","cultural1810","數碼敦煌","2018-10-14T00:00:00.000Z",{"data":32},[33],{"id":34,"attributes":35},3,{"name":36,"slug":37,"description":10,"createdAt":38,"updatedAt":38},"文化導賞","cultural","2023-02-12T02:38:55.943Z",{"data":10},{"id":41,"attributes":42},61,{"title":43,"content":44,"start_date":45,"excerpt":8,"slug":46,"end_date":10,"tags":47,"createdAt":48,"updatedAt":48,"event_categories":49,"image":56},"週末郊遊鬆一鬆：香港郊野十景之一「河背水塘」","\n\n平時侷促在辦公室及煩囂市區，放假一於逃離市區抖抖氣！\u003Cbr\u003E\n今次我們會漫步往曾獲選為香港十景之一的河背水塘。沿途景色開揚，俯瞰錦田八鄉並遠眺元朗市中心。\u003Cbr\u003E\n行完山，一齊食埋晏先走！\u003Cbr\u003E\n預計行山時間為2.5小時。\u003Cbr\u003E\n備註：沿途以平路及林蔭山徑為主，河背村附近一段是斜路。\u003Cbr\u003E\n日期：13\u002F10\u002F2018 星期日\u003Cbr\u003E\n集合時間：上午9:30，不見即散 (若不午餐，預計13:00到河背村坐小巴到元朗市中心)\u003Cbr\u003E\n集合地點：西鐵錦上路站C出口集合 (前往坐71號小巴或的的士)\u003Cbr\u003E\n路線： 河背村-\u003E河背水塘-\u003E河背村\u003Cbr\u003E\n午餐暫定13:45-15:00，於元朗某家酒樓，地點稍後確定。\u003Cbr\u003E\n若不午餐，請報名時註明。","2018-10-13","hiking1810","河背水塘","2018-10-13T00:00:00.000Z",{"data":50},[51],{"id":52,"attributes":53},4,{"name":54,"slug":55,"description":10,"createdAt":20,"updatedAt":20},"遊山玩水","hiking",{"data":10},{"id":58,"attributes":59},57,{"title":60,"content":61,"start_date":62,"excerpt":63,"slug":64,"end_date":10,"tags":65,"createdAt":66,"updatedAt":66,"event_categories":67,"image":76},"飛鷹媽媽‧三半人‧再生勇士鄧英蘭","\n\n日期：2018年9月9日(\b日)\u003Cbr\u003E\n時間：晚上7：15 - 9：30\u003Cbr\u003E\n地點：旺角登打士街56號家樂坊15樓安利體驗館會議室B\u003Cbr\u003E\n費用：$90一位 (包三文治及飲品)","2018-09-09","鄧英蘭女士","ms-tang","再生勇士","2018-09-09T00:00:00.000Z",{"data":68},[69],{"id":70,"attributes":71},2,{"name":72,"slug":73,"description":10,"createdAt":74,"updatedAt":75},"名人面對面","be-our-guest","2023-02-12T02:38:55.942Z","2023-03-08T13:16:12.875Z",{"data":10},{"id":78,"attributes":79},67,{"title":80,"content":81,"start_date":82,"excerpt":8,"slug":83,"end_date":10,"tags":84,"createdAt":85,"updatedAt":85,"event_categories":86,"image":94},"讀書會-主題：人物傳記","\n\n「以銅爲鑒，可正衣冠；以古爲鑒，可知興替；以人爲鑒，可明得失。」\u003Cbr\u003E\n生命影響生命，今次讀書會，我們將分享傳記類書籍。透過別人獨到的經歷，以人為鑒，啟迪智慧與心靈。\u003Cbr\u003E\n誠邀你一起分享閱讀體驗，一同感受由文字所帶出的美妙世界。\u003Cbr\u003E\n歡迎大家，一起閱讀、一起分享、互相啟發！\u003Cbr\u003E\n說書人：4位 (每位15分鐘)\u003Cbr\u003E\n愛書人：10位\u003Cbr\u003E\n備註：分享書籍的朋友，請於1\u002F9或之前通知我們書名及作者，最好有網址連結讓我們大約知道書本內容，讓分享會更順暢進行\u003Cbr\u003E\n日期：8\u002F9\u002F2017 (星期六)\u003Cbr\u003E\n時間：14:15-16:30\u003Cbr\u003E\n地點：咖啡綠茶＠旺角西洋菜南街38-40號萬高商業大廈3樓\u003Cbr\u003E\n費用：自費在餐廳點餐\u002F飲品\u003Cbr\u003E\n名額：14人\u003Cbr\u003E\n備註：以網站報名為準，我們將會回覆閣下的報名登記","2018-09-08","booksharing1809","人物傳記","2018-09-08T00:00:00.000Z",{"data":87},[88],{"id":89,"attributes":90},1,{"name":91,"slug":92,"description":10,"createdAt":93,"updatedAt":93},"讀書會","book-sharing","2023-02-12T02:38:55.939Z",{"data":10},{"id":96,"attributes":97},66,{"title":98,"content":99,"start_date":100,"excerpt":8,"slug":101,"end_date":10,"tags":102,"createdAt":103,"updatedAt":103,"event_categories":104,"image":108},"香港土地供應，何去何從？","\n\n分享嘉賓：葉文祺先生 Ryan\u003Cbr\u003E\n－團結香港基金高級研究員，專攻香港土地及房屋政策\u003Cbr\u003E\n－曾任職於香港金融管理局及仲量聯行\n\n分享重點：\u003Cbr\u003E\n－香港土地供需為何嚴重失衡？如何解決困境？\u003Cbr\u003E\n－政府的需求管理措施對市場有甚麼影響？\n\n日期：2018年8月10日(\b五)\u003Cbr\u003E\n時間：晚上7：15 - 9：30\u003Cbr\u003E\n地點：旺角登打士街56號柏裕商業中心15樓安利體驗館會議室A\u003Cbr\u003E\n費用：$90一位\u002F$230三位 (包三文治及飲品)\u003Cbr\u003E\n備註：必須於網站報名，我們將於收到報名後聯絡閣下以作確認","2018-08-10","ryan-yip","香港樓市,土地供應","2018-08-10T00:00:00.000Z",{"data":105},[106],{"id":70,"attributes":107},{"name":72,"slug":73,"description":10,"createdAt":74,"updatedAt":75},{"data":10},{"id":110,"attributes":111},53,{"title":112,"content":113,"start_date":114,"excerpt":8,"slug":115,"end_date":10,"tags":116,"createdAt":117,"updatedAt":117,"event_categories":118,"image":122},"文化導賞: 奢華世代：從亞述到亞歷山大","\n\n由亞述青銅器、腓尼基象牙、巴比倫石器、阿契美尼德黃金，到希臘玻璃，這些價值連城的寶物，盡現古代中東文明的奢華風尚。\u003Cbr\u003E\n大英博物館以香港作為是次全球巡展的首站，展出逾200件橫跨公元前900年至300年的生活奢侈品。\u003Cbr\u003E\nEmpower 將安排導賞團，讓大家窺探從前的有錢人過着怎樣奢華的生活，了解背後的文化底蘊，並反思生活的意義。\n\n日期：2018年8月5日\u003Cbr\u003E\n時間：上午10:05 (博物館上午10時開館)\u003Cbr\u003E\n地點：尖沙咀漆咸道南100號香港歷史博物館大堂\u003Cbr\u003E\n門券：$10 (持博物館通行證免費入場)\u003Cbr\u003E\n名額：20人\u003Cbr\u003E\n午飯時間：11:30-12:30 (自費用膳)\u003Cbr\u003E\n鼓勵大家留下一起午膳，互相交流","2018-08-05","cultural1808","奢華世代,歷史","2018-08-05T00:00:00.000Z",{"data":119},[120],{"id":34,"attributes":121},{"name":36,"slug":37,"description":10,"createdAt":38,"updatedAt":38},{"data":10},{"id":124,"attributes":125},62,{"title":126,"content":127,"start_date":128,"excerpt":8,"slug":129,"end_date":10,"tags":130,"createdAt":131,"updatedAt":131,"event_categories":132,"image":136},"周末鬆一鬆：保齡球同樂","\n\n日期：2018年8月4日(六)\u003Cbr\u003E\n時間：上午10：30-12：30\u003Cbr\u003E\n地點：荃灣灣景花園保齡球場\u003Cbr\u003E\n費用：$85\u002F位(包括租用一對保齡球鞋費用)\u003Cbr\u003E\n備註：報名以網站報名為準，我們將會與閣下聯絡確認報名\u003Cbr\u003E\n打完保齡，一齊食午餐交流，費用自付，時間預計12：30-13：30","2018-08-04","bowling1808","保齡球","2018-08-04T00:00:00.000Z",{"data":133},[134],{"id":16,"attributes":135},{"name":18,"slug":19,"description":10,"createdAt":20,"updatedAt":20},{"data":10},{"id":138,"attributes":139},59,{"title":140,"content":141,"start_date":142,"excerpt":143,"slug":144,"end_date":10,"tags":145,"createdAt":146,"updatedAt":146,"event_categories":147,"image":151},"中國近代史雜談：從一朵芙蓉花的前世今生說起","\n\n分享重點：\u003Cbr\u003E\n－「阿芙蓉」鴉片如何影響中國以至亞洲其他地區的社會、經濟及文化發展？\u003Cbr\u003E\n－「正斗」、「渣斗」、「吞pok」、「一蚊雞」的由來都與鴉片有關？\n\n分享嘉賓：蘇銳鴻校長\u003Cbr\u003E\n－退休校長、資深教育工作者、歷史學家\u003Cbr\u003E\n－歷任教育局教科書審查委員、中國文化研究院專題審查委員\u003Cbr\u003E\n－現為香港金融管理學院兼任講師、泛亞教育機構顧問、和富社會企業青少年網絡執行委員\u003Cbr\u003E\n－著有《紅船淺探》、《香港百聞》、《國史百聞》等書\n\n日期：2018年7月22日(日)\u003Cbr\u003E\n時間：晚上7：15 - 9：30\u003Cbr\u003E\n地點：旺角登打士街56號家樂坊15樓安利體驗館會議室B\u003Cbr\u003E\n費用：$90一位\u002F$230三位 (包三文治及飲品)","2018-07-22","蘇銳鴻校長","mr-so","中國近代史","2018-07-22T00:00:00.000Z",{"data":148},[149],{"id":70,"attributes":150},{"name":72,"slug":73,"description":10,"createdAt":74,"updatedAt":75},{"data":10},{"id":153,"attributes":154},52,{"title":155,"content":156,"start_date":157,"excerpt":8,"slug":158,"end_date":10,"tags":159,"createdAt":160,"updatedAt":160,"event_categories":161,"image":165},"讀書會主題：歷史・遊記","\n\n從文字遊覽五大洲七大洋，觀看萬千世界；從歷史了解各民族興衰成敗，感受各地文化。\u003Cbr\u003E\n今次讀書會，我們特別選擇了分享歷史及遊記類書籍，讀萬卷書也行萬里路，了解不同地區歷史文化，感受各民族的風土人情。\u003Cbr\u003E\n誠邀你一起分享閱讀體驗，一同感受由文字所帶出的美妙世界。\u003Cbr\u003E\n歡迎大家，一起閱讀、一起分享、共同啟發！\u003Cbr\u003E\n說書人：4位 (每位15分鐘)\u003Cbr\u003E\n愛書人：10位\u003Cbr\u003E\n日期：7\u002F7\u002F2018 (星期六)\u003Cbr\u003E\n時間：14:15-16:30\u003Cbr\u003E\n地點：咖啡綠茶＠旺角西洋菜南街38-40號萬高商業大廈3樓\u003Cbr\u003E\n費用：自費在餐廳點單\u003Cbr\u003E\n名額：14人","2018-07-07","bookshare1807","歷史,遊記","2018-07-07T00:00:00.000Z",{"data":162},[163],{"id":89,"attributes":164},{"name":91,"slug":92,"description":10,"createdAt":93,"updatedAt":93},{"data":10},{"id":167,"attributes":168},58,{"title":169,"content":170,"start_date":171,"excerpt":172,"slug":173,"end_date":10,"tags":174,"createdAt":175,"updatedAt":175,"event_categories":176,"image":180},"生・老・病・死","\n\n－曾任『無國界醫生』香港區主席8年\u003Cbr\u003E\n－NGO『毋忘愛』及『醫護行者』創辦人兼主席\u003Cbr\u003E\n－第二屆香港人道年女奬得主\u003Cbr\u003E\n－樹藝技術員\n\n分享重點：\n－老化不是市場，不是災難⋯⋯只是一個力場\u003Cbr\u003E\n－死點測？\n\n日期：2018年6月16日(六)\u003Cbr\u003E\n時間：晚上7：15 - 9：30\u003Cbr\u003E\n地點：旺角登打士街56號柏裕商業中心15樓安利體驗館會議室B\u003Cbr\u003E\n費用：$90一位\u002F$230三位 (包三文治及飲品)\u003Cbr\u003E\n截止報名日期： 2018年6月11日","2018-06-16","曾任『無國界醫生』香港區主席、ngo『毋忘愛』及『醫護行者』創辦人兼主席范寧醫生","dr-fan","老化","2018-06-16T00:00:00.000Z",{"data":177},[178],{"id":70,"attributes":179},{"name":72,"slug":73,"description":10,"createdAt":74,"updatedAt":75},{"data":10},{"id":182,"attributes":183},49,{"title":184,"content":185,"start_date":186,"excerpt":8,"slug":187,"end_date":10,"tags":188,"createdAt":189,"updatedAt":189,"event_categories":190,"image":194},"1 小時玩轉程式","\n\n－推動香港普及編程教育至所有年齡、性別，以及各行各業人士\u003Cbr\u003E\n－把在香港想學習編程和想教授編程的人連繫一起\n\n主理：香港城市大學電子工程學系副教授兼『香港一小時編程』創辦人張澤松博士\u003Cbr\u003E\n日期：2018年6月9日（六）\u003Cbr\u003E\n時間：早上10:30-12:00\u003Cbr\u003E\n地點：香港城市大學 Apps Lab\u003Cbr\u003E\n費用：HoC免費，之後與Dr Ray一起自費在城大午膳\u003Cbr\u003E\n備註：請自備電腦","2018-06-09","coding1806","編程","2018-06-09T00:00:00.000Z",{"data":191},[192],{"id":34,"attributes":193},{"name":36,"slug":37,"description":10,"createdAt":38,"updatedAt":38},{"data":10},{"pagination":196},{"page":197,"pageSize":198,"pageCount":199,"total":200},10,12,16,188],"uses":{"dependencies":["http://127.0.0.1:1337/api/events?sort=start_date%3Adesc&populate[author]=true&populate[event_categories]=true&populate[image]=true&pagination[page]=10&pagination[pageSize]=12"],"params":["page","category"]}}]}