{"type":"data","nodes":[{"type":"data","data":[{"categories":1,"event_categories":27},[2,9,15,21],{"id":3,"attributes":4},1,{"slug":5,"name":6,"description":7,"createdAt":8,"updatedAt":8},"nutrition","營養隨筆",null,"2023-02-12T02:39:02.691Z",{"id":10,"attributes":11},2,{"slug":12,"name":13,"description":7,"createdAt":14,"updatedAt":14},"reflection","感悟隨筆","2023-02-12T02:39:02.692Z",{"id":16,"attributes":17},3,{"slug":18,"name":19,"description":7,"createdAt":20,"updatedAt":20},"fitness","運動筆記","2023-02-12T02:39:02.697Z",{"id":22,"attributes":23},4,{"slug":24,"name":25,"description":7,"createdAt":26,"updatedAt":26},"spiritual","心靈勵志","2023-02-12T02:39:02.698Z",[28,33,38,43,47,52],{"id":3,"attributes":29},{"name":30,"slug":31,"description":7,"createdAt":32,"updatedAt":32},"讀書會","book-sharing","2023-02-12T02:38:55.939Z",{"id":16,"attributes":34},{"name":35,"slug":36,"description":7,"createdAt":37,"updatedAt":37},"文化導賞","cultural","2023-02-12T02:38:55.943Z",{"id":22,"attributes":39},{"name":40,"slug":41,"description":7,"createdAt":42,"updatedAt":42},"遊山玩水","hiking","2023-02-12T02:38:55.946Z",{"id":44,"attributes":45},5,{"name":46,"slug":18,"description":7,"createdAt":42,"updatedAt":42},"健體運動",{"id":48,"attributes":49},6,{"name":50,"slug":5,"description":7,"createdAt":51,"updatedAt":51},"活學營養","2023-02-12T02:38:55.947Z",{"id":10,"attributes":53},{"name":54,"slug":55,"description":7,"createdAt":56,"updatedAt":57},"名人面對面","be-our-guest","2023-02-12T02:38:55.942Z","2023-03-08T13:16:12.875Z"],"uses":{"dependencies":["http://127.0.0.1:1337/api/categories?","http://127.0.0.1:1337/api/event-categories?"]},"slash":"always"},{"type":"data","data":[{"data":1,"meta":361},[2,27,62,92,119,153,181,214,237,258,307,341],{"id":3,"attributes":4},208,{"createdAt":5,"title":6,"excerpt":7,"content":8,"slug":9,"updatedAt":5,"author":10,"categories":11,"tags":19,"image":26},"2021-08-22T00:00:00.000Z","你是肥，還是水腫？",null,"\n所謂水腫，是指皮下與血管外的間隙中，有異常的組織間液堆積，進而引起腫脹。\n使用Tanita的身體成份分析儀，若細胞外液比例高於42%，即代表身體有水腫。另外也可自行簡單量度，以指腹按壓疑似水腫部份5至10秒，若需要數秒才恢復，即反映有輕微水腫；10至20秒才恢復的話，水腫就頗嚴重了😰。\n水腫的原因林林總總，包括：\u003Cbr\u003E\n😐 鹽份攝取過多，常外食者或味覺逐漸退化的長者皆是高風險一族\u003Cbr\u003E\n😐 長時間維持相同姿勢，例如久坐的上班族或久站的售貨員；加上重力影響，令水份容易積聚於下肢\u003Cbr\u003E\n😐 運動不足，令新陳代謝偏低，血液偱環不良\u003Cbr\u003E\n😐 喝水太少，因為只有水份充足才有助代謝，確保血中滲透壓維持正常\u003Cbr\u003E\n😐 營養不良，尤其蛋白質及\u002F或鉀、鈣、鎂等礦物質攝取不足\u003Cbr\u003E\n😐 腎臟、心血管、肝臟、甲狀腺疾病影響\u003Cbr\u003E\n😐 藥物副作用，包括某些類固醇、雌激素及降血壓藥物\n\n💡 改善水腫8大建議，供大家參考：\u003Cbr\u003E\n1️⃣ 適量運動，改善新陳代謝，促進血液循環\u003Cbr\u003E\n2️⃣ 避免久坐久站，適時變換姿勢或起來活動，令下肢循環改善\u003Cbr\u003E\n3️⃣ 穿壓力襪，在足踝提供最大壓力，然後順著腿部逐漸向上遞減，令下肢的靜脈血液從腳底往上回流至心臟，減低下肢靜脈及靜脈瓣膜所承受的壓力\u003Cbr\u003E\n4️⃣ 抬高受影響部位，令其高於心臟，加速血液回流\u003Cbr\u003E\n5️⃣ 充足睡眠，減少壓力荷爾蒙，改善新陳代謝\u003Cbr\u003E\n6️⃣ 低鹽飲食，改善新陳代謝，促進血液循環\u003Cbr\u003E\n7️⃣ 養成多喝水的習慣，每天喝水量應為體重(公斤) x 0.04(公升)，例如60公斤重的人，每天應喝2.4公升水\u003Cbr\u003E\n8️⃣ 營養均衡，多吃改善水腫的食物，包括：\u003Cbr\u003E\n🌟 富含鉀的食物：蕃薯、牛油果、香蕉、杏脯乾\u003Cbr\u003E\n🌟 高蛋白質食物：雞蛋、豆腐、肉類\u003Cbr\u003E\n🌟 富含維他命B的食物：粗糧、豬肉、鰻魚","fat-or-edema-2021sep",{"data":7},{"data":12},[13],{"id":14,"attributes":15},1,{"slug":16,"name":17,"description":7,"createdAt":18,"updatedAt":18},"nutrition","營養隨筆","2023-02-12T02:39:02.691Z",{"data":20},[21],{"id":22,"attributes":23},268,{"name":24,"createdAt":25,"updatedAt":25},"水腫,細胞外液","2023-02-12T03:32:01.414Z",{"data":7},{"id":28,"attributes":29},205,{"createdAt":30,"title":31,"excerpt":7,"content":32,"slug":33,"updatedAt":30,"author":34,"categories":35,"tags":39,"image":61},"2021-08-11T00:00:00.000Z","“被運動”，有效用？（下篇）","\n\n上星期解構了冷凍溶脂，今次我們來了解家用瘦身儀的成效😉。\n\n家用瘦身儀大多採用EMS (Electrical Muscle Stimulation)技術：聲稱以低頻微電流向神經發出微電流信號，即使沒有運動，都可以通過微電流的刺激，令肌肉達到運動效果，繼而瘦身。\n\n肌肉訓練器（俗稱“\n腹肌貼\"）💪🏻則是把帶有電極的腰帶或貼片固定在身體上，透過電流刺激，給肌肉施加負荷，大多用於復健及物理治療上。\n\n確實有不少職業運動員，透過EMS加強訓練效果。例如仰臥起坐時，將儀器貼於腹部，令人更著意腹部動作，有助收緊線條。\n\n然而，肌肉訓練器或其他EMS儀器均沒有燒脂效果。脂肪細胞的分解，與物理性的刺激無關；而單靠電流建立肌肉，必須使用極高電流，人體難以承受。\n\n“被動式運動”，看起來身體在動，但其實只在耗電，並不能提升熱量消耗😅。只有運用肌肉力量去活動身體時，才可真正提高能量消耗及脂肪燃燒的速率。","weight-loss-210811",{"data":7},{"data":36},[37],{"id":14,"attributes":38},{"slug":16,"name":17,"description":7,"createdAt":18,"updatedAt":18},{"data":40},[41,46,51,56],{"id":42,"attributes":43},254,{"name":44,"createdAt":45,"updatedAt":45},"瘦身","2023-02-12T03:32:01.408Z",{"id":47,"attributes":48},257,{"name":49,"createdAt":50,"updatedAt":50},"肌肉","2023-02-12T03:32:01.409Z",{"id":52,"attributes":53},243,{"name":54,"createdAt":55,"updatedAt":55},"脂肪","2023-02-12T03:32:01.403Z",{"id":57,"attributes":58},246,{"name":59,"createdAt":60,"updatedAt":60},"減肥","2023-02-12T03:32:01.405Z",{"data":7},{"id":63,"attributes":64},216,{"createdAt":65,"title":66,"excerpt":7,"content":67,"slug":68,"updatedAt":65,"author":69,"categories":70,"tags":74,"image":91},"2021-07-30T00:00:00.000Z","“被運動”，有效用？（上篇）","\n\n上星期討論了做運動減肥，今次我們來了解“被運動”的成效😉。\n\n“被動式運動”，指的是“做機減肥”，近年以冷凍溶脂最為人談論。相比傳統抽脂，冷凍浴脂不用麻醉，痛楚程度大減且修復快。冷凍溶脂據稱獲美國食品及藥物管理局(FDA)認證，可以在60分鐘療程內，把脂肪冷卻在攝氏5度低溫，從而令脂肪細胞提早老化，隨新陳代謝排出體外。\n\n須注意的是，FDA認可只反映儀器本身的安全性，不代表人人都適合做，而且操作者的技術也很重要，溫度、探頭大小、位置等皆影響安全性及效果。此外，冷凍溶脂被稱為“體型雕塑”，不是減肥；外國研究發現接受了兩次冷凍溶脂的人士，脂肪層厚度每次平均減少約20%，但體重只減去0.2公斤。故此冷凍溶脂通常只用以修線條，不能減磅，對健康狀況的改善作用也不大。\n\n冷凍令組織內缺氧缺血，的確可以造成脂肪細胞破壞。但如何令低溫到達脂肪層的同時，不讓皮膚溫度下降太多致皮膚凍傷😖？又如何確保低溫到達脂肪層後，不會傷及附近的血管、神經及肌肉？有報章曾就冷凍溶脂技術訪問香港醫學會前會長謝鴻興醫生，他指若皮膚細胞同時被冷凍，有機會產生疤痕甚至壞死。皮膚科醫生史泰祖則表示：“如果得，自己去雪地坐下，又會唔會瘦咗呢？”\n\n即使冷凍溶脂及抽脂手術可以減少脂肪細胞數量，但無法防止脂肪細胞增大，所以療程後不控制飲食和運動，不久就會復胖。","passive-exercise-210730",{"data":7},{"data":71},[72],{"id":14,"attributes":73},{"slug":16,"name":17,"description":7,"createdAt":18,"updatedAt":18},{"data":75},[76,78,83,87],{"id":57,"attributes":77},{"name":59,"createdAt":60,"updatedAt":60},{"id":79,"attributes":80},263,{"name":81,"createdAt":82,"updatedAt":82},"冷凍溶脂","2023-02-12T03:32:01.412Z",{"id":84,"attributes":85},253,{"name":86,"createdAt":45,"updatedAt":45},"做機減肥",{"id":88,"attributes":89},265,{"name":90,"createdAt":82,"updatedAt":82},"抽脂",{"data":7},{"id":93,"attributes":94},211,{"createdAt":95,"title":96,"excerpt":7,"content":97,"slug":98,"updatedAt":95,"author":99,"categories":100,"tags":104,"image":118},"2021-07-24T00:00:00.000Z","識得揀，先識得減（下篇）","\n\n不少人希望透過拼命做運動，達到減肥效果😼。然而，如上星期《識得揀，先識得減》上篇所言，運動消耗的熱量只佔總熱量約20%，大部份的熱量消耗來自基礎代謝，佔70%！\n\n劇烈運動時，肝臟須處理身體燃燒的燃料。健康不佳的肝臟光是提供能量已吃不消，要是再添負擔，只會讓情況雪上加霜😫，令肝臟一直無法痊癒。許多人瘦不下來，正是因為運動過量。而且持續對肌肉施加壓力，卻沒有足夠時間讓肌肉進行修復，很可能對肌肉造成長期的傷害😖。\n\n輕量運動（步行\u002F微健身操）有助製造幫助身體運行暢順的肝醣，暢通肝臟；同時建立肌肉，讓粒腺體強健，又毌需增加肝臟負擔😀。此外，只要日常生活讓身體多動一點，例如早一個站下車🚶🏻‍♀️🚶🏻‍♂️，累積起來也可以產生理想的瘦身效果。\n\n其實我們最需要減的，是內臟脂肪。美國醫學期刊研究指出，蘋果型身材的人內臟脂肪比例較高，而啤梨型身材則是皮下脂肪較高。內臟脂肪過多反映身體有“胰島素阻抗”，而胰島素是調控身體血糖的重要關鍵，如果出現抗性，就可能導致脂肪肝、II型糖尿病，也會增加患上食道癌、胃癌、大腸癌、胰臟癌及肝癌的機率。研究發現假設攝取同樣份量的脂肪，黑人體內增加的內臟脂肪只有一半以下；白人稍多一些；黃種人最高，吃下的脂肪有一半以上都會成為內臟脂肪😱。\n\n減肥尤其減內臟脂肪，不能單靠運動，也必須調整飲食。所以日本著名健身教練森拓郎，也提倡減肥1分靠運動，9分靠飲食呢😉。\n","loss-weight-210724",{"data":7},{"data":101},[102],{"id":14,"attributes":103},{"slug":16,"name":17,"description":7,"createdAt":18,"updatedAt":18},{"data":105},[106,108,113],{"id":57,"attributes":107},{"name":59,"createdAt":60,"updatedAt":60},{"id":109,"attributes":110},252,{"name":111,"createdAt":112,"updatedAt":112},"內臟脂肪","2023-02-12T03:32:01.407Z",{"id":114,"attributes":115},258,{"name":116,"createdAt":117,"updatedAt":117},"纖體","2023-02-12T03:32:01.410Z",{"data":7},{"id":120,"attributes":121},210,{"createdAt":122,"title":123,"excerpt":7,"content":124,"slug":125,"updatedAt":122,"author":126,"categories":127,"tags":131,"image":152},"2021-07-17T00:00:00.000Z","識得揀，先識得減（上篇）","\n\n體重反映健康，肥胖人士患睡眠窒息症、血脂水平異常、膽囊疾病、II型糖尿病及代謝綜合症等疾病的相對風險是正常體重人士的3倍以上😱。\n\n許多人都希望找到適合自己的減肥方法。2020年，在Google被搜尋最多的減肥方法為生酮飲食法和間歇性斷食法。\n\n生酮飲食為「低碳水化合物、高脂肪」的飲食方法，令身體進入稱為酮症的代謝狀態，產生「酮體」作能量來源，逼使身體燃燒脂肪🔥。然而，生酮飲食不是均衡飲食，礦物質與維他命容易不足，令人感到疲倦、虛弱，甚至抽筋，或缺乏纖維而便秘；其他常見問題包括胃痛、頭昏腦脹、焦躁、口臭、血脂及膽固醇濃度上升；長期生酮飲食也容易令骨質及肌肉流失。\n\n間歇性斷食法是「以調整進食時間為根本」的飲食方法。最常見的是168斷食法，即集中在8小時內攝取熱量，其餘16小時攝取零熱量的東西，如水、鹽、茶、黑咖啡；最常見是中午12時開始進食，晚上8時前完成晚餐。身體需約10至12小時消耗體內的碳水化合物，在168斷食法下，空腹時間達16小時，身體就會進入「脂肪燃燒」模式，達到減肥效果。然而，糖尿病、高血壓、高三酸甘油酯、痛風、高尿酸、腎臟病患及消化性潰瘍者均不適合進行間歇性斷食；禁食期間也容易腸胃不適或四肢無力，而為了提供自身能量，身體除了分解體內肝醣及部份脂肪外，也有機會分解肌肉蛋白質，令肌肉流失。\n\n無論生酮飲食或間歇性斷食，皆有機會令基礎代謝減慢。基礎代謝是人在靜臥狀態，維持生命所需的最低熱量消耗，主要用於維持呼吸、心跳、氧氣運送、排泄等生理功能。靜態時，肌肉所消耗的能量大約為脂肪的3倍💪🏻，所以增加肌肉能令基礎代謝改善。由於基礎代謝佔每日總熱量消耗70%，故提升基礎代謝率是減肥不復胖的關鍵。","weight-control-210717",{"data":7},{"data":128},[129],{"id":14,"attributes":130},{"slug":16,"name":17,"description":7,"createdAt":18,"updatedAt":18},{"data":132},[133,135,139,144,148],{"id":57,"attributes":134},{"name":59,"createdAt":60,"updatedAt":60},{"id":136,"attributes":137},247,{"name":138,"createdAt":60,"updatedAt":60},"代謝綜合症",{"id":140,"attributes":141},250,{"name":142,"createdAt":143,"updatedAt":143},"間歇性斷食","2023-02-12T03:32:01.406Z",{"id":145,"attributes":146},256,{"name":147,"createdAt":50,"updatedAt":50},"生酮飲食",{"id":149,"attributes":150},251,{"name":151,"createdAt":112,"updatedAt":112},"基礎代謝率",{"data":7},{"id":154,"attributes":155},197,{"createdAt":156,"title":157,"excerpt":7,"content":158,"slug":159,"updatedAt":156,"author":160,"categories":161,"tags":165,"image":180},"2021-06-15T00:00:00.000Z","以平衡潤養氣血 以陰陽調和健康","\n\n當現代醫學傳入中國，西醫的簡便快捷廣受民眾歡迎。然而，若醫生不用整體觀去看待人，頭痛醫頭，腳痛醫腳，病人很難達到真正的康復。“西醫治人的病，中醫治病的人。” 中醫的靈魂就是整體觀念和辨證論治，所以中醫藥歷千年而不衰💪🏻。\n\n不僅是中醫自己，越來越多西方名醫也關注“如何用好中醫藥，帶給更多人健康”這個課題。其實科學界不是不認可中醫藥，只是傳統的“方劑一鍋燉”，裡面究竟有甚麽有效成分，會對人體產生甚麽作用，容易讓人產生疑惑🤔；而當屠呦呦率先從中醫古籍中得到啟示，創建低溫提取並分離得到抗瘧有效單一成分“青蒿素”，開創了瘧疾治療新方法👍🏻，也向世人打開了深入了解中醫藥的一扇窗。\n\n中國工程院院士張伯禮在新冠疫情中採取以中醫藥為主的綜合治療，卓有成效。他一直倡導“中國良方”更需要注入科技內涵：“中藥組分，就是從傳統中藥中提取出有效成分群，可在細胞、分子藥理水平相對清楚的條件下揭示中藥的藥效物質基礎及作用機制，明確其組效關係，根據‘強化主效應、兼顧次效應、減少副效應’的配伍原則，並能根據不同病癥重新配伍成方，可製成膠囊、片劑、緩釋劑等現代中藥。” 可以說對現代中醫藥的發展指引出了一條行之有效的道路。\n\n以中醫藥為理論基礎的產品，品質是否夠好，根本在於選取的草藥是否優質：原料來源是否可靠？有否農藥或重金屬殘留？有否漂白過？😱選購時必須確保產品質量受嚴格監控，且植物原料內的營養素獲有效提取，各味中藥各司其職，群策群力，達到最佳的協同效應。\n","chinesemedicine210615",{"data":7},{"data":162},[163],{"id":14,"attributes":164},{"slug":16,"name":17,"description":7,"createdAt":18,"updatedAt":18},{"data":166},[167,171,176],{"id":168,"attributes":169},245,{"name":170,"createdAt":60,"updatedAt":60},"中藥",{"id":172,"attributes":173},244,{"name":174,"createdAt":175,"updatedAt":175},"中醫藥","2023-02-12T03:32:01.404Z",{"id":177,"attributes":178},248,{"name":179,"createdAt":143,"updatedAt":143},"草本",{"data":7},{"id":182,"attributes":183},209,{"createdAt":184,"title":185,"excerpt":7,"content":186,"slug":187,"updatedAt":184,"author":188,"categories":189,"tags":193,"image":213},"2021-06-05T00:00:00.000Z","做個“好心”人","\n\n根據香港衞生署衞生防護中心，心臟病是香港疾病第3大殺手，僅次於腫瘤癌症和肺炎😖。心臟是人體的核心供能“設備”，心肌、脈管、瓣膜就像其中的精密零件，一旦某個部位損壞，心臟功能就會部份失靈，甚至威脅全身健康🥺。\n那麼身體會如何發出預警訊號，保護心臟這人體發動機呢？💪🏻\n\n1️⃣頸項變粗\u003Cbr\u003E\n美國曾對3,000多名研究對象，發現脖子越粗的人，心血管疾病風險就越大😳。一般情況下，若男性頸圍超過39厘米，女性頸圍超過35厘米，就是脖子較粗。\n\n2️⃣臉部浮腫\u003Cbr\u003E\n若臉形出現腫脹，臉部肌肉組織鬆弛，用手指壓會出現壓痕，或壓痕部位的皮膚彈不起來，可能預示心臟出現問題，應馬上處理。\n\n3️⃣嘴唇發紫\u003Cbr\u003E\n嘴唇發青發紫或唇邊呈現青紫色，可能存在血液循環不良導致的心臟問題；若滿臉通紅，則很可能是二尖瓣狹窄所致。\n\n4️⃣瞼黃斑瘤\u003Cbr\u003E\n對於中老年人來說，眼部周圍出現黃色小腫塊（一般為米粒或黃豆大小），可能反映體內脂質代謝存在障礙，也是誘發心臟病的重要因素。\n\n5️⃣下巴疼痛\u003Cbr\u003E\n典型的心絞痛始於胸骨後方，患者會感到胸部有壓力，甚至有燒灼、擠壓和緊繃感；同時，臂部、脖頸、肩膀、上腹部、後背或下巴也會感到疼痛或不適。\n\n6️⃣耳垂皺摺\u003Cbr\u003E\n耳垂有許多微血管，當血管硬化或收窄，造成血液供血不足，就容易在耳珠上方1\u002F3處形成內側往外側下垂的刻痕，名為“法蘭克徵兆”（Frank’s sign）。\n\n7️⃣呼吸不暢\u003Cbr\u003E\n爬一段樓梯就氣喘，而過去從來沒有這種現象，應警惕心臟問題。躺下時出現呼吸問題，很可能是心臟瓣膜病的癥狀。\n\n8️⃣大量冒汗\u003Cbr\u003E\n突然間大汗淋漓而沒有明確原因，要高度懷疑是否心臟出了問題。心輸出量的大量減少和交感神經的過度活躍，會造成心臟病發作的出汗癥狀。\n\n💪🏻戒掉壞習慣 做個“好心”人\u003Cbr\u003E\n1️⃣戒煙限酒\u003Cbr\u003E\n吸煙對心臟的損害長期且頑固，煙草中的尼古丁可刺激心臟傳導系統，使心跳加快，增加心臟負荷。研究顯示停止吸煙20分鐘，因吸煙而飆升的血壓和心率即可平緩下來。\n飲酒使血管處於擴張和血流加速狀態，心率加快，容易導致心臟病急性發作。\n\n2️⃣少鹽低鈉\u003Cbr\u003E\n鹽份攝取與高血壓息息相關。高血壓導致心臟的負荷加重，增加患上冠心病、高血壓性心臟病及中風的風險。\n\n3️⃣降低血脂\u003Cbr\u003E\n血脂過高會導致脂肪在血管中堆積，容易引致冠心病。要有效降低血脂，可以增加以下營養素的攝入：\u003Cbr\u003E\n🌟鎂：有助降低壞膽固醇，促進血管擴張，改善心肌缺血\u003Cbr\u003E\n🌟優質脂肪酸：包括OMEGA-3及橄欖油\u003Cbr\u003E\n🌟膳食纖維\u003Cbr\u003E\n🌟西醫在心血管疾病的臨床防治的處方中，往往都包含輔酵素Q10，是西方應用最廣泛的心臟保養劑，臨床試驗功效顯著：\u003Cbr\u003E\n❤️心律不正：67%心電圖回復正常，頭昏胸悶獲得改善\u003Cbr\u003E\n❤️心絞痛：發作次數減少，氣短心悸得到改善\u003Cbr\u003E\n❤️心臟衰竭：2\u002F3患者心臟功能明顯改善\n\n4️⃣控制體重\u003Cbr\u003E\n肥胖容易引起內分泌激素分泌異常，導致內臟脂肪更易分解，血脂升高；加上體內各種代謝紊亂，形成惡性循環，影響心臟功能。\n\n健康減重，減肥而不減肌，促進新陳代謝，對做個“好心”人大有幫助🥰。","heart-nutrition210605",{"data":7},{"data":190},[191],{"id":14,"attributes":192},{"slug":16,"name":17,"description":7,"createdAt":18,"updatedAt":18},{"data":194},[195,200,204,209],{"id":196,"attributes":197},237,{"name":198,"createdAt":199,"updatedAt":199},"心臟病","2023-02-12T03:32:01.401Z",{"id":201,"attributes":202},238,{"name":203,"createdAt":199,"updatedAt":199},"心律不正",{"id":205,"attributes":206},239,{"name":207,"createdAt":208,"updatedAt":208},"心絞痛","2023-02-12T03:32:01.402Z",{"id":210,"attributes":211},259,{"name":212,"createdAt":117,"updatedAt":117},"心臟",{"data":7},{"id":215,"attributes":216},196,{"createdAt":217,"title":218,"excerpt":7,"content":219,"slug":220,"updatedAt":217,"author":221,"categories":222,"tags":226,"image":236},"2021-05-14T00:00:00.000Z","食物金字㙮你認識有幾多？","\n\n第一個飲食金字塔於1974年由瑞典制訂。1992年，美國農業部推出廣為人知的食物金字塔，香港衞生署及很多教科書沿用的正是這版本。2002年，美國哈佛大學公共衛生學院推出健康飲食金字塔，並於2008年更新，目標在於修補過去美國農業部的食物金字塔的缺陷。這10多年來，另有形形式式的飲食金字塔，針對不同族群的獨特需求。\n此文章所解構的是2008年更新版的健康飲食金字塔 -- 一個比較大眾化的健康飲食建議方案🍽️。\n\n1. 🌟個人化差異，重質不重量\u003Cbr\u003E\n飲食建議不再是一成不變的方案😄，而是更加顧及個人化的差別，每一食物種類的攝取量取決於個人的體重及運動量。譬如一位沒有運動習慣的55公斤男士與一位85公斤練習拳擊的男士，食物攝取量有很大差別。\n\n2. 🌟最底層的最重要\u003Cbr\u003E\n一切由基礎起步，健康飲食金字塔不單純建議飲食配搭的比例，而是更強調運動及體重管理的重要性。要獲取健康，飲食與運動是不可分割的。\n\n3. 🌟第二層：蔬菜水果、健康油脂、全穀類\u003Cbr\u003E\n蔬菜水果：每天最少2份水果＋3份蔬菜，最佳是攝取5種不同顏色的蔬果🍎\u003Cbr\u003E\n健康油脂：多攝取不飽和脂肪酸，如奧米加三脂肪酸、橄欖油；避免攝取反式脂肪及飽和脂肪\u003Cbr\u003E\n全穀類：進食全榖類食物，如糙米、全麥麵包、燕麥；避免進食精製碳水化合物，如白麵包、意大利粉、白米、米線、河粉\n\n4. 🌟第三層：蛋白質\u003Cbr\u003E\n植物蛋白質與動物蛋白質應各佔一半：植物蛋白質例子有堅果、種籽、豆類及豆製品；動物蛋白質主要為白肉，如魚、家禽及蛋。\n\n5. 第四層：乳製品（1-2份）或維他命D／鈣營養補充品\u003Cbr\u003E\n此層強調鈣質吸收，研究發現現代人較易缺乏鈣質及維他命D，缺乏時容易引致骨質疏鬆症。亞洲人有高達90%以上的人可能患有乳糖不耐症，所以鼓勵大家從奶製品以外的食物攝取鈣質，如可以連骨吃的小魚、蝦皮，或選擇由天然植物提煉的營養補充品。謹記若挑選鈣質營養片作補充時，要挑選含鈣質、鎂質及維他命D的配方呢，這樣才能被身體吸收利用。\n\n6. 最頂層：⚠️ 謹慎進食的食物\u003Cbr\u003E\n紅肉及牛油：紅肉的飽和脂肪及牛油的飽和或反式脂肪均對心血管系統造成負擔\u003Cbr\u003E\n精製碳水化合物：見上述第3點\u003Cbr\u003E\n甜的飲料及甜食：研究發現糖會導致不同的健康問題\u003Cbr\u003E\n鹽：鹽份過高會引致高血壓\n\n7. 多種維他命及額外維他命D的營養補充品（大部份人）\u003Cbr\u003E\n研究發現不同的食物的營養素相較以往為低。現代化畜牧業及農業注重高效益及高生產量，導致不少食物的營養下降。食物營養貶值，因而建議大部份人也需要在日常飲食以外攝取維他命補充品，特別是維他命D，以彌補飲食攝取的不足。謹記，前提是盡量於日常飲食攝取均衡營養，營養補充品是填補不足之用而非代替日常膳食呢！挑選營養補充品時，謹記要選擇以天然植物提煉的啊！\n\n8. 🍷 適量酒精（不是所有人）\u003Cbr\u003E\n適量酒精可能對健康有正面作用，但若沒飲用習慣的，就不要刻意飲用啊！","foodpyrmaid-210514",{"data":7},{"data":223},[224],{"id":14,"attributes":225},{"slug":16,"name":17,"description":7,"createdAt":18,"updatedAt":18},{"data":227},[228,232],{"id":229,"attributes":230},240,{"name":231,"createdAt":208,"updatedAt":208},"食物金字塔",{"id":233,"attributes":234},236,{"name":235,"createdAt":199,"updatedAt":199},"飲食配搭",{"data":7},{"id":238,"attributes":239},204,{"createdAt":240,"title":241,"excerpt":7,"content":242,"slug":243,"updatedAt":240,"author":244,"categories":245,"tags":249,"image":257},"2021-04-25T00:00:00.000Z","脂肪組織也有分懶惰與勤快？","\n\n人類有膚色之分，脂肪組織原來也可以顏色區分，分為懶懶的白色脂肪，以及勤快的米色及棕色脂肪。\n\n白色脂肪組織佔人體脂肪組織80％以上，主要儲存於皮下及腹腔，亦即是大家常聽到的皮下脂肪及內臟脂肪。白色脂肪組織是懶洋洋的，就像倉庫一樣，只是不斷地儲存脂肪作能量儲備。當我們進食過量時，多餘的能量貨物會被放進皮下及腹腔的倉庫；當倉庫放滿了就會擴建，我們的皮下脂肪及內臟脂肪的數字也會步步高升。\n\n米色脂肪及棕色脂肪可以綜合稱為廣義的棕色脂肪組織，因為棕色脂肪組織內含較多的粒線體，因此呈現咖啡色。棕色脂肪組織主要負責把脂肪及葡萄糖燃燒為熱能，供身體使用，故此能協助降低血糖及血脂值。棕色脂肪就好比非常勤力的工人，不停把能量貨物運送去燃燒，協助維持體溫。很多野外動物也是靠棕色脂肪的生熱作用過渡冬眠期呢！\n\n棕色脂肪組織主要分布於頸部、背部、腎臟周圍等部位，它們雖然只佔成人體重約0.1%，卻消耗基礎代謝率的10-20%。若能活化棕色脂肪組織，就能促進我們燃燒全身。\n如何活化棕色脂肪？\u003Cbr\u003E\n📍低溫環境：研究指出，若連續6星期，每天2小時待在攝氏17度的環境；或連續10天，每天6小時待在攝氏15-16度的低溫環境，棕色脂肪組織的活性會顯著增加。\u003Cbr\u003E\n📍輕微刺激的食物：咖啡因及兒茶素，也有可能提高棕色脂肪的活性。\u003Cbr\u003E\n📍運動：運動時分泌的去甲基腎上腺素也能活化棕色脂肪組織。\n\n大家不妨多作運動，提升棕色脂肪組織的活性，至於刻意營造低溫環境或進食刺激性食物就不太建議了。\n\n大家有否留意自己的體重在過去幾個冬天是增加還是減少呢？處於低溫環境通常也伴隨食慾提升，此消彼長下，不見得能協助消脂減重呢！至於攝取刺激性食物或飲料也是不建議的，若食用過量，會引致身體其他問題，例如失眠。\n消脂減重沒捷徑，最有效及最安全的方法是整合飲食、運動與生活習慣，讓身體健康地消脂減重，重拾理想體態！","fat20120425",{"data":7},{"data":246},[247],{"id":14,"attributes":248},{"slug":16,"name":17,"description":7,"createdAt":18,"updatedAt":18},{"data":250},[251,253],{"id":52,"attributes":252},{"name":54,"createdAt":55,"updatedAt":55},{"id":254,"attributes":255},255,{"name":256,"createdAt":50,"updatedAt":50},"棕色脂肪",{"data":7},{"id":259,"attributes":260},198,{"createdAt":261,"title":262,"excerpt":7,"content":263,"slug":264,"updatedAt":261,"author":265,"categories":266,"tags":270,"image":306},"2021-04-12T00:00:00.000Z","力抗女人公敵 遠離子宮頸癌","\n\n子宮頸癌為女性第二常見惡性腫瘤，35歲或以下的子宮頸癌患者按年遞增😦。\n\n子宮頸癌的主要誘因為人類乳頭瘤病毒(HPV) 。有性經驗的婦女感染HPV病毒很常見，推估女士終其一生約有50％的機會感染😱。幸而一般婦女在感染後大多自行痊癒，僅有小部分持續感染者日後發生子宮頸癌前病變，甚至子宮頸癌。\n\n故此，凡有性經驗的女士，不論年齡都應定期（至少每3年）進行子宮頸癌抹片篩查。如能在篩查中發現早期癌症病變並及時治療，5年存活率可超過90%👍🏻。\n\n子宮頸癌疫苗被認為可預防約90% HPV相關疾病。然而，子宮頸癌疫苗也有爭議。2013年，「日本子宮頸癌疫苗受害人聯絡會」成立，當時只有20名成員，但女孩們病重、乘坐輪椅的模樣令人印象深刻。幾個月後，日本政府中止了國家常規接種政策，成為世界第一個從公費施打轉為「不建議施打」的國家。2014年日本厚生勞動省的HPV疫苗檢討會議上，總結這些女孩的不良事件是心因性，與疫苗沒有嚴重因果關係。除日本外，英國、西班牙、愛爾蘭等地也有疑似HPV疫苗受害人的相關組織。\n\n要預防子宮頸癌，強健子宮並增強免疫力實為王道💪🏻。以下列舉4種尤為重要的營養素：\u003Cbr\u003E\n⭐胡蘿蔔素\u003Cbr\u003E\n增強子宮黏膜組織，並幫助排出子宮毒素。\u003Cbr\u003E\n⭐維他命C\u003Cbr\u003E\n消炎又直接提升免疫力，亦是高效的抗氧化劑。\u003Cbr\u003E\n⭐乳酸菌\u003Cbr\u003E\n人體70％免疫細胞位於腸道，乳酸菌對免疫力以及對抗婦科炎症皆極為重要。\u003Cbr\u003E\n⭐大豆異黃酮\u003Cbr\u003E\n大豆異黃酮與女性雌激素有相似的化學結構，在特定部位例如子宮和乳房，可模仿天然雌激素，具有平衡人體雌激素的生理作用；同時與細胞上的雌激素接受體結合，阻止其他雌激素的進入，因此有助降低子宮頸癌的風險。","cervical-210412",{"data":7},{"data":267},[268],{"id":14,"attributes":269},{"slug":16,"name":17,"description":7,"createdAt":18,"updatedAt":18},{"data":271},[272,277,282,287,292,297,301],{"id":273,"attributes":274},235,{"name":275,"createdAt":276,"updatedAt":276},"子宮","2023-02-12T03:32:01.400Z",{"id":278,"attributes":279},193,{"name":280,"createdAt":281,"updatedAt":281},"婦科","2023-02-12T03:32:01.377Z",{"id":283,"attributes":284},229,{"name":285,"createdAt":286,"updatedAt":286},"女性營養","2023-02-12T03:32:01.398Z",{"id":288,"attributes":289},184,{"name":290,"createdAt":291,"updatedAt":291},"胡蘿蔔素","2023-02-12T03:32:01.373Z",{"id":293,"attributes":294},156,{"name":295,"createdAt":296,"updatedAt":296},"維他命C","2023-02-12T03:32:01.361Z",{"id":298,"attributes":299},230,{"name":300,"createdAt":286,"updatedAt":286},"乳酸菌",{"id":302,"attributes":303},228,{"name":304,"createdAt":305,"updatedAt":305},"大豆異黃酮","2023-02-12T03:32:01.397Z",{"data":7},{"id":308,"attributes":309},203,{"createdAt":310,"title":311,"excerpt":7,"content":312,"slug":313,"updatedAt":310,"author":314,"categories":315,"tags":319,"image":340},"2021-03-26T00:00:00.000Z","不痛不癢的子宮頸炎","\n\n子宮承載女人的情感，承載女人的美麗，也承載生命種子的延續。可惜子宮疾病愈見普遍😖，當中包括：\u003Cbr\u003E\n🎀 子宮頸炎\u003Cbr\u003E\n🎀 子宮頸糜爛\u003Cbr\u003E\n🎀 子宮頸癌\u003Cbr\u003E\n🎀 子宮肌瘤\u003Cbr\u003E\n🎀 子宮內膜異位\n\n子宮頸在子宮下方1\u002F4的位置，下方連接陰道，是子宮與陰道的必經通道，猶如「山海關」。無論是子宮內膜、輸卵管、卵巢或腹腔，都須存在無菌環境，但陰道則有乳酸菌，會分泌乳酸，讓陰道處於弱酸環境中，避免黴菌或細菌入侵感染。子宮頸的功能就是隔絕病菌入侵，避免陰道的細菌病毒長驅直入，造成子宮、輸卵管、卵巢或腹腔發炎感染。\n\n單純的子宮頸發炎現象非常少見😯；通常因為陰道發炎，子宮頸才跟著遭殃。陰道發炎的主要症狀包括有黃色或綠色的分泌物，或呈現乳酪狀，聞起來可能有魚腥味或食物腐敗的肉臭味。陰道發炎除了跟性行為有關外，免疫力低下也是陰道感染的常見原因，尤其是糖尿病患或有自體免疫疾病服藥者，皆易引起陰道感染問題。\n\n子宮頸炎的其他症狀包括：不規則陰道出血，或兩次月經之間、性生活之後小量出血，或性交時陰道有疼痛感。但大家放心，陰道或子宮頸、會陰的細菌或黴菌感染，並不會造成癌症🙂。\n\n要預防子宮頸炎和陰道炎，可注意以下事項：\u003Cbr\u003E\n1️⃣生理期或陰道感染時，避免性行為\u003Cbr\u003E\n2️⃣維持單一性伴侶\u003Cbr\u003E\n3️⃣養成良好衛生習慣，平日保持陰部乾爽，但不必過度清洗或用不當的灌洗液沖洗\u003Cbr\u003E\n4️⃣避免穿過緊的褲子，以免陰道潮濕悶熱\u003Cbr\u003E\n5️⃣生理期勤換衛生巾\u003Cbr\u003E\n6️⃣切勿擅自服用抗生素，以免破壞正常陰道菌叢平衡\u003Cbr\u003E\n7️⃣作息規律，避免熬夜、菸酒，以免降低免疫力\u003Cbr\u003E\n8️⃣攝取足夠營養，維護子宮及陰道健康\n\n談到營養，平日應注意乳酸菌的攝取💡。乳酸菌令陰道的pH值維持3.8~4.2的弱酸性環境，抑制致病菌過度繁殖，預防陰道感染發炎，以及老化乾燥。選購乳酸菌時，除了菌量外，必須注意菌株，確保益菌能黏附腸道，活性能一直保持，並繼續繁殖💪🏻。\n此外，🥝🍓維他命C可增強白血球的吞噬作用和抗體形成，對預防陰道炎和子宮頸炎亦十分重要。\n\n當然，充足的蛋白質攝取必不可少，因為生長、修復、免疫、酵素、腺體、激素皆與蛋白質有關。","nutrition210326",{"data":7},{"data":316},[317],{"id":14,"attributes":318},{"slug":16,"name":17,"description":7,"createdAt":18,"updatedAt":18},{"data":320},[321,325,329,331,333,335],{"id":322,"attributes":323},227,{"name":324,"createdAt":305,"updatedAt":305},"子宮頸炎",{"id":326,"attributes":327},226,{"name":328,"createdAt":305,"updatedAt":305},"陰道炎",{"id":278,"attributes":330},{"name":280,"createdAt":281,"updatedAt":281},{"id":298,"attributes":332},{"name":300,"createdAt":286,"updatedAt":286},{"id":293,"attributes":334},{"name":295,"createdAt":296,"updatedAt":296},{"id":336,"attributes":337},144,{"name":338,"createdAt":339,"updatedAt":339},"蛋白質","2023-02-12T03:32:01.351Z",{"data":7},{"id":342,"attributes":343},212,{"createdAt":344,"title":345,"excerpt":7,"content":346,"slug":347,"updatedAt":344,"author":348,"categories":349,"tags":353,"image":360},"2021-03-16T00:00:00.000Z","膳食纖維，你吃對了嗎？","\n\n膳食纖維是植物性食物中質地較粗、不易咀嚼消化的部分，如粗糧和水果的皮、蔬菜的“筋”。當中分為水溶性膳食纖維和非水溶性膳食纖維兩大類:\u003Cbr\u003E\n⭐水溶性膳食纖維：主要有果膠、樹膠、豆膠，通常質地柔軟，可以幫助人體控制膽固醇和血糖水平，有利於預防心臟病和糖尿病等慢性疾病；\u003Cbr\u003E\n⭐非水溶性膳食纖維：主要有纖維素、部分半纖維素、木質素等，質地較硬，主要作用是促進腸道蠕動和預防便秘。\n\n營養學家發現，膳食纖維攝入減少，可直接導致肥胖、高血糖、高血壓、便秘、腸癌等都市病的高發病率😱。美國哈佛大學公共衛生所表示，攝取較多膳食纖維的人死於心臟疾病的比率比平常人減少25%👍🏻；中國青島大學也有報告指出，一日攝取200克富含膳食纖維的蔬菜，可以降低11%的中風風險😀。\n\n成年人每日需要攝取25～35克膳食纖維，小朋友則按其歲數加5克，例如5歲的小朋友每天需要10克膳食纖維。香港衛生署建議的「2＋3」，即每天進食2份水果+3份蔬菜，大約只能攝取約10克纖維🥲。\n\n要補充膳食纖維，可以：\u003Cbr\u003E\n1️⃣多吃粗糧🍠：包括全麥、燕麥、糙米，而精米白麵在加工過程中碾磨掉了穀粒外層，膳食纖維含量不及全穀物的一半。根莖類植物如牛蒡和蕃薯也是好選擇。\u003Cbr\u003E\n2️⃣加一點豆🌈：50克雜豆提供至少5克膳食纖維，蒸飯、煮粥時加把豆，既能豐富食物種類，又能保證膳食纖維的攝入。\u003Cbr\u003E\n3️⃣蔬菜是纖維大戶🥬：豆莢類的纖維尤其豐富，例如四季豆的膳食纖維含量是牛蒡的2倍、蕃薯的3倍，100克水煮的四季豆（10根）已含約13克膳食纖維。葉子大、顏色深、莖幹粗的蔬菜也是不錯的選擇，例如芥蘭、油麥菜。\u003Cbr\u003E\n4️⃣選不好嚼的水果🍎：蘋果、雪梨等組織較硬、不太好嚼的水果，往往含有更多的膳食纖維；西瓜、水蜜桃、葡萄、哈密瓜等水分多、組織軟，膳食纖維含量相對較少。\n\n要注意的是，非水溶性膳食纖維對腸胃的刺激較大，若腸胃功能不是很好，可多選擇水溶性膳食纖維，因後者比較柔和，對消化道刺激小🙂。膳食纖維攝入過量，會引起胃腸脹氣，當中腸易激綜合症患者、兒童和長者更為明顯。\n\n若膳食纖維吃不夠量或腸胃較弱，可以合理使用含有膳食纖維的營養素，或含有膳食纖維的健康零食😉。","nutrition-210316",{"data":7},{"data":350},[351],{"id":14,"attributes":352},{"slug":16,"name":17,"description":7,"createdAt":18,"updatedAt":18},{"data":354},[355],{"id":356,"attributes":357},219,{"name":358,"createdAt":359,"updatedAt":359},"纖維膳食","2023-02-12T03:32:01.393Z",{"data":7},{"pagination":362},{"page":363,"pageSize":364,"pageCount":365,"total":366},4,12,9,99],"uses":{"dependencies":["http://127.0.0.1:1337/api/posts?sort=createdAt%3Adesc&populate[author]=true&populate[categories]=true&populate[tags]=true&populate[image]=true&pagination[page]=4&pagination[pageSize]=12&filters[categories][slug]=nutrition"],"params":["page","category"]}}]}