{"type":"data","nodes":[{"type":"data","data":[{"categories":1,"event_categories":27},[2,9,15,21],{"id":3,"attributes":4},1,{"slug":5,"name":6,"description":7,"createdAt":8,"updatedAt":8},"nutrition","營養隨筆",null,"2023-02-12T02:39:02.691Z",{"id":10,"attributes":11},2,{"slug":12,"name":13,"description":7,"createdAt":14,"updatedAt":14},"reflection","感悟隨筆","2023-02-12T02:39:02.692Z",{"id":16,"attributes":17},3,{"slug":18,"name":19,"description":7,"createdAt":20,"updatedAt":20},"fitness","運動筆記","2023-02-12T02:39:02.697Z",{"id":22,"attributes":23},4,{"slug":24,"name":25,"description":7,"createdAt":26,"updatedAt":26},"spiritual","心靈勵志","2023-02-12T02:39:02.698Z",[28,33,38,43,47,52],{"id":3,"attributes":29},{"name":30,"slug":31,"description":7,"createdAt":32,"updatedAt":32},"讀書會","book-sharing","2023-02-12T02:38:55.939Z",{"id":16,"attributes":34},{"name":35,"slug":36,"description":7,"createdAt":37,"updatedAt":37},"文化導賞","cultural","2023-02-12T02:38:55.943Z",{"id":22,"attributes":39},{"name":40,"slug":41,"description":7,"createdAt":42,"updatedAt":42},"遊山玩水","hiking","2023-02-12T02:38:55.946Z",{"id":44,"attributes":45},5,{"name":46,"slug":18,"description":7,"createdAt":42,"updatedAt":42},"健體運動",{"id":48,"attributes":49},6,{"name":50,"slug":5,"description":7,"createdAt":51,"updatedAt":51},"活學營養","2023-02-12T02:38:55.947Z",{"id":10,"attributes":53},{"name":54,"slug":55,"description":7,"createdAt":56,"updatedAt":57},"名人面對面","be-our-guest","2023-02-12T02:38:55.942Z","2023-03-08T13:16:12.875Z"],"uses":{"dependencies":["http://127.0.0.1:1337/api/categories?","http://127.0.0.1:1337/api/event-categories?"]},"slash":"always"},{"type":"data","data":[{"data":1,"meta":305},[2,62,106,152,196,210,224,238,252,266,280,293],{"id":3,"attributes":4},180,{"start_date":5,"title":6,"content":7,"excerpt":8,"slug":9,"end_date":10,"tags":8,"createdAt":11,"updatedAt":11,"event_categories":12,"image":20},"2023-08-14","營養讀書會《植物營養素的力量》","\u003Cp\u003E本期營養讀書會將分享7個專題：\u003Cbr\u003E💡心血管病\u003Cbr\u003E💡胃炎\u003Cbr\u003E💡免疫力低\u003Cbr\u003E💡過敏症\u003Cbr\u003E💡神經緊張\u003Cbr\u003E💡脂肪肝\u003Cbr\u003E💡糖尿病\u003C\u002Fp\u003E\u003Cp\u003E輔以《植物營養素的力量》一書所介紹的🌈五色蔬果飲食，從餐桌開始，改變人生。\u003C\u002Fp\u003E\u003Cp\u003E日期：8月14日至11月27日 逢星期一\u003Cbr\u003E時間：晚上8:30\u003Cbr\u003E費用：全免\u003Cbr\u003E地點：旺角彌敦道580A號周大福商業中心16樓1605-06室Empower中心，Zoom線上同步直播\u003C\u002Fp\u003E\u003Cp\u003EPowered by Empower\u003Cbr\u003EFacebook.com\u002FEmpower.hk\u003Cbr\u003EYouTube.com\u002FEmpowerhk\u003C\u002Fp\u003E",null,"phytonutrient-reading-2308","2023-11-27","2023-08-06T07:36:57.932Z",{"data":13},[14],{"id":15,"attributes":16},1,{"name":17,"slug":18,"description":8,"createdAt":19,"updatedAt":19},"讀書會","book-sharing","2023-02-12T02:38:55.939Z",{"data":21},{"id":22,"attributes":23},25,{"name":24,"alternativeText":8,"caption":8,"width":25,"height":26,"formats":27,"hash":57,"ext":29,"mime":32,"size":58,"url":59,"previewUrl":8,"provider":60,"provider_metadata":8,"createdAt":61,"updatedAt":61},"Screenshot 2023-08-01 at 2.42.18 PM.png",2400,1800,{"large":28,"small":37,"medium":44,"thumbnail":50},{"ext":29,"url":30,"hash":31,"mime":32,"name":33,"path":8,"size":34,"width":35,"height":36},".png","https:\u002F\u002Fempowerhk.s3.ap-southeast-1.amazonaws.com\u002Flarge_Screenshot_2023_08_01_at_2_42_18_PM_8b452a7325.png","large_Screenshot_2023_08_01_at_2_42_18_PM_8b452a7325","image\u002Fpng","large_Screenshot 2023-08-01 at 2.42.18 PM.png",1150.14,1000,750,{"ext":29,"url":38,"hash":39,"mime":32,"name":40,"path":8,"size":41,"width":42,"height":43},"https:\u002F\u002Fempowerhk.s3.ap-southeast-1.amazonaws.com\u002Fsmall_Screenshot_2023_08_01_at_2_42_18_PM_8b452a7325.png","small_Screenshot_2023_08_01_at_2_42_18_PM_8b452a7325","small_Screenshot 2023-08-01 at 2.42.18 PM.png",347.06,500,375,{"ext":29,"url":45,"hash":46,"mime":32,"name":47,"path":8,"size":48,"width":36,"height":49},"https:\u002F\u002Fempowerhk.s3.ap-southeast-1.amazonaws.com\u002Fmedium_Screenshot_2023_08_01_at_2_42_18_PM_8b452a7325.png","medium_Screenshot_2023_08_01_at_2_42_18_PM_8b452a7325","medium_Screenshot 2023-08-01 at 2.42.18 PM.png",688.75,563,{"ext":29,"url":51,"hash":52,"mime":32,"name":53,"path":8,"size":54,"width":55,"height":56},"https:\u002F\u002Fempowerhk.s3.ap-southeast-1.amazonaws.com\u002Fthumbnail_Screenshot_2023_08_01_at_2_42_18_PM_8b452a7325.png","thumbnail_Screenshot_2023_08_01_at_2_42_18_PM_8b452a7325","thumbnail_Screenshot 2023-08-01 at 2.42.18 PM.png",77.21,208,156,"Screenshot_2023_08_01_at_2_42_18_PM_8b452a7325",1110.73,"https:\u002F\u002Fempowerhk.s3.ap-southeast-1.amazonaws.com\u002FScreenshot_2023_08_01_at_2_42_18_PM_8b452a7325.png","aws-s3","2023-08-06T07:36:51.551Z",{"id":63,"attributes":64},174,{"start_date":65,"title":66,"content":67,"excerpt":8,"slug":68,"end_date":8,"tags":8,"createdAt":69,"updatedAt":69,"event_categories":70,"image":74},"2023-04-24","營養讀書會《失傳的營養學 遠離疾病》","\u003Cp\u003E📘 Empower營養讀書會\u003Cbr\u003E《失傳的營養學 遠離疾病》\u003C\u002Fp\u003E\u003Cp\u003E冠心病、腦血栓、高血壓、糖尿病、痛風、脂肪肝、失眠、腦退化...... 醫學上認為終身難治的疾病，可以用簡單的方法治癒 — 這方法就是「吃飯」！😯\u003C\u002Fp\u003E\u003Cp\u003E許多人只知道吃飯是為了活著為了享受，卻不知道吃飯的真正意義是獲取營養。 只要有了足夠的營養，任何疾病身體都能自行修復，重拾健康💪🏻。\u003C\u002Fp\u003E\u003Cp\u003E《失傳的營養學 遠離疾病》的作者王濤為醫學博士，卻另闢蹊徑，將西醫、中醫、營養學融會貫通，開創一套全新的理論體系 「營養醫學」，真正體現「藥食同源」，幫助 有病患的治癒，沒病患的維護健康❤️！\u003C\u002Fp\u003E\u003Cp\u003E4月24日起逢星期一，就讓我們一起研讀細味這本「有生命的書」， 深入了解我們每天所吃所喝的營養，真正認識陪伴我們一生的大夫 — 奇妙的身體。\u003C\u002Fp\u003E\u003Cp\u003E日期：4月24日起逢星期一\u003Cbr\u003E時間：晚上8:30\u003Cbr\u003E地點：旺角彌敦道580A號周大福商業中心16樓1605-06室Empower中心，Zoom線上同步直播\u003Cbr\u003E費用：全免\u003C\u002Fp\u003E\u003Cp\u003EPowered by Empower\u003Cbr\u003EFacebook.com\u002FEmpower.hk\u003Cbr\u003EYouTube.com\u002FEmpowerhk\u003C\u002Fp\u003E","the-lost-knowledge-in-nutrition","2023-08-06T06:54:15.816Z",{"data":71},[72],{"id":15,"attributes":73},{"name":17,"slug":18,"description":8,"createdAt":19,"updatedAt":19},{"data":75},{"id":76,"attributes":77},13,{"name":78,"alternativeText":8,"caption":8,"width":79,"height":80,"formats":81,"hash":102,"ext":83,"mime":86,"size":103,"url":104,"previewUrl":8,"provider":60,"provider_metadata":8,"createdAt":105,"updatedAt":105},"344538957_615328940626356_1440202392454251816_n.jpg",960,715,{"small":82,"medium":90,"thumbnail":96},{"ext":83,"url":84,"hash":85,"mime":86,"name":87,"path":8,"size":88,"width":42,"height":89},".jpg","https:\u002F\u002Fempowerhk.s3.ap-southeast-1.amazonaws.com\u002Fsmall_344538957_615328940626356_1440202392454251816_n_f9fc7c9fc2.jpg","small_344538957_615328940626356_1440202392454251816_n_f9fc7c9fc2","image\u002Fjpeg","small_344538957_615328940626356_1440202392454251816_n.jpg",49.67,372,{"ext":83,"url":91,"hash":92,"mime":86,"name":93,"path":8,"size":94,"width":36,"height":95},"https:\u002F\u002Fempowerhk.s3.ap-southeast-1.amazonaws.com\u002Fmedium_344538957_615328940626356_1440202392454251816_n_f9fc7c9fc2.jpg","medium_344538957_615328940626356_1440202392454251816_n_f9fc7c9fc2","medium_344538957_615328940626356_1440202392454251816_n.jpg",86.41,559,{"ext":83,"url":97,"hash":98,"mime":86,"name":99,"path":8,"size":100,"width":101,"height":56},"https:\u002F\u002Fempowerhk.s3.ap-southeast-1.amazonaws.com\u002Fthumbnail_344538957_615328940626356_1440202392454251816_n_f9fc7c9fc2.jpg","thumbnail_344538957_615328940626356_1440202392454251816_n_f9fc7c9fc2","thumbnail_344538957_615328940626356_1440202392454251816_n.jpg",11.01,210,"344538957_615328940626356_1440202392454251816_n_f9fc7c9fc2",109.65,"https:\u002F\u002Fempowerhk.s3.ap-southeast-1.amazonaws.com\u002F344538957_615328940626356_1440202392454251816_n_f9fc7c9fc2.jpg","2023-08-06T06:53:21.121Z",{"id":107,"attributes":108},166,{"start_date":109,"title":110,"content":111,"excerpt":112,"slug":113,"end_date":8,"tags":112,"createdAt":114,"updatedAt":115,"event_categories":116,"image":120},"2022-06-20","＜營養讀書會＞星級版","\u003Cp\u003E＜營養讀書會＞自5月開辦以來，每星期都吸引希望活學營養知識，過上更健康快活人生的朋友一起參加🤗。\u003C\u002Fp\u003E\u003Cp\u003E&nbsp;6月20日的營養讀書會，Empower榮幸邀得📘《營養謬誤》的作者、在醫學界赫赫有名的袁維康醫生親臨分享！ 袁醫生為牙醫醫學士、自然醫學博士及中醫醫學博士，為少數擁有3個不同領域的醫學學位的醫生，醫見獨到精闢。 當晚袁醫生將介紹著書背景，並深入淺出地剖析「脂肪謬誤」，令大家更能營營求真，濡養思維，明辨謬見，告別迷誤。&nbsp;\u003C\u002Fp\u003E\u003Cp\u003E日期：6月20日（星期一）\u003Cbr\u003E時間：晚上7:30-9:15&nbsp;\u003Cbr\u003E地點：尖沙咀漢口道騏生商業中心14樓1402室 活然自然醫學診療中心（袁醫生醫務所）&nbsp;\u003Cbr\u003E費用：全免 歡迎邀請關注健康的親友一起參加。營養生活化，生活營養化，打造健康生活圈！💪🏻 Powered by Empower&nbsp;\u003Cbr\u003Ewww.Empower.hk&nbsp;\u003Cbr\u003EFacebook.com\u002FEmpower.hk&nbsp;\u003Cbr\u003EYouTube.com\u002FEmpowerhk\u003C\u002Fp\u003E","","nutrition-book-sharing-220620","2023-02-12T03:35:51.745Z","2023-08-06T07:23:36.988Z",{"data":117},[118],{"id":15,"attributes":119},{"name":17,"slug":18,"description":8,"createdAt":19,"updatedAt":19},{"data":121},{"id":122,"attributes":123},24,{"name":124,"alternativeText":8,"caption":8,"width":125,"height":126,"formats":127,"hash":148,"ext":83,"mime":86,"size":149,"url":150,"previewUrl":8,"provider":60,"provider_metadata":8,"createdAt":151,"updatedAt":151},"286280056_5405866762766883_3953441335604489026_n.jpg",1600,1200,{"large":128,"small":133,"medium":138,"thumbnail":143},{"ext":83,"url":129,"hash":130,"mime":86,"name":131,"path":8,"size":132,"width":35,"height":36},"https:\u002F\u002Fempowerhk.s3.ap-southeast-1.amazonaws.com\u002Flarge_286280056_5405866762766883_3953441335604489026_n_3431c1e731.jpg","large_286280056_5405866762766883_3953441335604489026_n_3431c1e731","large_286280056_5405866762766883_3953441335604489026_n.jpg",148.65,{"ext":83,"url":134,"hash":135,"mime":86,"name":136,"path":8,"size":137,"width":42,"height":43},"https:\u002F\u002Fempowerhk.s3.ap-southeast-1.amazonaws.com\u002Fsmall_286280056_5405866762766883_3953441335604489026_n_3431c1e731.jpg","small_286280056_5405866762766883_3953441335604489026_n_3431c1e731","small_286280056_5405866762766883_3953441335604489026_n.jpg",49.32,{"ext":83,"url":139,"hash":140,"mime":86,"name":141,"path":8,"size":142,"width":36,"height":49},"https:\u002F\u002Fempowerhk.s3.ap-southeast-1.amazonaws.com\u002Fmedium_286280056_5405866762766883_3953441335604489026_n_3431c1e731.jpg","medium_286280056_5405866762766883_3953441335604489026_n_3431c1e731","medium_286280056_5405866762766883_3953441335604489026_n.jpg",94.94,{"ext":83,"url":144,"hash":145,"mime":86,"name":146,"path":8,"size":147,"width":55,"height":56},"https:\u002F\u002Fempowerhk.s3.ap-southeast-1.amazonaws.com\u002Fthumbnail_286280056_5405866762766883_3953441335604489026_n_3431c1e731.jpg","thumbnail_286280056_5405866762766883_3953441335604489026_n_3431c1e731","thumbnail_286280056_5405866762766883_3953441335604489026_n.jpg",10.94,"286280056_5405866762766883_3953441335604489026_n_3431c1e731",271.79,"https:\u002F\u002Fempowerhk.s3.ap-southeast-1.amazonaws.com\u002F286280056_5405866762766883_3953441335604489026_n_3431c1e731.jpg","2023-08-06T07:23:32.212Z",{"id":153,"attributes":154},158,{"start_date":155,"title":156,"content":157,"excerpt":112,"slug":158,"end_date":8,"tags":159,"createdAt":160,"updatedAt":161,"event_categories":162,"image":166},"2022-05-02","Empower營養讀書會《營養謬誤》","\u003Cp\u003E📘Empower營養讀書會\u003Cbr\u003E營營求真，濡養思維\u003Cbr\u003E明辨謬見，告別迷誤 《營養謬誤》由在醫學界赫赫有名的袁維康醫生所著。袁醫生為牙醫醫學士、自然醫學博士及中醫醫學博士，為少數擁有3個不同領域的醫學學位的醫生，醫見獨到精闢。\u003Cbr\u003E我們榮幸邀得袁醫生的愛徒、自然療法醫生方婉君與我們一起研讀《營養謬誤》🥳。&nbsp;\u003C\u002Fp\u003E\u003Cp\u003E日期：5月2日起逢星期一\u003Cbr\u003E時間：晚上8:30-9:30\u003Cbr\u003E地點：旺角潮流特區16樓1605室Empower中心\u003Cbr\u003E📽️Zoom線上同步直播\u003Cbr\u003E費用：全免 透過每星期1️⃣小時的交流與分享，將書上知識活學活用，糾正眾多營養誤區，包括：\u003Cbr\u003E🤨高膽固醇會阻塞血管而引致心臟病？\u003Cbr\u003E🤨高鈣食物可預防骨質疏鬆？\u003Cbr\u003E🤨吃鹹的就會血壓高？ 歡迎大家邀請有意活學營養知識，過上更健康快活人生的親友一起參加🤗。\u003Cbr\u003E營養生活化，生活營養化，打造健康生活圈！💪🏻\u003C\u002Fp\u003E","nutrition-book-reading-2022-may","讀書會,讀書交流會","2022-04-05T00:00:00.000Z","2023-08-06T07:22:22.158Z",{"data":163},[164],{"id":15,"attributes":165},{"name":17,"slug":18,"description":8,"createdAt":19,"updatedAt":19},{"data":167},{"id":168,"attributes":169},23,{"name":170,"alternativeText":8,"caption":8,"width":25,"height":25,"formats":171,"hash":192,"ext":83,"mime":86,"size":193,"url":194,"previewUrl":8,"provider":60,"provider_metadata":8,"createdAt":195,"updatedAt":195},"cover.jpg",{"large":172,"small":177,"medium":182,"thumbnail":187},{"ext":83,"url":173,"hash":174,"mime":86,"name":175,"path":8,"size":176,"width":35,"height":35},"https:\u002F\u002Fempowerhk.s3.ap-southeast-1.amazonaws.com\u002Flarge_cover_70c8aa9392.jpg","large_cover_70c8aa9392","large_cover.jpg",127.18,{"ext":83,"url":178,"hash":179,"mime":86,"name":180,"path":8,"size":181,"width":42,"height":42},"https:\u002F\u002Fempowerhk.s3.ap-southeast-1.amazonaws.com\u002Fsmall_cover_70c8aa9392.jpg","small_cover_70c8aa9392","small_cover.jpg",42.5,{"ext":83,"url":183,"hash":184,"mime":86,"name":185,"path":8,"size":186,"width":36,"height":36},"https:\u002F\u002Fempowerhk.s3.ap-southeast-1.amazonaws.com\u002Fmedium_cover_70c8aa9392.jpg","medium_cover_70c8aa9392","medium_cover.jpg",78.28,{"ext":83,"url":188,"hash":189,"mime":86,"name":190,"path":8,"size":191,"width":56,"height":56},"https:\u002F\u002Fempowerhk.s3.ap-southeast-1.amazonaws.com\u002Fthumbnail_cover_70c8aa9392.jpg","thumbnail_cover_70c8aa9392","thumbnail_cover.jpg",6.5,"cover_70c8aa9392",517.34,"https:\u002F\u002Fempowerhk.s3.ap-southeast-1.amazonaws.com\u002Fcover_70c8aa9392.jpg","2023-08-06T07:22:14.550Z",{"id":197,"attributes":198},116,{"start_date":199,"title":200,"content":201,"excerpt":112,"slug":202,"end_date":8,"tags":203,"createdAt":204,"updatedAt":204,"event_categories":205,"image":209},"2020-04-04","讀書會2.0-心靈勵志","\n\n雞蛋從外打破是食物，從內打破是生命；人生從外打破是壓力，從內打破是成長。\u003Cbr\u003E\n生活壓力四方八面，幸好遇壓時總有書籍能助我們向前邁進。\u003Cbr\u003E\n今次讀書會，我們特別選擇分享心靈及勵志類書籍，讓大家共同成長，同時拓展我們生命的寬度及深度。\u003Cbr\u003E\n誠邀你一起分享閱讀體驗，一同感受由文字所帶出的美妙世界。\u003Cbr\u003E\n歡迎大家一起閱讀，一起分享，相互啟發！\u003Cbr\u003E\n說書人：4位 (每位8分鐘)\u003Cbr\u003E\n日期：4\u002F4\u002F2020 (星期六)\u003Cbr\u003E\n時間：14:30-16:00\u003Cbr\u003E\n交流形式：將以Zoom Cloud Meetings軟件進行現場直播\u003Cbr\u003E\n費用：全免\u003Cbr\u003E\n備註：請先下載免費應用程式Zoom，連結將於稍後發放\n","booksharing2004","心靈勵志","2020-04-04T00:00:00.000Z",{"data":206},[207],{"id":15,"attributes":208},{"name":17,"slug":18,"description":8,"createdAt":19,"updatedAt":19},{"data":8},{"id":211,"attributes":212},108,{"start_date":213,"title":214,"content":215,"excerpt":112,"slug":216,"end_date":8,"tags":217,"createdAt":218,"updatedAt":218,"event_categories":219,"image":223},"2019-09-22","讀書會主題: 心靈·勵志","\n\n雞蛋從外打破是食物，從內打破是生命；人生從外打破是壓力，從內打破是成長。\u003Cbr\u003E\n生活壓力四方八面，幸好遇壓時總有書籍能助我們向前邁進。\u003Cbr\u003E\n今次讀書會，我們特別選擇分享心靈及勵志類書籍，讓大家共同成長，同時拓展我們生命的寬度及深度。\u003Cbr\u003E\n誠邀你一起分享閱讀體驗，一同感受由文字所帶出的美妙世界。\u003Cbr\u003E\n歡迎大家一起閱讀，一起分享，相互啟發！\u003Cbr\u003E\n說書人：4位 (每位15分鐘)\u003Cbr\u003E\n愛書人：12位\u003Cbr\u003E\n日期：22\u002F9\u002F2019 (星期日)\u003Cbr\u003E\n時間：11:00-13:15\u003Cbr\u003E\n地點：據點・句點＠石硤尾賽馬會創意藝術中心三樓L306D\u003Cbr\u003E\n費用：$70 (包1杯飲品及小食)\u003Cbr\u003E\n名額：16人","bookshare1909","心靈,勵志","2019-09-22T00:00:00.000Z",{"data":220},[221],{"id":15,"attributes":222},{"name":17,"slug":18,"description":8,"createdAt":19,"updatedAt":19},{"data":8},{"id":225,"attributes":226},99,{"start_date":227,"title":228,"content":229,"excerpt":112,"slug":230,"end_date":8,"tags":231,"createdAt":232,"updatedAt":232,"event_categories":233,"image":237},"2019-07-21","讀書會 - 主題：經濟·商業","\n\n經濟及商業模式在過去十多年經歷翻天覆地的變化。要探討當中的經濟發展規律及經濟現象成因，離不開剖析社會、政治與民族文化。\u003Cbr\u003E\n是次讀書會以\"經濟·商業\"出發，不僅希望藉閱讀與分享，讓我們加強掌握經邦濟世之道，更希望多方面探索世界，對大環境趨勢加深理解。\u003Cbr\u003E\n誠邀各位一起閱讀，交流討論，集思廣益，共同學習，共同進步！\u003Cbr\u003E\n說書人：4位 (每位15分鐘)\u003Cbr\u003E\n愛書人：12位\u003Cbr\u003E\n日期：21\u002F7\u002F2019 (星期日)\u003Cbr\u003E\n時間：11:00-13:15\u003Cbr\u003E\n地點：據點・句點＠石硤尾賽馬會創意藝術中心三樓L306D\u003Cbr\u003E\n費用：$70 (包1杯飲品及小食)\u003Cbr\u003E\n名額：16人","bookshare1907","經濟,商業","2019-07-21T00:00:00.000Z",{"data":234},[235],{"id":15,"attributes":236},{"name":17,"slug":18,"description":8,"createdAt":19,"updatedAt":19},{"data":8},{"id":239,"attributes":240},86,{"start_date":241,"title":242,"content":243,"excerpt":112,"slug":244,"end_date":8,"tags":245,"createdAt":246,"updatedAt":246,"event_categories":247,"image":251},"2019-05-19","讀書會-主題：人物傳記","\n\n「以銅爲鑒，可正衣冠；以古爲鑒，可知興替；以人爲鑒，可明得失。」\u003Cbr\u003E\n生命影響生命，今次讀書會，我們將分享傳記類書籍。透過別人獨到的經歷，以人為鑒，啟迪智慧與心靈。\u003Cbr\u003E\n誠邀你一起分享閱讀體驗，一同感受由文字所帶出的美妙世界。\u003Cbr\u003E\n歡迎大家，一起閱讀、一起分享、互相啟發！\u003Cbr\u003E\n說書人：4位 (每位15分鐘)\u003Cbr\u003E\n愛書人：12位\u003Cbr\u003E\n備註：分享書籍的朋友，請於16\u002F5或之前通知我們書名及作者，最好有網址連結讓我們大約知道書本內容，讓分享會更順暢進行\u003Cbr\u003E\n日期：19\u002F5\u002F2019 (星期日)\u003Cbr\u003E\n時間：11:00-13:15\u003Cbr\u003E\n地點：據點・句點＠石硤尾賽馬會創意藝術中心三樓L306D\u003Cbr\u003E\n費用：$70一位，包一杯飲品及小食\u003Cbr\u003E\n名額：16人 （四位說書人）","bookshare1905","人物傳記","2019-05-19T00:00:00.000Z",{"data":248},[249],{"id":15,"attributes":250},{"name":17,"slug":18,"description":8,"createdAt":19,"updatedAt":19},{"data":8},{"id":253,"attributes":254},83,{"start_date":255,"title":256,"content":257,"excerpt":112,"slug":258,"end_date":8,"tags":259,"createdAt":260,"updatedAt":260,"event_categories":261,"image":265},"2019-03-10","讀書會：歷史與未來","\n\n歷史塑造了我們的科技、政治和社會，也塑造了我們的思想和夢想。現實彷彿是自然又理所當然。\u003Cbr\u003E\n今次的讀書會，讓我們一起分享讓人們從過去走到現在的事，以不同角度閱讀現在，思考不一樣的未來。\u003Cbr\u003E\n同場加映：《據點。句點》藝術空間舉辦的展覽 — 《無法取得位置 Nothing Can Come Closer》，詳情見 https:\u002F\u002Fwww.facebook.com\u002Fevents\u002F376729836439046\u002F?ti=icl\n\n愛書人：12位\u003Cbr\u003E\n說書人：4位 (每位15分鐘)\u003Cbr\u003E\n分享書藉包括：\u003Cbr\u003E\n－\"Factfulness: Ten Reasons We're Wrong About The World - And Why Things Are Better Than You Think\"- Hans Rosling\u003Cbr\u003E\n－《從中國歷史來看中國民族性及中國文化》錢穆\u003Cbr\u003E\n－《讀史觀勢》張建雄\u003Cbr\u003E\n－《第二次世界大戰史》馬丁・吉爾伯特\u003Cbr\u003E\n日期：10\u002F3\u002F2019 (星期六)\u003Cbr\u003E\n時間：\u003Cbr\u003E\n12:00-14:00（讀書會）\u003Cbr\u003E\n14:00-15:00（展覽導賞）\u003Cbr\u003E\n地點：據點。句點 (石硤尾賽馬會創意藝術中心3樓L306D Floating Project)\u003Cbr\u003E\n費用：$70 (包1杯飲品及小食)\u003Cbr\u003E\n名額：16人","bookshare1903","歷史","2019-03-10T00:00:00.000Z",{"data":262},[263],{"id":15,"attributes":264},{"name":17,"slug":18,"description":8,"createdAt":19,"updatedAt":19},{"data":8},{"id":267,"attributes":268},74,{"start_date":269,"title":270,"content":271,"excerpt":112,"slug":272,"end_date":8,"tags":273,"createdAt":274,"updatedAt":274,"event_categories":275,"image":279},"2019-01-13","讀書會主題：健康·養生","\n正所謂，年少不養生，老來養醫生。\u003Cbr\u003E\n壓大很大，糖衣很美。餐廳充斥著高油高脂的美食，高效的社會同時亦帶來高壓。我們並不能抱著「今朝有酒今朝醉，哪管他朝吊鹽水」的心態。\u003Cbr\u003E\n健康，既指肉體上的，亦指心靈上的健康。\u003Cbr\u003E\n達到身心靈的平衡不僅使我們身體健康，亦促使我們成就完滿的人生。\u003Cbr\u003E\n今次讀書會，我們特別選擇了分享健康養生類書籍，共同朝向身心靈整體健康的目標前進。\u003Cbr\u003E\n誠邀你一起分享閱讀體驗，一同感受由文字所帶出的美妙世界。\u003Cbr\u003E\n歡迎大家一起閱讀，一起分享，相互啟發！\u003Cbr\u003E\n說書人：4位 (每位15分鐘)\u003Cbr\u003E\n愛書人：10位\u003Cbr\u003E\n日期：6\u002F01\u002F2019 (星期日)\u003Cbr\u003E\n時間：14:00-16:00\u003Cbr\u003E\n地點：Coffee Lover (觀塘偉業街171號偉業工業大廈3\u002FF B室)\u003Cbr\u003E\n牛頭角MTR B出口，悅景海景酒店側\u003Cbr\u003E\n費用：$70 (包1杯飲品及小食)\u003Cbr\u003E\n名額：16人","bookshare1901","健康","2019-01-13T00:00:00.000Z",{"data":276},[277],{"id":15,"attributes":278},{"name":17,"slug":18,"description":8,"createdAt":19,"updatedAt":19},{"data":8},{"id":281,"attributes":282},68,{"start_date":283,"title":228,"content":284,"excerpt":112,"slug":285,"end_date":8,"tags":286,"createdAt":287,"updatedAt":287,"event_categories":288,"image":292},"2018-11-03","\n\n經濟及商業模式在過去十多年經歷翻天覆地的變化。要探討當中的經濟發展規律及經濟現象成因，離不開剖析社會、政治與民族文化。\u003Cbr\u003E\n是次讀書會以\"經濟·商業\"出發，不僅希望藉閱讀與分享，讓我們加強掌握經邦濟世之道，更希望多方面探索世界，對大環境趨勢加深理解。\u003Cbr\u003E\n誠邀各位一起閱讀，交流討論，集思廣益，共同學習，共同進步！\u003Cbr\u003E\n說書人：4位 (每位15分鐘)\u003Cbr\u003E\n愛書人：12位\u003Cbr\u003E\n日期：3\u002F11\u002F2018 (星期六)\u003Cbr\u003E\n時間：14:30-16:30\u003Cbr\u003E\n地點：Coffee Lover (觀塘偉業街171號偉業工業大廈3\u002FF B室)\u003Cbr\u003E\n牛頭角MTR B出口，悅景海景酒店側\u003Cbr\u003E\n費用：$70 (包1杯飲品及小食)\u003Cbr\u003E\n名額：16人","bookshare1811","商業經濟","2018-11-03T00:00:00.000Z",{"data":289},[290],{"id":15,"attributes":291},{"name":17,"slug":18,"description":8,"createdAt":19,"updatedAt":19},{"data":8},{"id":294,"attributes":295},67,{"start_date":296,"title":242,"content":297,"excerpt":112,"slug":298,"end_date":8,"tags":245,"createdAt":299,"updatedAt":299,"event_categories":300,"image":304},"2018-09-08","\n\n「以銅爲鑒，可正衣冠；以古爲鑒，可知興替；以人爲鑒，可明得失。」\u003Cbr\u003E\n生命影響生命，今次讀書會，我們將分享傳記類書籍。透過別人獨到的經歷，以人為鑒，啟迪智慧與心靈。\u003Cbr\u003E\n誠邀你一起分享閱讀體驗，一同感受由文字所帶出的美妙世界。\u003Cbr\u003E\n歡迎大家，一起閱讀、一起分享、互相啟發！\u003Cbr\u003E\n說書人：4位 (每位15分鐘)\u003Cbr\u003E\n愛書人：10位\u003Cbr\u003E\n備註：分享書籍的朋友，請於1\u002F9或之前通知我們書名及作者，最好有網址連結讓我們大約知道書本內容，讓分享會更順暢進行\u003Cbr\u003E\n日期：8\u002F9\u002F2017 (星期六)\u003Cbr\u003E\n時間：14:15-16:30\u003Cbr\u003E\n地點：咖啡綠茶＠旺角西洋菜南街38-40號萬高商業大廈3樓\u003Cbr\u003E\n費用：自費在餐廳點餐\u002F飲品\u003Cbr\u003E\n名額：14人\u003Cbr\u003E\n備註：以網站報名為準，我們將會回覆閣下的報名登記","booksharing1809","2018-09-08T00:00:00.000Z",{"data":301},[302],{"id":15,"attributes":303},{"name":17,"slug":18,"description":8,"createdAt":19,"updatedAt":19},{"data":8},{"pagination":306},{"page":15,"pageSize":307,"pageCount":308,"total":309},12,2,20],"uses":{"dependencies":["http://127.0.0.1:1337/api/events?sort=start_date%3Adesc&populate[author]=true&populate[event_categories]=true&populate[image]=true&pagination[page]=1&pagination[pageSize]=12&filters[event_categories][slug]=book-sharing"],"params":["page","category"]}}]}