{"type":"data","nodes":[{"type":"data","data":[{"categories":1,"event_categories":27},[2,9,15,21],{"id":3,"attributes":4},1,{"slug":5,"name":6,"description":7,"createdAt":8,"updatedAt":8},"nutrition","營養隨筆",null,"2023-02-12T02:39:02.691Z",{"id":10,"attributes":11},2,{"slug":12,"name":13,"description":7,"createdAt":14,"updatedAt":14},"reflection","感悟隨筆","2023-02-12T02:39:02.692Z",{"id":16,"attributes":17},3,{"slug":18,"name":19,"description":7,"createdAt":20,"updatedAt":20},"fitness","運動筆記","2023-02-12T02:39:02.697Z",{"id":22,"attributes":23},4,{"slug":24,"name":25,"description":7,"createdAt":26,"updatedAt":26},"spiritual","心靈勵志","2023-02-12T02:39:02.698Z",[28,33,38,43,47,52],{"id":3,"attributes":29},{"name":30,"slug":31,"description":7,"createdAt":32,"updatedAt":32},"讀書會","book-sharing","2023-02-12T02:38:55.939Z",{"id":16,"attributes":34},{"name":35,"slug":36,"description":7,"createdAt":37,"updatedAt":37},"文化導賞","cultural","2023-02-12T02:38:55.943Z",{"id":22,"attributes":39},{"name":40,"slug":41,"description":7,"createdAt":42,"updatedAt":42},"遊山玩水","hiking","2023-02-12T02:38:55.946Z",{"id":44,"attributes":45},5,{"name":46,"slug":18,"description":7,"createdAt":42,"updatedAt":42},"健體運動",{"id":48,"attributes":49},6,{"name":50,"slug":5,"description":7,"createdAt":51,"updatedAt":51},"活學營養","2023-02-12T02:38:55.947Z",{"id":10,"attributes":53},{"name":54,"slug":55,"description":7,"createdAt":56,"updatedAt":57},"名人面對面","be-our-guest","2023-02-12T02:38:55.942Z","2023-03-08T13:16:12.875Z"],"uses":{"dependencies":["http://127.0.0.1:1337/api/categories?","http://127.0.0.1:1337/api/event-categories?"]},"slash":"always"},{"type":"data","data":[{"data":1,"meta":211},[2,55,70,84,98,112,127,141,155,169,183,197],{"id":3,"attributes":4},173,{"start_date":5,"title":6,"content":7,"excerpt":8,"slug":9,"end_date":5,"tags":8,"createdAt":10,"updatedAt":10,"event_categories":11,"image":19},"2022-09-05","活學營養：擊退肌少症","\u003Cp style=\"margin-left:0px;\"\u003E\u003Ccode\u003E活學營養：擊退肌少症\u003C\u002Fcode\u003E\u003Cspan style=\"font-family:inherit;\"\u003E\u003Ccode\u003E\u003Cimg src=\"https:\u002F\u002Fstatic.xx.fbcdn.net\u002Fimages\u002Femoji.php\u002Fv9\u002Ft46\u002F2\u002F16\u002F1f4aa_1f3fb.png\" alt=\"💪🏻\"\u003E\u003C\u002Fcode\u003E\u003C\u002Fspan\u003E\u003C\u002Fp\u003E\u003Cp style=\"margin-left:0px;\"\u003E\u003Cspan style=\"font-family:inherit;\"\u003E\u003Ccode\u003E\u003Cimg src=\"https:\u002F\u002Fstatic.xx.fbcdn.net\u002Fimages\u002Femoji.php\u002Fv9\u002Ft19\u002F2\u002F16\u002F1f635_200d_1f4ab.png\" alt=\"😵‍💫\"\u003E\u003C\u002Fcode\u003E\u003C\u002Fspan\u003E\u003Ccode\u003E 肌少症會令心臟病風險增加8成？憂鬱、失智也相關？\u003C\u002Fcode\u003E\u003Cbr\u003E\u003Cspan style=\"font-family:inherit;\"\u003E\u003Ccode\u003E\u003Cimg src=\"https:\u002F\u002Fstatic.xx.fbcdn.net\u002Fimages\u002Femoji.php\u002Fv9\u002Fte1\u002F2\u002F16\u002F1f62f.png\" alt=\"😯\"\u003E\u003C\u002Fcode\u003E\u003C\u002Fspan\u003E\u003Ccode\u003E 男士患肌少症風險較女士高？\u003C\u002Fcode\u003E\u003Cbr\u003E\u003Cspan style=\"font-family:inherit;\"\u003E\u003Ccode\u003E\u003Cimg src=\"https:\u002F\u002Fstatic.xx.fbcdn.net\u002Fimages\u002Femoji.php\u002Fv9\u002Ftdb\u002F2\u002F16\u002F1f4a1.png\" alt=\"💡\"\u003E\u003C\u002Fcode\u003E\u003C\u002Fspan\u003E\u003Ccode\u003E 如何量度甚至預估自己會否有肌少症？\u003C\u002Fcode\u003E\u003Cbr\u003E\u003Cspan style=\"font-family:inherit;\"\u003E\u003Ccode\u003E\u003Cimg src=\"https:\u002F\u002Fstatic.xx.fbcdn.net\u002Fimages\u002Femoji.php\u002Fv9\u002Ft17\u002F2\u002F16\u002F1f64c_1f3fb.png\" alt=\"🙌🏻\"\u003E\u003C\u002Fcode\u003E\u003C\u002Fspan\u003E\u003Ccode\u003E 吃與動如何配搭，有效預防或逆轉肌少症？\u003C\u002Fcode\u003E\u003C\u002Fp\u003E\u003Cp style=\"margin-left:0px;\"\u003E\u003Ccode\u003E講者：\u003C\u002Fcode\u003E\u003Cbr\u003E\u003Ccode\u003EEmpower及W2創辦人兼營養總監、營養學家、國家公共營養師 Melissa Wong 黃詩田\u003C\u002Fcode\u003E\u003Cbr\u003E\u003Ccode\u003E日期：9月5日(星期一)\u003C\u002Fcode\u003E\u003Cbr\u003E\u003Ccode\u003E時間：晚上9:00-9:30\u003C\u002Fcode\u003E\u003C\u002Fp\u003E",null,"Sarcopenia-sharing","2023-08-06T06:28:20.171Z",{"data":12},[13],{"id":14,"attributes":15},6,{"name":16,"slug":17,"description":8,"createdAt":18,"updatedAt":18},"活學營養","nutrition","2023-02-12T02:38:55.947Z",{"data":20},{"id":21,"attributes":22},8,{"name":23,"alternativeText":8,"caption":8,"width":24,"height":25,"formats":26,"hash":50,"ext":28,"mime":31,"size":51,"url":52,"previewUrl":8,"provider":53,"provider_metadata":8,"createdAt":54,"updatedAt":54},"301382646_5648083735211850_2977165249705915477_n.jpg",960,541,{"small":27,"medium":36,"thumbnail":43},{"ext":28,"url":29,"hash":30,"mime":31,"name":32,"path":8,"size":33,"width":34,"height":35},".jpg","https:\u002F\u002Fempowerhk.s3.ap-southeast-1.amazonaws.com\u002Fsmall_301382646_5648083735211850_2977165249705915477_n_fca7ca5472.jpg","small_301382646_5648083735211850_2977165249705915477_n_fca7ca5472","image\u002Fjpeg","small_301382646_5648083735211850_2977165249705915477_n.jpg",27.98,500,282,{"ext":28,"url":37,"hash":38,"mime":31,"name":39,"path":8,"size":40,"width":41,"height":42},"https:\u002F\u002Fempowerhk.s3.ap-southeast-1.amazonaws.com\u002Fmedium_301382646_5648083735211850_2977165249705915477_n_fca7ca5472.jpg","medium_301382646_5648083735211850_2977165249705915477_n_fca7ca5472","medium_301382646_5648083735211850_2977165249705915477_n.jpg",49.61,750,423,{"ext":28,"url":44,"hash":45,"mime":31,"name":46,"path":8,"size":47,"width":48,"height":49},"https:\u002F\u002Fempowerhk.s3.ap-southeast-1.amazonaws.com\u002Fthumbnail_301382646_5648083735211850_2977165249705915477_n_fca7ca5472.jpg","thumbnail_301382646_5648083735211850_2977165249705915477_n_fca7ca5472","thumbnail_301382646_5648083735211850_2977165249705915477_n.jpg",8.86,245,138,"301382646_5648083735211850_2977165249705915477_n_fca7ca5472",62.66,"https:\u002F\u002Fempowerhk.s3.ap-southeast-1.amazonaws.com\u002F301382646_5648083735211850_2977165249705915477_n_fca7ca5472.jpg","aws-s3","2023-08-06T06:27:20.212Z",{"id":56,"attributes":57},148,{"start_date":58,"title":59,"content":60,"excerpt":61,"slug":62,"end_date":8,"tags":63,"createdAt":64,"updatedAt":64,"event_categories":65,"image":69},"2021-10-14","血型飲食法","\n\n🙄 你的靈丹，是我的毒藥？\u003Cbr\u003E\n😯 血型也有演化革命？\u003Cbr\u003E\n🤔 不同血型應如何減肥減壓？\u003Cbr\u003E\n\n日期：2021年10月14日（星期四，假期）\u003Cbr\u003E\n時間：下午3:30-4:45\u003Cbr\u003E\n地點：旺角家樂坊15樓安利體驗館會議室B\u003Cbr\u003E\n費用 : $50\u003Cbr\u003E\n報名優惠：以優惠價$80一併報名當天2:00-3:15的生命密碼初探\u003Cbr\u003E\n報名方式：請inbox訊息給我們報名及索取付款詳情","","blood-nutrition","血型飲食","2021-10-14T00:00:00.000Z",{"data":66},[67],{"id":14,"attributes":68},{"name":16,"slug":17,"description":8,"createdAt":18,"updatedAt":18},{"data":8},{"id":71,"attributes":72},157,{"start_date":73,"title":74,"content":75,"excerpt":61,"slug":76,"end_date":8,"tags":77,"createdAt":78,"updatedAt":78,"event_categories":79,"image":83},"2021-10-01","活學營養：有骨氣 有肌力","\n\n絆倒了，一位安然無恙，另一位卻骨折😟。除了骨質差，不夠肌肉承托也是主因。\u003Cbr\u003E\n日益普遍的肌少症，不單影響體態，更與骨質密度、心血管疾病以至胃下垂等息息相關😱。\u003Cbr\u003E\n要建構強健的骨質及肌力，必須配合飲食及運動。10月1日公眾假期，為你解構：\u003Cbr\u003E\n🤔 是否年紀大才有骨質疏鬆及肌少症？\u003Cbr\u003E\n🤔 西方人飲食含大量鈣質，為何也會骨質疏鬆？\u003Cbr\u003E\n🤔 飲食及營養如何調理，才能令我們建肌造骨？\n\n日期：2021年10月1日（星期五）\u003Cbr\u003E\n時間：下午3:45-4:30\u003Cbr\u003E\n地點：旺角家樂坊15樓安利體驗館會議室B\u003Cbr\u003E\n費用 : $40\u003Cbr\u003E\n講者：W2創辦人兼營養總監、營養學家、國家公共營養師 黃詩田小姐 Melissa Wong\u003Cbr\u003E\n報名方式：請inbox訊息給我們報名及索取付款詳情","bone-muscle-nutrition","骨質疏鬆,肌少症","2021-10-01T00:00:00.000Z",{"data":80},[81],{"id":14,"attributes":82},{"name":16,"slug":17,"description":8,"createdAt":18,"updatedAt":18},{"data":8},{"id":85,"attributes":86},151,{"start_date":87,"title":88,"content":89,"excerpt":61,"slug":90,"end_date":8,"tags":91,"createdAt":92,"updatedAt":92,"event_categories":93,"image":97},"2021-04-06","活學營養：肝膽排毒","\n\n☘️春季最宜排肝毒，特別在復活節長假期最後一天，為大家呈獻：\n✨ 活學營養：肝膽排毒\n\n所謂百病由肝治，無論\u003Cbr\u003E\n😖過胖過瘦\u003Cbr\u003E\n😖精神不佳\u003Cbr\u003E\n😖心血管疾病\u003Cbr\u003E\n😖糖尿病\u003Cbr\u003E\n😖腎病\u003Cbr\u003E\n😖荷爾蒙失調......\u003Cbr\u003E \n皆與肝臟健康息息相關。\n\n香港人壓力大，晚睡又外食多，對肝臟造成莫大負擔；30歲以後，肝膽結石問題更日益普遍😨。\n\n＜肝膽排毒＞專題講座 將為你解構：\u003Cbr\u003E\n🤔肝膽結石的種類與成因\u003Cbr\u003E\n🔪若有膽石，切除膽囊便一了百了？「膽」真的可有可無？\u003Cbr\u003E\n🔆5千年古方 -- 肝膽排毒DIY\n\n報名優惠：以優惠價$60一併報名當天15:30-16:30的伸展拉筋工作坊","detox210406","肝膽結石,膽結石","2021-04-06T00:00:00.000Z",{"data":94},[95],{"id":14,"attributes":96},{"name":16,"slug":17,"description":8,"createdAt":18,"updatedAt":18},{"data":8},{"id":99,"attributes":100},121,{"start_date":101,"title":102,"content":103,"excerpt":61,"slug":104,"end_date":8,"tags":105,"createdAt":106,"updatedAt":106,"event_categories":107,"image":111},"2020-09-06","補腎強身 遠離痛風","\n🤟🏻腎天生有多好，一看手就知道？\u003Cbr\u003E\n😱黑眼圈、耳鳴、高血壓都與腎有關？\u003Cbr\u003E\n🧐補鈣對腎病者是利多於弊，還是弊多於利？\u003Cbr\u003E\n😈痛風與腎功能關係有多大？\u003Cbr\u003E\n👋🏻DIY排腎石，跟痛風講聲bye？\u003Cbr\u003E\n同場加映：\u003Cbr\u003E\n🧘‍♀「筋長一寸，命長十年」補腎強身拉筋法\n\n主講：Empower創辦人兼營養總監、營養學家、營養師 黃詩田小姐 Melissa Wong","health2009","痛風,腎","2020-09-06T00:00:00.000Z",{"data":108},[109],{"id":14,"attributes":110},{"name":16,"slug":17,"description":8,"createdAt":18,"updatedAt":18},{"data":8},{"id":113,"attributes":114},133,{"start_date":115,"title":116,"content":117,"excerpt":118,"slug":119,"end_date":8,"tags":120,"createdAt":121,"updatedAt":121,"event_categories":122,"image":126},"2020-07-22","營型逆疫 -- 增強免疫力 強身抗疫","\n\n新冠肺炎來勢洶洶，除了戴口罩，勤洗手，1:99外，還有更有效的預防及抗疫方法嗎？\n\n致力推廣身心靈健康的 Empower 本周三將特別安排＜營一世：抗疫特別版＞🤩，為大家剖析如何全面增強免疫系統的防禦力和抗擊力，打造強健體魄！💪🏻💪🏻\n\n日期：2020年7月22日（星期三）\u003Cbr\u003E\n時間：下午12:30-1:15\n\n*將以zoom線上直播，歡迎私訊我們查詢連結","新冠肺炎來勢洶洶，除了戴口罩，勤洗手，1:99外，還有更有效的預防及抗疫方法嗎？","nutrition0722","免疫力","2020-07-22T00:00:00.000Z",{"data":123},[124],{"id":14,"attributes":125},{"name":16,"slug":17,"description":8,"createdAt":18,"updatedAt":18},{"data":8},{"id":128,"attributes":129},114,{"start_date":130,"title":131,"content":132,"excerpt":61,"slug":133,"end_date":8,"tags":134,"createdAt":135,"updatedAt":135,"event_categories":136,"image":140},"2020-02-15","活學營養: 抗敏抗毒 呼吸暢通","\n\n- 香港幾乎每4人就有1人鼻敏感，也有不少人患氣管敏感、哮喘等過敏症。這些敏感症是遺傳？還是其他原因誘發？\u003Cbr\u003E\n- 如何透過改善飲食及生活習慣，並運用有機營養素，舒緩甚至根治過敏症？\u003Cbr\u003E\n- 面對春夏天氣變化、空氣污染、流感高峰及新型病毒，如何強化免疫系統加以抗衡？\u003Cbr\u003E\n費用：每堂$30","health2002","鼻敏感","2020-02-15T00:00:00.000Z",{"data":137},[138],{"id":14,"attributes":139},{"name":16,"slug":17,"description":8,"createdAt":18,"updatedAt":18},{"data":8},{"id":142,"attributes":143},106,{"start_date":144,"title":145,"content":146,"excerpt":61,"slug":147,"end_date":8,"tags":148,"createdAt":149,"updatedAt":149,"event_categories":150,"image":154},"2019-12-14","活學營養：活絡關節 步履輕盈","\n\n- 年紀增長，退化性關節炎隨之而來；機不離手，也令關節炎年輕化。究竟關節炎有何類型？分別有甚麼症狀呢？\u003Cbr\u003E\n- 膝蓋或其他部位發出啪啪聲，是關節退化嗎？還是只是勞損？\u003Cbr\u003E\n- 公立醫院平均需輪候3至9年才可置換關節，值得嗎？成效與風險如何？\u003Cbr\u003E\n- 怎樣透過飲食營養與運動保護關節，使我們活到老年，也能健步如飛？\n\n日期：12月14日（星期六）\u003Cbr\u003E\n時間：11:00-12:30\u003Cbr\u003E\n地點：旺角登打士街56號家樂坊15樓安利體驗館鑽石房\u003Cbr\u003E\n費用：每堂$30\u003Cbr\u003E\n名額：16人","health1912","關節健康","2019-12-14T00:00:00.000Z",{"data":151},[152],{"id":14,"attributes":153},{"name":16,"slug":17,"description":8,"createdAt":18,"updatedAt":18},{"data":8},{"id":156,"attributes":157},103,{"start_date":158,"title":159,"content":160,"excerpt":61,"slug":161,"end_date":8,"tags":162,"createdAt":163,"updatedAt":163,"event_categories":164,"image":168},"2019-11-09","活學營養:明目養睛","\n\n現代人機不離手，令眼睛容易乾澀，流眼水😢，更令近視和散光加深🤓，甚至提早退化，白內障、老花越來越年輕化。\u003Cbr\u003E\n其實只要好好改善飲食及生活習慣，並懂得運用營養，即能好好改善眼睛健康😀，活到80歲，依然雙目炯炯有神！\n日期：11月9日（星期六）\u003Cbr\u003E\n時間：11:00-12:30\u003Cbr\u003E\n地點：旺角登打士街56號家樂坊15樓安利體驗館鑽石房\u003Cbr\u003E\n費用：每堂$30\u003Cbr\u003E\n名額：16人","health1911","眼睛健康","2019-11-09T00:00:00.000Z",{"data":165},[166],{"id":14,"attributes":167},{"name":16,"slug":17,"description":8,"createdAt":18,"updatedAt":18},{"data":8},{"id":170,"attributes":171},100,{"start_date":172,"title":173,"content":174,"excerpt":61,"slug":175,"end_date":8,"tags":176,"createdAt":177,"updatedAt":177,"event_categories":178,"image":182},"2019-10-07","活學營養:擺脫糖尿 活得輕鬆","\n\n默默臨近的殺手：糖尿病為香港十大殺手之一 ，據統計每10個香港人就有一位糖尿病患者。糖尿併發症大大影響患者的生活質素，如能及早控制糖尿病就能有效減低患併發症的機會。如何透過飲食及營養降血糖呢？\n\n日期：10月7日（星期一 重陽節公眾假期）\u003Cbr\u003E\n時間：14:30-16:00\u003Cbr\u003E\n地點：旺角登打士街56號家樂坊15樓安利體驗館鑽石房\u003Cbr\u003E\n費用：每堂$30\u003Cbr\u003E\n名額：16人","health1910","糖尿","2019-10-07T00:00:00.000Z",{"data":179},[180],{"id":14,"attributes":181},{"name":16,"slug":17,"description":8,"createdAt":18,"updatedAt":18},{"data":8},{"id":184,"attributes":185},101,{"start_date":186,"title":187,"content":188,"excerpt":61,"slug":189,"end_date":8,"tags":190,"createdAt":191,"updatedAt":191,"event_categories":192,"image":196},"2019-09-21","活學營養-活得有骨氣．預防骨質疏鬆","\n\n活學營養：活得有骨氣．預防骨質疏鬆\u003Cbr\u003E\n養骨活滑腰骨直，有牙力，腸胃睡眠無得頂\u003Cbr\u003E\n是否年紀大才有骨質疏鬆？\u003Cbr\u003E\n西方人飲食含大量鈣質，為何也會骨質疏鬆？\u003Cbr\u003E\n骨質跟腸胃、情緒和睡眠質素息息相關？\u003Cbr\u003E\n飲食和營養如何調理，才能令我們更有骨氣？\n\n日期：9月21日（星期六）\u003Cbr\u003E\n時間：11:00-12:30\u003Cbr\u003E\n地點：旺角登打士街56號家樂坊15樓安利體驗館鑽石房\u003Cbr\u003E\n費用：每堂$30\u003Cbr\u003E\n名額：16人","health1909","骨質疏鬆","2019-09-21T00:00:00.000Z",{"data":193},[194],{"id":14,"attributes":195},{"name":16,"slug":17,"description":8,"createdAt":18,"updatedAt":18},{"data":8},{"id":198,"attributes":199},92,{"start_date":200,"title":201,"content":202,"excerpt":61,"slug":203,"end_date":8,"tags":204,"createdAt":205,"updatedAt":205,"event_categories":206,"image":210},"2019-07-20","擊退三高: 控糖護心","\n\n香港有近五成人超重，當中一半有高血壓、高膽固醇。\u003Cbr\u003E\n- 高血糖、高血壓、高血脂的成因是什麼？除食藥控制外，還有更好的方法嗎？\u003Cbr\u003E\n- 如何控糖降糖? 三高可引發心血管病，可如何護心？\u003Cbr\u003E\n- 如何透過改善飲食及生活習慣，並運用有機營養素，撃退三高， 從此輕鬆！\n\n日期： 2019年7月20日(六) 11:00 – 12:30\u003Cbr\u003E\n2019年7月27日(六) 11:00 – 12:30\u003Cbr\u003E\n地點：旺角登打士街56號家樂坊15樓安利體驗館鑽石房\u003Cbr\u003E\n費用：每堂$30\u003Cbr\u003E\n名額：16人\u003Cbr\u003E\n備註：兩課獨立內容，可單獨報名","health1907","三高,血糖","2019-07-20T00:00:00.000Z",{"data":207},[208],{"id":14,"attributes":209},{"name":16,"slug":17,"description":8,"createdAt":18,"updatedAt":18},{"data":8},{"pagination":212},{"page":213,"pageSize":214,"pageCount":215,"total":216},1,12,2,19],"uses":{"dependencies":["http://127.0.0.1:1337/api/events?sort=start_date%3Adesc&populate[author]=true&populate[event_categories]=true&populate[image]=true&pagination[page]=1&pagination[pageSize]=12&filters[event_categories][slug]=nutrition"],"params":["page","category"]}}]}