{"type":"data","nodes":[{"type":"data","data":[{"categories":1,"event_categories":27},[2,9,15,21],{"id":3,"attributes":4},1,{"slug":5,"name":6,"description":7,"createdAt":8,"updatedAt":8},"nutrition","營養隨筆",null,"2023-02-12T02:39:02.691Z",{"id":10,"attributes":11},2,{"slug":12,"name":13,"description":7,"createdAt":14,"updatedAt":14},"reflection","感悟隨筆","2023-02-12T02:39:02.692Z",{"id":16,"attributes":17},3,{"slug":18,"name":19,"description":7,"createdAt":20,"updatedAt":20},"fitness","運動筆記","2023-02-12T02:39:02.697Z",{"id":22,"attributes":23},4,{"slug":24,"name":25,"description":7,"createdAt":26,"updatedAt":26},"spiritual","心靈勵志","2023-02-12T02:39:02.698Z",[28,33,38,43,47,52],{"id":3,"attributes":29},{"name":30,"slug":31,"description":7,"createdAt":32,"updatedAt":32},"讀書會","book-sharing","2023-02-12T02:38:55.939Z",{"id":16,"attributes":34},{"name":35,"slug":36,"description":7,"createdAt":37,"updatedAt":37},"文化導賞","cultural","2023-02-12T02:38:55.943Z",{"id":22,"attributes":39},{"name":40,"slug":41,"description":7,"createdAt":42,"updatedAt":42},"遊山玩水","hiking","2023-02-12T02:38:55.946Z",{"id":44,"attributes":45},5,{"name":46,"slug":18,"description":7,"createdAt":42,"updatedAt":42},"健體運動",{"id":48,"attributes":49},6,{"name":50,"slug":5,"description":7,"createdAt":51,"updatedAt":51},"活學營養","2023-02-12T02:38:55.947Z",{"id":10,"attributes":53},{"name":54,"slug":55,"description":7,"createdAt":56,"updatedAt":57},"名人面對面","be-our-guest","2023-02-12T02:38:55.942Z","2023-03-08T13:16:12.875Z"],"uses":{"dependencies":["http://127.0.0.1:1337/api/categories?","http://127.0.0.1:1337/api/event-categories?"]},"slash":"always"},{"type":"data","data":[{"data":1,"meta":168},[2,23,37,50,63,77,90,104,117,130,143,155],{"id":3,"attributes":4},136,{"title":5,"content":6,"start_date":7,"excerpt":8,"slug":9,"end_date":10,"tags":11,"createdAt":12,"updatedAt":12,"event_categories":13,"image":22},"畢業旋即創業　經歷九死一生","\n\n「100% made in HK」的林曉鋒博士(Alan)，1999年於香港中文大學工程學院機械與自動化工程學系畢業，再取得碩士和博士學位。2004年博士畢業前，當時年僅27歲的他決定創業，創辦以研發動作感應技術為主的Sengital Limited 港科研有限公司，現時服務不同公職並兼任城市大學電子工程學系客席教授和職訓局講師，2015年當選香港十大傑出青年。為進一步推廣閱讀及創意，Alan決定執筆，現已出版多本勵志書、個人化兒童圖書及STEM科技教育叢書。\n \nAlan由研發動作感應遊戲機手掣，至進軍醫療設備，及後轉戰遙控直升機周邊產品，至今時今日涉足設計、餐飲、服裝及出版界，這10年間經歷不夠資金出糧，未能準時出貨而虧損逾700多萬元等窘境，可謂走過高山低谷，經歷「九死一生」。\n \n他指100家初創公司中，5年內近90家倒閉，最終能過渡10年的不足1%。Alan將與我們分享如何克服創業的重重難關，特別是如何把握首5年，善用順境時的資源，應對逆境時的挑戰，並令公司發展步入正軌，平穩渡過第二個5年。他亦會分享如何踏上傑青之路，並成為科技界文青、IT界才子的夢想。\n\n\n日期：2016年10月29日(星期六)\u003Cbr\u003E\n時間：晚上7:15-9:30\u003Cbr\u003E\n地點：九龍旺角登打士街56號柏裕商業中心15樓安利體驗館 C室\u003Cbr\u003E\n費用：$150 (包括自家製美味有營沙律及三文治)\n","2016-10-29","科研家、企業家、作家、「不一樣的傑青」林曉鋒博士","alan-lam",null,"年輕創業","2021-01-10T00:00:00.000Z",{"data":14},[15],{"id":16,"attributes":17},2,{"name":18,"slug":19,"description":10,"createdAt":20,"updatedAt":21},"名人面對面","be-our-guest","2023-02-12T02:38:55.942Z","2023-03-08T13:16:12.875Z",{"data":10},{"id":24,"attributes":25},134,{"title":26,"content":27,"start_date":28,"excerpt":29,"slug":30,"end_date":10,"tags":31,"createdAt":12,"updatedAt":12,"event_categories":32,"image":36},"終生學習 擁抱變化","\n\n冼家逸先生(Eric)畢業於香港城市大學工商管理學系，沒得過甚麼高大上的獎項，打工仔一個，卻又不太尋常。\n\n政策研究、報紙、互聯網服務、企業融資、網上廣告、數據中心、展覽、電子出版、線上支付、電子商貿以至信用卡業務，看似不同領域的行業，Eric都曾涉獵，並在不同崗位留下奇妙的故事足跡；英國、美國、西班牙、印度、中國、新加坡、台灣、越南、印尼、泰國以至巴基斯坦，都因工作需要而踏足，相熟的士司機以為他是做飛機師的（懶懶的他總是坐的士出入機場，有些司機已經叫得出他的名字 😎）。\n\n因為老頂一句：「我覺得你的市場學理論有點舊囉」，而奮起修讀了市場傳訊學碩士；由於買屋裝修而修讀了樓宇管理課程；為了不喜歡自己的iPhone而報復，唸了Android程式編寫文憑 😱 …… 像到處尋找精靈一樣，吸收了一堆堆看似互不相干的知識，結果也與精靈們一樣大受歡迎，成為阿里巴巴、PayPal等大企業爭相羅致的對象。\n\nEric 將分享其有趣的工作經歷及堅持不懈的信念，細訴如何在擁抱變化的同時，反過來帶動變化。期望在與參加者的互動中，一同尋找各自心中的奇思妙想。\n\n日期：2016年9月24日(星期六)\u003Cbr\u003E\n時間：晚上7:00-9:30\u003Cbr\u003E\n地點：九龍旺角登打士街56號柏裕商業中心15樓安利體驗館 Cooking Studio\u003Cbr\u003E\n費用：$150 (包括自家製美味有營晚餐)\n","2016-09-24","萬事達卡商業支付業務主管冼家逸先生(Eric)","eric-sin","",{"data":33},[34],{"id":16,"attributes":35},{"name":18,"slug":19,"description":10,"createdAt":20,"updatedAt":21},{"data":10},{"id":38,"attributes":39},130,{"title":40,"content":41,"start_date":42,"excerpt":43,"slug":44,"end_date":10,"tags":31,"createdAt":12,"updatedAt":12,"event_categories":45,"image":49},"修己善群　治病醫心","\n\n梁裕龍醫生(Dexter)以一級榮譽畢業於香港中文大學，並為英國格拉斯哥皇家醫學院外科院士及英國皇家眼科醫學院院士。現於養和醫院任職，兼任香港中文大學眼科及視覺科學學系名譽臨床助理教授。Dexter 是正常眼壓型青光眼專家，發表的論文逾65篇，贏得多個國際獎項，包括著名的美國眼科學院的最佳論文獎。\n\n本著其中學校訓「修己善群」的精神，Dexter 多年來積極參與預防及治療青光眼的義務工作，不但創辦「世界青光眼日 —— 香港站」並出任召集人，更在內地開展「亮睛工程」，推動偏遠地區的防盲及扶貧工作，為病人解除視障之餘，也解除他們的心障，讓人生重現色彩。治病更醫心，其仁心仁術與貢獻社會的精神，讓他榮膺2010年度香港十大傑出青年。\n\nDexter 將與我們分享其杏林成長路，讓我們了解如何在繁忙的醫護工作中，依然可以秉持人生使命，竭力服務社群，達致「臻善存德，居高懷仁」(Excellence with a Soul, Leadership with a Heart)。\n\n\n日期：2016年7月24日(星期日)\u003Cbr\u003E\n時間：晚上7:00-9:30\u003Cbr\u003E\n地點：九龍旺角登打士街56號柏裕商業中心15樓安利體驗館 Cooking Studio\u003Cbr\u003E\n費用：$150 (包括自家製美味有營晚餐)\n","2016-07-24","現任香港眼科學會會長、青光眼專家、香港十大傑出青年梁裕龍醫生","dexter-leung",{"data":46},[47],{"id":16,"attributes":48},{"name":18,"slug":19,"description":10,"createdAt":20,"updatedAt":21},{"data":10},{"id":51,"attributes":52},135,{"title":53,"content":54,"start_date":55,"excerpt":56,"slug":57,"end_date":10,"tags":31,"createdAt":12,"updatedAt":12,"event_categories":58,"image":62},"敢夢敢動　魔幻人生","\n張君恒先生(Kelvin)畢業於香港中文大學新亞書院藝術系，現職大學行政人員。熱愛魔術，積極參與本地魔術發展、製作及演出，單在2016年開首至今，已先後擔任「中國深圳魔術藝術節」及香港魔術家協會「香港青年魔術節」的表演嘉賓，並在「The Assembly 2016」香港魔術大會負責製作及演出。Kelvin亦是香港專業魔術團隊「The Ace Assembly」一員，自2015年起，與香港著名魔法主持人Harry 哥哥共同製作每月於藝穗會舉辦一次的「Magic at the Fringe」。\n\n曾獲獎項包括2014年香港魔術學院 Real Magic 全港舞台魔術比賽公開組冠軍、2014年香港魔術家協會香港公開舞台魔術大賽冠軍，以及2015年亞洲魔術大賽舞台魔術亞軍及最佳原創獎。願望是令香港魔術，能在世界佔一重要席位。\n\nKelvin 亦為香港本地魔術師設計及製作道具，曾出任毛記電視「萬千呃Like賀台慶 - 東方特異功能」、香港管弦樂團「Harry Wong's Christmas」、舞台劇「尋魂記之消失的女孩」、Yeah Show 2015 佈道會及香港電視「開台禮」的道具顧問。\n\nKelvin 將分享他如何在繁忙的工作中，繼續追尋魔術夢。同時，年紀輕輕已先後到訪俄羅斯、烏克蘭、斯洛文尼亞、拉脫維亞、匈牙利、奧地利、捷克、波蘭、蒙古等地的他，亦會分享遨遊四方的精彩經歷，帶動我們活出敢夢敢動的豐盛人生。\n\n⚡同場更會加映奇幻魔術表演，萬勿錯過！😎\n\n日期：2016年6月25日(星期六)\u003Cbr\u003E\n時間：晚上7:00-9:30\u003Cbr\u003E\n地點：九龍旺角登打士街56號柏裕商業中心15樓安利體驗館 Cooking Studio\u003Cbr\u003E\n費用：$150 (包括自家製美味有營晚餐)\n","2016-06-25","香港公開舞台魔術大賽冠軍張君恒先生(Kelvin)","kelvin-cheung",{"data":59},[60],{"id":16,"attributes":61},{"name":18,"slug":19,"description":10,"createdAt":20,"updatedAt":21},{"data":10},{"id":64,"attributes":65},168,{"title":66,"content":67,"start_date":68,"excerpt":69,"slug":70,"end_date":10,"tags":31,"createdAt":71,"updatedAt":71,"event_categories":72,"image":76},"堅毅自強 璀璨人生 ","\n\n三年前退休、人稱伍 sir 的黃大仙警署前警署警長伍強，36年前在觀塘街頭截查可疑人物時，遭對方冷槍射擊，子彈貫穿脊椎及肝臟，只得20歲出頭及僅出「學堂」一年的他，慘成半身不遂。失去一雙腿的他，並沒因此失去鬥志，繼續留在警隊工作，成為全港首名亦是全球首名「輪椅警察」，更憑努力屢獲晉升，讓原本遺憾的警察生涯，過得豐盛無悔。 \n\n工作以外，伍 sir 更投入輪椅籃球運動。輪椅籃球與普通籃球的玩法不同，需一手控制籃球，另一手控制輪椅，難度極高。惟伍 sir 無懼難度與挑戰，多年來一直積極參與，更不時代表香港往外地作賽，兩度獲得最佳運動員榮譽。之後伍 sir 轉當教練，教導殘障人士作賽，同時積極參與義務工作，鼓勵更多傷殘人士走出陰霾，面對社會，廣結朋友，積極向前。\n\n伍 sir 將與我們分享其生命的高山低谷，如何面對逆境，自強不息，並將兒子、長兄、丈夫、警察、運動員、教練以至義工不同角色均做得盡善盡美，締建美好家庭與事業，成就光輝人生！\n\n日期：2016年5月22日(星期日)\u003Cbr\u003E\n時間：晚上7:00-9:30\u003Cbr\u003E\n地點：九龍旺角登打士街56號柏裕商業中心15樓安利體驗館 Cooking Studio\u003Cbr\u003E\n費用：$150 (包括自家製美味有營晚餐)\n\n","2016-05-22","全球首位「輪椅警察」兼香港最佳運動員伍強先生","ng-cheung","2023-02-12T03:35:51.749Z",{"data":73},[74],{"id":16,"attributes":75},{"name":18,"slug":19,"description":10,"createdAt":20,"updatedAt":21},{"data":10},{"id":78,"attributes":79},144,{"title":80,"content":81,"start_date":82,"excerpt":83,"slug":84,"end_date":10,"tags":11,"createdAt":12,"updatedAt":12,"event_categories":85,"image":89},"年輕也可以不一樣","\n\nMedia Station Ltd 創辦人麥志豪先生 (Terry) 將分析年輕人如何在職塲上突圍而出，成為老闆心目中被升職加薪的人選！還會一一分享其之前作為“打工皇帝”與現在作為創業者截然不同的得著！\n\n麥志豪 （Terry）\n🔹早年在美國康乃狄格州大學取得工商管理學碩士。回港後曾任一國際公司海外業務經理，負責發展南、北美洲的高合金銲條市場。\n\n🔹其後轉職到美國運通信用咭公司，並於30歲時擔任香港區市場總監，成為當時全球最年輕之總監。\n\n🔹曾擔任TVB助理總經理，獲老闆賞識，委派負責全球海外發行業務達14年。在任期間，開拓多條海外新頻道，亦是TVB（澳洲）衛星電視的創辦人。\n\n🔹曾任全球最大華語電影片庫的天映娛樂公司之行政副總裁，發展中文電影頻道。\n\n🔹近年創立了顧問公司 Media Station Ltd，服務海外衛星、衛星站，電訊及雲端媒體機構。更開設獵頭公司，專為電視廣播業尋找人才。\n\n🔹最近成為數家海外電視頻道公司的代理商，供應電視內容予近期盛行的網絡電視平台。\n\n🔹現任新加坡上市公司mm2 Asia Ltd之非執董\n\n🔹新加坡 MyChinaChannel Ltd 及 香港 FM Events Ltd 的股東\n\n是次名人飯局，麥先生將分享其豐富的職場上打拼的經歷，分析年輕人應如何自處，成為高管眼中的人才，在職塲上更上一層樓！\n\n日期：2016年4月17日(星期日)\u003Cbr\u003E\n時間：晚上7:00-9:30\u003Cbr\u003E\n地點：九龍旺角登打士街56號柏裕商業中心15樓安利體驗館 Cooking Studio\u003Cbr\u003E\n費用：$150 (包括自家製美味有營晚餐)\n","2016-04-17","Media Station Ltd 創辦人麥志豪先生 (Terry)","terry-mak",{"data":86},[87],{"id":16,"attributes":88},{"name":18,"slug":19,"description":10,"createdAt":20,"updatedAt":21},{"data":10},{"id":91,"attributes":92},129,{"title":93,"content":94,"start_date":95,"excerpt":96,"slug":97,"end_date":10,"tags":98,"createdAt":12,"updatedAt":12,"event_categories":99,"image":103},"以法儒治商-論創業精神與香港樓市","\n\n王文彥先生(Denny)與香港地產的關係可說是源遠流長。\n\n王先生1974年畢業於香港中文大學經濟系。大學畢業後的最初四年，他先後服務於兩間著名的房地產開發商。\n\n1978年，與施永青先生攜手創辦「中原地產代理有限公司」，自此長期擔任中原地產兩名董事總經理之一（另一人為施永青先生），為中原地產營業系統最高領導人。\n\n1992年，為了貫徹個人理念，王先生離開中原管理層（迄今仍是中原地產集團的45%股東），創立長安地產顧問行並出任其CEO。\n\n1996年，王先生聯同多間著名房地產中介公司創立了「香港專業地產顧問商會」，並獲選為首屆商會會長。\n\n1999年及2002年，王先生分別收購了香港東區著名的怡居地產有限公司及沙田久享盛譽的怡居置業有限公司，並出任其董事總經理。\n\n2009年，王先生獲香港中文大學新亞書院委任為校董，並出任至今。\n\n過去37年，千變萬變王先生有一樣始終不變，他所領導的公司，無論是中原、長安，還是怡居走的都是一條嶄新的、與普通房地產中介公司截然不同的路，堅持不參與炒樓食價，強調專業操守、專業服務及完善的企業管理，更強調地產中介公司對社會的使命感和責任。他領導下的怡居地產在過往七年捐獻港幣660萬元予香港中文大學，以及超過100萬元為國內天災賑災和幫助香港教育工作，充份顯示公司的社會企業本色。\n\n閒時，王先生喜歡執筆撰文，評論地產市況及就政治、經濟、社會、教育及文史哲等問題抒發己見，文章散見各大報刊以及中原地產網、利嘉閣地產網、地產資訊網、祥益地產網、怡居地產網及財華網等網頁。\n\n從王先生的專欄文章可以看到，他自修的文史哲修學養似較其經濟專業更高，這倒是一個有趣現象。\n\n是次名人飯局，王先生將分享其創業打拼的經歷，並為香港樓市把脈，跟與會的朋友們分享其對樓市的獨到見解與分析。\n\n日期：2016年3月12日(星期六)\u003Cbr\u003E\n時間：晚上7:00-9:30\u003Cbr\u003E\n地點：九龍旺角登打士街56號柏裕商業中心15樓安利體驗館 Cooking Studio\u003Cbr\u003E\n費用：$150 (包括自家製美味有營晚餐)\n","2016-03-12","中原地產創辦人王文彥先生","denny-wong","創業精神,香港樓市",{"data":100},[101],{"id":16,"attributes":102},{"name":18,"slug":19,"description":10,"createdAt":20,"updatedAt":21},{"data":10},{"id":105,"attributes":106},142,{"title":107,"content":108,"start_date":109,"excerpt":110,"slug":111,"end_date":10,"tags":31,"createdAt":12,"updatedAt":12,"event_categories":112,"image":116},"垃圾堆找名畫  - 由窮過乞兒到40歲退休","\n\n張國樑先生 90年代開始從事地產及地皮買賣，身邊客戶全是香港頂級富豪及商家。\n\n見盡各大企業起起跌跌的Henry，對經濟及投資市場有精闢見解，曾以獨到眼光以$4.8買入騰訊到現在。\n\nHenry常說用6歲智慧就可輕鬆地找到過千倍甚至萬倍投資(10萬都變10億)，亦樂意把箇中技術與人分享，替無數好友財務自由。\n\n今次名人飯局，Henry 除了與大家分享自己如何扭轉人生命運，亦會分析未來香港及世界經濟形勢，助大家對未來作更好的準備。\n\n日期：2016年1月17日\u003Cbr\u003E\n時間：7-10 pm\u003Cbr\u003E\n地點：AEC Cooking studio\u003Cbr\u003E\n費用：$150\n","2016-01-17","張國樑先生 (Henry)","henry-cheung",{"data":113},[114],{"id":16,"attributes":115},{"name":18,"slug":19,"description":10,"createdAt":20,"updatedAt":21},{"data":10},{"id":118,"attributes":119},145,{"title":120,"content":121,"start_date":122,"excerpt":123,"slug":124,"end_date":10,"tags":31,"createdAt":12,"updatedAt":12,"event_categories":125,"image":129},"走過高山低谷 迎來海濶天空","\n張昆隆先生是一位典型活出獅子山下拚搏精神的生意人。從8歲起已萌生各式\"生意\"念頭，為的是幫補家計、希望盡快遷出木屋區。中學畢業後，曾從事電工、裝修、泥水、珠寶等行業。憑著誠懇、勤奮的工作態度，張先生在工作數年間已成為置地廣場珠寶店的主管，收入可觀、穩定。\n\n或許，張先生受著傳統潮州人\"工字不出頭\"的思想影響，毅然放棄穩定生活，決心進軍海產業。可惜，由於創業缺乏經驗，加上屢次遇人不淑，終欠下巨債。\n\n究竟，張先生是如何從逆境中破斧沉舟賺取第一桶金，並繼續擴展業務? 經營海鲜業二十多年，現在每年營業額已逾億元。八年前更進軍飲食業，開設潮州海鲜酒家，並擁有多個物業。\n\nLeo育有四名子女，各具才能，在繁忙的工作中，卻能取得與家庭平衡。他是如何做到的? \n\n「走過高山低谷 迎來海濶天空」 - Leo 將會跟我們分享他的成功點滴。\n \n日期：2015年12月6日(星期日)\u003Cbr\u003E\n時間：晚上7:00-9:30\u003Cbr\u003E\n地點：九龍旺角登打士街56號柏裕商業中心15樓安利體驗館 Cooking Studio\u003Cbr\u003E\n費用：$150 (包括自家製美味有營晚餐)\n","2015-12-06","張昆隆先生 (Leo)","leo-cheung",{"data":126},[127],{"id":16,"attributes":128},{"name":18,"slug":19,"description":10,"createdAt":20,"updatedAt":21},{"data":10},{"id":131,"attributes":132},132,{"title":133,"content":134,"start_date":135,"excerpt":136,"slug":137,"end_date":10,"tags":31,"createdAt":12,"updatedAt":12,"event_categories":138,"image":142},"從中港經濟與文化融合，透視香港年青人的未來","\n\n伍志濤先生 (Graham) 於2003年加入中銀國際證券有限公司，現任董事總經理兼證券銷售及研究板塊副主管。\n \nGraham 自2012年4月至2015年5月負責管理六個部門，分別為投資服務部、銀證合作部、零售交易部、業務發展及支援部、產品行銷部和優質服務部。自2015年5月獲委任為全球機構銷售部主管，並同時管理證券衍生產品部、證券研究部、機構銷售部及機構交易部。\n \nGraham 畢業於香港中文大學，擁有超過37年金融從業經驗。\n \n在中港融合這不可逆轉的必由之路下，香港社會應如何走出一條新路，年輕人又應如何自處？熟悉中國內地與香港社會經濟狀況的 Graham 將為我們一一透視。\n \n日期：2015年11月22日(星期日)\u003Cbr\u003E\n時間：晚上7:00-9:30\u003Cbr\u003E\n地點：九龍旺角登打士街56號柏裕商業中心15樓安利體驗館 Cooking Studio\u003Cbr\u003E\n費用：$150 (包括自家製美味有營晚餐)\n","2015-11-22","中銀國際證券有限公司董事總經理兼證券銷售及研究板塊副主管伍志濤先生 (Graham) ","graham",{"data":139},[140],{"id":16,"attributes":141},{"name":18,"slug":19,"description":10,"createdAt":20,"updatedAt":21},{"data":10},{"id":16,"attributes":144},{"title":145,"content":146,"start_date":147,"excerpt":148,"slug":145,"end_date":10,"tags":31,"createdAt":149,"updatedAt":149,"event_categories":150,"image":154},"plato","\n\n這次名人工作坊更曾被一流知名學府北京大學及清華大學的世界級EMBA 列為其中一門重要課堂\n\n全香港首批可親身學習這課堂 機會非常難得!!!\n\n日期：2015年10月25日 (星期日)\u003Cbr\u003E\n時間：晚上7:00-9:30\u003Cbr\u003E\n地點：旺角登打士街56號栢裕商業中心15樓安利體驗館 Cooking Studio\n","2015-10-25","Plato 先生","2015-10-25T00:00:00.000Z",{"data":151},[152],{"id":16,"attributes":153},{"name":18,"slug":19,"description":10,"createdAt":20,"updatedAt":21},{"data":10},{"id":156,"attributes":157},127,{"title":158,"content":159,"start_date":160,"excerpt":161,"slug":162,"end_date":10,"tags":31,"createdAt":12,"updatedAt":12,"event_categories":163,"image":167},"香港如何走下去？ ","\n\n陳景祥為資深新聞工作者，先後出任報紙、通訊社及電台工作，及至1986年加入香港《信報》，1993年任副總編輯，2003年出任總編輯，2010年獲委任為董事。任職《信報》期間，陳景祥曾先後管理新聞採訪、統籌專題評論及深度報導，撰寫人物專訪、新聞分析及《信報》社論，在新聞編、採、寫以及統籌、策劃等方面均有豐富經驗，成績卓越。據香港中文大學新聞傳播學院的調查，《信報》在新聞行業內的「公信力亅評分多年來都名列第一位。\n\n為配合數碼化發展，陳景祥在2013年就任信報數碼媒體總裁及副社長，為《信報》發展網站、流動Apps，並在社交媒體上作推廣，取得優異成績，在2014年獲香港互動市務商會（HKAIM）頒授總體、手機、社交媒體及網頁4項銅獎，並在整體大獎中獲優異獎。2014年12月31日，陳景祥辭去《信報》所有職務。\n\n除了新聞界的工作，陳景祥也積極在工餘時間參與新聞教育工作，曾任教香港樹仁學院新聞系六年，講授財經新聞採訪，培訓了一批香港財經新聞的骨幹採編人員。及後任教香港中文大學新聞傳播學院碩士班課程，前後達11年，現在活躍於新聞界的中堅份子很多都曾是他的學生。\n\n此外，陳景祥也曾擔任香港浸會大學新聞學院校外委員、香港公開大學中文傳播課程顧問，並在2008年至2010年出任香港浸會大學傳理學院諮詢委員會委員。2014年9月，他獲樹仁大學委任為學術諮詢委員會成員；2015年1月獲香港浸會大學傳理學院委任為特邀教授。\n\n公職方面，陳景祥於2006年1月獲行政長官委任，擔任公共廣播服務檢討委員會成員，並在翌年提交檢討報告書。此外，他在2010年1月獲香港證監會委任，出任【投資者教育委員會】及【產品諮詢委員會】成員。此外，他也經常應邀到大型企業、政府部門、大學及社團組織就政經議題發表演講，擔任大學辯論評判及各項新聞獎的評審委員。\n\n2010年7月1日，陳景祥獲特區政府頒授銅紫荊星章（BBS）。\n\n面對內地城市及新加坡的激烈劇爭，陳景祥先生將從經濟發展及人才等方面論述香港的優勢，探討香港今後的發展路向。\n\n日期：2015年9月13日 (星期日)\u003Cbr\u003E\n時間：晚上7:00-9:30\u003Cbr\u003E\n地點：旺角登打士街56號栢裕商業中心15樓安利體驗館 Cooking Studio\u003Cbr\u003E\n費用：150元 (包晚餐)\n","2015-09-13","《信報》前總編輯、資深傳媒工作者陳景祥先生","chan-king-cheung",{"data":164},[165],{"id":16,"attributes":166},{"name":18,"slug":19,"description":10,"createdAt":20,"updatedAt":21},{"data":10},{"pagination":169},{"page":170,"pageSize":171,"pageCount":172,"total":173},17,12,18,209],"uses":{"dependencies":["http://127.0.0.1:1337/api/events?sort=start_date%3Adesc&populate[author]=true&populate[event_categories]=true&populate[image]=true&pagination[page]=17&pagination[pageSize]=12"],"params":["page","category"]}}]}