{"type":"data","nodes":[{"type":"data","data":[{"categories":1,"event_categories":27},[2,9,15,21],{"id":3,"attributes":4},1,{"slug":5,"name":6,"description":7,"createdAt":8,"updatedAt":8},"nutrition","營養隨筆",null,"2023-02-12T02:39:02.691Z",{"id":10,"attributes":11},2,{"slug":12,"name":13,"description":7,"createdAt":14,"updatedAt":14},"reflection","感悟隨筆","2023-02-12T02:39:02.692Z",{"id":16,"attributes":17},3,{"slug":18,"name":19,"description":7,"createdAt":20,"updatedAt":20},"fitness","運動筆記","2023-02-12T02:39:02.697Z",{"id":22,"attributes":23},4,{"slug":24,"name":25,"description":7,"createdAt":26,"updatedAt":26},"spiritual","心靈勵志","2023-02-12T02:39:02.698Z",[28,33,38,43,47,52],{"id":3,"attributes":29},{"name":30,"slug":31,"description":7,"createdAt":32,"updatedAt":32},"讀書會","book-sharing","2023-02-12T02:38:55.939Z",{"id":16,"attributes":34},{"name":35,"slug":36,"description":7,"createdAt":37,"updatedAt":37},"文化導賞","cultural","2023-02-12T02:38:55.943Z",{"id":22,"attributes":39},{"name":40,"slug":41,"description":7,"createdAt":42,"updatedAt":42},"遊山玩水","hiking","2023-02-12T02:38:55.946Z",{"id":44,"attributes":45},5,{"name":46,"slug":18,"description":7,"createdAt":42,"updatedAt":42},"健體運動",{"id":48,"attributes":49},6,{"name":50,"slug":5,"description":7,"createdAt":51,"updatedAt":51},"活學營養","2023-02-12T02:38:55.947Z",{"id":10,"attributes":53},{"name":54,"slug":55,"description":7,"createdAt":56,"updatedAt":57},"名人面對面","be-our-guest","2023-02-12T02:38:55.942Z","2023-03-08T13:16:12.875Z"],"uses":{"dependencies":["http://127.0.0.1:1337/api/categories?","http://127.0.0.1:1337/api/event-categories?"]},"slash":"always"},{"type":"data","data":[{"data":1,"meta":351},[2,41,60,90,124,152,187,207,230,262,291,317],{"id":3,"attributes":4},229,{"title":5,"excerpt":6,"content":7,"slug":8,"createdAt":9,"updatedAt":9,"author":10,"categories":11,"tags":19,"image":40},"快樂荷爾蒙-多巴胺",null,"\n\n上一篇介紹了兩多兄弟之一的安多酚，今天介紹另一多兄弟- 多巴胺Dopamine。\n\n多巴胺主要負責大腦的情慾、感覺，將興奮及開心的信息傳遞。\n\n雖然多巴胺跟心情愉悅有關，但它卻不會引發愉悅感。多巴胺啟動身體的”想要”系統，當身體認為完成某件事情之後可能會獲得獎勵，便會釋放多巴胺，這便給了我們一定要得到那個獎勵的動機，令身體作出相關的行為。例如，每次當你吃過蛋糕之後也感覺心情愉快，如是這幾次之後，身體便會刻上了吃蛋糕便會開心的記憶，那麼，以後每當看見蛋糕，身體便會分泌多巴胺令你去買蛋糕然後讓自己開心。所以，多巴胺也是雙面刃，從好的方向應用，可以增加我們對目標產生動力並提升學習能力及工作效率； 但多巴胺同時也與上癮有關，如吸煙、吸毒、賭博等等。\n\n美國霍夫斯特拉大學（Hofstra University）祖克醫學院精神科副教授陳至暉指出：「有些人比較懶散，提不起精神做事，就可能是腦中多巴胺比較少。」若果覺得自己經常提不起精神做事，對任何事情也沒什麼動力，可能跟身體多巴胺含量較少有關啊！可以嘗試刺激分泌多些多巴胺呢！\n\n從以下途徑可以促進身體分泌更多多巴胺：\n💫走路：有報告指出，走路能增強人體的鈣代謝，使鈣充分供應腦部，有助於產生多巴胺\u003Cbr\u003E\n💫活動：我們活動的時候，會促進分泌多巴胺，使我們更想動起來。但當我們不活動時，多巴胺便會減少，所以會讓我們更不想動。\u003Cbr\u003E\n💫新的刺激：經歷從未經驗過的狀況能刺激多巴胺的分泌，例如第一次未到過的地方旅行，或是到訪從未去過但很想去的店舖，在新領域進行探索等等，這些「第一次的經驗」\u003Cbr\u003E\n💫飲食：酪胺酸（Tyrosine）和苯丙氨酸（phenylalanine）是合成多巴胺的重要物質，如：豆類、魚類、奶製品和禽畜肉。高脂肪的飲食可能會破壞多巴胺合成，限制飽和脂肪酸的攝取也有助維持多巴胺穩定。\n\n更詳盡分享，請觀看早前於15分鐘Mini Talk的分享：https:\u002F\u002Ffb.watch\u002F90HdTwAvIs\u002F","dopamine-211121","2021-11-19T00:00:00.000Z",{"data":6},{"data":12},[13],{"id":14,"attributes":15},1,{"slug":16,"name":17,"description":6,"createdAt":18,"updatedAt":18},"nutrition","營養隨筆","2023-02-12T02:39:02.691Z",{"data":20},[21,26,31,36],{"id":22,"attributes":23},271,{"name":24,"createdAt":25,"updatedAt":25},"Dopamine","2023-02-12T03:32:01.416Z",{"id":27,"attributes":28},279,{"name":29,"createdAt":30,"updatedAt":30},"安多酚","2023-02-12T03:32:01.419Z",{"id":32,"attributes":33},269,{"name":34,"createdAt":35,"updatedAt":35},"快樂荷爾蒙","2023-02-12T03:32:01.415Z",{"id":37,"attributes":38},270,{"name":39,"createdAt":25,"updatedAt":25},"情緒健康",{"data":6},{"id":42,"attributes":43},221,{"title":44,"excerpt":6,"content":45,"slug":46,"createdAt":47,"updatedAt":47,"author":48,"categories":49,"tags":53,"image":59},"快樂荷爾蒙-安多酚Endrophin","\n\n哼著哼著許冠傑的 “快樂其實分分鐘把您等　只要您 識得點去搵” ，找快樂，記得要識搵快樂4兄弟，今次率先介紹安多酚Endrophin。\n\n安多酚又稱為「內啡肽」或「腦內啡」。大家對它該不陌生，普遍也認知做運動使人愉快是因為運動令人釋出安多酚，從而讓大家感覺愉悅快樂。安多酚除了能給人平靜、愉悅的感覺以外，也提供止痛和抗壓作用，功效如天然的嗎啡。\u003Cbr\u003E\n然而，觸發安多酚生成的因素主要是來自身體的疼痛，當身體感覺疼痛時，會釋放安多酚以協助隱藏身體的痛苦並讓我們能堅持下去完成一個行為或任務。怪不得在拳擊比賽中，拳擊選手縱使已經頭破血流，但仍能堅持到底，原來是安多酚的作用呢！\n\n從以下途徑可以促進身體釋放更多安多酚：\u003Cbr\u003E\n1️⃣運動：長時間，連續性的，中量至重量級的運動，配合深呼吸也是分泌安多酚的條件，跑步、游泳、騎單車、舉重、有氧運動舞、球類運動等等\u003Cbr\u003E\n2️⃣冥想：冥想促使腦部呈現α波，有助身體分泌安多酚\u003Cbr\u003E\n3️⃣大笑：大笑能減低焦慮及放鬆身體，有助促進分泌安多酚\u003Cbr\u003E\n4️⃣飲食：低熱量、高蛋白質的食物是製造安多泌的原材料\n\n更詳盡分享，請觀看早前於15分鐘Mini Talk的分享：https:\u002F\u002Ffb.watch\u002F90HdTwAvIs\u002F\n","endrophin-211112","2021-11-12T00:00:00.000Z",{"data":6},{"data":50},[51],{"id":14,"attributes":52},{"slug":16,"name":17,"description":6,"createdAt":18,"updatedAt":18},{"data":54},[55,57],{"id":37,"attributes":56},{"name":39,"createdAt":25,"updatedAt":25},{"id":32,"attributes":58},{"name":34,"createdAt":35,"updatedAt":35},{"data":6},{"id":61,"attributes":62},213,{"title":63,"excerpt":6,"content":64,"slug":65,"createdAt":66,"updatedAt":66,"author":67,"categories":68,"tags":72,"image":89},"救救玻璃肚","\n\n夏秋交替，腸胃脆弱，加上不健康的飲食習慣，是急性腸胃炎容易發作的誘因！🥺\n\n急性腸胃炎是胃腸黏膜的急性炎症，通常由微生物感染引起。患者症狀包括噁心、嘔吐不止、腹痛腹瀉嚴重；病情若惡化，可引致高熱不退、脫水、電解質紊亂、腸穿孔、休克等併發症，構成生命危險。\n\n此時可採取以下應急措施：\u003Cbr\u003E\n1️⃣ 暫時禁食\u003Cbr\u003E\n胃腸道需要充分休息，讓受損的胃腸道黏膜盡快修復，此時需適度禁食。\u003Cbr\u003E\n2️⃣ 補充水分和益生菌\u003Cbr\u003E\n嘔吐和腹瀉，導致體內水份大量流失。腹瀉症狀較輕時，可以自行補充電解質水溶液；當出現飲水會加重嘔吐腹瀉症狀時，則應立即配合醫生通過靜脈輸液的方式補水。\u003Cbr\u003E\n3️⃣ 及時就醫\u003Cbr\u003E\n由於急性腸胃炎的病情發展難控，如果患者腹瀉嚴重，或輕微脫水，必須盡早就診，在醫生指導下進行規範治療，以避免不可挽回的後果發生。\n\n要養護腸胃，可參考以下7️⃣大方法：💡\u003Cbr\u003E\n1️⃣ 食療養胃\u003Cbr\u003E\n胃寒脾虛的人食用生薑或大棗，可以補溫和胃，益氣養血。此外，蛋白質可以修護胃黏膜，對藥物性胃黏膜損傷及慢性胃潰瘍均有很好的緩解作用。\u003Cbr\u003E\n2️⃣ 補充益生菌\u003Cbr\u003E\n益生菌是腸道菌群中極之重要的組成部分，幫助維持腸道菌群平衡，增強免疫力。在選擇益生菌時，首先要了解產品中的菌株是否耐胃酸、耐膽汁，是否含有益生元。低聚果糖、菊粉等天然益生元可作為有益菌群的食物，幫助益生菌活著到達腸道並穩定繁殖😀。\u003Cbr\u003E\n3️⃣ 調整情緒\u003Cbr\u003E\n情緒大起大落，容易導致腸胃神經系統紊亂，誘發潰瘍、糜爛等胃部病變，造成腹痛、腹瀉、便秘等狀況。\u003Cbr\u003E\n4️⃣ 腹部保暖\u003Cbr\u003E\n季節交替時的腸胃炎多發，大部分與氣溫下降有關。建議不要穿露臍裝或低腰褲，少吹空調，夜間蓋好被子以防腹部受涼。\u003Cbr\u003E\n5️⃣ 戒掉煙酒\u003Cbr\u003E\n酒精導致胃黏膜產生損傷，容易充血糜爛，引發潰瘍；吸煙增加患胃潰瘍、慢性胃炎和胃酸倒流的風險。\u003Cbr\u003E\n6️⃣ 細嚼慢嚥\u003Cbr\u003E\n吃飯不要狼吞虎嚥，通過咀嚼盡量將食物磨碎，使唾液和食物充份融合，這樣吃下去的東西更容易消化，而且不會損傷胃黏膜。\u003Cbr\u003E\n7️⃣ 注重衛生\u003Cbr\u003E\n飯前便後洗手，少吃生冷食物，冰箱中的食物不同種類要進行密封分裝，避免細菌滋生，吃之前要徹底加熱。","gastroenteritis-notes","2021-11-02T00:00:00.000Z",{"data":6},{"data":69},[70],{"id":14,"attributes":71},{"slug":16,"name":17,"description":6,"createdAt":18,"updatedAt":18},{"data":73},[74,79,84],{"id":75,"attributes":76},266,{"name":77,"createdAt":78,"updatedAt":78},"腸胃炎","2023-02-12T03:32:01.413Z",{"id":80,"attributes":81},159,{"name":82,"createdAt":83,"updatedAt":83},"益生菌","2023-02-12T03:32:01.362Z",{"id":85,"attributes":86},274,{"name":87,"createdAt":88,"updatedAt":88},"電解質","2023-02-12T03:32:01.417Z",{"data":6},{"id":91,"attributes":92},222,{"title":93,"excerpt":6,"content":94,"slug":95,"createdAt":96,"updatedAt":96,"author":97,"categories":98,"tags":102,"image":123},"腹式呼吸有助減壓","\n\n香港，作為全球生活壓力最大的城市之一，學習處理無時無刻出現的壓力更顯得非常重要。今天跟大家分享第一個減壓錦囊，也是最簡便的一個方法，就是💡腹式呼吸法（深呼吸）！\n\n每每在演講、考試、比賽前，只要深呼吸幾口，心神頓時定下來，情緒也會放鬆，專注力也會提升😀。為甚麼深呼吸能有如此大的作用呢？\n\n身體非常聰明，在不同狀況下均會盡力維持體內平衡，例如從酷熱的街道進入如雪櫃般寒冷的商場，體溫也不會大幅變化。當中自律神經系統（亦稱自主神經系統）扮演非常重要的角色 -- 它不受大腦控制，卻掌管調節血液循環、呼吸、消化、體溫、代謝、內分泌等。作為自律神經系統的兩位主角，交感神經及副交感神經不停比拼：交感神經好比車子的油門，副交感神經就好比車子的煞車。\n\n當這兩主角合作無間，運作協調時，身體處於和諧狀態。當交感神經繃緊時，身體會處於戒備狀態，甚至變得緊張，人的心跳會加快，呼吸急促，血壓隨之上升，腸胃蠕動變慢，肌肉緊張。當副交感神經活躍時，身體安靜下來，變得放鬆，心跳減緩，血壓下降，瞳孔縮小。\n\n當我們遇上突發事情，身體便會啟動交感神經系統，讓交感神經系統處於主導地位。正常情況下，副交感神經系統將會稍後被啟動以平衡身體狀況。但當自律神經系統失調，交感神經系統長期處於主導狀況，那就不只影響我們的生活與情緒，更會令器官受損。\n\n深呼吸時，正好令身體提高副交感神經的活性，促進大腦釋放α波（Alpha波)。α波能使身心放鬆，有助平復心情，提升專注力，深度睡眠。\n\n大家不妨試試由哈佛大學醫學博士安德魯·威爾（Andrew Weil）提倡的4-7-8呼吸法，步驟如下：\u003Cbr\u003E\n1. 先用嘴巴呼出空氣\u003Cbr\u003E\n2. 輕輕地用鼻吸氣4秒\u003Cbr\u003E\n3. 閉氣7秒\u003Cbr\u003E\n4. 慢慢從嘴巴呼氣8秒\n\n第2-4步為1個循環，建議大家每次做4個循環，聞說睡前做這呼吸法，更易入睡呢！👍🏻😴","deep-breathing-20210924","2021-09-24T00:00:00.000Z",{"data":6},{"data":99},[100],{"id":14,"attributes":101},{"slug":16,"name":17,"description":6,"createdAt":18,"updatedAt":18},{"data":103},[104,109,114,118],{"id":105,"attributes":106},262,{"name":107,"createdAt":108,"updatedAt":108},"深呼吸","2023-02-12T03:32:01.411Z",{"id":110,"attributes":111},264,{"name":112,"createdAt":113,"updatedAt":113},"減壓","2023-02-12T03:32:01.412Z",{"id":115,"attributes":116},272,{"name":117,"createdAt":25,"updatedAt":25},"壓力",{"id":119,"attributes":120},275,{"name":121,"createdAt":122,"updatedAt":122},"腹式呼吸","2023-02-12T03:32:01.418Z",{"data":6},{"id":125,"attributes":126},228,{"title":127,"excerpt":6,"content":128,"slug":129,"createdAt":130,"updatedAt":130,"author":131,"categories":132,"tags":136,"image":151},"激活免疫力 體溫要上升？","\n\n白血球是免疫系統的中樞，體溫上升，殺菌能力就變活躍。故此感冒或身體狀況不佳時，往往會發燒🤒，此時身體正在讓體溫上升，好讓白血球的免疫作用能夠火力全開。\n\n原來體溫只要比正常值多升1℃，免疫力就會瞬間提升5至6倍💪🏻；相反，體溫一降，白血球的活動力會變得遲緩，造成免疫力低落。\n\n美國史丹福大學醫學院的研究發現，成年人的平均體溫持續下降，在不到200年間，人體體溫從1851年的37℃，下降至現在的36.6℃。人體體溫不斷下降，不太有利於對抗病毒。日本醫學博士石原結實更指出，人體體溫每下降1℃，代謝率就會降低12%，免疫力也會減少30%😰。他續指許多慢性疾病如糖尿、肺炎、心肌梗塞及腦梗塞，以至癌症，都跟低體溫息息相關。\n\n體溫下降的主因，是以前做家務相當於全身活動，現在家庭電器普及，不怎麽動身體也能做好家事；以前交通亦不發達，往往走很長一段路買東西、上班、上課，現今都用交通工具代步。\n\n我們的活動量變少，使用肌肉的機會也減少了。人體的體溫約有40%由肌肉負責產出，故此肌肉是人體重要的發熱器。使用肌肉，就能讓體溫升高。一般情況下，做運動或勞動肌肉至身體稍微開始出汗時，體溫會上升1℃；也就是只要我們動一動身體開始流汗時，免疫力也會一瞬間提升5至6倍！🤩\n\n全身肌肉約70%集中在下半身。「老化從腿部開始」，就是指人到了某個年紀，腹部和腿部的肌肉變少，令體溫變低，免疫力也跟著變差。做運動鍛煉下半身，有助於打造健康的體魄。有見及此，Empower定期開辦🌟伸展及肌肉鍛錬工作坊🌟，下周三9月22日公眾假期將有一課😉（詳情請參閱： https:\u002F\u002Ffb.me\u002Fe\u002FXmO1DKqd ），10月1日更有🌟爸媽動起來 肌少症不再🌟的成人親子運動班（ https:\u002F\u002Ffb.me\u002Fe\u002FFPqtArrG ）及🌟有骨氣 有肌力🌟營養講座（ https:\u002F\u002Ffb.me\u002Fe\u002F2s4Gcz5A9 ），歡迎大家參與🤗。透過合適運動與得當飲食，健康地增加肌力，同時增強免疫力！👍🏻\n","body-temperature","2021-09-15T00:00:00.000Z",{"data":6},{"data":133},[134],{"id":14,"attributes":135},{"slug":16,"name":17,"description":6,"createdAt":18,"updatedAt":18},{"data":137},[138,143,147],{"id":139,"attributes":140},153,{"name":141,"createdAt":142,"updatedAt":142},"免疫力","2023-02-12T03:32:01.357Z",{"id":144,"attributes":145},277,{"name":146,"createdAt":122,"updatedAt":122},"體溫",{"id":148,"attributes":149},261,{"name":150,"createdAt":108,"updatedAt":108},"白血球",{"data":6},{"id":153,"attributes":154},207,{"title":155,"excerpt":6,"content":156,"slug":157,"createdAt":158,"updatedAt":158,"author":159,"categories":160,"tags":164,"image":186},"減肥大忌：有入無出！","\n\n腸道約有8公尺長，如果將腸道表面的所有孔隙和絨毛完全展開，總面積可以覆蓋一整個網球場，而廢物很可能藏匿在直腸內的每一個小角落裡。每個人的大腸裡大約堆積了3至4.5公斤的廢物😱。\n\n統計發現大約1\u002F7人有便秘問題。便秘的原因包括：\u003Cbr\u003E\n😓膳食纖維不足\u003Cbr\u003E\n😓喝水不夠\u003Cbr\u003E\n😓腸道菌群不平衡\u003Cbr\u003E\n😓延誤了上洗手間的時機\u003Cbr\u003E\n😓壓力\u003Cbr\u003E\n以上因素皆會引致腸道蠕動遲鈍，毒素開始積聚，腹部漸隆！\n\n便秘若不妥善處理，有機會引致：\u003Cbr\u003E\n❗肛裂\u003Cbr\u003E\n糞便過硬，令肛門組織出現少許撕裂，排便時糞便帶血。\u003Cbr\u003E\n❗痔瘡\u003Cbr\u003E\n長時間蹲坐馬桶，肛門靜脈壓過強，形成痔瘡。\u003Cbr\u003E\n❗誘發中風\u003Cbr\u003E\n高血壓者排便時過份用力，令血壓上升。\n\n為大家介紹擊退便秘3️⃣法寶：\u003Cbr\u003E\n🌟膳食纖維\u003Cbr\u003E\n可增加糞便體積，刺激腸道蠕動；容易吸附水份，增加便便的柔軟性；同時有助促進腸道內益菌繁殖，增強腸道抵抗力，並減少腸內毒素積聚，保持腸道健康。\u003Cbr\u003E\n要攝取充足纖維，建議每天吃至少3至4份(6至8両)蔬菜🥦，以及2至3份水果🍎；穀物的話，可選擇高纖維的，例如麥皮、糙米、全麥包。\u003Cbr\u003E\n🌟水\u003Cbr\u003E\n吃進大量纖維，卻少了水份這潤滑劑，糞便會變得又乾又硬，難以排出😖。\u003Cbr\u003E\n建議每天飲水量為體重(公斤) x 0.04(公升)，例如53公斤體重的人，一天應喝2.12公升水，且應為含氧量高而去蕪存菁的乾淨食水。\u003Cbr\u003E\n🌟乳酸菌\u003Cbr\u003E\n腸道內好菌有助改善腸道微生物平衡，促進腸道蠕動；腸道內壞菌因偏食、老化及壓力等因素而大量繁殖，於腸內製造毒素，造成便秘。\u003Cbr\u003E\n研究發現益生菌可以降低腸道整體運輸時間，增加便便次數，並且軟化便便👍🏻。","constipate-210829","2021-08-29T00:00:00.000Z",{"data":6},{"data":161},[162],{"id":14,"attributes":163},{"slug":16,"name":17,"description":6,"createdAt":18,"updatedAt":18},{"data":165},[166,171,176,181],{"id":167,"attributes":168},260,{"name":169,"createdAt":170,"updatedAt":170},"便秘","2023-02-12T03:32:01.410Z",{"id":172,"attributes":173},246,{"name":174,"createdAt":175,"updatedAt":175},"減肥","2023-02-12T03:32:01.405Z",{"id":177,"attributes":178},183,{"name":179,"createdAt":180,"updatedAt":180},"纖維","2023-02-12T03:32:01.373Z",{"id":182,"attributes":183},230,{"name":184,"createdAt":185,"updatedAt":185},"乳酸菌","2023-02-12T03:32:01.398Z",{"data":6},{"id":188,"attributes":189},208,{"title":190,"excerpt":6,"content":191,"slug":192,"createdAt":193,"updatedAt":193,"author":194,"categories":195,"tags":199,"image":206},"你是肥，還是水腫？","\n所謂水腫，是指皮下與血管外的間隙中，有異常的組織間液堆積，進而引起腫脹。\n使用Tanita的身體成份分析儀，若細胞外液比例高於42%，即代表身體有水腫。另外也可自行簡單量度，以指腹按壓疑似水腫部份5至10秒，若需要數秒才恢復，即反映有輕微水腫；10至20秒才恢復的話，水腫就頗嚴重了😰。\n水腫的原因林林總總，包括：\u003Cbr\u003E\n😐 鹽份攝取過多，常外食者或味覺逐漸退化的長者皆是高風險一族\u003Cbr\u003E\n😐 長時間維持相同姿勢，例如久坐的上班族或久站的售貨員；加上重力影響，令水份容易積聚於下肢\u003Cbr\u003E\n😐 運動不足，令新陳代謝偏低，血液偱環不良\u003Cbr\u003E\n😐 喝水太少，因為只有水份充足才有助代謝，確保血中滲透壓維持正常\u003Cbr\u003E\n😐 營養不良，尤其蛋白質及\u002F或鉀、鈣、鎂等礦物質攝取不足\u003Cbr\u003E\n😐 腎臟、心血管、肝臟、甲狀腺疾病影響\u003Cbr\u003E\n😐 藥物副作用，包括某些類固醇、雌激素及降血壓藥物\n\n💡 改善水腫8大建議，供大家參考：\u003Cbr\u003E\n1️⃣ 適量運動，改善新陳代謝，促進血液循環\u003Cbr\u003E\n2️⃣ 避免久坐久站，適時變換姿勢或起來活動，令下肢循環改善\u003Cbr\u003E\n3️⃣ 穿壓力襪，在足踝提供最大壓力，然後順著腿部逐漸向上遞減，令下肢的靜脈血液從腳底往上回流至心臟，減低下肢靜脈及靜脈瓣膜所承受的壓力\u003Cbr\u003E\n4️⃣ 抬高受影響部位，令其高於心臟，加速血液回流\u003Cbr\u003E\n5️⃣ 充足睡眠，減少壓力荷爾蒙，改善新陳代謝\u003Cbr\u003E\n6️⃣ 低鹽飲食，改善新陳代謝，促進血液循環\u003Cbr\u003E\n7️⃣ 養成多喝水的習慣，每天喝水量應為體重(公斤) x 0.04(公升)，例如60公斤重的人，每天應喝2.4公升水\u003Cbr\u003E\n8️⃣ 營養均衡，多吃改善水腫的食物，包括：\u003Cbr\u003E\n🌟 富含鉀的食物：蕃薯、牛油果、香蕉、杏脯乾\u003Cbr\u003E\n🌟 高蛋白質食物：雞蛋、豆腐、肉類\u003Cbr\u003E\n🌟 富含維他命B的食物：粗糧、豬肉、鰻魚","fat-or-edema-2021sep","2021-08-22T00:00:00.000Z",{"data":6},{"data":196},[197],{"id":14,"attributes":198},{"slug":16,"name":17,"description":6,"createdAt":18,"updatedAt":18},{"data":200},[201],{"id":202,"attributes":203},268,{"name":204,"createdAt":205,"updatedAt":205},"水腫,細胞外液","2023-02-12T03:32:01.414Z",{"data":6},{"id":208,"attributes":209},215,{"title":210,"excerpt":6,"content":211,"slug":212,"createdAt":213,"updatedAt":213,"author":214,"categories":215,"tags":223,"image":229},"你，飲水了嗎？","\n\n你，飲水了嗎？\n水份佔了人體的60%-70%，對身體舉足輕重。在運動過程中，水份擔任著調節體溫，輸送營養及氧份，帶走血液中廢物的作用。當運動強度越高，運動時間越長，出汗越多，水份及電解質流失就越多。\n\n當水份流失超過體重的2%，便會影響運動表現；當水份流失超過體重的5%，便有機會出現熱抽筋甚至熱衰竭以致中暑🥵。故此運動過程中必須適時補充水份呢！有關熱抽筋、熱昏厥、熱衰竭及中暑的徵狀，請看附圖。\n\n運動時的水份攝入可以分為3階段：\u003Cbr\u003E\n1️⃣運動前：運動前2小時開始逐步補充水份。較簡單地判斷身體是否水份充足，可以觀察尿液顏色。若顏色較深（忌廉黃色），顯示水份未夠；水份較充足時，尿液該是淺黃色😉。\u003Cbr\u003E\n2️⃣運動中：根據汗液流失量而補充水份，較佳的補充水份方法是分段地補充 -- 每15至20分鐘補充100至200毫升水份。\u003Cbr\u003E\n3️⃣運動後：此階段是補充失去的水份和電解質。同樣也可以根據尿液顏色，判斷水份是否充足呢！\n\n很多朋友喜歡運動後喝電解質飲料以補充水份，但謹記要小心選擇，避免糖份過高，得不償失呢！🙈一般性的低中強度運動，未必需要喝電解質飲料。只有在持續運動1小時以上並有明顯的喘氣與流汗，才有可能需要補充電解質飲料，以補充電解質的流失💪🏻。\n關於補充水份的詳盡解說，歡迎大家觀看＜營一世＞短片 https:\u002F\u002Ffb.watch\u002F7gOiPJUvag\u002F 。\n\n\u003Cimg src=\"{assetsBasePath}\u002F1.jpg\" alt=\"img\"\u002F\u003E\n\n\n","drink-water-2109","2021-08-13T00:00:00.000Z",{"data":6},{"data":216},[217],{"id":218,"attributes":219},3,{"slug":220,"name":221,"description":6,"createdAt":222,"updatedAt":222},"fitness","運動筆記","2023-02-12T02:39:02.697Z",{"data":224},[225],{"id":226,"attributes":227},267,{"name":228,"createdAt":78,"updatedAt":78},"飲水,運動補水,中暑,電解質",{"data":6},{"id":231,"attributes":232},205,{"title":233,"excerpt":6,"content":234,"slug":235,"createdAt":236,"updatedAt":236,"author":237,"categories":238,"tags":242,"image":261},"“被運動”，有效用？（下篇）","\n\n上星期解構了冷凍溶脂，今次我們來了解家用瘦身儀的成效😉。\n\n家用瘦身儀大多採用EMS (Electrical Muscle Stimulation)技術：聲稱以低頻微電流向神經發出微電流信號，即使沒有運動，都可以通過微電流的刺激，令肌肉達到運動效果，繼而瘦身。\n\n肌肉訓練器（俗稱“\n腹肌貼\"）💪🏻則是把帶有電極的腰帶或貼片固定在身體上，透過電流刺激，給肌肉施加負荷，大多用於復健及物理治療上。\n\n確實有不少職業運動員，透過EMS加強訓練效果。例如仰臥起坐時，將儀器貼於腹部，令人更著意腹部動作，有助收緊線條。\n\n然而，肌肉訓練器或其他EMS儀器均沒有燒脂效果。脂肪細胞的分解，與物理性的刺激無關；而單靠電流建立肌肉，必須使用極高電流，人體難以承受。\n\n“被動式運動”，看起來身體在動，但其實只在耗電，並不能提升熱量消耗😅。只有運用肌肉力量去活動身體時，才可真正提高能量消耗及脂肪燃燒的速率。","weight-loss-210811","2021-08-11T00:00:00.000Z",{"data":6},{"data":239},[240],{"id":14,"attributes":241},{"slug":16,"name":17,"description":6,"createdAt":18,"updatedAt":18},{"data":243},[244,249,254,259],{"id":245,"attributes":246},254,{"name":247,"createdAt":248,"updatedAt":248},"瘦身","2023-02-12T03:32:01.408Z",{"id":250,"attributes":251},257,{"name":252,"createdAt":253,"updatedAt":253},"肌肉","2023-02-12T03:32:01.409Z",{"id":255,"attributes":256},243,{"name":257,"createdAt":258,"updatedAt":258},"脂肪","2023-02-12T03:32:01.403Z",{"id":172,"attributes":260},{"name":174,"createdAt":175,"updatedAt":175},{"data":6},{"id":263,"attributes":264},216,{"title":265,"excerpt":6,"content":266,"slug":267,"createdAt":268,"updatedAt":268,"author":269,"categories":270,"tags":274,"image":290},"“被運動”，有效用？（上篇）","\n\n上星期討論了做運動減肥，今次我們來了解“被運動”的成效😉。\n\n“被動式運動”，指的是“做機減肥”，近年以冷凍溶脂最為人談論。相比傳統抽脂，冷凍浴脂不用麻醉，痛楚程度大減且修復快。冷凍溶脂據稱獲美國食品及藥物管理局(FDA)認證，可以在60分鐘療程內，把脂肪冷卻在攝氏5度低溫，從而令脂肪細胞提早老化，隨新陳代謝排出體外。\n\n須注意的是，FDA認可只反映儀器本身的安全性，不代表人人都適合做，而且操作者的技術也很重要，溫度、探頭大小、位置等皆影響安全性及效果。此外，冷凍溶脂被稱為“體型雕塑”，不是減肥；外國研究發現接受了兩次冷凍溶脂的人士，脂肪層厚度每次平均減少約20%，但體重只減去0.2公斤。故此冷凍溶脂通常只用以修線條，不能減磅，對健康狀況的改善作用也不大。\n\n冷凍令組織內缺氧缺血，的確可以造成脂肪細胞破壞。但如何令低溫到達脂肪層的同時，不讓皮膚溫度下降太多致皮膚凍傷😖？又如何確保低溫到達脂肪層後，不會傷及附近的血管、神經及肌肉？有報章曾就冷凍溶脂技術訪問香港醫學會前會長謝鴻興醫生，他指若皮膚細胞同時被冷凍，有機會產生疤痕甚至壞死。皮膚科醫生史泰祖則表示：“如果得，自己去雪地坐下，又會唔會瘦咗呢？”\n\n即使冷凍溶脂及抽脂手術可以減少脂肪細胞數量，但無法防止脂肪細胞增大，所以療程後不控制飲食和運動，不久就會復胖。","passive-exercise-210730","2021-07-30T00:00:00.000Z",{"data":6},{"data":271},[272],{"id":14,"attributes":273},{"slug":16,"name":17,"description":6,"createdAt":18,"updatedAt":18},{"data":275},[276,278,282,286],{"id":172,"attributes":277},{"name":174,"createdAt":175,"updatedAt":175},{"id":279,"attributes":280},263,{"name":281,"createdAt":113,"updatedAt":113},"冷凍溶脂",{"id":283,"attributes":284},253,{"name":285,"createdAt":248,"updatedAt":248},"做機減肥",{"id":287,"attributes":288},265,{"name":289,"createdAt":113,"updatedAt":113},"抽脂",{"data":6},{"id":292,"attributes":293},211,{"title":294,"excerpt":6,"content":295,"slug":296,"createdAt":297,"updatedAt":297,"author":298,"categories":299,"tags":303,"image":316},"識得揀，先識得減（下篇）","\n\n不少人希望透過拼命做運動，達到減肥效果😼。然而，如上星期《識得揀，先識得減》上篇所言，運動消耗的熱量只佔總熱量約20%，大部份的熱量消耗來自基礎代謝，佔70%！\n\n劇烈運動時，肝臟須處理身體燃燒的燃料。健康不佳的肝臟光是提供能量已吃不消，要是再添負擔，只會讓情況雪上加霜😫，令肝臟一直無法痊癒。許多人瘦不下來，正是因為運動過量。而且持續對肌肉施加壓力，卻沒有足夠時間讓肌肉進行修復，很可能對肌肉造成長期的傷害😖。\n\n輕量運動（步行\u002F微健身操）有助製造幫助身體運行暢順的肝醣，暢通肝臟；同時建立肌肉，讓粒腺體強健，又毌需增加肝臟負擔😀。此外，只要日常生活讓身體多動一點，例如早一個站下車🚶🏻‍♀️🚶🏻‍♂️，累積起來也可以產生理想的瘦身效果。\n\n其實我們最需要減的，是內臟脂肪。美國醫學期刊研究指出，蘋果型身材的人內臟脂肪比例較高，而啤梨型身材則是皮下脂肪較高。內臟脂肪過多反映身體有“胰島素阻抗”，而胰島素是調控身體血糖的重要關鍵，如果出現抗性，就可能導致脂肪肝、II型糖尿病，也會增加患上食道癌、胃癌、大腸癌、胰臟癌及肝癌的機率。研究發現假設攝取同樣份量的脂肪，黑人體內增加的內臟脂肪只有一半以下；白人稍多一些；黃種人最高，吃下的脂肪有一半以上都會成為內臟脂肪😱。\n\n減肥尤其減內臟脂肪，不能單靠運動，也必須調整飲食。所以日本著名健身教練森拓郎，也提倡減肥1分靠運動，9分靠飲食呢😉。\n","loss-weight-210724","2021-07-24T00:00:00.000Z",{"data":6},{"data":300},[301],{"id":14,"attributes":302},{"slug":16,"name":17,"description":6,"createdAt":18,"updatedAt":18},{"data":304},[305,307,312],{"id":172,"attributes":306},{"name":174,"createdAt":175,"updatedAt":175},{"id":308,"attributes":309},252,{"name":310,"createdAt":311,"updatedAt":311},"內臟脂肪","2023-02-12T03:32:01.407Z",{"id":313,"attributes":314},258,{"name":315,"createdAt":170,"updatedAt":170},"纖體",{"data":6},{"id":318,"attributes":319},210,{"title":320,"excerpt":6,"content":321,"slug":322,"createdAt":323,"updatedAt":323,"author":324,"categories":325,"tags":329,"image":350},"識得揀，先識得減（上篇）","\n\n體重反映健康，肥胖人士患睡眠窒息症、血脂水平異常、膽囊疾病、II型糖尿病及代謝綜合症等疾病的相對風險是正常體重人士的3倍以上😱。\n\n許多人都希望找到適合自己的減肥方法。2020年，在Google被搜尋最多的減肥方法為生酮飲食法和間歇性斷食法。\n\n生酮飲食為「低碳水化合物、高脂肪」的飲食方法，令身體進入稱為酮症的代謝狀態，產生「酮體」作能量來源，逼使身體燃燒脂肪🔥。然而，生酮飲食不是均衡飲食，礦物質與維他命容易不足，令人感到疲倦、虛弱，甚至抽筋，或缺乏纖維而便秘；其他常見問題包括胃痛、頭昏腦脹、焦躁、口臭、血脂及膽固醇濃度上升；長期生酮飲食也容易令骨質及肌肉流失。\n\n間歇性斷食法是「以調整進食時間為根本」的飲食方法。最常見的是168斷食法，即集中在8小時內攝取熱量，其餘16小時攝取零熱量的東西，如水、鹽、茶、黑咖啡；最常見是中午12時開始進食，晚上8時前完成晚餐。身體需約10至12小時消耗體內的碳水化合物，在168斷食法下，空腹時間達16小時，身體就會進入「脂肪燃燒」模式，達到減肥效果。然而，糖尿病、高血壓、高三酸甘油酯、痛風、高尿酸、腎臟病患及消化性潰瘍者均不適合進行間歇性斷食；禁食期間也容易腸胃不適或四肢無力，而為了提供自身能量，身體除了分解體內肝醣及部份脂肪外，也有機會分解肌肉蛋白質，令肌肉流失。\n\n無論生酮飲食或間歇性斷食，皆有機會令基礎代謝減慢。基礎代謝是人在靜臥狀態，維持生命所需的最低熱量消耗，主要用於維持呼吸、心跳、氧氣運送、排泄等生理功能。靜態時，肌肉所消耗的能量大約為脂肪的3倍💪🏻，所以增加肌肉能令基礎代謝改善。由於基礎代謝佔每日總熱量消耗70%，故提升基礎代謝率是減肥不復胖的關鍵。","weight-control-210717","2021-07-17T00:00:00.000Z",{"data":6},{"data":326},[327],{"id":14,"attributes":328},{"slug":16,"name":17,"description":6,"createdAt":18,"updatedAt":18},{"data":330},[331,333,337,342,346],{"id":172,"attributes":332},{"name":174,"createdAt":175,"updatedAt":175},{"id":334,"attributes":335},247,{"name":336,"createdAt":175,"updatedAt":175},"代謝綜合症",{"id":338,"attributes":339},250,{"name":340,"createdAt":341,"updatedAt":341},"間歇性斷食","2023-02-12T03:32:01.406Z",{"id":343,"attributes":344},256,{"name":345,"createdAt":253,"updatedAt":253},"生酮飲食",{"id":347,"attributes":348},251,{"name":349,"createdAt":311,"updatedAt":311},"基礎代謝率",{"data":6},{"pagination":352},{"page":353,"pageSize":354,"pageCount":355,"total":356},4,12,10,116],"uses":{"dependencies":["http://127.0.0.1:1337/api/posts?sort=createdAt%3Adesc&populate[author]=true&populate[categories]=true&populate[tags]=true&populate[image]=true&pagination[page]=4&pagination[pageSize]=12"],"params":["page","category"]}}]}