{"type":"data","nodes":[{"type":"data","data":[{"categories":1,"event_categories":27},[2,9,15,21],{"id":3,"attributes":4},1,{"slug":5,"name":6,"description":7,"createdAt":8,"updatedAt":8},"nutrition","營養隨筆",null,"2023-02-12T02:39:02.691Z",{"id":10,"attributes":11},2,{"slug":12,"name":13,"description":7,"createdAt":14,"updatedAt":14},"reflection","感悟隨筆","2023-02-12T02:39:02.692Z",{"id":16,"attributes":17},3,{"slug":18,"name":19,"description":7,"createdAt":20,"updatedAt":20},"fitness","運動筆記","2023-02-12T02:39:02.697Z",{"id":22,"attributes":23},4,{"slug":24,"name":25,"description":7,"createdAt":26,"updatedAt":26},"spiritual","心靈勵志","2023-02-12T02:39:02.698Z",[28,33,38,43,47,52],{"id":3,"attributes":29},{"name":30,"slug":31,"description":7,"createdAt":32,"updatedAt":32},"讀書會","book-sharing","2023-02-12T02:38:55.939Z",{"id":16,"attributes":34},{"name":35,"slug":36,"description":7,"createdAt":37,"updatedAt":37},"文化導賞","cultural","2023-02-12T02:38:55.943Z",{"id":22,"attributes":39},{"name":40,"slug":41,"description":7,"createdAt":42,"updatedAt":42},"遊山玩水","hiking","2023-02-12T02:38:55.946Z",{"id":44,"attributes":45},5,{"name":46,"slug":18,"description":7,"createdAt":42,"updatedAt":42},"健體運動",{"id":48,"attributes":49},6,{"name":50,"slug":5,"description":7,"createdAt":51,"updatedAt":51},"活學營養","2023-02-12T02:38:55.947Z",{"id":10,"attributes":53},{"name":54,"slug":55,"description":7,"createdAt":56,"updatedAt":57},"名人面對面","be-our-guest","2023-02-12T02:38:55.942Z","2023-03-08T13:16:12.875Z"],"uses":{"dependencies":["http://127.0.0.1:1337/api/categories?","http://127.0.0.1:1337/api/event-categories?"]},"slash":"always"},{"type":"data","data":[{"data":1,"meta":189},[2,27,65,90,115,136,155,169],{"id":3,"attributes":4},151,{"title":5,"excerpt":6,"content":7,"slug":8,"createdAt":9,"updatedAt":9,"author":10,"categories":11,"tags":19,"image":26},"你的動力開關開啟了嗎？",null,"\n\n昨天心情很好，但今天起床卻情緒低落？\n\n年初定好今年的目標，但到今天也未起動？\n\n如果有多啦A夢百寶袋，你想要甚麼工具協助達成願望？可能就是一個能打開自己潛力的動力開關。\n\n山崎拓巳先生在著作《一個人的充電時間》中提出 ，動力十足的人與半途而廢的人的差異，就是能否啟動我們內心的「動力開關」。\u003Cbr\u003E\n書中列舉34個能啟動「動力開關」及持續提供動力的方法，看上去是老生常談，但每篇配合插圖的小文章，總是讓我們有不同的啟發。\n\n動力被啟動可能不難，有時候與朋友談得興高采烈，又或是希望新一年有所突破，便突然決心完成某件事情。然而啟動動力後，如何持續這一股動力，讓自己突破舒適圈，持續規劃並調整情緒才是重點。正如山崎先生所說，幹勁是不會永遠持續的；必須下一番功夫，才能把動力維持下去。\n很喜歡其中一句「不要受到心情左右，而是刻意地左右心情」。很多時候，我們的情緒會備受他人及環境影響。只有掌握自己情緒的主導權，我們才能成就事情，才能成就自己的人生！\n即使每天工作行程排得滿滿，也記得要為自己安排一個人獨處的充電時間，讓身心注入動力啊！","post190927","2019-09-27T00:00:00.000Z",{"data":6},{"data":12},[13],{"id":14,"attributes":15},4,{"slug":16,"name":17,"description":6,"createdAt":18,"updatedAt":18},"spiritual","心靈勵志","2023-02-12T02:39:02.698Z",{"data":20},[21],{"id":22,"attributes":23},136,{"name":24,"createdAt":25,"updatedAt":25},"讀後感","2023-02-12T03:32:01.346Z",{"data":6},{"id":28,"attributes":29},145,{"title":30,"excerpt":6,"content":31,"slug":32,"createdAt":33,"updatedAt":33,"author":34,"categories":35,"tags":43,"image":64},"甩脂果王 - 蘋果","\n\n大家中秋節又食節日飯又食月餅，脂肪積蓄應有不少進帳！今天為大家介紹甩脂果王 -- 蘋果，協助大家消消脂！\n\n「一日一蘋果，醫生遠離我。」蘋果有益健康是大家熟知的，但原來蘋果也有助消脂清腸排毒呢！\n\n1. 蘋果酸：降低膽固醇，加速代謝，促進脂肪分解\u003Cbr\u003E\n2. 果膠：可溶性纖維，與膽固醇結合，將體內多餘的膽固醇排出體外\u003Cbr\u003E\n3. 熊果酸：蘋果皮中的熊果酸能促進棕色脂肪的增生，棕色脂肪能協助燃燒體內卡路里，有助加快身體新陳代謝\u003Cbr\u003E\n4. 膳食纖維：促進腸胃蠕動，幫助排毒\n\n蘋果含豐富營養素：維他命C有助抗氧化；鋅促進大腦發育，增強智力與記憶力；維他命A和硒可保護視力；鉀鹽能降低高血壓；可溶性纖維可調節血糖。\n\n進食蘋果好處多，但緊記我們每天要進食5色蔬果。如果只偏愛蘋果，就變得偏食了！\n\n此外，日常飲食也要相應配合，並有規律地運動，才能健康地減脂呢！","post190920","2019-09-20T00:00:00.000Z",{"data":6},{"data":36},[37],{"id":38,"attributes":39},1,{"slug":40,"name":41,"description":6,"createdAt":42,"updatedAt":42},"nutrition","營養隨筆","2023-02-12T02:39:02.691Z",{"data":44},[45,50,55,59],{"id":46,"attributes":47},135,{"name":48,"createdAt":49,"updatedAt":49},"蘋果","2023-02-12T03:32:01.340Z",{"id":51,"attributes":52},141,{"name":53,"createdAt":54,"updatedAt":54},"消脂","2023-02-12T03:32:01.349Z",{"id":28,"attributes":56},{"name":57,"createdAt":58,"updatedAt":58},"清腸","2023-02-12T03:32:01.351Z",{"id":60,"attributes":61},138,{"name":62,"createdAt":63,"updatedAt":63},"排毒","2023-02-12T03:32:01.347Z",{"data":6},{"id":66,"attributes":67},155,{"title":68,"excerpt":6,"content":69,"slug":70,"createdAt":71,"updatedAt":71,"author":72,"categories":73,"tags":77,"image":89},"看見藍天白雲，人特別醒神？","\n\n陰天雨天情緒則相對低落？\n\n曬太陽有助合成維他命D。維他命D能夠增加血液中的血清素濃度，從而穩定情緒。若血清素分泌不足，會引起焦躁、衝動、情緒低落，甚至憂鬱等問題。😨\n\n每天曬5至10分鐘太陽，吸收的維他命D已有助心情開朗。😄\n\n大家可把握午飯時間到戶外散步，紓解心情之餘也增加運動量啊！🚶🏻‍♂🚶🏻‍♀\n\n食物中，油脂較高的魚類（例如三文魚、沙甸魚、吞拿魚）、蛋黃、肝臟等也含較豐富維他命D呢！😉","post190913","2019-09-13T00:00:00.000Z",{"data":6},{"data":74},[75],{"id":38,"attributes":76},{"slug":40,"name":41,"description":6,"createdAt":42,"updatedAt":42},{"data":78},[79,84],{"id":80,"attributes":81},133,{"name":82,"createdAt":83,"updatedAt":83},"維他命D","2023-02-12T03:32:01.328Z",{"id":85,"attributes":86},134,{"name":87,"createdAt":88,"updatedAt":88},"血清素","2023-02-12T03:32:01.338Z",{"data":6},{"id":91,"attributes":92},147,{"title":93,"excerpt":6,"content":94,"slug":95,"createdAt":96,"updatedAt":96,"author":97,"categories":98,"tags":102,"image":114},"每逢考試、開會、報告前夕，就會腹痛腹瀉？","\n\n每逢考試、開會、報告前夕，就會腹痛腹瀉？情緒緊張或突如其來的壓力引致的腹瀉，可能是跟腸躁症有關 -- 腸胃道自律神經失調，只要面對壓力刺激，腸道就過度敏感，影響腸道蠕動。而腸躁症原來與神經系統也息息相關呢！\n\n自律神經分為交感神經及副交感神經。\n交感神經負責處理「緊張情緒」，副交感神經負責掌管「放鬆情緒」。在正常的情況下，自律神經能讓交感神經及副交感神經達致平衡，讓我們的情緒、身體、血液循環、大腸收縮等功能均保持穩定。但若長期受壓或情緒起伏不定，將令交感神經處於亢奮狀態，導致自律神經失去平衡，讓身體處於警戒中，引起腸道問題。\n\n通常性格追求完美、工作壓力大、容易緊張的人都較容易患上腸躁症。除了腸胃道問題外，多半還會伴隨精神緊張、焦慮、易怒、失眠多夢等症狀。\n\n要告別壓力所引起的腸道問題，穩定「自律神經」是當務之急。學習自我放鬆，保持心情愉快，作息定時、規律運動，均有助自律神經逐漸重拾平衡，讓腸道回復正常蠕動。\n飲食小貼士：平日可以多吃健脾食物，例如准山、扁豆、紅棗，避免食用西瓜、冷飲及乳製品。多吸收高鈣食物也能穩定情緒，協助調整自律神經啊！","pressure190906","2019-09-06T00:00:00.000Z",{"data":6},{"data":99},[100],{"id":38,"attributes":101},{"slug":40,"name":41,"description":6,"createdAt":42,"updatedAt":42},{"data":103},[104,109],{"id":105,"attributes":106},129,{"name":107,"createdAt":108,"updatedAt":108},"自律神經","2023-02-12T03:32:01.315Z",{"id":110,"attributes":111},132,{"name":112,"createdAt":113,"updatedAt":113},"交感神經","2023-02-12T03:32:01.324Z",{"data":6},{"id":116,"attributes":117},142,{"title":118,"excerpt":6,"content":119,"slug":120,"createdAt":121,"updatedAt":121,"author":122,"categories":123,"tags":127,"image":135},"眼眉跳","\n\n眼眉跳不停，你試過咪？\n\n第一心理反應係問左吉右凶，定右吉左凶？\n\n莫問吉凶，休息不足、用眼過度、壓力大、自律神經出現異常，都會導致眼眉跳！\n\n當自律神經異常，肌肉便會不由自主地放鬆抽搐。其中一項影響自律神經系統的，就是體內鉀和鈣是否平衡。\n下次眼尾跳，大家可嘗試熱敷眼睛，多作休息，並刻意多攝取富含鈣質的食物呢！\n","eye190830","2019-08-30T00:00:00.000Z",{"data":6},{"data":124},[125],{"id":38,"attributes":126},{"slug":40,"name":41,"description":6,"createdAt":42,"updatedAt":42},{"data":128},[129,133],{"id":130,"attributes":131},131,{"name":118,"createdAt":132,"updatedAt":132},"2023-02-12T03:32:01.318Z",{"id":105,"attributes":134},{"name":107,"createdAt":108,"updatedAt":108},{"data":6},{"id":137,"attributes":138},143,{"title":139,"excerpt":6,"content":140,"slug":141,"createdAt":142,"updatedAt":142,"author":143,"categories":144,"tags":152,"image":154},"chinese new year20190204","\n\n\u003Cdiv class=\"text-blue-700\"\u003E\n\twrite your introduction here... (text in blue)\n\u003C\u002Fdiv\u003E\n\nmain content here...\n\n![彈珠人競技枱]({assetsBasePath}\u002F1.jpg \"400\")\n*the image caption*\n\n\u003Cdiv class=\"footnote\"\u003E\n\twrite your footnote here...\n\u003C\u002Fdiv\u003E","chinese-new-year20190204","2019-02-04T00:00:00.000Z",{"data":6},{"data":145},[146],{"id":147,"attributes":148},2,{"slug":149,"name":150,"description":6,"createdAt":151,"updatedAt":151},"reflection","感悟隨筆","2023-02-12T02:39:02.692Z",{"data":153},[],{"data":6},{"id":51,"attributes":156},{"title":157,"excerpt":6,"content":158,"slug":159,"createdAt":160,"updatedAt":160,"author":161,"categories":162,"tags":166,"image":168},"happy new year 2018","\n\n時光荏苒，不知不覺Empower已一周歲了！\n\n感謝各方友好的支持，過去一年Empower舉辦了：\n\n6場文化導賞，參觀了美荷樓、饒宗頤文化館、志蓮淨苑與南蓮園池、金庸館、慈山寺及保良局歷史博物館；\n\n5場讀書會，涉獵心靈勵志、人物傳記、歷史遊記、商業經濟，以至我最喜愛的金庸筆下女角色五大範疇；\n\n3場旅遊分享，感受西藏、東非、柬埔寨等地的風土人情；\n\n8次遊山玩水，暢遊大帽山、南丫島、西貢古道、赤徑，以及4大水塘：鶴藪、河貝、香港仔、大潭；\n\n10場名人面對面，由不同界別的達人分享其專業知識、獨特經驗與精闢見解，計有涂國彬先生（金融）、黃奕鑑太平紳士（地產）、陳國禧醫生（NLP）、師虛師傅（太極）、陸人龍教授（歷史）、楊健興先生（傳媒）、趙舜茹小姐（社企）、張倩儀女士（出版）及麥秋先生（戲劇）。\n此外還有一場「港故仔」分享會，以及與瑜茶舍協辦的茶藝工作坊。\n\n感恩相遇相知，與大學同學Mang及學弟King，以及姊弟檔好友Joyce及Cliff共同創辦Empower，在舉辦各項活動、構建網站和開設Facebook專頁的過程中，各自發揮所長，互補不足，長知識，長經驗，長默契，成就更好的自己，Empower Ourselves！\n\n2018年Empower將繼續努力向前，1月率先邀得創辦全港首家apps lab的張澤松博士，為大家分享其稱之為「第四次工業革命」的電腦程式浪潮，對我們特別是我這等不懂coding的人有何影響。同月讀書會的主題為健康·養生，看看已報名朋友所列出的書籍，屆時一定能攫取不少四季養生甚至逆齡貼士 😀\n有靜必有動，月底「遊山玩水」將由元朗楊屋村出發，漫步至大欖林道，飽覽壯麗海景，俯瞰有「香港千島湖」之稱的大欖涌水塘，路程輕鬆，老幼咸宜。\n\nEmpower謹祝大家在新的一年繼續燃亮自己，燃亮世界，寫下精彩的人生篇章！","happy-new-year-2018","2018-01-01T00:00:00.000Z",{"data":6},{"data":163},[164],{"id":14,"attributes":165},{"slug":16,"name":17,"description":6,"createdAt":18,"updatedAt":18},{"data":167},[],{"data":6},{"id":170,"attributes":171},140,{"title":172,"excerpt":6,"content":173,"slug":174,"createdAt":175,"updatedAt":175,"author":176,"categories":177,"tags":181,"image":188},"《賦予夢想，賦予方向，賦予使命》","\n\n剛看了《打死不離三父女》，從戲中獲得不同的啟發，也帶有一些疑問。當中特別深刻的，是「爸爸」作為「教練」的啟迪。\n\n無可否認，教練對運動員來說非常重要。教練是否了解運動員的優缺點並配合其特質來作正確的訓練，使其擅長的優勢最大化地發揮？教練能否在比賽關鍵時刻對運動員作出正確的指導，讓其在比賽中發揮極致？教練如何激勵並啟發運動員，令他們盡力爭取佳績？這各方各面，教練對運動員都有著不可或缺的重要性！\n\n電影中的教練爸爸瑪哈維在一開始發掘到女兒的天賦時，便賦予女兒夢想──成為印度全國的冠軍摔挍手；在訓練時，賦予她方向；在關鍵的國際賽事，賦予她使命，讓她不再為個人榮譽而戰，而是為受歧視的女性發聲。（當然，中間可以反駁其他觀點，但暫不能其他評論。）瑪哈維深深明白，\n要取得偉大的成就，不是為個人之榮耀，而是為他人而奮戰。\n\n相對於運動比賽，在日常生活中，我們幾多人有著自己的教練，又或是良師益友？有「教練」的人是非常幸福的！良師，就如同運動員的教練，對我們的生命帶來無限的啟發。在生命中關鍵的時刻，良師總能協助我們撥開迷霧，帶來方向。良師就是總能啟發你尋找生命之火，把生命發揮極致的人。希望各位也能在生命中遇見你的良師！\n","post20171018","2017-10-18T00:00:00.000Z",{"data":6},{"data":178},[179],{"id":147,"attributes":180},{"slug":149,"name":150,"description":6,"createdAt":151,"updatedAt":151},{"data":182},[183],{"id":184,"attributes":185},130,{"name":186,"createdAt":187,"updatedAt":187},"夢想","2023-02-12T03:32:01.316Z",{"data":6},{"pagination":190},{"page":191,"pageSize":192,"pageCount":191,"total":193},10,12,116],"uses":{"dependencies":["http://127.0.0.1:1337/api/posts?sort=createdAt%3Adesc&populate[author]=true&populate[categories]=true&populate[tags]=true&populate[image]=true&pagination[page]=10&pagination[pageSize]=12"],"params":["page","category"]}}]}