{"type":"data","nodes":[{"type":"data","data":[{"categories":1,"event_categories":27},[2,9,15,21],{"id":3,"attributes":4},1,{"slug":5,"name":6,"description":7,"createdAt":8,"updatedAt":8},"nutrition","營養隨筆",null,"2023-02-12T02:39:02.691Z",{"id":10,"attributes":11},2,{"slug":12,"name":13,"description":7,"createdAt":14,"updatedAt":14},"reflection","感悟隨筆","2023-02-12T02:39:02.692Z",{"id":16,"attributes":17},3,{"slug":18,"name":19,"description":7,"createdAt":20,"updatedAt":20},"fitness","運動筆記","2023-02-12T02:39:02.697Z",{"id":22,"attributes":23},4,{"slug":24,"name":25,"description":7,"createdAt":26,"updatedAt":26},"spiritual","心靈勵志","2023-02-12T02:39:02.698Z",[28,33,38,43,47,52],{"id":3,"attributes":29},{"name":30,"slug":31,"description":7,"createdAt":32,"updatedAt":32},"讀書會","book-sharing","2023-02-12T02:38:55.939Z",{"id":16,"attributes":34},{"name":35,"slug":36,"description":7,"createdAt":37,"updatedAt":37},"文化導賞","cultural","2023-02-12T02:38:55.943Z",{"id":22,"attributes":39},{"name":40,"slug":41,"description":7,"createdAt":42,"updatedAt":42},"遊山玩水","hiking","2023-02-12T02:38:55.946Z",{"id":44,"attributes":45},5,{"name":46,"slug":18,"description":7,"createdAt":42,"updatedAt":42},"健體運動",{"id":48,"attributes":49},6,{"name":50,"slug":5,"description":7,"createdAt":51,"updatedAt":51},"活學營養","2023-02-12T02:38:55.947Z",{"id":10,"attributes":53},{"name":54,"slug":55,"description":7,"createdAt":56,"updatedAt":57},"名人面對面","be-our-guest","2023-02-12T02:38:55.942Z","2023-03-08T13:16:12.875Z"],"uses":{"dependencies":["http://127.0.0.1:1337/api/categories?","http://127.0.0.1:1337/api/event-categories?"]},"slash":"always"},{"type":"data","data":[{"data":1,"meta":334},[2,37,57,81,124,151,172,193,222,254,290,310],{"id":3,"attributes":4},199,{"title":5,"excerpt":6,"content":7,"slug":8,"createdAt":9,"updatedAt":9,"author":10,"categories":11,"tags":19,"image":36},"健絡得法 健步如飛",null,"\n\n衛生署公佈，在香港，關節毛病是病人求診的五大病因之一。香港中文大學醫學院的調查發現，50歲或以上男士中，17%曾有持續性關節疼痛，7%被診斷患上膝關節炎；至於50歲或以上女士，更有24%患有持續性關節疼痛，14%診斷患上膝關節炎😣。\n\n關節疾患林林總總，包括骨質增生、腰間椎盤突出、拇指外翻、滑膜炎、肩周炎、半月板損傷、退化性關節炎、風濕性關節炎...... 未能盡錄。\n\n當中，骨刺或骨質增生非常普遍。肥胖或常常需要久站的工作，給關節帶來很大負擔，導致關節裡的軟骨磨損，使關節變得不穩定。關節會增生骨刺以增加穩定度，故此容易增生骨刺的地方多位於負重的關節及活動度較高的骨頭，例如膝蓋關節及腰椎骨。若關節嚴重磨損或有嚴重骨質增生，或需進行關節置換手術：把骨磨掉一塊，安裝一個人工關節面，外面釘上人工靭帶，下面有人造的半月板作承托。人工關節的壽命約為15年，置換了一次，15年後磨壞了未必可以再次置換，故此人工關節置換不宜太早進行。\n\n預防勝於治療💪🏻，我們當加固護養關節3大組織 -- 軟骨、骨、韌帶，做到：\u003Cbr\u003E\n1. 修復軟骨損傷，抑制關節病變\u003Cbr\u003E\n2. 增加骨密度，防止骨質流失\u003Cbr\u003E\n3. 強化韌帶，關節更加穩固\n\n我們往往痛在關節，根在軟骨，源在葡萄糖胺！⭐葡萄糖胺是合成軟骨的重要原料，隨年齡增長，合成急劇減少，30歲後身體就不能合成足夠的葡萄糖胺，45歲時體內的葡萄糖胺相當於18歲時的18%😱。食物中蝦殼、蟹殼的葡萄糖胺含量最豐富，但難以每天攝取充足，故此可考慮透過補充品攝取，而葡萄糖胺是美國、歐盟及日本公認對骨關節具積極保護作用的營養品👍🏻，當中可起3大作用：\u003Cbr\u003E\n1. 修復軟骨，生成新的軟骨\u003Cbr\u003E\n2. 促成滑液分泌，減少軟骨磨損\u003Cbr\u003E\n3. 減少炎症和腫痛\n\n建議選用鹽酸葡萄糖胺😉，因純度高且穩定，生物使用率為硫酸葡萄糖胺的2倍，更易被人體吸收。如能配合乳香、菠蘿酵素及柑橘生物類黃酮，可起協同效應，進一步消炎止痛並抗氧化😊。\n汽車可能只用20年，都會保養，定期給它加潤滑劑；我們對陪伴終生的關節，豈能不好好保養呢！","joint210117","2021-01-17T00:00:00.000Z",{"data":6},{"data":12},[13],{"id":14,"attributes":15},1,{"slug":16,"name":17,"description":6,"createdAt":18,"updatedAt":18},"nutrition","營養隨筆","2023-02-12T02:39:02.691Z",{"data":20},[21,26,31],{"id":22,"attributes":23},163,{"name":24,"createdAt":25,"updatedAt":25},"關節","2023-02-12T03:32:01.364Z",{"id":27,"attributes":28},214,{"name":29,"createdAt":30,"updatedAt":30},"軟骨","2023-02-12T03:32:01.391Z",{"id":32,"attributes":33},222,{"name":34,"createdAt":35,"updatedAt":35},"葡萄糖胺","2023-02-12T03:32:01.394Z",{"data":6},{"id":38,"attributes":39},195,{"title":40,"excerpt":6,"content":41,"slug":42,"createdAt":43,"updatedAt":43,"author":44,"categories":45,"tags":49,"image":56},"快靚正的B仔","\n\n維他命B族，大家都不陌生，但你對它又認識多少呢？🤔\n\nB族作為輔酶，參與能量代謝，是人人都需要的維他命💪🏻。由於是水溶性，不能在體內儲存，故非常容易缺乏，必須每天補充；而現代都市人由於甚少吃內臟\u002F常吃精煉澱粉質\u002F反複洗米\u002F浸菜時間過長\u002F洗菜先切再洗\u002F素食\u002F喝氯氣未經濾淨的食水等因素😅，對B族的攝取往往不足。\n\nB族的成員眾多，當中B1、B2、B3及泛酸對能量代謝至關重要，不足的話容易疲勞，焦燥，生痱滋，甚至暈車暈船😣；B6、B12及葉酸則對細胞發育不可或缺，不足的話易使同型半胱氨酸在體內堆積，導致高同型半胱氨酸血症，損害血管內皮細胞，血脂和膽固醇更容易被氧化，血小板黏附聚集，引致動脈粥樣硬化，是造成多種心血管疾病的危險因素！😱\n\n請注意，我們必須整個維B家族一起補充，方能產生協同效應。另請選擇有機植物提煉的營養素，並最好能分階段釋放不同種類的維B，確保人體能安全高效地吸收。若能輔以螺旋藻，將可進一步促進心血管及免疫系統健康👍🏻🥳。","post200108","2021-01-08T00:00:00.000Z",{"data":6},{"data":46},[47],{"id":14,"attributes":48},{"slug":16,"name":17,"description":6,"createdAt":18,"updatedAt":18},{"data":50},[51],{"id":52,"attributes":53},167,{"name":54,"createdAt":55,"updatedAt":55},"維他命B","2023-02-12T03:32:01.366Z",{"data":6},{"id":58,"attributes":59},206,{"title":60,"excerpt":6,"content":61,"slug":62,"createdAt":63,"updatedAt":63,"author":64,"categories":65,"tags":73,"image":80},"🌙2020，一字記之曰：驚。","\n\n🥺驚心動魄 -- 新型冠狀病毒肆虐全球，令人驚歎生命之脆弱。Empower備受歡迎的行山活動、文化導賞及讀書會均告暫停；慶幸科技進步，名人面對面、HP纖體增肌\u002F健康管理工作坊、活學營養講座及Keep Fit工作坊得以在網上舉行。當中名人面對面2.0，相繼邀得極地專家何建宗教授、插畫師兼平面設計師陳健殷小姐Christa、香港首位女性國際咖啡師監考官文桂芳博士Dr May Man、瑜茶舍創辦人容德如小姐Catherine，以及國際級啤酒評審方啟聰先生Tomy擔任分享嘉賓，透過大氣電波與參加者互動交流。\n\n😯拍案驚奇 -- 8月初在毫無預兆的情況下，被包租人擅改租約逼令遷出，教人自相驚擾。然而感恩有此契機，Empower得以自立門戶，開展一片新天地。斜陽映照小空間，經歴練就大智慧，歡迎各友好蒞臨參觀，暢談西東🤗。\n\n🥰受寵若驚 -- 感謝Sosoc全力贊助及各方友好鼎力支持，Empower專屬應用程式於6月驚喜面世，在Apple Store及Play Store均可免費下載，讓大家可一站式獲取Empower活動的最新資訊，也可以足版重溫星期二至四的mini talk，以及瀏覽運動及美容示範短片。稍後我們將開放活動報名及其他新功能， 大家拭目以待！\n\n🌞2021，Empower將繼續與大家攜手前行，即使偶有驚惶，依然處變不驚，愛澤互勉🙌🏻；期盼新一年更能驚喜交集，甚至一鳴驚人，Empower ourselves，Empower our community！💪🏻💪🏻","newyear2021","2021-01-01T00:00:00.000Z",{"data":6},{"data":66},[67],{"id":68,"attributes":69},2,{"slug":70,"name":71,"description":6,"createdAt":72,"updatedAt":72},"reflection","感悟隨筆","2023-02-12T02:39:02.692Z",{"data":74},[75],{"id":76,"attributes":77},165,{"name":78,"createdAt":79,"updatedAt":79},"","2023-02-12T03:32:01.365Z",{"data":6},{"id":82,"attributes":83},185,{"title":84,"excerpt":6,"content":85,"slug":86,"createdAt":87,"updatedAt":87,"author":88,"categories":89,"tags":93,"image":123},"“癢”是一種病？一到冬天就要命！","\n\n冬季寒冷乾燥，人體新陳代謝減慢，皮脂腺和汗腺分泌減少，皮膚作為人體最大器官，又是抵抗外來刺激的第一道防線，疏於防護，皮膚疾病就容易找上門。蕁麻疹、凍瘡、手足皸裂均是冬季常見的皮膚病。\n\n根據美國過敏氣喘與免疫學院（ACAAI），蕁麻疹（Urticaria，又稱風疹、風癩）的盛行率約20%。女士罹患的機率為男士的3倍😱，當中又以30多歲的女士最容易得病。典型症狀包括風疹塊，即身體各部位可能出現大小、形狀不一的發紅、腫脹、隆起的凸塊或痕跡，極度搔癢。蕁麻疹發作時幾乎都是急性，通常在24小時內消退，但可能輪流出現在身體不同部位，因此症狀可能維持數天或更久。如果蕁麻疹反覆發作，並持續6週以上，就稱為「慢性蕁麻疹」，惟只有不到10％的蕁麻疹病例被歸類為慢性病。過敏、情緒壓力、寒冷天氣均可對表皮下的肥大細胞造成刺激，釋出組織胺，進而使皮膚產生發炎、紅腫、搔癢等症狀。\n\n凍瘡為冬季另一常見病，容易發生在手指、腳趾、面頰、耳垂等部位，患處表現得又腫又紅，又痛又癢，而且一般很難治癒🥺，要等到天氣暖和後才會逐漸消失。所以預防是關鍵，維持血液循環旺盛至關重要！\n\n至於手足皸裂，又稱「皸裂症」，多見於中老年人、女士及戶外體力勞動者。起初皮膚乾燥、發緊、變硬，繼而變得粗糙、肥厚，失去光澤，進一步出現淺深、長短不一的裂隙。輕者無甚痛楚，重者疼痛難忍，可影響日常生活和工作。\n\n要應對有法，可補充3類營養素💪🏻：\u003Cbr\u003E\n1️⃣ 蛋白質：可同時減少過敏，舒緩壓力，鎖水滋養，促進血液循環。牛、羊、鴨可溫補袪寒，惟過敏者不適用。建議蛋白質量攝取的一半為植物性蛋白質☘️。\u003Cbr\u003E\n2️⃣ 奧米加三脂肪酸 Omega-3：減少身體的發炎反應，強化免疫系統，抗過敏，促進血液循環。美國心臟協會指出，成人每日的攝取量應至少為500毫克，心血管疾病人士則為1000毫克，高血脂人士在醫生指示下攝取量可達2000至4000毫克。\u003Cbr\u003E\n3️⃣ 維他命C：抑制組織胺，減少過敏原入侵作用；抗氧化成份可消除體內自由基，減少發炎。維他命C受熱易被破壞，而華人的飲食習慣傾向熱食，故食材中的維他命C往往在烹調過程中受破壞，致使維他命C容易攝取不足；而且維他命C為水溶性，必須恆常補充。\n\n此外，必須注意保暖，防風防寒；避免冷水直接刺激皮膚；同時使用具強保濕效果的乳霜，滋養肌膚💆🏻‍♀️💆🏻‍♂️。","post201226","2020-12-26T00:00:00.000Z",{"data":6},{"data":90},[91],{"id":14,"attributes":92},{"slug":16,"name":17,"description":6,"createdAt":18,"updatedAt":18},{"data":94},[95,100,105,109,114,118],{"id":96,"attributes":97},178,{"name":98,"createdAt":99,"updatedAt":99},"皮膚","2023-02-12T03:32:01.371Z",{"id":101,"attributes":102},217,{"name":103,"createdAt":104,"updatedAt":104},"蕁麻疹","2023-02-12T03:32:01.392Z",{"id":106,"attributes":107},218,{"name":108,"createdAt":104,"updatedAt":104},"凍瘡",{"id":110,"attributes":111},144,{"name":112,"createdAt":113,"updatedAt":113},"蛋白質","2023-02-12T03:32:01.351Z",{"id":115,"attributes":116},169,{"name":117,"createdAt":55,"updatedAt":55},"奧米加三",{"id":119,"attributes":120},156,{"name":121,"createdAt":122,"updatedAt":122},"維他命C","2023-02-12T03:32:01.361Z",{"data":6},{"id":125,"attributes":126},192,{"title":127,"excerpt":6,"content":128,"slug":129,"createdAt":130,"updatedAt":130,"author":131,"categories":132,"tags":136,"image":150},"最有效的藥物，是人的免疫力","\n\n標題這句話，是上海新冠肺炎臨床救治專家組組長、復旦大學附屬華山醫院感染科主任張文宏的名言。的確，在沒有特效藥的情況下，所有最先進的救命設備，起到的只是支援作用；我們自身的免疫力，才是最好的“醫生”！故此鍾南山院士也多次強調：“防控的關鍵還是自己！”💪🏻💪🏻\n\n免疫力是身體抵抗外來侵襲，維護體內環境穩定的能力，受眾多因素影響，包括：\u003Cbr\u003E\n1. 年齡\u003Cbr\u003E\n人體免疫細胞數量和增殖能力隨年齡增長而下降，60歲時免疫力較20歲下跌約60%😖，消滅細菌、病毒、癌變細胞的能力也會減弱。\n\n2. 睡眠\u003Cbr\u003E\n長期通宵熬夜，嚴重破壞人體免疫系統。美國芝加哥大學研究發現，每晚只睡4小時的人，體內抵禦流感的抗體較每晚睡7.5至8.5小時的人減少50%😨。\n\n3. 營養\u003Cbr\u003E\n飲食均衡是確保身體各項機能正常，維持免疫力的基礎。然而，要做到膳食均衡並不容易，微量營養素尤其容易攝取不足。根據美國癌症協會及台灣癌症基金會提倡的「蔬果579」飲食觀念，12歲以下兒童每日應攝取至少5份新鮮蔬果，12歲以上女士及男士則應分別攝取7份及9份蔬菜水果。香港衛生署表示，逾90%港人一天食用少於5份蔬果😓，加上食物營養貶值及高溫烹調，均令營養難以均衡。\n\n對一般人來說，提升免疫力最簡便的方法，是每天補充維他命C😙。維他命C是人體免疫系統必需的維他命，在提升免疫力方面具3大功效：\u003Cbr\u003E\n1. 加速調動白血球，促進中性粒細胞的功能和活動性，從而加速免疫細胞反應；\u003Cbr\u003E\n2. 製造干擾素，令身體有足夠時間製造抗體；\u003Cbr\u003E\n3. 還原解毒，將毒素中和分解，減少身體所受的毒害。\n\n維他命C作為人體必需的水溶性維他命，自身無法生產，只能通過飲食攝取。中國營養學會建議成人每日的維他命C攝入量為100毫克，可耐受最高攝入量為2000毫克。維他命C受熱易被破壞，而我們華人的飲食習慣傾向熱食，故食材中的維他命C往往在烹調過程中受破壞，致使維他命C的攝取不足。常見水果中，番石榴的維他命C含量最豐富，每100克含228毫克維C；其次為黑加侖子，維C含量為181毫克；之後依次為🥝奇異果、檸檬和蘋果。\n\n針葉櫻桃(acerola cherry)是世上維C含量最豐富的天然來源之一，每100克含逾1500毫克維C👍🏻😀。選取維他命C補充品時，提煉自有機針葉櫻桃的當為首選，輔以柑橘生物類黃酮，可促進維C吸收，並進一步提升抗氧化效能和免疫力。","post201211","2020-12-11T00:00:00.000Z",{"data":6},{"data":133},[134],{"id":14,"attributes":135},{"slug":16,"name":17,"description":6,"createdAt":18,"updatedAt":18},{"data":137},[138,143,145],{"id":139,"attributes":140},153,{"name":141,"createdAt":142,"updatedAt":142},"免疫力","2023-02-12T03:32:01.357Z",{"id":119,"attributes":144},{"name":121,"createdAt":122,"updatedAt":122},{"id":146,"attributes":147},211,{"name":148,"createdAt":149,"updatedAt":149},"針葉櫻桃","2023-02-12T03:32:01.390Z",{"data":6},{"id":152,"attributes":153},191,{"title":154,"excerpt":6,"content":155,"slug":156,"createdAt":157,"updatedAt":157,"author":158,"categories":159,"tags":163,"image":171},"最最最重要的蛋白質","\n\n蛋白質Protein源自於希臘文的proteios，代表「第一品質」；又或來自於protos，意思是「第一」🥳。全身細胞皆由蛋白質組成，膽汁及尿液除外。\n\n胺基酸是構成蛋白質的單位，當中9種為必需胺基酸：組胺酸、異亮胺酸、亮胺酸、賴胺酸、甲硫胺酸、苯丙胺酸、蘇胺酸、色胺酸和纈胺酸；這些胺基酸身體無法合成，必須從食物取得。身體利用這9種必需胺基酸，合成22種胺基酸💪🏻。\n\n確定蛋白質品質較常用的方法被稱為“蛋白質消化率校正胺基酸評分”（PDCAAS），最高分數是1，代表蛋白質消化後，每單位蛋白質提供人體所需的100%必要胺基酸。\n\n疫情與流感肆虐，蛋白質如何有助我們提升免疫力呢？🧐呼吸系統助我們對抗空氣污染和細菌病毒的侵害，當中氣管壁長著纖毛，能夠分泌黏液黏著空氣中的污染物，並且單向向上抖動，抖出來的就是痰。若吸了一口氣，剛好有一個肺結核菌或新冠病毒在氣流中間，沒被黏住；沒被黏住就沒法靠痰排出來，那如何是好？😱\n\n幸好人體所有管腔包括消化道、腸道和泌尿道的細胞都有分泌型免疫球蛋白，即我們常說的抗體。這抗體可以被噴到管腔中間，抓住並消滅病毒和細菌，而合成這抗體的原料就是蛋白質。所以若蛋白質不足，相當於子彈不足😟，即使管腔內架設了槍，也無法及時殺滅敵人，以致容易發生呼吸道、泌尿道及消化道感染。\n\n下星期的《活學營養》將與大家探討蛋白質的其他特質，以及如何抗疲勞🤩。","post201121","2020-11-21T00:00:00.000Z",{"data":6},{"data":160},[161],{"id":14,"attributes":162},{"slug":16,"name":17,"description":6,"createdAt":18,"updatedAt":18},{"data":164},[165,167],{"id":110,"attributes":166},{"name":112,"createdAt":113,"updatedAt":113},{"id":168,"attributes":169},210,{"name":170,"createdAt":149,"updatedAt":149},"胺基酸",{"data":6},{"id":173,"attributes":174},190,{"title":175,"excerpt":6,"content":176,"slug":177,"createdAt":178,"updatedAt":178,"author":179,"categories":180,"tags":184,"image":192},"兒童肥胖\u002F瘦削，如何調整營養攝取？","\n\n兒童無論肥胖或瘦削，都與宏量營養素即蛋白質、脂肪及碳水化合物的攝入不合標準相關。這必須透過調整飲食結構去扭轉，不能單純壓縮或拼命增加能量的攝入😉。\n\n調整飲食結構，就要調整三大宏量營養素的攝入：想令肥胖的孩子脂肪降低，就要減少其對脂肪和碳水化合物的攝取，加強蛋白質的攝入；對於瘦削的孩子，要令他不能太挑食或偏食，另外也需要提供更多蛋白質，來促進身體的生長與發育。由此可見，蛋白質的補充對兒童非常重要！💪🏻💪🏻\n\n成長階段的嬰幼兒、兒童及青少年，身體各項組織、機能正在發展，對蛋白質的需求量大增。一般建議：\u003Cbr\u003E\n嬰幼兒時期的蛋白質攝取量為體重（公斤）Ｘ1.4（克）\u003Cbr\u003E\n兒童、青少年的蛋日質攝取量為體重（公斤）Ｘ1.2~1.4（克）\n\n舉例而言，若兒童的體重為40公斤，每日約需要48至56克的蛋白質；然而，兒童的胃容量只有成年男士的1\u002F6，但每日所需的蛋白質可媲美成年男性😱，那如何是好？\n\n家長應讓孩子2\u002F3的蛋白質攝取量為容易消化吸收的蛋白質，例如雞蛋、魚，以及豆漿和全植物蛋白質粉等植物性蛋白質，並少食多餐😉。","post201101","2020-11-01T00:00:00.000Z",{"data":6},{"data":181},[182],{"id":14,"attributes":183},{"slug":16,"name":17,"description":6,"createdAt":18,"updatedAt":18},{"data":185},[186,190],{"id":3,"attributes":187},{"name":188,"createdAt":189,"updatedAt":189},"兒童營養","2023-02-12T03:32:01.381Z",{"id":110,"attributes":191},{"name":112,"createdAt":113,"updatedAt":113},{"data":6},{"id":194,"attributes":195},189,{"title":196,"excerpt":6,"content":197,"slug":198,"createdAt":199,"updatedAt":199,"author":200,"categories":201,"tags":205,"image":221},"輔酵素Q10 為細胞快速充電","\n\n人體由數十萬億細胞構成，細胞健康，就像電池充滿電，能量充沛，幹勁十足💪🏻！正如煤、石油等須通過發電機轉化為電，家裡的電器才能運作；我們吃了碳水化合物、脂肪或蛋白質這些產生能量的食物後，須先經過消化吸收，然後在細胞的線粒體轉化為細胞的能量貨幣ATP，方能被人體運用。輔酵素Q10正是把能量物質轉化為ATP的核心發電機🤓。\n\n英國的彼得米切爾教授(Peter D. Mitchell)因發現人體一切細胞能量的轉換必須有輔酵素Q10的參與，而獲得第78屆諾貝爾化學獎💡。在西方國家，輔酵素Q10被視為護心補品，不少西醫在幫助心臟患者復健的處方中，都包括輔酵素Q10👍🏻，而不少研究結果反映輔酵素Q10在改善心律不正、心絞痛及心臟衰竭方面均有顯著功效。\n\n除了心臟健康外，若數十萬億細胞皆能量充沛，人就會精神奕奕。腦細胞能量充足，自然思維敏捷。細胞能量運轉充份，還會消耗更多脂肪，加速體內脂肪代謝。同時為肌膚抗衰老，減少長斑長痘💁🏻‍♀️💁🏻‍♂️。\n\n20歲起，人體合成輔酵素Q10的量開始減少；至40歲，大部份人的輔酵素Q10都已降至較低水平。合成不足，又因熬夜、空氣污染、壓力等因素而增加消耗，故此必須適時補充輔酵素Q10，才能避免身體透支。\n\n歐美國家建議健康成年人每天補充30毫克輔酵素Q10，亞健康的人應增加補充；若心臟或其他器官的功能明顯下降，就要額外再添。如欲一天補充90毫克輔酵素Q10，需要吃1500克沙甸魚或3000克牛肉😅，並不容易，故此一般人一天通常只能攝取3至5毫克輔酵素Q10，其餘必須靠營養補充品補充。選擇輔酵素Q10補充品，除了著眼於是否天然有機外，最好選擇複方，例如輔以左旋肉鹸、氨基乙磺酸及柑橘類生物類黃酮，全面提升細胞能量並對抗自由基，倍添心臟動力、燃脂力🔥、體力及肌膚活力！💪🏻","post201023","2020-10-23T00:00:00.000Z",{"data":6},{"data":202},[203],{"id":14,"attributes":204},{"slug":16,"name":17,"description":6,"createdAt":18,"updatedAt":18},{"data":206},[207,212,217],{"id":208,"attributes":209},224,{"name":210,"createdAt":211,"updatedAt":211},"輔酵素Q10","2023-02-12T03:32:01.396Z",{"id":213,"attributes":214},209,{"name":215,"createdAt":216,"updatedAt":216},"心臟健康","2023-02-12T03:32:01.389Z",{"id":218,"attributes":219},208,{"name":220,"createdAt":216,"updatedAt":216},"抗衰老",{"data":6},{"id":223,"attributes":224},186,{"title":225,"excerpt":6,"content":226,"slug":227,"createdAt":228,"updatedAt":228,"author":229,"categories":230,"tags":234,"image":253},"你的骨質每天收支平衡嗎？","\n\n我們每天不單生活有基本開支，原來鈣質也有每天的基本支出呢🤔！就如生活基本開支，若收入低於支出，就需要從銀行提款；若我們每天從飲食攝取的鈣質不足，身體便會從骨頭內提取鈣質使用，久而久之容易引致骨質疏鬆😨。\n\n成年人每天需要攝取1000毫克鈣質，50歲後（更年期後）每天需要攝取1500毫克鈣質。據國際骨質疏鬆基金會於2018年對全球74個國家鈣質攝取的研究發現，中國內地平均每天從飲食攝取的鈣量只有338毫克。另一項調查發現，香港女性每日平均的鈣攝取量低於600毫克😱。\n\n為何鈣攝取量會遠低於我們的日常所需呢？除了跟飲食文化有關，與鈣質的吸收率也不無關係。一般而言，人體對食物中鈣質的吸收率約為30%。例如，芥蘭屬於高鈣食物，每100克含180毫克的鈣質，吸收率屬不錯，有50%，即約90毫克鈣質；人體對豆腐鈣質的吸收率約30%，每100克豆腐約有300毫克鈣質，即人體可吸收的鈣約為90毫克。\n\n還須注意的是，身體需要鈣、鎂及磷這三種礦物質按比例吸收才能建構骨質，而理想的磷與鈣比例是1：1。若果磷質攝取過剩以致血液中的磷濃度上升，骨骼中的鈣質便會被釋放到血液，令血液回復鈣與磷的平衡狀態⚖️。香港流行速食文化，加工食品如汽水、罐頭、香腸大量添加磷酸鹽，若經常食用，攝取磷質便會過量，從而導致骨質疏鬆的傾向。所以，我們除了要積極攝取高鈣食物，如蝦皮、豆製品、連骨小魚、深綠色蔬菜之外，也要避免進食加工食品呢🤓！\n\n如欲了解更多關於鈣、鎂及磷這三種礦物質的黃金比例，請觀看15分鐘mini talk營一世影片 https:\u002F\u002Fyoutu.be\u002FRovz9o6B86Y","post201017","2020-10-17T00:00:00.000Z",{"data":6},{"data":231},[232],{"id":14,"attributes":233},{"slug":16,"name":17,"description":6,"createdAt":18,"updatedAt":18},{"data":235},[236,241,245,249],{"id":237,"attributes":238},203,{"name":239,"createdAt":240,"updatedAt":240},"骨質","2023-02-12T03:32:01.382Z",{"id":242,"attributes":243},212,{"name":244,"createdAt":149,"updatedAt":149},"鈣",{"id":246,"attributes":247},225,{"name":248,"createdAt":211,"updatedAt":211},"骨質疏鬆",{"id":250,"attributes":251},213,{"name":252,"createdAt":30,"updatedAt":30},"鎂",{"data":6},{"id":255,"attributes":256},187,{"title":257,"excerpt":6,"content":258,"slug":259,"createdAt":260,"updatedAt":260,"author":261,"categories":262,"tags":266,"image":289},"卵磷脂四大功效","\n\n細胞是組成人體最基本的單位，細胞健康是人體健康的基礎；而人體所有細胞膜都由卵磷脂構成，故此卵磷脂是基礎營養素，人人皆需要💪🏻。\n\n卵磷脂有4️⃣大功能，分別為：\u003Cbr\u003E\n1）血管清道夫\u003Cbr\u003E\n2）肝膽淨化劑\u003Cbr\u003E\n3）皮膚保濕霜\u003Cbr\u003E\n4）健腦營養素\n\n只有血管健康，方能確保所有營養成份能夠及時運送至五臟六腑。卵磷脂可以把血管裡積存的油乳化，也可以降低甘油三酯和膽固醇的水平❤️。\n\n此外，卵磷脂缺乏，容易導致脂肪肝😖。吃了脂肪後，先被送到肝臟，在肝臟重新組合成為人體的脂肪，此時需要一輛車把脂肪從肝臟運出去。缺乏卵磷脂，等於車沒有車輪，脂肪不能及時運出去，累積在肝臟的脂肪就會增加。膽方面，卵磷脂可減少膽固醇沉澱並增加其溶解度，讓膽囊裡的膽固醇更好地溶入血液並帶走，減少膽結石的病發率。\n\n皮膚細胞膜保護不佳，細胞容易破損，通過破口，水份蒸發，就容易乾燥，出現皺紋甚至脫皮。細胞也容易積聚色素，包括脂褐素，俗稱老人斑👵🏻👴🏻。研究發現補充卵磷脂後，細胞的脂褐素含量可大幅下降，含水量則飆升。\n\n人體注意力和記憶力與卵磷脂密切相關，因為所有細胞包括神經細胞的細胞膜都是卵磷脂組成。腦神經細胞中17%-20%是卵磷脂，對神經系統的正常運轉至關重要。神經細胞帶著很長的纖維尾巴，這纖維就是神經線，它的膜也是卵磷脂。神經纖維的傳導，相當於電線的傳導；每條電線都有絕緣皮，神經纖維也包著絕緣皮，這亦是由卵磷脂構成，保證訊號互不干擾。卵磷脂充足，確保小孩神經系統發育正常，長者則可預防腦退化🤩。\n\n卵磷脂極怕氧化也怕熱，故此必須加入可以抗口腔氧化的維他命E，才能被人體運用。符合以下四大特點的，方為「優質卵磷脂」👍🏻😍：\u003Cbr\u003E\n1）天然有機\u003Cbr\u003E\n2）有維他命E保護\u003Cbr\u003E\n3）達致上述四大功效\u003Cbr\u003E\n4）可咀嚼，方便男女老幼食用","post201009","2020-10-09T00:00:00.000Z",{"data":6},{"data":263},[264],{"id":14,"attributes":265},{"slug":16,"name":17,"description":6,"createdAt":18,"updatedAt":18},{"data":267},[268,273,277,281,285],{"id":269,"attributes":270},174,{"name":271,"createdAt":272,"updatedAt":272},"卵磷脂","2023-02-12T03:32:01.368Z",{"id":274,"attributes":275},200,{"name":276,"createdAt":189,"updatedAt":189},"甘油三酯",{"id":278,"attributes":279},201,{"name":280,"createdAt":189,"updatedAt":189},"膽固醇",{"id":282,"attributes":283},202,{"name":284,"createdAt":240,"updatedAt":240},"注意力",{"id":286,"attributes":287},168,{"name":288,"createdAt":55,"updatedAt":55},"記憶力",{"data":6},{"id":96,"attributes":291},{"title":292,"excerpt":6,"content":293,"slug":294,"createdAt":295,"updatedAt":295,"author":296,"categories":297,"tags":301,"image":309},"兒童應攝取多少鐵？","\n\n上星期＜活學營養＞分享了兒童缺鐵缺血的表癥，以及缺鐵為何有機會導致體內鉛超標😱。今日我們講解兒童應攝取多少鐵，並如何攝取😉。\n\n出生至6個月大BB，每日建議攝取7毫克鐵，7個月至9歲的鐵質建議攝取量為10毫克，10至18歲為15毫克。\n\n100克的菠菜或扁豆含3克鐡，85克紅燒牛肉或鯖魚含2克鐵，1隻雞蛋含1克鐡。因此每日都攝取足夠鐵質，似乎並不容易，天然有機營養素就可協助補充🤗。\n\n鐵在體內儲存和運用的原理，就好像我們有一家經營鐵的店舖，櫃台每賣出一塊鐵，就從倉庫拿出一塊擺上。櫃台上擺的鐵相當於我們日常消耗的鐡，倉庫相當於體內鐵的庫存。如果倉庫裡有存貨，就可保證櫃台上擺得滿，能滿足我的日常所需；如果櫃台擺不滿，就表示倉庫裡一塊鐵也沒有，相當於貧血了😖。補鐵後，先在櫃台擺；擺滿後，身體就不受影響。這時候補貨不能停，因為只補了櫃台，庫存是零，所以必須持續地補，把庫存補滿👍🏻。\n\n給缺鐵缺血的孩子補鐵以後，大約3周，會看到面色變紅潤，不再那麼疲倦💪🏻💪🏻。這時候要將他體內鐵的儲存填滿，同時供應充足的鐵供日常使用，這需要半年以上、每日足量地補鐵。所以家長們發現孩子身體改善以後，也必須繼續規律地補鐵，方能令孩子身體健壯，不會前功盡廢。","post201002","2020-10-02T00:00:00.000Z",{"data":6},{"data":298},[299],{"id":14,"attributes":300},{"slug":16,"name":17,"description":6,"createdAt":18,"updatedAt":18},{"data":302},[303,305],{"id":3,"attributes":304},{"name":188,"createdAt":189,"updatedAt":189},{"id":152,"attributes":306},{"name":307,"createdAt":308,"updatedAt":308},"鐵","2023-02-12T03:32:01.376Z",{"data":6},{"id":311,"attributes":312},188,{"title":313,"excerpt":6,"content":314,"slug":315,"createdAt":316,"updatedAt":316,"author":317,"categories":318,"tags":322,"image":333},"兒童營養：缺鐵與貧血","\n\n兒童在不同發育階段，對各種營養的需求量都很大，因為不僅要滿足日常新陳代謝和能量消耗所需，而且還要滿足整個生長發育過程，方能從一個很小的個體👶🏻，長大成人。\n\n缺鐵與貧血是其中一個常見的兒童健康問題😯。據統計在發展中國家和工業化國家，分別有50%以上和30%-40%的兒童和孕婦有貧血的情況。最常見的貧血是缺鐵性貧血，佔所有貧血症的83%-90%，影響全球大約1\u002F4女性和兒童😖。\n\n兒童缺鐵缺血的表癥包括：\u003Cbr\u003E\n1️⃣ 面色較蠟黃或土黃，甚至帶有一點點淡淡的白斑\u003Cbr\u003E\n2️⃣ 異食癖，例如愛咬指甲\u003Cbr\u003E\n3️⃣ 常感疲乏倦怠，愛睡覺，上課時注意力難以集中\u003Cbr\u003E\n4️⃣ 免疫力下降，經常生病😷\n\n隨著缺鐵缺血愈發嚴重，體內的鉛有機會超標😱。為甚麼呢？我們吃的食物包括鐵和其他營養素都在腸道裡，要把食物裡的鐵吸收到血液來，要有一個運轉的系統。這系統好比一個小車，專門運轉營養素。如果鐵是方形，我要將鐵運進來，就要有一個方形的小車，把鐵坐在上面，我一拉，把它拉進來，我就吸收了鐵。食物裡沒有足量的鐵時，這小車就空了，也是方形的鉛趁機坐了上去，我一拉，鉛就進來了。故此當兒童缺鐵久了，日積月累，體內的鉛就容易超標。\n\n要減少鉛的吸收，膳食上必須多補充鐵，用更多的鐡佔住運轉的小車，阻止鉛的吸收。至於已經吸收進來的鉛，可以藉補充維他命C，促進體內鉛的排出，同時幫助鐵的吸收，故此⭐鐵素+維他命C是兒童營養的黃金組合⭐。\n\n下星期＜活學營養＞將分享由BB至18歲的每日建議鐵質攝取量，如何補鐵，以及補多久才見效，萬勿錯過！🤗\n","post200919","2020-09-19T00:00:00.000Z",{"data":6},{"data":319},[320],{"id":14,"attributes":321},{"slug":16,"name":17,"description":6,"createdAt":18,"updatedAt":18},{"data":323},[324,326,331],{"id":152,"attributes":325},{"name":307,"createdAt":308,"updatedAt":308},{"id":327,"attributes":328},198,{"name":329,"createdAt":330,"updatedAt":330},"貧血","2023-02-12T03:32:01.380Z",{"id":3,"attributes":332},{"name":188,"createdAt":189,"updatedAt":189},{"data":6},{"pagination":335},{"page":336,"pageSize":337,"pageCount":338,"total":339},6,12,10,116],"uses":{"dependencies":["http://127.0.0.1:1337/api/posts?sort=createdAt%3Adesc&populate[author]=true&populate[categories]=true&populate[tags]=true&populate[image]=true&pagination[page]=6&pagination[pageSize]=12"],"params":["page","category"]}}]}