{"type":"data","nodes":[{"type":"data","data":[{"categories":1,"event_categories":27},[2,9,15,21],{"id":3,"attributes":4},1,{"slug":5,"name":6,"description":7,"createdAt":8,"updatedAt":8},"nutrition","營養隨筆",null,"2023-02-12T02:39:02.691Z",{"id":10,"attributes":11},2,{"slug":12,"name":13,"description":7,"createdAt":14,"updatedAt":14},"reflection","感悟隨筆","2023-02-12T02:39:02.692Z",{"id":16,"attributes":17},3,{"slug":18,"name":19,"description":7,"createdAt":20,"updatedAt":20},"fitness","運動筆記","2023-02-12T02:39:02.697Z",{"id":22,"attributes":23},4,{"slug":24,"name":25,"description":7,"createdAt":26,"updatedAt":26},"spiritual","心靈勵志","2023-02-12T02:39:02.698Z",[28,33,38,43,47,52],{"id":3,"attributes":29},{"name":30,"slug":31,"description":7,"createdAt":32,"updatedAt":32},"讀書會","book-sharing","2023-02-12T02:38:55.939Z",{"id":16,"attributes":34},{"name":35,"slug":36,"description":7,"createdAt":37,"updatedAt":37},"文化導賞","cultural","2023-02-12T02:38:55.943Z",{"id":22,"attributes":39},{"name":40,"slug":41,"description":7,"createdAt":42,"updatedAt":42},"遊山玩水","hiking","2023-02-12T02:38:55.946Z",{"id":44,"attributes":45},5,{"name":46,"slug":18,"description":7,"createdAt":42,"updatedAt":42},"健體運動",{"id":48,"attributes":49},6,{"name":50,"slug":5,"description":7,"createdAt":51,"updatedAt":51},"活學營養","2023-02-12T02:38:55.947Z",{"id":10,"attributes":53},{"name":54,"slug":55,"description":7,"createdAt":56,"updatedAt":57},"名人面對面","be-our-guest","2023-02-12T02:38:55.942Z","2023-03-08T13:16:12.875Z"],"uses":{"dependencies":["http://127.0.0.1:1337/api/categories?","http://127.0.0.1:1337/api/event-categories?"]},"slash":"always"},{"type":"data","data":[{"data":1,"meta":119},[2,22,36,50,64,78,92,106],{"id":3,"attributes":4},52,{"start_date":5,"title":6,"content":7,"excerpt":8,"slug":9,"end_date":10,"tags":11,"createdAt":12,"updatedAt":12,"event_categories":13,"image":21},"2018-07-07","讀書會主題：歷史・遊記","\n\n從文字遊覽五大洲七大洋，觀看萬千世界；從歷史了解各民族興衰成敗，感受各地文化。\u003Cbr\u003E\n今次讀書會，我們特別選擇了分享歷史及遊記類書籍，讀萬卷書也行萬里路，了解不同地區歷史文化，感受各民族的風土人情。\u003Cbr\u003E\n誠邀你一起分享閱讀體驗，一同感受由文字所帶出的美妙世界。\u003Cbr\u003E\n歡迎大家，一起閱讀、一起分享、共同啟發！\u003Cbr\u003E\n說書人：4位 (每位15分鐘)\u003Cbr\u003E\n愛書人：10位\u003Cbr\u003E\n日期：7\u002F7\u002F2018 (星期六)\u003Cbr\u003E\n時間：14:15-16:30\u003Cbr\u003E\n地點：咖啡綠茶＠旺角西洋菜南街38-40號萬高商業大廈3樓\u003Cbr\u003E\n費用：自費在餐廳點單\u003Cbr\u003E\n名額：14人","","bookshare1807",null,"歷史,遊記","2018-07-07T00:00:00.000Z",{"data":14},[15],{"id":16,"attributes":17},1,{"name":18,"slug":19,"description":10,"createdAt":20,"updatedAt":20},"讀書會","book-sharing","2023-02-12T02:38:55.939Z",{"data":10},{"id":23,"attributes":24},44,{"start_date":25,"title":26,"content":27,"excerpt":8,"slug":28,"end_date":10,"tags":29,"createdAt":30,"updatedAt":30,"event_categories":31,"image":35},"2018-05-19","讀書會主題: 心靈·勵志","\n雞蛋從外打破是食物，從內打破是生命；人生從外打破是壓力，從內打破是成長。\u003Cbr\u003E\n生活壓力四方八面，幸好遇壓時總有書籍能助我們向前邁進。\u003Cbr\u003E\n今次讀書會，我們特別選擇分享心靈及勵志類書籍，讓大家共同成長，同時拓展我們生命的寬度及深度。\u003Cbr\u003E\n誠邀你一起分享閱讀體驗，一同感受由文字所帶出的美妙世界。\u003Cbr\u003E\n歡迎大家一起閱讀，一起分享，相互啟發！\u003Cbr\u003E\n說書人：4位 (每位15分鐘)\u003Cbr\u003E\n愛書人：10位\u003Cbr\u003E\n日期：19\u002F5\u002F2017 (星期六)\u003Cbr\u003E\n時間：14:15-16:30\u003Cbr\u003E\n地點：咖啡綠茶＠旺角西洋菜南街38-40號萬高商業大廈3樓\u003Cbr\u003E\n費用：自費在餐廳點單\u003Cbr\u003E\n名額：14人","booksharing1805","心靈勵志","2018-05-19T00:00:00.000Z",{"data":32},[33],{"id":16,"attributes":34},{"name":18,"slug":19,"description":10,"createdAt":20,"updatedAt":20},{"data":10},{"id":37,"attributes":38},48,{"start_date":39,"title":40,"content":41,"excerpt":8,"slug":42,"end_date":10,"tags":43,"createdAt":44,"updatedAt":44,"event_categories":45,"image":49},"2018-03-24","讀書會主題：動漫狂派","\n\n漫畫，一直被視為次文化，然而其影響力與日俱增，更衍生出動畫、電玩、模型等不同類型的創作，風靡全世界，是另類的藝術平台。\u003Cbr\u003E\n由生活小品，以至歷史記載，諷刺時弊，內容主題十分多樣。而漫畫又以東洋及歐美作分水嶺，各自運用着不用的繪畫技巧，描繪出一幅又一幅藝術作品。\u003Cbr\u003E\n透過這次讀書會，希望藉此打破大家對漫畫的成見與迷思，以開放的態度，去了解及踏足這深邃又引人入勝的動漫世界。\u003Cbr\u003E\n說書人：4位 (每位15分鐘)\u003Cbr\u003E\n愛書人：10位\u003Cbr\u003E\n備註：分享書籍的朋友，請於17\u002F3或之前通知我們書名及作者，最好有網址連結讓我們大約知道書本內容，讓分享會更順暢進行。\u003Cbr\u003E\n日期：24\u002F03\u002F2018 (星期六)\u003Cbr\u003E\n時間：14:15-16:30\u003Cbr\u003E\n地點：咖啡綠茶＠旺角西洋菜南街38-40號萬高商業大廈3樓\u003Cbr\u003E\n費用：自費在餐廳點單\u003Cbr\u003E\n名額：14人","bookshare1803","動漫","2018-03-24T00:00:00.000Z",{"data":46},[47],{"id":16,"attributes":48},{"name":18,"slug":19,"description":10,"createdAt":20,"updatedAt":20},{"data":10},{"id":51,"attributes":52},36,{"start_date":53,"title":54,"content":55,"excerpt":8,"slug":56,"end_date":10,"tags":57,"createdAt":58,"updatedAt":58,"event_categories":59,"image":63},"2018-01-20","讀書會主題：健康·養生","\n\n正所謂，年少不養生，老來養醫生。\u003Cbr\u003E\n壓大很大，糖衣很美。餐廳充斥著高油高脂的美食，高效的社會同時亦帶來高壓。我們並不能抱著「今朝有酒今朝醉，哪管他朝吊鹽水」的心態。\u003Cbr\u003E\n健康，既指肉體上的，亦指心靈上的健康。\u003Cbr\u003E\n達到身心靈的平衡不僅使我們身體健康，亦促使我們成就完滿的人生。\u003Cbr\u003E\n今次讀書會，我們特別選擇了分享健康養生類書籍，共同朝向身心靈整體健康的目標前進。\u003Cbr\u003E\n誠邀你一起分享閱讀體驗，一同感受由文字所帶出的美妙世界。\u003Cbr\u003E\n歡迎大家一起閱讀，一起分享，相互啟發！\u003Cbr\u003E\n說書人：4位 (每位15分鐘)\u003Cbr\u003E\n愛書人：10位\u003Cbr\u003E\n日期：20\u002F01\u002F2018 (星期六)\u003Cbr\u003E\n時間：14:00-16:00\u003Cbr\u003E\n地點：咖啡綠茶＠旺角西洋菜南街38-40號萬高商業大廈3樓\u003Cbr\u003E\n費用：自費在餐廳點單\u003Cbr\u003E\n名額：14人","booksharing1801","健康","2018-01-07T00:00:00.000Z",{"data":60},[61],{"id":16,"attributes":62},{"name":18,"slug":19,"description":10,"createdAt":20,"updatedAt":20},{"data":10},{"id":65,"attributes":66},32,{"start_date":67,"title":68,"content":69,"excerpt":8,"slug":70,"end_date":10,"tags":71,"createdAt":72,"updatedAt":72,"event_categories":73,"image":77},"2017-11-11","讀書會- 主題：商業、經濟","\n\n新創科技進一步進入我們的生活，我們又如何從中捉緊機會，搭上這潮流的快車？\u003Cbr\u003E\n創新科技癲覆了商業世界並迎來新經濟模式，雖然我們無法掌控外在環境，但我們卻可以從政、經、商各方面了解世界，捉緊人生的機會，突圍而出，掌管自己的未來！\u003Cbr\u003E\n誠邀各位一起閱讀，交流討論，集思廣益，共同學習，共同進步！\u003Cbr\u003E\n說書人：4位 (每位15分鐘)\u003Cbr\u003E\n愛書人：10位\u003Cbr\u003E\n日期：11\u002F11\u002F2017 (星期六)\u003Cbr\u003E\n時間：12:00-14:00\u003Cbr\u003E\n地點：咖啡綠茶＠旺角西洋菜南街38-40號萬高商業大廈3樓\u003Cbr\u003E\n費用：自費在餐廳點餐／飲品\u003Cbr\u003E\n名額：14人","bookshare1711","創新科技","2017-11-11T00:00:00.000Z",{"data":74},[75],{"id":16,"attributes":76},{"name":18,"slug":19,"description":10,"createdAt":20,"updatedAt":20},{"data":10},{"id":79,"attributes":80},37,{"start_date":81,"title":82,"content":83,"excerpt":8,"slug":84,"end_date":10,"tags":85,"createdAt":86,"updatedAt":86,"event_categories":87,"image":91},"2017-09-23","讀書會：人物傳記","\n\n「以銅爲鑒，可正衣冠；以古爲鑒，可知興替；以人爲鑒，可明得失。」\u003Cbr\u003E\n生命影響生命，今次讀書會，我們將分享傳記類書籍。透過別人獨到的經歷，以人為鑒，啟迪智慧與心靈。\u003Cbr\u003E\n誠邀你一起分享閱讀體驗，一同感受由文字所帶出的美妙世界。\u003Cbr\u003E\n歡迎大家，一起閱讀、一起分享、互相啟發！\u003Cbr\u003E\n說書人：4位 (每位15分鐘)\u003Cbr\u003E\n愛書人：10位\u003Cbr\u003E\n日期：23\u002F9\u002F2017 (星期六)\u003Cbr\u003E\n時間：14:00-16:00\u003Cbr\u003E\n地點：待定\u003Cbr\u003E\n費用：咖啡綠茶＠旺角西洋菜南街38-40號萬高商業大廈3樓 (自費在餐廳點餐\u002F飲品)\u003Cbr\u003E\n名額：14人","bookshare1709","人物傳記","2017-09-23T00:00:00.000Z",{"data":88},[89],{"id":16,"attributes":90},{"name":18,"slug":19,"description":10,"createdAt":20,"updatedAt":20},{"data":10},{"id":93,"attributes":94},26,{"start_date":95,"title":96,"content":97,"excerpt":8,"slug":98,"end_date":10,"tags":99,"createdAt":100,"updatedAt":100,"event_categories":101,"image":105},"2017-07-08","讀書會：歷史·遊記","\n\n從文字遊覽五大洲七大洋，觀看萬千世界；從歷史了解各民族興衰成敗，感受各地文化。\u003Cbr\u003E\n今次讀書會，我們特別選擇了分享歷史及遊記類書籍，讀萬卷書也行萬里路，了解不同地區歷史文化，感受各民族的風土人情。\u003Cbr\u003E\n誠邀你一起分享閱讀體驗，一同感受由文字所帶出的美妙世界。\u003Cbr\u003E\n歡迎大家，一起閱讀、一起分享、共同啟發！\u003Cbr\u003E\n說書人：4位 (每位15分鐘)\u003Cbr\u003E\n愛書人：10位\u003Cbr\u003E\n日期：8\u002F7\u002F2017 (星期六)\u003Cbr\u003E\n時間：14:00-16:00\u003Cbr\u003E\n地點：Coffee Break @旺角通菜街2Q-2Z號鴻輝大廈地下4號舖\u003Cbr\u003E\n費用：自費在餐廳點單\u003Cbr\u003E\n名額：14人 (請各說書人於7月2日前通知書名）","booksharing1707","歷史遊記","2017-07-08T00:00:00.000Z",{"data":102},[103],{"id":16,"attributes":104},{"name":18,"slug":19,"description":10,"createdAt":20,"updatedAt":20},{"data":10},{"id":107,"attributes":108},23,{"start_date":109,"title":110,"content":111,"excerpt":8,"slug":112,"end_date":10,"tags":8,"createdAt":113,"updatedAt":113,"event_categories":114,"image":118},"2017-05-06","5月讀書會主題：心靈·勵志","\n\n雞蛋從外打破是食物，從內打破是生命；人生從外打破是壓力，從內打破是成長。\u003Cbr\u003E\n生活壓力四方八面，幸好遇壓時總有書籍能助我們向前邁進。\u003Cbr\u003E\n今次讀書會，我們特別選擇分享心靈及勵志類書籍，讓大家共同成長，同時拓展我們生命的寬度及深度。\u003Cbr\u003E\n誠邀你一起分享閱讀體驗，一同感受由文字所帶出的美妙世界。\u003Cbr\u003E\n歡迎大家一起閱讀，一起分享，相互啟發！\u003Cbr\u003E\n\n說書人：3-4位 (每位20分鐘)\u003Cbr\u003E\n備註：分享書籍的朋友，請於22\u002F4或之前通知我們書名及作者，最好有網址連結讓參與者得知分享書本內容，讓分享會更順暢進行 🙏\u003Cbr\u003E\n日期：6\u002F5\u002F2017 (星期六)\u003Cbr\u003E\n時間：14:00-16:00\u003Cbr\u003E\n地點：待定 (自費在餐廳點餐)\u003Cbr\u003E\n費用：自費在餐廳點單\u003Cbr\u003E\n名額：15人","bookshare1705","2017-05-06T00:00:00.000Z",{"data":115},[116],{"id":16,"attributes":117},{"name":18,"slug":19,"description":10,"createdAt":20,"updatedAt":20},{"data":10},{"pagination":120},{"page":121,"pageSize":122,"pageCount":121,"total":123},2,12,20],"uses":{"dependencies":["http://127.0.0.1:1337/api/events?sort=start_date%3Adesc&populate[author]=true&populate[event_categories]=true&populate[image]=true&pagination[page]=2&pagination[pageSize]=12&filters[event_categories][slug]=book-sharing"],"params":["page","category"]}}]}