{"type":"data","nodes":[{"type":"data","data":[{"categories":1,"event_categories":27},[2,9,15,21],{"id":3,"attributes":4},1,{"slug":5,"name":6,"description":7,"createdAt":8,"updatedAt":8},"nutrition","營養隨筆",null,"2023-02-12T02:39:02.691Z",{"id":10,"attributes":11},2,{"slug":12,"name":13,"description":7,"createdAt":14,"updatedAt":14},"reflection","感悟隨筆","2023-02-12T02:39:02.692Z",{"id":16,"attributes":17},3,{"slug":18,"name":19,"description":7,"createdAt":20,"updatedAt":20},"fitness","運動筆記","2023-02-12T02:39:02.697Z",{"id":22,"attributes":23},4,{"slug":24,"name":25,"description":7,"createdAt":26,"updatedAt":26},"spiritual","心靈勵志","2023-02-12T02:39:02.698Z",[28,33,38,43,47,52],{"id":3,"attributes":29},{"name":30,"slug":31,"description":7,"createdAt":32,"updatedAt":32},"讀書會","book-sharing","2023-02-12T02:38:55.939Z",{"id":16,"attributes":34},{"name":35,"slug":36,"description":7,"createdAt":37,"updatedAt":37},"文化導賞","cultural","2023-02-12T02:38:55.943Z",{"id":22,"attributes":39},{"name":40,"slug":41,"description":7,"createdAt":42,"updatedAt":42},"遊山玩水","hiking","2023-02-12T02:38:55.946Z",{"id":44,"attributes":45},5,{"name":46,"slug":18,"description":7,"createdAt":42,"updatedAt":42},"健體運動",{"id":48,"attributes":49},6,{"name":50,"slug":5,"description":7,"createdAt":51,"updatedAt":51},"活學營養","2023-02-12T02:38:55.947Z",{"id":10,"attributes":53},{"name":54,"slug":55,"description":7,"createdAt":56,"updatedAt":57},"名人面對面","be-our-guest","2023-02-12T02:38:55.942Z","2023-03-08T13:16:12.875Z"],"uses":{"dependencies":["http://127.0.0.1:1337/api/categories?","http://127.0.0.1:1337/api/event-categories?"]},"slash":"always"},{"type":"data","data":[{"data":1,"meta":181},[2,23,42,60,74,89,101,115,127,141,153,167],{"id":3,"attributes":4},15,{"title":5,"content":6,"start_date":7,"excerpt":8,"slug":9,"end_date":10,"tags":11,"createdAt":12,"updatedAt":12,"event_categories":13,"image":22},"笑看壓力，展開意義人生","\n\n香港生活節奏快，工時長，物價高，工作壓力大，香港人被壓得透不過氣來，究竟如何可以活出有意義的人生?\n\n作為急症室顧問醫生，陳國禧醫生將會透過自己的故事，及在急症室每天面對但鮮為人知的日常事務，分享在壓力下如何管理情緒，從容面對挑戰的秘訣。現任多個正向心理學 (positive psychology)、啟導教練學(coaching) 和靜觀(mindfulness)課程工作坊培訓導師，陳國禧醫生更會向大家派發「積極正向人生錦囊」，讓大家活在當下，活出意義人生!\n\n日期：2017年4月29日(星期六) \u003Cbr\u003E\n時間：晚上7:15-9:30\u003Cbr\u003E\n地點：九龍旺角登打士街56號柏裕商業中心15樓安利體驗館\u003Cbr\u003E\n費用：$150 (包括有營晚餐)\n\n陳國禧醫生小簡介:\u003Cbr\u003E\n瑪嘉烈醫院前急症室部 主管\u003Cbr\u003E\n三屆十年被選為「香港急症科醫學院」名譽司庫\u003Cbr\u003E\n2006年，被委任為明愛醫院建立急症專科病房\u003Cbr\u003E\n香港醫學專科學院院士(急症科)\u003Cbr\u003E\n香港大學社區精神醫學深造文憑\u003Cbr\u003E\n香港大學佛學碩士\u003Cbr\u003E\n南澳洲大學輔導學碩士\u003Cbr\u003E\nAssociate Certified Meta-Coach® (ISNS)\u003Cbr\u003E\nCertified Neuro-Semantic \u002F NLP Trainer (ISNS) \u003Cbr\u003E\nCertified Master NLP Trainer (NLPU)\n","2017-04-29","瑪嘉烈醫院前急症室部主管陳國禧醫生","dr-chan",null,"壓力,正向心理學 ,靜觀","2017-04-29T00:00:00.000Z",{"data":14},[15],{"id":16,"attributes":17},2,{"name":18,"slug":19,"description":10,"createdAt":20,"updatedAt":21},"名人面對面","be-our-guest","2023-02-12T02:38:55.942Z","2023-03-08T13:16:12.875Z",{"data":10},{"id":24,"attributes":25},13,{"title":26,"content":27,"start_date":28,"excerpt":29,"slug":30,"end_date":10,"tags":31,"createdAt":32,"updatedAt":32,"event_categories":33,"image":41},"週末郊遊鬆一鬆@青蔥碧海- 西貢赤徑","\n\n平時侷促在辦公室及煩囂市區，放假一於逃離市區抖抖氣！\n\n西貢沿岸景色醉人， 赤徑位於西貢東部的海濱低地，風景開揚。我們選擇由北潭凹的涼亭起步，大約一小時的路程中，除了沿途飽覽西貢東的壯麗山嶺及海岸風光，尾段更會沿漫步海灘，欣賞美麗的海岸。\n離開時，將會在赤徑碼頭乘坐街渡前往黃石碼頭。\n\n行完山，一齊食埋晏先走！\u003Cbr\u003E\n預計行山時間為1小時，加上車程及回程坐船坐車時間，整段行程大約3.5小時。\n\n日期：14\u002F4\u002F2016 星期五(公眾假期)\u003Cbr\u003E\n集合時間：上午9:50，不見即散 (坐10:00的94巴士)\u003Cbr\u003E\n集合地點：西貢巴士總站\u003Cbr\u003E\n路線：北潭凹\u003E赤徑\u003E赤徑碼頭\u003Cbr\u003E\n備註：預計坐12:20赤徑碼頭至黃石碼頭的街渡，再在黃石碼頭坐94號巴士回西貢碼頭，預計大約13:45到西貢碼頭\u003Cbr\u003E\n🍚 午餐暫定13:45-15:00，地點稍後確定。\u003Cbr\u003E\n若不午餐，請報名時註明。","2017-04-14","","hiking1704","西貢赤徑","2017-04-14T00:00:00.000Z",{"data":34},[35],{"id":36,"attributes":37},4,{"name":38,"slug":39,"description":10,"createdAt":40,"updatedAt":40},"遊山玩水","hiking","2023-02-12T02:38:55.946Z",{"data":10},{"id":43,"attributes":44},17,{"title":45,"content":46,"start_date":47,"excerpt":29,"slug":48,"end_date":10,"tags":49,"createdAt":50,"updatedAt":50,"event_categories":51,"image":59},"清幽澄淨- 慈山寺","\n\n坐落於大埔的慈山寺，背山面海，環境清幽。寺院借鑑唐代建築風格，配以現代建築的簡約樸素設計。靜心遊觀，淨化心靈，讓人得以忘卻世俗的煩囂壓力。\u003Cbr\u003E\n要預約慈山寺的團體導賞參觀，往往需時數月至逾年。Empower 非常感恩能組團進內導賞參觀。\n\n日期：2017年4月8日(星期六)\u003Cbr\u003E\n時間：上午10:00至中午13:30 （包括午飯時間，午飯費用自付）\u003Cbr\u003E\n地點：香港新界大埔普門路88號慈山寺\u003Cbr\u003E\n將於09:30在大埔墟火車站集合。","2017-04-08","visit1704","慈山寺","2017-04-08T00:00:00.000Z",{"data":52},[53],{"id":54,"attributes":55},3,{"name":56,"slug":57,"description":10,"createdAt":58,"updatedAt":58},"文化導賞","cultural","2023-02-12T02:38:55.943Z",{"data":10},{"id":61,"attributes":62},12,{"title":63,"content":64,"start_date":65,"excerpt":29,"slug":66,"end_date":10,"tags":67,"createdAt":68,"updatedAt":68,"event_categories":69,"image":73},"金庸迷大喜訊：萬眾期待的金庸館終於開幕！","\n\n金庸迷大喜訊：萬眾期待的金庸館終於開幕！\u003Cbr\u003E\nEmpower 榮幸邀得著名漫畫家李志清老師為我們導賞“繪畫・金庸”展覽，並獲文化博物館特別安排為我們導賞金庸館。\u003Cbr\u003E\n李老師於1997年與查良鏞先生創立明河(創文)出版有限公司，替金庸小說畫漫畫，作品包括《射鵰英雄傳》、《笑傲江湖》。獲獎無數，包括日本第一屆國際漫畫獎最優秀作品獎、香港星島集團「傑出領袖獎」、香港特別行政區政府「行政長官社區服務獎」等。\n\n日期：2017年3月25日(星期六)\u003Cbr\u003E\n時間：下午2:15至3:30\u003Cbr\u003E\n地點：香港文化博物館","2017-03-25","cultural170325","金庸館","2017-03-25T00:00:00.000Z",{"data":70},[71],{"id":54,"attributes":72},{"name":56,"slug":57,"description":10,"createdAt":58,"updatedAt":58},{"data":10},{"id":75,"attributes":76},16,{"title":77,"content":78,"start_date":79,"excerpt":80,"slug":81,"end_date":10,"tags":82,"createdAt":83,"updatedAt":83,"event_categories":84,"image":88},"閒談香港地產市場","\n\n據統計，全球10大最難買房的地區中，香港連續7年位居首位，一個家庭要18年不吃不喝的錢才能相抵樓價。究竟香港樓價會否繼續居高不下？甚麼時候才是置業良機？香港樓市是否有泡沫？\n\nEmpower 榮幸邀得新鴻基地產前執行董事Michael 黃奕鑑為我們分享其經驗，論述對置業及樓市的見解。Michael 任職新鴻基地產近30年，退休前是新地執行董事，主管公司發展及策略、投資、房地產硏究分析、基礎建設、企業傳訊等工作。公職方面，曾任香港青年旅舍恊會主席，參與保育香港第一代公屋深水埗美荷樓，現為香港中文大學新亞書院校董及香港公開大學校董會主席。\n\nMichael 就其在地産界的豐富經驗及精闢見解，為大家講解香港地產市道，並與大家分享有意置業人士經常提出的問題。\n\n日期：2017年3月18日(星期六) \u003Cbr\u003E\n時間：晚上7:15-9:30\u003Cbr\u003E\n地點：九龍旺角登打士街56號柏裕商業中心15樓安利體驗館\u003Cbr\u003E\n費用：$150 (包括有營晚餐)\n","2017-03-18","新鴻基地產前執行董事黃奕鑑先生 (Michael)","michael-wong","香港樓市,地產,置業","2017-03-18T00:00:00.000Z",{"data":85},[86],{"id":16,"attributes":87},{"name":18,"slug":19,"description":10,"createdAt":20,"updatedAt":21},{"data":10},{"id":90,"attributes":91},11,{"title":92,"content":93,"start_date":79,"excerpt":29,"slug":94,"end_date":10,"tags":95,"createdAt":83,"updatedAt":83,"event_categories":96,"image":100},"週末郊遊鬆一鬆@鄉土情懷·西貢古道","\n\n平時侷促在辦公室及煩囂市區，放假一於逃離市區抖抖氣！🚶\n\n今次我們選擇充滿鄉土情懷的西貢古道，走訪百花林，途經逾百年的國父孫中山先生母親楊太君夫人墓，俯瞰西貢及白沙灣一帶幽美景色。古道沿途細味田園風光，再訪有逾400年歷史，現已列為一級歷史建築的車公古廟。\n行完山，一齊食埋晏先走！🍜\n\n預計行山時間為3小時。\u003Cbr\u003E\n備註：全程主要為下坡路段，近九成為混凝土小徑，輕鬆易行，其餘為地衣處處的石砌古道。\u003Cbr\u003E\n日期：18\u002F3\u002F2016 星期六\u003Cbr\u003E\n集合時間：上午9:30，不見即散 (若不午餐，預計13:00到西貢蠔涌)\u003Cbr\u003E\n集合地點：港鐵鑽石山站C2地面出口集合 (前往坐92號巴士，「德望中學」下車)\u003Cbr\u003E\n路線：飛鵝山道\u003E百花林(孫中山母親之墓)\u003E大藍湖\u003E蠔涌\u003Cbr\u003E\n🍚 午餐暫定13:00-14:30，地點稍後確定。\u003Cbr\u003E\n若不午餐，請報名時註明。","hiking1703","西貢古道",{"data":97},[98],{"id":36,"attributes":99},{"name":38,"slug":39,"description":10,"createdAt":40,"updatedAt":40},{"data":10},{"id":102,"attributes":103},9,{"title":104,"content":105,"start_date":106,"excerpt":29,"slug":107,"end_date":10,"tags":108,"createdAt":109,"updatedAt":109,"event_categories":110,"image":114},"都市淨土- 志蓮淨苑及南蓮園池","\n\n中國傳統唐式庭園和建築不僅演繹中華文化的藝術，更承載厚重的中華歷史、天人合一的哲學觀及注重個人修養的文化。\u003Cbr\u003E\n【南蓮園池】以唐代園林設計為藍本，配合北面【志蓮淨苑】復建唐代木構建築群，兩者相互毗連，為繁華喧鬧的市區帶來一片淨土。\u003Cbr\u003E\n我們冀透過是次的導賞參觀，更深入了解中國園林藝術及佛教文化；透過靜心遊觀，淨化心靈，暫時忘卻世俗的煩囂壓力。\u003Cbr\u003E\n參觀後，我們將於寺內「龍門樓」品嚐志蓮淨苑素菜。\u003Cbr\u003E\n日期：2017年3月11日(星期六)\u003Cbr\u003E\n時間：上午10:00至中午12:00\u003Cbr\u003E\n午飯時間：中午12:00-13:30\u003Cbr\u003E\n地點：九龍鑽石山志蓮淨苑及南蓮園池\u003Cbr\u003E\n費用：參觀免費，午餐自費","2017-03-11","cultural1703","志蓮淨苑,南蓮園池","2017-03-11T00:00:00.000Z",{"data":111},[112],{"id":54,"attributes":113},{"name":56,"slug":57,"description":10,"createdAt":58,"updatedAt":58},{"data":10},{"id":116,"attributes":117},14,{"title":118,"content":119,"start_date":106,"excerpt":29,"slug":120,"end_date":10,"tags":121,"createdAt":109,"updatedAt":109,"event_categories":122,"image":126},"旅遊分享系列：尋夢•追夢•完夢","\n\n她，年過半百才開始人生第一次自由行 ─ 西藏。\u003Cbr\u003E\n此後，懷著對夢想的追求，她獨自遊歷了別人喻為背包客高級班的印度、踏足神秘的伊拉克庫爾斯坦、深入香港人足跡少至的格魯吉亞……\u003Cbr\u003E\n每個獨特的地方，都是推動著她尋夢的力量。\u003Cbr\u003E\n她有隻身旅行的勇氣。敞開心扉去感受世界，交結不同地域的朋友。\u003Cbr\u003E\n但她亦從不抗拒與人同途作伴。無論是認識的朋友，還是在旅遊討論區裡素未謀面的，只要志同道合，皆可成為同行互助的旅伴。\u003Cbr\u003E\n追尋夢想的力量，讓她克服了路上的孤單、言語的障礙、對人心險惡的恐懼。異國文化的氣氛與風土人情，吸引著她一次又一次踏上每一處興趣盎然的土地。\u003Cbr\u003E\n年近七十的她，今天依然充滿著夢想，腳踏實地走在追夢的路上……\u003Cbr\u003E\nEMPOWER榮幸邀得大地行者 MAY 姐，施嘉宜女士，分享她的尋夢之旅！\n\n日期：2017年3月11日 (星期六)\u003Cbr\u003E\n時間：下午2:30-4:00\u003Cbr\u003E\n地點：九龍旺角登打士街56號柏裕商業中心15樓安利體驗館B室\u003Cbr\u003E\n費用：$50","travelsharing","旅遊分享,自助遊,背包遊",{"data":123},[124],{"id":54,"attributes":125},{"name":56,"slug":57,"description":10,"createdAt":58,"updatedAt":58},{"data":10},{"id":128,"attributes":129},8,{"title":130,"content":131,"start_date":132,"excerpt":29,"slug":133,"end_date":10,"tags":134,"createdAt":135,"updatedAt":135,"event_categories":136,"image":140},"春日品茶趣·輕茶道","\n\n一片春日的落英，搭配微微的茶香，好不愜意。\u003Cbr\u003E\nEmpower 榮幸邀得瑜茶舍創辦人 Catherine，為我們開辦“春日品茶趣·輕茶道”工作坊，內容包括：\u003Cbr\u003E\n- 茶藝表演\u003Cbr\u003E\n- 茶文化及茶藝講解\u003Cbr\u003E\n- 何謂六大茶類\u003Cbr\u003E\n- 茶器運用\u003Cbr\u003E\n- 茶與禮儀\u003Cbr\u003E\n- 品茗一至兩種茶品\u003Cbr\u003E\n- 問答環節\u003Cbr\u003E\n⭐ 導師：Ms Catherine Yung，自幼跟隨經營普洱茶葉生意的媽媽穿梭中港兩地，拜訪不同茶道老師，登雲南茶山採茶葉。為令茶道年青化和時尚化，4年前創辦瑜茶舍，以平易近人的品茗體驗，讓更多年輕人能透過實地教學，領略傳統茶道之美","2017-02-11","tea1702","茶道,荼藝","2017-02-11T00:00:00.000Z",{"data":137},[138],{"id":54,"attributes":139},{"name":56,"slug":57,"description":10,"createdAt":58,"updatedAt":58},{"data":10},{"id":142,"attributes":143},7,{"title":144,"content":145,"start_date":132,"excerpt":29,"slug":146,"end_date":10,"tags":147,"createdAt":135,"updatedAt":135,"event_categories":148,"image":152},"活化歷史, 文化傳承- 饒宗頤文化館","\n\n饒宗頤文化館前身為荔枝角醫院，為香港三級歷史建築。為服務當時社會的需求，之前曾為“豬仔館”、監獄、隔離站，歷盡社會變遷。\u003Cbr\u003E\n作為活化歷史建築項目，設計優雅的饒館繼續延續其社會任務，透過保育館、舊更亭和古石牆等歷史景點，展現饒館的今昔及保育過程。作為以國學大師饒宗頤命名的文化館，藝術館展出饒教授的藝術作品，並透過多媒體介紹饒教授的生平事蹟。\n\nEmpower 特別揀選元宵佳節，參觀這座有“城市綠洲”之稱的文化建築，與大家一起參與本地歷史文化的傳承，豐富我們的文化生活。\u003Cbr\u003E\n\n日期：2017年2月11日 (星期六)\u003Cbr\u003E\n時間：上午10:00-11:30\u003Cbr\u003E\n地點：九龍青山道800號饒宗頤文化館\u003Cbr\u003E\n費用：免費","cultural1702","饒宗頤文化館",{"data":149},[150],{"id":54,"attributes":151},{"name":56,"slug":57,"description":10,"createdAt":58,"updatedAt":58},{"data":10},{"id":154,"attributes":155},10,{"title":156,"content":157,"start_date":158,"excerpt":29,"slug":159,"end_date":10,"tags":160,"createdAt":161,"updatedAt":161,"event_categories":162,"image":166},"新春行山團- 暢遊南丫島","\n\n雞年伊始，我們特選暢遊南丫島，讓我們乘風破浪，舉目四方，海闊天空！祝願大家身體健康、日日心曠神怡！\u003Cbr\u003E\n今次路線由榕樹灣出發，浴途景色開揚。\u003Cbr\u003E\n行完山，一齊食埋晏先走！🍜\u003Cbr\u003E\n預計行山時間為1.5小時\u003Cbr\u003E\n日期：31\u002F1\u002F2017 初四星期二\u003Cbr\u003E\n時間：10:30-13:30（若不午餐，預計13:30到索罟灣碼頭）\u003Cbr\u003E\n集合地點：10:05中環往南丫島4號碼頭集合（坐10:30船出發，預計人多，請提早集合，太遲有機會無船位）\u003Cbr\u003E\n路線：中環＞榕樹灣＞索罟灣","2017-01-31","hiking1702","南丫島","2017-01-31T00:00:00.000Z",{"data":163},[164],{"id":36,"attributes":165},{"name":38,"slug":39,"description":10,"createdAt":40,"updatedAt":40},{"data":10},{"id":168,"attributes":169},6,{"title":170,"content":171,"start_date":172,"excerpt":29,"slug":173,"end_date":10,"tags":174,"createdAt":175,"updatedAt":175,"event_categories":176,"image":180},"新年登高步步高陞- 大帽山俯瞰大地四方","\n\n平時侷促在辦公室及煩囂市區，放假一於逃離市區抖抖氣！\u003Cbr\u003E\n1月新年伊始，我們今次選擇了登上香港之巔－大帽山(957米高)，祝願大家今年都步步高陞。今次路線由荃錦坳(478米高)出發，沿途景色開揚壯觀，若天朗氣清，能俯瞰全港景色，西北的錦田元朗、東西的大埔馬鞍山、南面的九龍港島等都一覽無遺。\u003Cbr\u003E\n行完山，一齊飲埋茶，食埋晏先走！\u003Cbr\u003E\n預計行山時間為3小時\u003Cbr\u003E\n備註：海拔較高，請帶備足夠外套保暖並請帶備防曬用品\u003Cbr\u003E\n日期：2017年1月21日(星期六)\u003Cbr\u003E\n時間：09:30至13:00\u003Cbr\u003E\n集合地點：09：30於荃港鐵荃灣西站A1出口集合（前往坐51號巴士到效野公園站下車），不見即散\u003Cbr\u003E\n路線：荃錦坳＞大帽山道＞大㡌山山頂＞大帽山道＞荃錦坳\u003Cbr\u003E\n活動結束後將返回荃灣一起午膳\u003Cbr\u003E","2017-01-21","hiking1701","大帽山","2017-01-21T00:00:00.000Z",{"data":177},[178],{"id":36,"attributes":179},{"name":38,"slug":39,"description":10,"createdAt":40,"updatedAt":40},{"data":10},{"pagination":182},{"page":116,"pageSize":61,"pageCount":75,"total":183},188],"uses":{"dependencies":["http://127.0.0.1:1337/api/events?sort=start_date%3Adesc&populate[author]=true&populate[event_categories]=true&populate[image]=true&pagination[page]=14&pagination[pageSize]=12"],"params":["page","category"]}}]}