{"type":"data","nodes":[null,{"type":"data","data":[{"data":1,"meta":328},[2,32,69,99,129,152,174,201,226,246,278,303],{"id":3,"attributes":4},735,{"title":5,"excerpt":6,"content":7,"slug":8,"createdAt":9,"updatedAt":9,"author":10,"categories":11,"tags":19,"image":31},"維他命C：增強免疫力之王",null,"\n\n上星期提及硒和維他命E可幫助阻隔污染物粒子進入肺部，若想事半功倍，就必須多加攝取維他命C💪💪\n\n白血球是人體迎擊病毒和形成免疫力的功臣，維他命C正可強化其功效，並加速白血球調動。此外維他命C可還原解毒，將毒素中和分解，減少身體所受的毒害。芸芸營養素中，維他命C在維護免疫系統方面名列首位，絕非浪得虛名🤩\n\n不少水果皆富含維他命C。🍊橘子類固然含有維他命C，但其實番石榴、士多啤梨和奇異果的維他命C含量都較橙和柑豐富，其中100克番石榴所含維他命C達228毫克，是橙的4倍😱\n\n🥰溫馨提示：維他命C非常容易氧化，故水果切開後應立即食用。維他命C也是水溶性的，短短2、3小時就會經汗水或尿液排出體外，故必須在3餐中充份攝取。","post19127","2019-11-27T00:00:00.000Z",{"data":6},{"data":12},[13],{"id":14,"attributes":15},1,{"slug":16,"name":17,"description":6,"createdAt":18,"updatedAt":18},"nutrition","營養隨筆","2023-02-07T08:03:25.893Z",{"data":20},[21,26],{"id":22,"attributes":23},27,{"name":24,"createdAt":25,"updatedAt":25},"維他命C","2023-02-07T08:03:09.582Z",{"id":27,"attributes":28},26,{"name":29,"createdAt":30,"updatedAt":30},"免疫力","2023-02-07T08:03:09.575Z",{"data":6},{"id":33,"attributes":34},736,{"title":35,"excerpt":6,"content":36,"slug":37,"createdAt":38,"updatedAt":38,"author":39,"categories":40,"tags":44,"image":68},"硒+E：解毒之王","\n\n近日大家較容易從空氣吸入不同類型的毒素☠，今次介紹兩種特別有助肺部抵禦空氣污染的微量元素，大家可多加留意攝取😊\n\n大家對硒或較為陌生，但對「世界長壽之鄉」巴馬應有印象；除巴馬外，廣西還有18個縣市獲授「中國長壽之鄉」的稱號😍。專家認為一大原因，是這些地區的土壤和農產品均富含硒。\n\n硒有抗癌之王的美譽，可以抑制癌細胞，清除體內的自由基，並維持心臟正常運作，防止血管硬化。而且是水銀、鎘等重金屬的天然解毒劑，有助身體排出毒素，同時增強免疫力💪🏻💪🏻，防禦空氣污染對呼吸器官黏膜的損害。沙甸魚、蠔、🥚蛋、大蒜均富含硒。\n\n至於維他命E，女士們應很熟悉，因維他命E有「靚女E」之稱💆🏻‍♀，攝取充足有助預防皮膚老化尤其是老人斑的形成。此外，維他命E是細胞呼吸的必需促進因子，研究發現體內維他命E的水平越高，越能抵抗污染物粒子進入肺部。堅果、🥑牛油果、菠菜都含有豐富維他命E。","post91117","2019-11-17T00:00:00.000Z",{"data":6},{"data":41},[42],{"id":14,"attributes":43},{"slug":16,"name":17,"description":6,"createdAt":18,"updatedAt":18},{"data":45},[46,51,56,61,63],{"id":47,"attributes":48},23,{"name":49,"createdAt":50,"updatedAt":50},"硒","2023-02-07T08:03:09.515Z",{"id":52,"attributes":53},24,{"name":54,"createdAt":55,"updatedAt":55},"維他命E","2023-02-07T08:03:09.529Z",{"id":57,"attributes":58},25,{"name":59,"createdAt":60,"updatedAt":60},"抗癌","2023-02-07T08:03:09.556Z",{"id":27,"attributes":62},{"name":29,"createdAt":30,"updatedAt":30},{"id":64,"attributes":65},9,{"name":66,"createdAt":67,"updatedAt":67},"排毒","2023-02-07T08:03:09.334Z",{"data":6},{"id":70,"attributes":71},734,{"title":72,"excerpt":6,"content":73,"slug":74,"createdAt":75,"updatedAt":75,"author":76,"categories":77,"tags":81,"image":98},"這個冬天不太冷","\n\n立冬剛過，🥶怕冷的朋友又是時候進補。Empower_天前剛舉辦蛇宴，蛇湯、蛇羹、羊腩煲、糯米飯😍……一眾老饕吃得好不暢快，但心裡又怕虛不受補會上火甚至爆瘡😵。究竟應如何進補是好？\n\n古代人飲食清淡，鮮有肉吃；現代人飲食則常高脂高糖，三高、糖尿問題不絕於耳。故此若本身已有這些代謝問題的朋友，並不建議常吃以上溫熱食物進補；即使手腳冰冷，也是血液循環問題，有機會再講如何處理😉\n\n其實立冬及小雪最重要是補脾健胃，補腎壯腰；脾腎皆壯，自然不怕冷💪💪。栗子被譽為「千果之王」，唐代名醫孫思邈更稱之為「腎之果」，營食豐富，蛋白質、維他命、礦物質、不飽和脂肪酸及膳食纖維一應俱全，除可補腎和脾胃外，對防治高血壓、冠心病和動脈硬化等亦有功效👍🤗","post191112","2019-11-12T00:00:00.000Z",{"data":6},{"data":78},[79],{"id":14,"attributes":80},{"slug":16,"name":17,"description":6,"createdAt":18,"updatedAt":18},{"data":82},[83,88,93],{"id":84,"attributes":85},21,{"name":86,"createdAt":87,"updatedAt":87},"補脾健胃","2023-02-07T08:03:09.466Z",{"id":89,"attributes":90},22,{"name":91,"createdAt":92,"updatedAt":92},"栗子","2023-02-07T08:03:09.493Z",{"id":94,"attributes":95},16,{"name":96,"createdAt":97,"updatedAt":97},"腎","2023-02-07T08:03:09.378Z",{"data":6},{"id":100,"attributes":101},733,{"title":102,"excerpt":6,"content":103,"slug":104,"createdAt":105,"updatedAt":105,"author":106,"categories":107,"tags":111,"image":128},"痛風不可食蛋白質？","\n\n常說痛風是一種富貴病，太過大魚大肉就會中招，食太多肉類、海產尤其容易發作😖，痛起上黎風吹都頂唔順😱！坊間說痛風不能吃肉類的原因是肉類含有高度蛋白質，究竟蛋白質是否引起痛風的主因呢？痛風患者是否不能吃蛋白質食物呢？\n\n其實痛風的真正主因是由嘌呤轉化的「尿酸」引起。過量吸收嘌呤而未能分解，會在體內轉變成尿酸，形成結晶卡在手指、腳趾(特別是大拇指)、膝頭等手腳關節內，產生紅、腫、熱、痛的發炎反應，俗稱「痛風」。近年有研究指出，體內三分二的嘌呤是由身體製造而成，外部吸收的僅佔三分之一。因此要解決尿酸問題，必須內外夾擊！\n\n高嘌呤食品包括動物內臟、貝殼類海產及紅肉，切勿吃過量。若想補充蛋白質又怕嘌呤超標？可以選擇植物性蛋白質、雞蛋、海參等，亦可選擇去嘌呤的大豆分離蛋白，直接吸收蛋白質。\n\n識得揀嘢食減少了嘌呤吸收，身體產生而積聚的嘌呤又應該如何處理呢？請看下回分解","post191101","2019-11-01T00:00:00.000Z",{"data":6},{"data":108},[109],{"id":14,"attributes":110},{"slug":16,"name":17,"description":6,"createdAt":18,"updatedAt":18},{"data":112},[113,118,123],{"id":114,"attributes":115},18,{"name":116,"createdAt":117,"updatedAt":117},"痛風","2023-02-07T08:03:09.398Z",{"id":119,"attributes":120},19,{"name":121,"createdAt":122,"updatedAt":122},"尿酸","2023-02-07T08:03:09.419Z",{"id":124,"attributes":125},20,{"name":126,"createdAt":127,"updatedAt":127},"蛋白質","2023-02-07T08:03:09.445Z",{"data":6},{"id":130,"attributes":131},730,{"title":132,"excerpt":6,"content":133,"slug":134,"createdAt":135,"updatedAt":135,"author":136,"categories":137,"tags":145,"image":151},"夢想還是要有，萬一實現了呢","\n\n這是馬雲非常著名的金句，也印在紀念阿里巴巴在美國上市的特製T裇上，足見它的份量。馬雲創業由零開始，沒有「父幹」，只好不斷努力。阿里爸爸的成功，令他相信凡事皆有可能，故以此話勉勵年青人，要有夢想，並要相信自己有能力將夢想實現！💪💪\n\n另一位內地傳奇創業家、新東方教育集團的創辦人俞敏洪表示，人生有兩種活法：一種是平庸地度過，不願放棄自己擁有的東西，過得很舒服，很平穩，但沒甚麼奇蹟發生😐；另一種是不甘平庸地度過，不是突破現狀，更多是突破自己，找到全新的自我，不害怕失敗，不氣餒，相信自己終會成功。🤗「敢於放棄，是放棄平庸，走向創造；放棄迷茫，走向堅定。有時候，放棄以後你可能甚麼也得不到，依然從平庸走向平庸，但總比你一直待在那個地方平庸要好，因為你至少已努力過了。」\n\n學會相信自己，並相信自己的人生將越來越燦爛 ---- 明天比今天更好，明年比今年更好，之後的五年比現在的五年更好。有了渴望，人生自會被引領，不斷向前！","post191022","2019-10-22T00:00:00.000Z",{"data":6},{"data":138},[139],{"id":140,"attributes":141},2,{"slug":142,"name":143,"description":6,"createdAt":144,"updatedAt":144},"spiritual","心靈勵志","2023-02-07T08:03:25.896Z",{"data":146},[147],{"id":140,"attributes":148},{"name":149,"createdAt":150,"updatedAt":150},"夢想","2023-02-07T08:03:09.306Z",{"data":6},{"id":153,"attributes":154},732,{"title":155,"excerpt":6,"content":156,"slug":157,"createdAt":158,"updatedAt":158,"author":159,"categories":160,"tags":164,"image":173},"眼袋、黑眼圈也跟腎有關？","w\n\n\n眼睛是靈魂之窗，許多女士都特別著重眼部肌膚護理；可惜無論用多貴價的眼霜，眼袋、黑眼圈依然揮之不去😣，甚至到美容院花過萬元做了去眼袋療程，過一段時間後眼袋又死灰復燃…….那怎麼辦才好？🙄\n\n眼袋、黑眼圈的成因林林總總，大多與氣血循環有關，當中在腎虛者極為常見。腎主水，其色為黑；腎虛有礙水液代謝，容易導致下眼瞼浮腫。若下眼瞼皮膚既鬆且黑🐼，且長時間未能消褪，就要好好護腎了。\n\n如上周六的＜補腎強身＞講座所言，維他命B、鈣及鎂都是補腎的營養素。其中鈣鎂的攝取比例必需為2:1，這樣才可有效防止鈣質沉積於腎臟等軟組織，防止腎結石形石💪💪。世上並沒有任何一種食物的鎂含量特別多，最豐富的可謂堅果類，其次為魚、海藻、蔬菜、豆類。故此，與以肉類為主的西方飲食相比，包含魚、海藻和納豆的日本和食🍱是攝取鎂的較佳方式。食用營養補充品時，也務必選擇天然有機、鈣鎂比例相符的補充品，切忌大劑量地單一補鈣。","post191016","2019-10-16T00:00:00.000Z",{"data":6},{"data":161},[162],{"id":14,"attributes":163},{"slug":16,"name":17,"description":6,"createdAt":18,"updatedAt":18},{"data":165},[166,171],{"id":167,"attributes":168},15,{"name":169,"createdAt":170,"updatedAt":170},"眼睛","2023-02-07T08:03:09.375Z",{"id":94,"attributes":172},{"name":96,"createdAt":97,"updatedAt":97},{"data":6},{"id":175,"attributes":176},731,{"title":177,"excerpt":6,"content":178,"slug":179,"createdAt":180,"updatedAt":180,"author":181,"categories":182,"tags":186,"image":200},"腎功能與尾指長度有關？","\n\n慈禧太后尾指常戴指甲套，可能因為腎唔好？😱\n\n看古裝片經常看到慈禧太后或其他妃嬪都在尾指戴長長的指甲套😮，除了突顯身份地位並保護她們長長的指甲外，不知會否是知道尾指越長，代表腎功能越好，人就越青春有活力呢？😄\n\n男左女右，尾指的長度若在無名指第三指節的橫紋之上，反映腎功能天生較佳❤，通常是父母35歲前孕育出來的。當然若父母操勞而壓力又大，即使35歲前生兒育女，孩子的尾指也可能較短。\n\n腎不好，容易尿頻甚至夜尿、腰痛、眼肚大、脫髮、記性差😖，但絕對可透過飲食和運動改善。歡迎大家一起來本周六(10月12日)上午的《補腎強身》營養講座，了解如何固本培元，令身體自我修復，腎氣足，精神好！","post20191010","2019-10-10T00:00:00.000Z",{"data":6},{"data":183},[184],{"id":14,"attributes":185},{"slug":16,"name":17,"description":6,"createdAt":18,"updatedAt":18},{"data":187},[188,190,195],{"id":94,"attributes":189},{"name":96,"createdAt":97,"updatedAt":97},{"id":191,"attributes":192},14,{"name":193,"createdAt":194,"updatedAt":194},"尿頻","2023-02-07T08:03:09.371Z",{"id":196,"attributes":197},17,{"name":198,"createdAt":199,"updatedAt":199},"記性","2023-02-07T08:03:09.381Z",{"data":6},{"id":202,"attributes":203},729,{"title":204,"excerpt":6,"content":205,"slug":206,"createdAt":207,"updatedAt":207,"author":208,"categories":209,"tags":213,"image":225},"腋下、手踭烏卒卒，可能是糖尿警號？","\n\n行街搭車，應該都會見過有人頸後、手踭或膝頭特別烏黑，有些甚至腋下或指間也是如此😖，尤以長者和肥胖人士為甚。原來這未必是清潔不善，而是胰島素分泌過多，形成「黑色棘皮症」所致。\n\n胰島素是由胰臟分泌的荷爾蒙，令葡萄糖得以進入細胞作為能量來源，使血糖保持穩定。現代人常吃加工食品🍔，又或暴飲暴食🎂，致血糖急促上升，長時間反複積累，導致胰島素分泌過盛，刺激皮下細胞增生，令皮膚變黑變厚且粗糙，在較多皮膚聚集的摺紋位置尤為明顯。\n\n「黑色棘皮症」與被稱為糖尿病前身的胰島素阻抗的增加有關😮。如發現有此病癥，且本身身型肥胖，或家族有糖尿病患，建議盡快檢驗血糖，以確定是否罹患糖尿病，及早治療。\n\n想知道如何有效預防或根治糖尿，歡迎出席下周一10月7日＜活學營養：擺脫糖尿 活得輕鬆＞🤗\n我的健康我作主，打造健康生活圈！","post191002","2019-10-02T00:00:00.000Z",{"data":6},{"data":210},[211],{"id":14,"attributes":212},{"slug":16,"name":17,"description":6,"createdAt":18,"updatedAt":18},{"data":214},[215,220],{"id":216,"attributes":217},11,{"name":218,"createdAt":219,"updatedAt":219},"糖尿","2023-02-07T08:03:09.345Z",{"id":221,"attributes":222},12,{"name":223,"createdAt":224,"updatedAt":224},"胰島素","2023-02-07T08:03:09.351Z",{"data":6},{"id":227,"attributes":228},727,{"title":229,"excerpt":6,"content":230,"slug":231,"createdAt":232,"updatedAt":232,"author":233,"categories":234,"tags":238,"image":245},"你的動力開關開啟了嗎？","\n\n昨天心情很好，但今天起床卻情緒低落？\n\n年初定好今年的目標，但到今天也未起動？\n\n如果有多啦A夢百寶袋，你想要甚麼工具協助達成願望？可能就是一個能打開自己潛力的動力開關。\n\n山崎拓巳先生在著作《一個人的充電時間》中提出 ，動力十足的人與半途而廢的人的差異，就是能否啟動我們內心的「動力開關」。\u003Cbr\u003E\n書中列舉34個能啟動「動力開關」及持續提供動力的方法，看上去是老生常談，但每篇配合插圖的小文章，總是讓我們有不同的啟發。\n\n動力被啟動可能不難，有時候與朋友談得興高采烈，又或是希望新一年有所突破，便突然決心完成某件事情。然而啟動動力後，如何持續這一股動力，讓自己突破舒適圈，持續規劃並調整情緒才是重點。正如山崎先生所說，幹勁是不會永遠持續的；必須下一番功夫，才能把動力維持下去。\n很喜歡其中一句「不要受到心情左右，而是刻意地左右心情」。很多時候，我們的情緒會備受他人及環境影響。只有掌握自己情緒的主導權，我們才能成就事情，才能成就自己的人生！\n即使每天工作行程排得滿滿，也記得要為自己安排一個人獨處的充電時間，讓身心注入動力啊！","post190927","2019-09-27T00:00:00.000Z",{"data":6},{"data":235},[236],{"id":140,"attributes":237},{"slug":142,"name":143,"description":6,"createdAt":144,"updatedAt":144},{"data":239},[240],{"id":241,"attributes":242},13,{"name":243,"createdAt":244,"updatedAt":244},"讀後感","2023-02-07T08:03:09.355Z",{"data":6},{"id":247,"attributes":248},728,{"title":249,"excerpt":6,"content":250,"slug":251,"createdAt":252,"updatedAt":252,"author":253,"categories":254,"tags":258,"image":277},"甩脂果王 - 蘋果","\n\n大家中秋節又食節日飯又食月餅，脂肪積蓄應有不少進帳！今天為大家介紹甩脂果王 -- 蘋果，協助大家消消脂！\n\n「一日一蘋果，醫生遠離我。」蘋果有益健康是大家熟知的，但原來蘋果也有助消脂清腸排毒呢！\n\n1. 蘋果酸：降低膽固醇，加速代謝，促進脂肪分解\u003Cbr\u003E\n2. 果膠：可溶性纖維，與膽固醇結合，將體內多餘的膽固醇排出體外\u003Cbr\u003E\n3. 熊果酸：蘋果皮中的熊果酸能促進棕色脂肪的增生，棕色脂肪能協助燃燒體內卡路里，有助加快身體新陳代謝\u003Cbr\u003E\n4. 膳食纖維：促進腸胃蠕動，幫助排毒\n\n蘋果含豐富營養素：維他命C有助抗氧化；鋅促進大腦發育，增強智力與記憶力；維他命A和硒可保護視力；鉀鹽能降低高血壓；可溶性纖維可調節血糖。\n\n進食蘋果好處多，但緊記我們每天要進食5色蔬果。如果只偏愛蘋果，就變得偏食了！\n\n此外，日常飲食也要相應配合，並有規律地運動，才能健康地減脂呢！","post190920","2019-09-20T00:00:00.000Z",{"data":6},{"data":255},[256],{"id":14,"attributes":257},{"slug":16,"name":17,"description":6,"createdAt":18,"updatedAt":18},{"data":259},[260,265,270,275],{"id":261,"attributes":262},6,{"name":263,"createdAt":264,"updatedAt":264},"蘋果","2023-02-07T08:03:09.323Z",{"id":266,"attributes":267},7,{"name":268,"createdAt":269,"updatedAt":269},"消脂","2023-02-07T08:03:09.328Z",{"id":271,"attributes":272},8,{"name":273,"createdAt":274,"updatedAt":274},"清腸","2023-02-07T08:03:09.333Z",{"id":64,"attributes":276},{"name":66,"createdAt":67,"updatedAt":67},{"data":6},{"id":279,"attributes":280},726,{"title":281,"excerpt":6,"content":282,"slug":283,"createdAt":284,"updatedAt":284,"author":285,"categories":286,"tags":290,"image":302},"看見藍天白雲，人特別醒神？","\n\n陰天雨天情緒則相對低落？\n\n曬太陽有助合成維他命D。維他命D能夠增加血液中的血清素濃度，從而穩定情緒。若血清素分泌不足，會引起焦躁、衝動、情緒低落，甚至憂鬱等問題。😨\n\n每天曬5至10分鐘太陽，吸收的維他命D已有助心情開朗。😄\n\n大家可把握午飯時間到戶外散步，紓解心情之餘也增加運動量啊！🚶🏻‍♂🚶🏻‍♀\n\n食物中，油脂較高的魚類（例如三文魚、沙甸魚、吞拿魚）、蛋黃、肝臟等也含較豐富維他命D呢！😉","post190913","2019-09-13T00:00:00.000Z",{"data":6},{"data":287},[288],{"id":14,"attributes":289},{"slug":16,"name":17,"description":6,"createdAt":18,"updatedAt":18},{"data":291},[292,297],{"id":293,"attributes":294},10,{"name":295,"createdAt":296,"updatedAt":296},"維他命D","2023-02-07T08:03:09.340Z",{"id":298,"attributes":299},5,{"name":300,"createdAt":301,"updatedAt":301},"血清素","2023-02-07T08:03:09.318Z",{"data":6},{"id":304,"attributes":305},725,{"title":306,"excerpt":6,"content":307,"slug":308,"createdAt":309,"updatedAt":309,"author":310,"categories":311,"tags":315,"image":327},"每逢考試、開會、報告前夕，就會腹痛腹瀉？","\n\n每逢考試、開會、報告前夕，就會腹痛腹瀉？情緒緊張或突如其來的壓力引致的腹瀉，可能是跟腸躁症有關 -- 腸胃道自律神經失調，只要面對壓力刺激，腸道就過度敏感，影響腸道蠕動。而腸躁症原來與神經系統也息息相關呢！\n\n自律神經分為交感神經及副交感神經。\n交感神經負責處理「緊張情緒」，副交感神經負責掌管「放鬆情緒」。在正常的情況下，自律神經能讓交感神經及副交感神經達致平衡，讓我們的情緒、身體、血液循環、大腸收縮等功能均保持穩定。但若長期受壓或情緒起伏不定，將令交感神經處於亢奮狀態，導致自律神經失去平衡，讓身體處於警戒中，引起腸道問題。\n\n通常性格追求完美、工作壓力大、容易緊張的人都較容易患上腸躁症。除了腸胃道問題外，多半還會伴隨精神緊張、焦慮、易怒、失眠多夢等症狀。\n\n要告別壓力所引起的腸道問題，穩定「自律神經」是當務之急。學習自我放鬆，保持心情愉快，作息定時、規律運動，均有助自律神經逐漸重拾平衡，讓腸道回復正常蠕動。\n飲食小貼士：平日可以多吃健脾食物，例如准山、扁豆、紅棗，避免食用西瓜、冷飲及乳製品。多吸收高鈣食物也能穩定情緒，協助調整自律神經啊！","pressure190906","2019-09-06T00:00:00.000Z",{"data":6},{"data":312},[313],{"id":14,"attributes":314},{"slug":16,"name":17,"description":6,"createdAt":18,"updatedAt":18},{"data":316},[317,322],{"id":318,"attributes":319},3,{"name":320,"createdAt":321,"updatedAt":321},"自律神經","2023-02-07T08:03:09.310Z",{"id":323,"attributes":324},4,{"name":325,"createdAt":326,"updatedAt":326},"交感神經","2023-02-07T08:03:09.315Z",{"data":6},{"pagination":329},{"page":271,"pageSize":221,"pageCount":64,"total":330},100],"uses":{"dependencies":["http://localhost:1337/api/posts?sort=createdAt%3Adesc&populate[author]=true&populate[categories]=true&populate[tags]=true&populate[image]=true&pagination[page]=8&pagination[pageSize]=12"],"params":["page","category"]}}]}