{"type":"data","nodes":[{"type":"data","data":[{"categories":1,"event_categories":27},[2,9,15,21],{"id":3,"attributes":4},1,{"slug":5,"name":6,"description":7,"createdAt":8,"updatedAt":8},"nutrition","營養隨筆",null,"2023-02-12T02:39:02.691Z",{"id":10,"attributes":11},2,{"slug":12,"name":13,"description":7,"createdAt":14,"updatedAt":14},"reflection","感悟隨筆","2023-02-12T02:39:02.692Z",{"id":16,"attributes":17},3,{"slug":18,"name":19,"description":7,"createdAt":20,"updatedAt":20},"fitness","運動筆記","2023-02-12T02:39:02.697Z",{"id":22,"attributes":23},4,{"slug":24,"name":25,"description":7,"createdAt":26,"updatedAt":26},"spiritual","心靈勵志","2023-02-12T02:39:02.698Z",[28,33,38,43,47,52],{"id":3,"attributes":29},{"name":30,"slug":31,"description":7,"createdAt":32,"updatedAt":32},"讀書會","book-sharing","2023-02-12T02:38:55.939Z",{"id":16,"attributes":34},{"name":35,"slug":36,"description":7,"createdAt":37,"updatedAt":37},"文化導賞","cultural","2023-02-12T02:38:55.943Z",{"id":22,"attributes":39},{"name":40,"slug":41,"description":7,"createdAt":42,"updatedAt":42},"遊山玩水","hiking","2023-02-12T02:38:55.946Z",{"id":44,"attributes":45},5,{"name":46,"slug":18,"description":7,"createdAt":42,"updatedAt":42},"健體運動",{"id":48,"attributes":49},6,{"name":50,"slug":5,"description":7,"createdAt":51,"updatedAt":51},"活學營養","2023-02-12T02:38:55.947Z",{"id":10,"attributes":53},{"name":54,"slug":55,"description":7,"createdAt":56,"updatedAt":57},"名人面對面","be-our-guest","2023-02-12T02:38:55.942Z","2023-03-08T13:16:12.875Z"],"uses":{"dependencies":["http://127.0.0.1:1337/api/categories?","http://127.0.0.1:1337/api/event-categories?"]},"slash":"always"},{"type":"data","data":[{"data":1,"meta":376},[2,37,71,94,119,168,203,237,257,282,316,340],{"id":3,"attributes":4},197,{"title":5,"excerpt":6,"content":7,"slug":8,"createdAt":9,"updatedAt":9,"author":10,"categories":11,"tags":19,"image":36},"以平衡潤養氣血 以陰陽調和健康",null,"\n\n當現代醫學傳入中國，西醫的簡便快捷廣受民眾歡迎。然而，若醫生不用整體觀去看待人，頭痛醫頭，腳痛醫腳，病人很難達到真正的康復。“西醫治人的病，中醫治病的人。” 中醫的靈魂就是整體觀念和辨證論治，所以中醫藥歷千年而不衰💪🏻。\n\n不僅是中醫自己，越來越多西方名醫也關注“如何用好中醫藥，帶給更多人健康”這個課題。其實科學界不是不認可中醫藥，只是傳統的“方劑一鍋燉”，裡面究竟有甚麽有效成分，會對人體產生甚麽作用，容易讓人產生疑惑🤔；而當屠呦呦率先從中醫古籍中得到啟示，創建低溫提取並分離得到抗瘧有效單一成分“青蒿素”，開創了瘧疾治療新方法👍🏻，也向世人打開了深入了解中醫藥的一扇窗。\n\n中國工程院院士張伯禮在新冠疫情中採取以中醫藥為主的綜合治療，卓有成效。他一直倡導“中國良方”更需要注入科技內涵：“中藥組分，就是從傳統中藥中提取出有效成分群，可在細胞、分子藥理水平相對清楚的條件下揭示中藥的藥效物質基礎及作用機制，明確其組效關係，根據‘強化主效應、兼顧次效應、減少副效應’的配伍原則，並能根據不同病癥重新配伍成方，可製成膠囊、片劑、緩釋劑等現代中藥。” 可以說對現代中醫藥的發展指引出了一條行之有效的道路。\n\n以中醫藥為理論基礎的產品，品質是否夠好，根本在於選取的草藥是否優質：原料來源是否可靠？有否農藥或重金屬殘留？有否漂白過？😱選購時必須確保產品質量受嚴格監控，且植物原料內的營養素獲有效提取，各味中藥各司其職，群策群力，達到最佳的協同效應。\n","chinesemedicine210615","2021-06-15T00:00:00.000Z",{"data":6},{"data":12},[13],{"id":14,"attributes":15},1,{"slug":16,"name":17,"description":6,"createdAt":18,"updatedAt":18},"nutrition","營養隨筆","2023-02-12T02:39:02.691Z",{"data":20},[21,26,31],{"id":22,"attributes":23},245,{"name":24,"createdAt":25,"updatedAt":25},"中藥","2023-02-12T03:32:01.405Z",{"id":27,"attributes":28},244,{"name":29,"createdAt":30,"updatedAt":30},"中醫藥","2023-02-12T03:32:01.404Z",{"id":32,"attributes":33},248,{"name":34,"createdAt":35,"updatedAt":35},"草本","2023-02-12T03:32:01.406Z",{"data":6},{"id":38,"attributes":39},209,{"title":40,"excerpt":6,"content":41,"slug":42,"createdAt":43,"updatedAt":43,"author":44,"categories":45,"tags":49,"image":70},"做個“好心”人","\n\n根據香港衞生署衞生防護中心，心臟病是香港疾病第3大殺手，僅次於腫瘤癌症和肺炎😖。心臟是人體的核心供能“設備”，心肌、脈管、瓣膜就像其中的精密零件，一旦某個部位損壞，心臟功能就會部份失靈，甚至威脅全身健康🥺。\n那麼身體會如何發出預警訊號，保護心臟這人體發動機呢？💪🏻\n\n1️⃣頸項變粗\u003Cbr\u003E\n美國曾對3,000多名研究對象，發現脖子越粗的人，心血管疾病風險就越大😳。一般情況下，若男性頸圍超過39厘米，女性頸圍超過35厘米，就是脖子較粗。\n\n2️⃣臉部浮腫\u003Cbr\u003E\n若臉形出現腫脹，臉部肌肉組織鬆弛，用手指壓會出現壓痕，或壓痕部位的皮膚彈不起來，可能預示心臟出現問題，應馬上處理。\n\n3️⃣嘴唇發紫\u003Cbr\u003E\n嘴唇發青發紫或唇邊呈現青紫色，可能存在血液循環不良導致的心臟問題；若滿臉通紅，則很可能是二尖瓣狹窄所致。\n\n4️⃣瞼黃斑瘤\u003Cbr\u003E\n對於中老年人來說，眼部周圍出現黃色小腫塊（一般為米粒或黃豆大小），可能反映體內脂質代謝存在障礙，也是誘發心臟病的重要因素。\n\n5️⃣下巴疼痛\u003Cbr\u003E\n典型的心絞痛始於胸骨後方，患者會感到胸部有壓力，甚至有燒灼、擠壓和緊繃感；同時，臂部、脖頸、肩膀、上腹部、後背或下巴也會感到疼痛或不適。\n\n6️⃣耳垂皺摺\u003Cbr\u003E\n耳垂有許多微血管，當血管硬化或收窄，造成血液供血不足，就容易在耳珠上方1\u002F3處形成內側往外側下垂的刻痕，名為“法蘭克徵兆”（Frank’s sign）。\n\n7️⃣呼吸不暢\u003Cbr\u003E\n爬一段樓梯就氣喘，而過去從來沒有這種現象，應警惕心臟問題。躺下時出現呼吸問題，很可能是心臟瓣膜病的癥狀。\n\n8️⃣大量冒汗\u003Cbr\u003E\n突然間大汗淋漓而沒有明確原因，要高度懷疑是否心臟出了問題。心輸出量的大量減少和交感神經的過度活躍，會造成心臟病發作的出汗癥狀。\n\n💪🏻戒掉壞習慣 做個“好心”人\u003Cbr\u003E\n1️⃣戒煙限酒\u003Cbr\u003E\n吸煙對心臟的損害長期且頑固，煙草中的尼古丁可刺激心臟傳導系統，使心跳加快，增加心臟負荷。研究顯示停止吸煙20分鐘，因吸煙而飆升的血壓和心率即可平緩下來。\n飲酒使血管處於擴張和血流加速狀態，心率加快，容易導致心臟病急性發作。\n\n2️⃣少鹽低鈉\u003Cbr\u003E\n鹽份攝取與高血壓息息相關。高血壓導致心臟的負荷加重，增加患上冠心病、高血壓性心臟病及中風的風險。\n\n3️⃣降低血脂\u003Cbr\u003E\n血脂過高會導致脂肪在血管中堆積，容易引致冠心病。要有效降低血脂，可以增加以下營養素的攝入：\u003Cbr\u003E\n🌟鎂：有助降低壞膽固醇，促進血管擴張，改善心肌缺血\u003Cbr\u003E\n🌟優質脂肪酸：包括OMEGA-3及橄欖油\u003Cbr\u003E\n🌟膳食纖維\u003Cbr\u003E\n🌟西醫在心血管疾病的臨床防治的處方中，往往都包含輔酵素Q10，是西方應用最廣泛的心臟保養劑，臨床試驗功效顯著：\u003Cbr\u003E\n❤️心律不正：67%心電圖回復正常，頭昏胸悶獲得改善\u003Cbr\u003E\n❤️心絞痛：發作次數減少，氣短心悸得到改善\u003Cbr\u003E\n❤️心臟衰竭：2\u002F3患者心臟功能明顯改善\n\n4️⃣控制體重\u003Cbr\u003E\n肥胖容易引起內分泌激素分泌異常，導致內臟脂肪更易分解，血脂升高；加上體內各種代謝紊亂，形成惡性循環，影響心臟功能。\n\n健康減重，減肥而不減肌，促進新陳代謝，對做個“好心”人大有幫助🥰。","heart-nutrition210605","2021-06-05T00:00:00.000Z",{"data":6},{"data":46},[47],{"id":14,"attributes":48},{"slug":16,"name":17,"description":6,"createdAt":18,"updatedAt":18},{"data":50},[51,56,60,65],{"id":52,"attributes":53},237,{"name":54,"createdAt":55,"updatedAt":55},"心臟病","2023-02-12T03:32:01.401Z",{"id":57,"attributes":58},238,{"name":59,"createdAt":55,"updatedAt":55},"心律不正",{"id":61,"attributes":62},239,{"name":63,"createdAt":64,"updatedAt":64},"心絞痛","2023-02-12T03:32:01.402Z",{"id":66,"attributes":67},259,{"name":68,"createdAt":69,"updatedAt":69},"心臟","2023-02-12T03:32:01.410Z",{"data":6},{"id":72,"attributes":73},196,{"title":74,"excerpt":6,"content":75,"slug":76,"createdAt":77,"updatedAt":77,"author":78,"categories":79,"tags":83,"image":93},"食物金字㙮你認識有幾多？","\n\n第一個飲食金字塔於1974年由瑞典制訂。1992年，美國農業部推出廣為人知的食物金字塔，香港衞生署及很多教科書沿用的正是這版本。2002年，美國哈佛大學公共衛生學院推出健康飲食金字塔，並於2008年更新，目標在於修補過去美國農業部的食物金字塔的缺陷。這10多年來，另有形形式式的飲食金字塔，針對不同族群的獨特需求。\n此文章所解構的是2008年更新版的健康飲食金字塔 -- 一個比較大眾化的健康飲食建議方案🍽️。\n\n1. 🌟個人化差異，重質不重量\u003Cbr\u003E\n飲食建議不再是一成不變的方案😄，而是更加顧及個人化的差別，每一食物種類的攝取量取決於個人的體重及運動量。譬如一位沒有運動習慣的55公斤男士與一位85公斤練習拳擊的男士，食物攝取量有很大差別。\n\n2. 🌟最底層的最重要\u003Cbr\u003E\n一切由基礎起步，健康飲食金字塔不單純建議飲食配搭的比例，而是更強調運動及體重管理的重要性。要獲取健康，飲食與運動是不可分割的。\n\n3. 🌟第二層：蔬菜水果、健康油脂、全穀類\u003Cbr\u003E\n蔬菜水果：每天最少2份水果＋3份蔬菜，最佳是攝取5種不同顏色的蔬果🍎\u003Cbr\u003E\n健康油脂：多攝取不飽和脂肪酸，如奧米加三脂肪酸、橄欖油；避免攝取反式脂肪及飽和脂肪\u003Cbr\u003E\n全穀類：進食全榖類食物，如糙米、全麥麵包、燕麥；避免進食精製碳水化合物，如白麵包、意大利粉、白米、米線、河粉\n\n4. 🌟第三層：蛋白質\u003Cbr\u003E\n植物蛋白質與動物蛋白質應各佔一半：植物蛋白質例子有堅果、種籽、豆類及豆製品；動物蛋白質主要為白肉，如魚、家禽及蛋。\n\n5. 第四層：乳製品（1-2份）或維他命D／鈣營養補充品\u003Cbr\u003E\n此層強調鈣質吸收，研究發現現代人較易缺乏鈣質及維他命D，缺乏時容易引致骨質疏鬆症。亞洲人有高達90%以上的人可能患有乳糖不耐症，所以鼓勵大家從奶製品以外的食物攝取鈣質，如可以連骨吃的小魚、蝦皮，或選擇由天然植物提煉的營養補充品。謹記若挑選鈣質營養片作補充時，要挑選含鈣質、鎂質及維他命D的配方呢，這樣才能被身體吸收利用。\n\n6. 最頂層：⚠️ 謹慎進食的食物\u003Cbr\u003E\n紅肉及牛油：紅肉的飽和脂肪及牛油的飽和或反式脂肪均對心血管系統造成負擔\u003Cbr\u003E\n精製碳水化合物：見上述第3點\u003Cbr\u003E\n甜的飲料及甜食：研究發現糖會導致不同的健康問題\u003Cbr\u003E\n鹽：鹽份過高會引致高血壓\n\n7. 多種維他命及額外維他命D的營養補充品（大部份人）\u003Cbr\u003E\n研究發現不同的食物的營養素相較以往為低。現代化畜牧業及農業注重高效益及高生產量，導致不少食物的營養下降。食物營養貶值，因而建議大部份人也需要在日常飲食以外攝取維他命補充品，特別是維他命D，以彌補飲食攝取的不足。謹記，前提是盡量於日常飲食攝取均衡營養，營養補充品是填補不足之用而非代替日常膳食呢！挑選營養補充品時，謹記要選擇以天然植物提煉的啊！\n\n8. 🍷 適量酒精（不是所有人）\u003Cbr\u003E\n適量酒精可能對健康有正面作用，但若沒飲用習慣的，就不要刻意飲用啊！","foodpyrmaid-210514","2021-05-14T00:00:00.000Z",{"data":6},{"data":80},[81],{"id":14,"attributes":82},{"slug":16,"name":17,"description":6,"createdAt":18,"updatedAt":18},{"data":84},[85,89],{"id":86,"attributes":87},240,{"name":88,"createdAt":64,"updatedAt":64},"食物金字塔",{"id":90,"attributes":91},236,{"name":92,"createdAt":55,"updatedAt":55},"飲食配搭",{"data":6},{"id":95,"attributes":96},204,{"title":97,"excerpt":6,"content":98,"slug":99,"createdAt":100,"updatedAt":100,"author":101,"categories":102,"tags":106,"image":118},"脂肪組織也有分懶惰與勤快？","\n\n人類有膚色之分，脂肪組織原來也可以顏色區分，分為懶懶的白色脂肪，以及勤快的米色及棕色脂肪。\n\n白色脂肪組織佔人體脂肪組織80％以上，主要儲存於皮下及腹腔，亦即是大家常聽到的皮下脂肪及內臟脂肪。白色脂肪組織是懶洋洋的，就像倉庫一樣，只是不斷地儲存脂肪作能量儲備。當我們進食過量時，多餘的能量貨物會被放進皮下及腹腔的倉庫；當倉庫放滿了就會擴建，我們的皮下脂肪及內臟脂肪的數字也會步步高升。\n\n米色脂肪及棕色脂肪可以綜合稱為廣義的棕色脂肪組織，因為棕色脂肪組織內含較多的粒線體，因此呈現咖啡色。棕色脂肪組織主要負責把脂肪及葡萄糖燃燒為熱能，供身體使用，故此能協助降低血糖及血脂值。棕色脂肪就好比非常勤力的工人，不停把能量貨物運送去燃燒，協助維持體溫。很多野外動物也是靠棕色脂肪的生熱作用過渡冬眠期呢！\n\n棕色脂肪組織主要分布於頸部、背部、腎臟周圍等部位，它們雖然只佔成人體重約0.1%，卻消耗基礎代謝率的10-20%。若能活化棕色脂肪組織，就能促進我們燃燒全身。\n如何活化棕色脂肪？\u003Cbr\u003E\n📍低溫環境：研究指出，若連續6星期，每天2小時待在攝氏17度的環境；或連續10天，每天6小時待在攝氏15-16度的低溫環境，棕色脂肪組織的活性會顯著增加。\u003Cbr\u003E\n📍輕微刺激的食物：咖啡因及兒茶素，也有可能提高棕色脂肪的活性。\u003Cbr\u003E\n📍運動：運動時分泌的去甲基腎上腺素也能活化棕色脂肪組織。\n\n大家不妨多作運動，提升棕色脂肪組織的活性，至於刻意營造低溫環境或進食刺激性食物就不太建議了。\n\n大家有否留意自己的體重在過去幾個冬天是增加還是減少呢？處於低溫環境通常也伴隨食慾提升，此消彼長下，不見得能協助消脂減重呢！至於攝取刺激性食物或飲料也是不建議的，若食用過量，會引致身體其他問題，例如失眠。\n消脂減重沒捷徑，最有效及最安全的方法是整合飲食、運動與生活習慣，讓身體健康地消脂減重，重拾理想體態！","fat20120425","2021-04-25T00:00:00.000Z",{"data":6},{"data":103},[104],{"id":14,"attributes":105},{"slug":16,"name":17,"description":6,"createdAt":18,"updatedAt":18},{"data":107},[108,113],{"id":109,"attributes":110},243,{"name":111,"createdAt":112,"updatedAt":112},"脂肪","2023-02-12T03:32:01.403Z",{"id":114,"attributes":115},255,{"name":116,"createdAt":117,"updatedAt":117},"棕色脂肪","2023-02-12T03:32:01.409Z",{"data":6},{"id":120,"attributes":121},198,{"title":122,"excerpt":6,"content":123,"slug":124,"createdAt":125,"updatedAt":125,"author":126,"categories":127,"tags":131,"image":167},"力抗女人公敵 遠離子宮頸癌","\n\n子宮頸癌為女性第二常見惡性腫瘤，35歲或以下的子宮頸癌患者按年遞增😦。\n\n子宮頸癌的主要誘因為人類乳頭瘤病毒(HPV) 。有性經驗的婦女感染HPV病毒很常見，推估女士終其一生約有50％的機會感染😱。幸而一般婦女在感染後大多自行痊癒，僅有小部分持續感染者日後發生子宮頸癌前病變，甚至子宮頸癌。\n\n故此，凡有性經驗的女士，不論年齡都應定期（至少每3年）進行子宮頸癌抹片篩查。如能在篩查中發現早期癌症病變並及時治療，5年存活率可超過90%👍🏻。\n\n子宮頸癌疫苗被認為可預防約90% HPV相關疾病。然而，子宮頸癌疫苗也有爭議。2013年，「日本子宮頸癌疫苗受害人聯絡會」成立，當時只有20名成員，但女孩們病重、乘坐輪椅的模樣令人印象深刻。幾個月後，日本政府中止了國家常規接種政策，成為世界第一個從公費施打轉為「不建議施打」的國家。2014年日本厚生勞動省的HPV疫苗檢討會議上，總結這些女孩的不良事件是心因性，與疫苗沒有嚴重因果關係。除日本外，英國、西班牙、愛爾蘭等地也有疑似HPV疫苗受害人的相關組織。\n\n要預防子宮頸癌，強健子宮並增強免疫力實為王道💪🏻。以下列舉4種尤為重要的營養素：\u003Cbr\u003E\n⭐胡蘿蔔素\u003Cbr\u003E\n增強子宮黏膜組織，並幫助排出子宮毒素。\u003Cbr\u003E\n⭐維他命C\u003Cbr\u003E\n消炎又直接提升免疫力，亦是高效的抗氧化劑。\u003Cbr\u003E\n⭐乳酸菌\u003Cbr\u003E\n人體70％免疫細胞位於腸道，乳酸菌對免疫力以及對抗婦科炎症皆極為重要。\u003Cbr\u003E\n⭐大豆異黃酮\u003Cbr\u003E\n大豆異黃酮與女性雌激素有相似的化學結構，在特定部位例如子宮和乳房，可模仿天然雌激素，具有平衡人體雌激素的生理作用；同時與細胞上的雌激素接受體結合，阻止其他雌激素的進入，因此有助降低子宮頸癌的風險。","cervical-210412","2021-04-12T00:00:00.000Z",{"data":6},{"data":128},[129],{"id":14,"attributes":130},{"slug":16,"name":17,"description":6,"createdAt":18,"updatedAt":18},{"data":132},[133,138,143,148,153,158,162],{"id":134,"attributes":135},235,{"name":136,"createdAt":137,"updatedAt":137},"子宮","2023-02-12T03:32:01.400Z",{"id":139,"attributes":140},193,{"name":141,"createdAt":142,"updatedAt":142},"婦科","2023-02-12T03:32:01.377Z",{"id":144,"attributes":145},229,{"name":146,"createdAt":147,"updatedAt":147},"女性營養","2023-02-12T03:32:01.398Z",{"id":149,"attributes":150},184,{"name":151,"createdAt":152,"updatedAt":152},"胡蘿蔔素","2023-02-12T03:32:01.373Z",{"id":154,"attributes":155},156,{"name":156,"createdAt":157,"updatedAt":157},"維他命C","2023-02-12T03:32:01.361Z",{"id":159,"attributes":160},230,{"name":161,"createdAt":147,"updatedAt":147},"乳酸菌",{"id":163,"attributes":164},228,{"name":165,"createdAt":166,"updatedAt":166},"大豆異黃酮","2023-02-12T03:32:01.397Z",{"data":6},{"id":139,"attributes":169},{"title":170,"excerpt":6,"content":171,"slug":172,"createdAt":173,"updatedAt":173,"author":174,"categories":175,"tags":183,"image":202},"筋長一寸，壽延十年","\n\n俗語謂「筋長一寸，壽延十年」，先不要說是否壽延十年，但柔軟度高，至少可降低身體受傷或出現痛症的機會率💪。\n\n柔軟度指的是關節及周邊肌肉與韌帶能夠活動的最大範圍。當我們長時間保持同一姿勢，某些肌肉會長期處於疲勞緊繃或伸展無力狀態；尤其是若我們長時間姿勢不良，更會加劇肌肉不平衡的狀況😖，久而久之降低身體的柔軟度。\n\n不要以為柔軟度只是單單站立彎腰時摸不到腳趾啊，若情況變壞，蹲低綁鞋帶、舉手握巴士扶手、洗頭、穿衣服等日常生活細節也可能無法輕鬆完成😳。所以千萬不要待痛症出現時，才關注柔軟度的重要性呢！\n\n此外，柔軟度原來與心血管健康息息相關。據《美國心臟與循環系統》雜誌刊登的研究結果：「健康的血管具有彈性，而彈性有助於緩解血壓。筋很硬的時候，不僅肌肉伸縮困難，血管也不易伸展，容易引發各種心血管疾病。 」❤️ 通過伸展運動改善身體柔軟度，對改善中老年人的動脈硬化也有幫助呢！\n\n建議大家每週至少進行3次伸展運動，而每次運動後都記得要做伸展動作呢！伸展拉筋時有以下要點：\u003Cbr\u003E\n🌟 有一點張力的感覺即可，避免過度伸展或強行拉扯；\u003Cbr\u003E\n🌟 漸進式、緩慢地伸展，不要把肌肉剎那間推到極限；\u003Cbr\u003E\n🌟 靜態伸展時，每次伸展時間約在15-30秒之間，每個動作反覆2-3次\n\n如欲了解更多，歡迎觀看《大鵬展翅》影片 https:\u002F\u002Ffb.watch\u002F4FnouNHo3v\u002F  。","stretching-210604","2021-04-06T00:00:00.000Z",{"data":6},{"data":176},[177],{"id":178,"attributes":179},3,{"slug":180,"name":181,"description":6,"createdAt":182,"updatedAt":182},"fitness","運動筆記","2023-02-12T02:39:02.697Z",{"data":184},[185,189,194,198],{"id":186,"attributes":187},231,{"name":188,"createdAt":147,"updatedAt":147},"柔軟度",{"id":190,"attributes":191},232,{"name":192,"createdAt":193,"updatedAt":193},"拉筋","2023-02-12T03:32:01.399Z",{"id":195,"attributes":196},241,{"name":197,"createdAt":112,"updatedAt":112},"伸展",{"id":199,"attributes":200},242,{"name":201,"createdAt":112,"updatedAt":112},"心血管健康",{"data":6},{"id":204,"attributes":205},203,{"title":206,"excerpt":6,"content":207,"slug":208,"createdAt":209,"updatedAt":209,"author":210,"categories":211,"tags":215,"image":236},"不痛不癢的子宮頸炎","\n\n子宮承載女人的情感，承載女人的美麗，也承載生命種子的延續。可惜子宮疾病愈見普遍😖，當中包括：\u003Cbr\u003E\n🎀 子宮頸炎\u003Cbr\u003E\n🎀 子宮頸糜爛\u003Cbr\u003E\n🎀 子宮頸癌\u003Cbr\u003E\n🎀 子宮肌瘤\u003Cbr\u003E\n🎀 子宮內膜異位\n\n子宮頸在子宮下方1\u002F4的位置，下方連接陰道，是子宮與陰道的必經通道，猶如「山海關」。無論是子宮內膜、輸卵管、卵巢或腹腔，都須存在無菌環境，但陰道則有乳酸菌，會分泌乳酸，讓陰道處於弱酸環境中，避免黴菌或細菌入侵感染。子宮頸的功能就是隔絕病菌入侵，避免陰道的細菌病毒長驅直入，造成子宮、輸卵管、卵巢或腹腔發炎感染。\n\n單純的子宮頸發炎現象非常少見😯；通常因為陰道發炎，子宮頸才跟著遭殃。陰道發炎的主要症狀包括有黃色或綠色的分泌物，或呈現乳酪狀，聞起來可能有魚腥味或食物腐敗的肉臭味。陰道發炎除了跟性行為有關外，免疫力低下也是陰道感染的常見原因，尤其是糖尿病患或有自體免疫疾病服藥者，皆易引起陰道感染問題。\n\n子宮頸炎的其他症狀包括：不規則陰道出血，或兩次月經之間、性生活之後小量出血，或性交時陰道有疼痛感。但大家放心，陰道或子宮頸、會陰的細菌或黴菌感染，並不會造成癌症🙂。\n\n要預防子宮頸炎和陰道炎，可注意以下事項：\u003Cbr\u003E\n1️⃣生理期或陰道感染時，避免性行為\u003Cbr\u003E\n2️⃣維持單一性伴侶\u003Cbr\u003E\n3️⃣養成良好衛生習慣，平日保持陰部乾爽，但不必過度清洗或用不當的灌洗液沖洗\u003Cbr\u003E\n4️⃣避免穿過緊的褲子，以免陰道潮濕悶熱\u003Cbr\u003E\n5️⃣生理期勤換衛生巾\u003Cbr\u003E\n6️⃣切勿擅自服用抗生素，以免破壞正常陰道菌叢平衡\u003Cbr\u003E\n7️⃣作息規律，避免熬夜、菸酒，以免降低免疫力\u003Cbr\u003E\n8️⃣攝取足夠營養，維護子宮及陰道健康\n\n談到營養，平日應注意乳酸菌的攝取💡。乳酸菌令陰道的pH值維持3.8~4.2的弱酸性環境，抑制致病菌過度繁殖，預防陰道感染發炎，以及老化乾燥。選購乳酸菌時，除了菌量外，必須注意菌株，確保益菌能黏附腸道，活性能一直保持，並繼續繁殖💪🏻。\n此外，🥝🍓維他命C可增強白血球的吞噬作用和抗體形成，對預防陰道炎和子宮頸炎亦十分重要。\n\n當然，充足的蛋白質攝取必不可少，因為生長、修復、免疫、酵素、腺體、激素皆與蛋白質有關。","nutrition210326","2021-03-26T00:00:00.000Z",{"data":6},{"data":212},[213],{"id":14,"attributes":214},{"slug":16,"name":17,"description":6,"createdAt":18,"updatedAt":18},{"data":216},[217,221,225,227,229,231],{"id":218,"attributes":219},227,{"name":220,"createdAt":166,"updatedAt":166},"子宮頸炎",{"id":222,"attributes":223},226,{"name":224,"createdAt":166,"updatedAt":166},"陰道炎",{"id":139,"attributes":226},{"name":141,"createdAt":142,"updatedAt":142},{"id":159,"attributes":228},{"name":161,"createdAt":147,"updatedAt":147},{"id":154,"attributes":230},{"name":156,"createdAt":157,"updatedAt":157},{"id":232,"attributes":233},144,{"name":234,"createdAt":235,"updatedAt":235},"蛋白質","2023-02-12T03:32:01.351Z",{"data":6},{"id":238,"attributes":239},212,{"title":240,"excerpt":6,"content":241,"slug":242,"createdAt":243,"updatedAt":243,"author":244,"categories":245,"tags":249,"image":256},"膳食纖維，你吃對了嗎？","\n\n膳食纖維是植物性食物中質地較粗、不易咀嚼消化的部分，如粗糧和水果的皮、蔬菜的“筋”。當中分為水溶性膳食纖維和非水溶性膳食纖維兩大類:\u003Cbr\u003E\n⭐水溶性膳食纖維：主要有果膠、樹膠、豆膠，通常質地柔軟，可以幫助人體控制膽固醇和血糖水平，有利於預防心臟病和糖尿病等慢性疾病；\u003Cbr\u003E\n⭐非水溶性膳食纖維：主要有纖維素、部分半纖維素、木質素等，質地較硬，主要作用是促進腸道蠕動和預防便秘。\n\n營養學家發現，膳食纖維攝入減少，可直接導致肥胖、高血糖、高血壓、便秘、腸癌等都市病的高發病率😱。美國哈佛大學公共衛生所表示，攝取較多膳食纖維的人死於心臟疾病的比率比平常人減少25%👍🏻；中國青島大學也有報告指出，一日攝取200克富含膳食纖維的蔬菜，可以降低11%的中風風險😀。\n\n成年人每日需要攝取25～35克膳食纖維，小朋友則按其歲數加5克，例如5歲的小朋友每天需要10克膳食纖維。香港衛生署建議的「2＋3」，即每天進食2份水果+3份蔬菜，大約只能攝取約10克纖維🥲。\n\n要補充膳食纖維，可以：\u003Cbr\u003E\n1️⃣多吃粗糧🍠：包括全麥、燕麥、糙米，而精米白麵在加工過程中碾磨掉了穀粒外層，膳食纖維含量不及全穀物的一半。根莖類植物如牛蒡和蕃薯也是好選擇。\u003Cbr\u003E\n2️⃣加一點豆🌈：50克雜豆提供至少5克膳食纖維，蒸飯、煮粥時加把豆，既能豐富食物種類，又能保證膳食纖維的攝入。\u003Cbr\u003E\n3️⃣蔬菜是纖維大戶🥬：豆莢類的纖維尤其豐富，例如四季豆的膳食纖維含量是牛蒡的2倍、蕃薯的3倍，100克水煮的四季豆（10根）已含約13克膳食纖維。葉子大、顏色深、莖幹粗的蔬菜也是不錯的選擇，例如芥蘭、油麥菜。\u003Cbr\u003E\n4️⃣選不好嚼的水果🍎：蘋果、雪梨等組織較硬、不太好嚼的水果，往往含有更多的膳食纖維；西瓜、水蜜桃、葡萄、哈密瓜等水分多、組織軟，膳食纖維含量相對較少。\n\n要注意的是，非水溶性膳食纖維對腸胃的刺激較大，若腸胃功能不是很好，可多選擇水溶性膳食纖維，因後者比較柔和，對消化道刺激小🙂。膳食纖維攝入過量，會引起胃腸脹氣，當中腸易激綜合症患者、兒童和長者更為明顯。\n\n若膳食纖維吃不夠量或腸胃較弱，可以合理使用含有膳食纖維的營養素，或含有膳食纖維的健康零食😉。","nutrition-210316","2021-03-16T00:00:00.000Z",{"data":6},{"data":246},[247],{"id":14,"attributes":248},{"slug":16,"name":17,"description":6,"createdAt":18,"updatedAt":18},{"data":250},[251],{"id":252,"attributes":253},219,{"name":254,"createdAt":255,"updatedAt":255},"纖維膳食","2023-02-12T03:32:01.393Z",{"data":6},{"id":258,"attributes":259},201,{"title":260,"excerpt":6,"content":261,"slug":262,"createdAt":263,"updatedAt":263,"author":264,"categories":265,"tags":271,"image":281},"你夠氣嗎？","\n\n在上環看著不見盡頭的樓梯街，會否搖頭輕嘆，饒過我吧？🤦‍♀️\u003Cbr\u003E\n唔爬唔知身體好。要知道自己的心肺功能好不好，一爬樓梯就知道！😎\n\n提及做運動，大部分人會想起🏃跑步、游泳、騎單車、球類運動等，這些皆屬帶氧運動。帶氧運動指的就是我們使用身體大肌肉群，長時間持續進行，且具有節律性與有氧形態的身體活動。💚 心肺功能越好，持久力越高。隨年歲增長，體能往往轉弱，爬樓梯越來越容易喘氣，反映心肺系統的功能有所下降。\n\n心肺功能良好，代表心肺系統供氧給各身體細胞及其用氧能力均處於良好狀態，這涉及四個重要元素：\u003Cbr\u003E\n1. ❤️ 心臟 -- 作為人體的發電機，是否正常地收縮跳動，確保血液在體內不斷流動？\u003Cbr\u003E\n2. 🚗 血管 -- 好比人體內的馬路，讓運輸養分和代謝廢物的血液川流不息地流動；若中間有堵塞，就不能讓細胞吸收足夠的氧氣及養分。\u003Cbr\u003E\n3. 🫁 肺臟 -- 像人體內的空調，不停的為身體作氣體交換，將氧氣滲入血管，並將二氧化碳排出體外。若空調機制失靈，身體便得不到充足的氧氣供應。\u003Cbr\u003E\n4. ⚙️ 細胞 -- 就像體內的勞動者，用氧能力高，就表示非常壯健，做事也特別勤快；相反，若細胞用氧能力下降，則會導致人體慢性缺氧。\u003Cbr\u003E\n帶氧運動能有效提升並維持良好的心肺功能，亦有助提升胰島素的敏感度，增加骨質密度，紓解壓力。鼓勵大家定立恒常運動的習慣啊✅！\n\n不妨向專業的運動教練查詢做甚麼運動並如何做，才切合自己的需要呢！","nutrition210305","2021-03-05T00:00:00.000Z",{"data":6},{"data":266},[267,269],{"id":14,"attributes":268},{"slug":16,"name":17,"description":6,"createdAt":18,"updatedAt":18},{"id":178,"attributes":270},{"slug":180,"name":181,"description":6,"createdAt":182,"updatedAt":182},{"data":272},[273,277],{"id":274,"attributes":275},233,{"name":276,"createdAt":193,"updatedAt":193},"心肺功能",{"id":278,"attributes":279},249,{"name":280,"createdAt":35,"updatedAt":35},"帶氧運動",{"data":6},{"id":283,"attributes":284},200,{"title":285,"excerpt":6,"content":286,"slug":287,"createdAt":288,"updatedAt":288,"author":289,"categories":290,"tags":294,"image":315},"眉精眼企","\n\n牛年伊始，Empower謹祝大家體健身強，由內至外眉精眼企，營一世，fit一世！💪🏻💪🏻\n\n新年假期，看手機、平板、電腦或電視的時間大增。盯著螢幕時，眨眼的頻率會由正常每分鐘約12下減少至一半，導致眼周肌肉緊繃、血液循環不佳，引起眼睛疲勞及身體不適，被稱為「電腦視覺症候群」。電腦視覺症候群並非疾病，而是眼睛病變的警號；若長期不理會，嚴重者可導致失明。\n電子螢幕散發的藍光屬於高能量光源，波長接近紫外線。長時間注視螢幕，容易導致黃斑中的葉黃素消耗殆盡，造成：\u003Cbr\u003E\n😨中心視力模糊\u003Cbr\u003E\n😨無法分辨顏色\u003Cbr\u003E\n😨視覺扭曲\u003Cbr\u003E\n黃斑病變一旦發生就很難逆轉，所以預防很重要，必須堅持補充葉黃素！\u003Cbr\u003E\n除了葉黃素外，花青素亦十分重要。護眼往往想起藍莓（blueberry），但原來藍莓多用於果醬或食品添加劑；真正用於改善眼睛健康的是歐越莓（bilberry），又名越橘或山桑子，原產於北歐、美國北方及加拿大，較藍莓含更多花青素。歐越莓改善的不只視力，更重要是改善眼部的微循環，故此對預防青光眼也有幫助👍🏻。\n完整且足夠的護眼營養素，單靠天然食物補充實在困難，例如1隻雞蛋只含0.3毫克的葉黃素。建議大家選擇補充品時，除了注意原材料是否天然有機外，還需要葉黃素、花青素與Omega-3互相搭配，才能高效延緩眼睛老化，建構全方位的護眼機制，做個👀眉精眼企的消費者！","nutrition210215","2021-02-15T00:00:00.000Z",{"data":6},{"data":291},[292],{"id":14,"attributes":293},{"slug":16,"name":17,"description":6,"createdAt":18,"updatedAt":18},{"data":295},[296,300,305,310],{"id":297,"attributes":298},220,{"name":299,"createdAt":255,"updatedAt":255},"花青素",{"id":301,"attributes":302},221,{"name":303,"createdAt":304,"updatedAt":304},"葉黃素","2023-02-12T03:32:01.394Z",{"id":306,"attributes":307},140,{"name":308,"createdAt":309,"updatedAt":309},"眼睛","2023-02-12T03:32:01.349Z",{"id":311,"attributes":312},169,{"name":313,"createdAt":314,"updatedAt":314},"奧米加三","2023-02-12T03:32:01.366Z",{"data":6},{"id":317,"attributes":318},202,{"title":319,"excerpt":6,"content":320,"slug":321,"createdAt":322,"updatedAt":322,"author":323,"categories":324,"tags":332,"image":339},"牛轉乾坤","\n\n謝謝各方友好一直以來對Empower的鼎力支持！🥰🥰\u003Cbr\u003E\n㊗️大家🐮年\u003Cbr\u003E\n🌟工作：\u003Cbr\u003E\n縱如牛埋頭苦幹，也不忘抬頭看看👀\u003Cbr\u003E\n🌟同伴：\u003Cbr\u003E\n看顧彼此，家庭、信仰、事業牪皆相隨❤️\u003Cbr\u003E\n🌟自己：\u003Cbr\u003E\n隨心瀟灑，遊歷人生，犇向新天新地🎆\u003Cbr\u003E\n新一年我們定必繼續努力，為大家提供更多富足身心靈的資訊與服務，Empower the Community！💪🏻🥰\n","cny2021","2021-02-12T00:00:00.000Z",{"data":6},{"data":325},[326],{"id":327,"attributes":328},2,{"slug":329,"name":330,"description":6,"createdAt":331,"updatedAt":331},"reflection","感悟隨筆","2023-02-12T02:39:02.692Z",{"data":333},[334],{"id":335,"attributes":336},165,{"name":337,"createdAt":338,"updatedAt":338},"","2023-02-12T03:32:01.365Z",{"data":6},{"id":341,"attributes":342},194,{"title":343,"excerpt":6,"content":344,"slug":345,"createdAt":346,"updatedAt":346,"author":347,"categories":348,"tags":352,"image":375},"抗病毒的最關鍵食物","\n\n上海復旦大學附屬華山醫院感染科主任張文宏教授本月中出席一個防控新冠肺炎疫情講座時特別強調，早餐一定要準備充足的雞蛋🥚。\n\n張教授表示，針對病毒的抗體產生要靠甚麽？是蛋白質。他認為重症轉輕症最主要的一點，是要保證營養和蛋白質，這是有具體臨床經驗證實的。因此，他的醫療團隊調整了治療策略，在病房的醫囑中寫好每天要吃幾個雞蛋，提升患者的蛋白質水平和造血血清白蛋白水平。\n雞蛋含有9種人體所需的胺基酸，是最完整的蛋白質來源。根據研究結果，熟雞蛋吸收率為90％，而生雞蛋只有約50％😲。日本著名管理營養師松田真紀則表示：雞蛋會因為熟度而出現極大的營養差異，所需的消化時間也大不相同。她建議早餐食用半熟蛋👍🏻，不但營養價值最高，也能在1.5小時左右就能完全消化。若是煮到全熟，就需要2倍以上的消化時間。\n至於張文宏教授為何強調是在早餐要準備充足的雞蛋呢？中山大學公共衛生學院營養學教授兼預防醫學研究所副所長蔣卓勤教授表示，早餐提供的能量和營養素應佔全天總需求的30%以上，當中蛋白質至少達21克。吃早餐有利於：\n\n1️⃣營養平衡\u003Cbr\u003E\n2️⃣促進大腦功能的發揮\u003Cbr\u003E\n3️⃣保護心臟\u003Cbr\u003E\n4️⃣預防糖尿病\u003Cbr\u003E\n5️⃣預防膽結石\u003Cbr\u003E\n\n蔣教授指我們經常吃的早餐，包括麵包牛奶、白粥饅頭、餅乾零食都不達標😣。那麼怎樣才是營養滿分的早餐呢？\n中國人民解放軍空軍總醫院前營養科主任兼中國營養保健食品協會副主任委員劉東莉女士表示，只有從食物種類多樣且搭配合理的早餐中獲取了：\n\n✅均衡的碳水化合物；\u003Cbr\u003E\n✅優質蛋白；\u003Cbr\u003E\n✅多種維他命及礦物質；\u003Cbr\u003E\n✅植物營養素；及\u003Cbr\u003E\n✅足量的膳食纖維\u003Cbr\u003E\n才能為每一天的健康人生達成均衡營養的第一步😊。\n\n張文宏教授指，今冬疫情非常嚴峻；但也說，哪怕萬一感染了新冠病毒，只要有足夠的身體資本和免疫力資本，是可以扛得過去的。我們一起加油！💪🏻💪🏻","nutritionpost0210129","2021-01-29T00:00:00.000Z",{"data":6},{"data":349},[350],{"id":14,"attributes":351},{"slug":16,"name":17,"description":6,"createdAt":18,"updatedAt":18},{"data":353},[354,356,361,366,370],{"id":232,"attributes":355},{"name":234,"createdAt":235,"updatedAt":235},{"id":357,"attributes":358},223,{"name":359,"createdAt":360,"updatedAt":360},"抗病毒","2023-02-12T03:32:01.395Z",{"id":362,"attributes":363},153,{"name":364,"createdAt":365,"updatedAt":365},"免疫力","2023-02-12T03:32:01.357Z",{"id":367,"attributes":368},234,{"name":369,"createdAt":137,"updatedAt":137},"抵抗力",{"id":371,"attributes":372},216,{"name":373,"createdAt":374,"updatedAt":374},"早餐","2023-02-12T03:32:01.392Z",{"data":6},{"pagination":377},{"page":378,"pageSize":379,"pageCount":380,"total":381},5,12,10,116],"uses":{"dependencies":["http://127.0.0.1:1337/api/posts?sort=createdAt%3Adesc&populate[author]=true&populate[categories]=true&populate[tags]=true&populate[image]=true&pagination[page]=5&pagination[pageSize]=12"],"params":["page","category"]}}]}