{"type":"data","nodes":[{"type":"data","data":[{"categories":1,"event_categories":27},[2,9,15,21],{"id":3,"attributes":4},1,{"slug":5,"name":6,"description":7,"createdAt":8,"updatedAt":8},"nutrition","營養隨筆",null,"2023-02-12T02:39:02.691Z",{"id":10,"attributes":11},2,{"slug":12,"name":13,"description":7,"createdAt":14,"updatedAt":14},"reflection","感悟隨筆","2023-02-12T02:39:02.692Z",{"id":16,"attributes":17},3,{"slug":18,"name":19,"description":7,"createdAt":20,"updatedAt":20},"fitness","運動筆記","2023-02-12T02:39:02.697Z",{"id":22,"attributes":23},4,{"slug":24,"name":25,"description":7,"createdAt":26,"updatedAt":26},"spiritual","心靈勵志","2023-02-12T02:39:02.698Z",[28,33,38,43,47,52],{"id":3,"attributes":29},{"name":30,"slug":31,"description":7,"createdAt":32,"updatedAt":32},"讀書會","book-sharing","2023-02-12T02:38:55.939Z",{"id":16,"attributes":34},{"name":35,"slug":36,"description":7,"createdAt":37,"updatedAt":37},"文化導賞","cultural","2023-02-12T02:38:55.943Z",{"id":22,"attributes":39},{"name":40,"slug":41,"description":7,"createdAt":42,"updatedAt":42},"遊山玩水","hiking","2023-02-12T02:38:55.946Z",{"id":44,"attributes":45},5,{"name":46,"slug":18,"description":7,"createdAt":42,"updatedAt":42},"健體運動",{"id":48,"attributes":49},6,{"name":50,"slug":5,"description":7,"createdAt":51,"updatedAt":51},"活學營養","2023-02-12T02:38:55.947Z",{"id":10,"attributes":53},{"name":54,"slug":55,"description":7,"createdAt":56,"updatedAt":57},"名人面對面","be-our-guest","2023-02-12T02:38:55.942Z","2023-03-08T13:16:12.875Z"],"uses":{"dependencies":["http://127.0.0.1:1337/api/categories?","http://127.0.0.1:1337/api/event-categories?"]},"slash":"always"},{"type":"data","data":[{"data":1,"meta":191},[2,22,42,56,74,88,103,117,131,149,162,176],{"id":3,"attributes":4},56,{"title":5,"content":6,"start_date":7,"excerpt":8,"slug":9,"end_date":10,"tags":11,"createdAt":12,"updatedAt":12,"event_categories":13,"image":21},"週末郊遊鬆一鬆：城門水塘觀賞白千層","\n\n平時侷促在辦公室及煩囂市區，放假一於逃離市區抖抖氣！\u003Cbr\u003E\n今次我地環繞城門水塘一圈，觀賞塘畔的白千層。漫步水塘、欣賞醉人景緻、細聽猴子猴孫吱吱私語。\u003Cbr\u003E\n行完山，一齊飲埋茶，食埋晏先走！\u003Cbr\u003E\n預計行山時間為3小時\u003Cbr\u003E\n備註：切勿帶膠袋\u002F背心袋\u002F單揹環保袋，沿途不建議邊行邊食小食。\u003Cbr\u003E\n日期：2\u002F6\u002F2018 星期六\u003Cbr\u003E\n時間：9:15-14:30（若不午餐，預計13:30到荃灣）\u003Cbr\u003E\n集合地點：\u003Cbr\u003E\n選項1: 10:00於城門水塘小巴總站\u003Cbr\u003E\n選項2: 09:15於荃灣地鐵站綠楊坊出口等\u003Cbr\u003E\n*若不標明，就當大家是在選項二集合","2018-06-02","","hiking1806",null,"城門水塘","2018-06-02T00:00:00.000Z",{"data":14},[15],{"id":16,"attributes":17},4,{"name":18,"slug":19,"description":10,"createdAt":20,"updatedAt":20},"遊山玩水","hiking","2023-02-12T02:38:55.946Z",{"data":10},{"id":23,"attributes":24},54,{"title":25,"content":26,"start_date":27,"excerpt":28,"slug":29,"end_date":10,"tags":30,"createdAt":31,"updatedAt":31,"event_categories":32,"image":41},"人人跑步·人人跑數","\n\n分享嘉寳：陳兆焯博士(基督教正生書院校長兼正生會營運總監、香港十大傑出青年)\u003Cbr\u003E\n－ 陳校長春風化雨逾30載，服務社會的邊緣青年20多年。創立本港第一所亦是唯一一所以濫藥青少年為對象的中學「正生書院」，課程兼重學術與職業訓練，讓學生在課餘時間創立各種自負盈虧的生意\u003Cbr\u003E\n－ 15年內走訪逾350所中學及250間機構，向超過13 萬人宣傳濫用藥物的禍害；並透過大眾傳播媒介及其著作，分享其經歷及信念\u003Cbr\u003E\n－ 近年與學生遠赴撒哈拉、雅典、三藩市等地跑馬拉松，藉此鼓勵學生挑戰自已，攜手追夢\n\n分享重點：\u003Cbr\u003E\n陳校長將分享其跑步及跑數經歷，如何戰勝常變世事，戰勝不可能！\n\n日期：2018年5月11日(五)\u003Cbr\u003E\n時間：晚上7：15-9：30\u003Cbr\u003E\n地點：旺角登打士街56號柏裕商業中心15樓安利體驗館會議室B\u003Cbr\u003E\n費用：$90一位\u002F$230三位 (包三文治及飲品)","2018-05-25","基督教正生書院校長兼正生會營運總監陳兆焯博士","alman-chan","跑步","2018-05-25T00:00:00.000Z",{"data":33},[34],{"id":35,"attributes":36},2,{"name":37,"slug":38,"description":10,"createdAt":39,"updatedAt":40},"名人面對面","be-our-guest","2023-02-12T02:38:55.942Z","2023-03-08T13:16:12.875Z",{"data":10},{"id":43,"attributes":44},45,{"title":45,"content":46,"start_date":47,"excerpt":8,"slug":48,"end_date":10,"tags":49,"createdAt":50,"updatedAt":50,"event_categories":51,"image":55},"行山團 - 砲台探秘","\n\n每天工作於侷促的辦公室，行走在煩囂的市區，放假當然要逃出市區抖抖氣！\u003Cbr\u003E\n今次我地由油塘高超道出發，經過魔鬼山砲台，沿途風光明媚，可遠眺港島的柏架山及西灣河一帶，東觀釣魚翁，南瞰鯉魚門及柴灣，西望九龍東、港島北，俯瞰將軍澳，一嘗大地在我腳下的滋味。\u003Cbr\u003E\n行完山，一齊行到將軍澳新都城，食埋晏歎埋茶先走！\u003Cbr\u003E\n今次登山路線：油塘高超道-\u003E魔鬼山-\u003E五桂山-\u003E茅湖山-\u003E靈實醫院\u003Cbr\u003E\n（預計行山時間為3小時）\u003Cbr\u003E\n日期：22\u002F5\u002F2018 星期二（公眾假期）\u003Cbr\u003E\n時間：9:30-14:30 （預計13:00到新都城）\u003Cbr\u003E\n集合地點：油塘港鐵站A2出口（9：30，不見即散）","2018-05-22","hiking1805","魔鬼山,五桂山,茅湖山","2018-05-22T00:00:00.000Z",{"data":52},[53],{"id":16,"attributes":54},{"name":18,"slug":19,"description":10,"createdAt":20,"updatedAt":20},{"data":10},{"id":57,"attributes":58},44,{"title":59,"content":60,"start_date":61,"excerpt":8,"slug":62,"end_date":10,"tags":63,"createdAt":64,"updatedAt":64,"event_categories":65,"image":73},"讀書會主題: 心靈·勵志","\n雞蛋從外打破是食物，從內打破是生命；人生從外打破是壓力，從內打破是成長。\u003Cbr\u003E\n生活壓力四方八面，幸好遇壓時總有書籍能助我們向前邁進。\u003Cbr\u003E\n今次讀書會，我們特別選擇分享心靈及勵志類書籍，讓大家共同成長，同時拓展我們生命的寬度及深度。\u003Cbr\u003E\n誠邀你一起分享閱讀體驗，一同感受由文字所帶出的美妙世界。\u003Cbr\u003E\n歡迎大家一起閱讀，一起分享，相互啟發！\u003Cbr\u003E\n說書人：4位 (每位15分鐘)\u003Cbr\u003E\n愛書人：10位\u003Cbr\u003E\n日期：19\u002F5\u002F2017 (星期六)\u003Cbr\u003E\n時間：14:15-16:30\u003Cbr\u003E\n地點：咖啡綠茶＠旺角西洋菜南街38-40號萬高商業大廈3樓\u003Cbr\u003E\n費用：自費在餐廳點單\u003Cbr\u003E\n名額：14人","2018-05-19","booksharing1805","心靈勵志","2018-05-19T00:00:00.000Z",{"data":66},[67],{"id":68,"attributes":69},1,{"name":70,"slug":71,"description":10,"createdAt":72,"updatedAt":72},"讀書會","book-sharing","2023-02-12T02:38:55.939Z",{"data":10},{"id":75,"attributes":76},43,{"title":77,"content":78,"start_date":79,"excerpt":8,"slug":80,"end_date":10,"tags":81,"createdAt":82,"updatedAt":82,"event_categories":83,"image":87},"周末郊遊鬆一鬆：都市綠洲- 藍地水塘","\n\n平時侷促在辦公室及煩囂市區，放假一於逃離市區抖抖氣！\u003Cbr\u003E\n今次我地探訪環境清幽的屯門藍地水塘。\u003Cbr\u003E\n藍地水塘建於1957年，為灌溉水塘之一，水塘雖小，但環境清幽風景如畫。\u003Cbr\u003E\n由屯門市出發，沿途風光明媚，途中可以俯瞰屯門市景色，並經過富有特色的七色彩虹欄杆。\u003Cbr\u003E\n行完山，一齊在嶺大校園內酒樓食埋晏先走！\u003Cbr\u003E\n同場加映：嶺南大學導賞（有意參加的朋友可以午餐後留下，導賞約30分鐘）\u003Cbr\u003E\n今次登山路線：屯門何福堂 》 麥徑十段 》 屯門徑二段 》 沿藍地水塘到大水壩 》 虎地下村\u003Cbr\u003E\n（預計行山時間為3小時）\u003Cbr\u003E\n備註：大部分為石屎路，當中有樓梯上落。\u003Cbr\u003E\n日期：21\u002F4\u002F2018 星期六\u003Cbr\u003E\n時間：9:30-14:30（若不午餐，預計12:30到嶺南大學）\u003Cbr\u003E\n集合地點：屯門西鐵站 A出口杯渡路（9:30，不見即散）","2018-04-21","hiking1804","藍地水塘","2018-04-21T00:00:00.000Z",{"data":84},[85],{"id":16,"attributes":86},{"name":18,"slug":19,"description":10,"createdAt":20,"updatedAt":20},{"data":10},{"id":89,"attributes":90},51,{"title":91,"content":92,"start_date":93,"excerpt":94,"slug":95,"end_date":10,"tags":96,"createdAt":97,"updatedAt":97,"event_categories":98,"image":102},"蘇東坡的多采人生對現代優質生活的啟示","\n\n- 曾任珠海書院中國文史系主任及中國文史研究所副所長、香港中文大學教育學院兼任講師\u003Cbr\u003E\n- 香港電台清談節目《清晨爽利》及《講東講西》嘉賓主持\n\n分享重點：\n- 在現實人生中，怎樣的生活才是優質生活？\u003Cbr\u003E\n﻿- 怎樣從蘇東坡的多采人生中，學到創造優質生活的本領？\u003Cbr\u003E\n岑教授在報章雜誌發表文章多篇，討論中國歷史文化、管理和人格教育問題。因見解揉合東西及古今文化精華，深受學術界與教育界重視，94年獲中華臺北僑委會海外華文著述學術論著社會人文及科學優等獎\n\n日期：2018年4月8日(日)\u003Cbr\u003E\n時間：晚上7：15 - 9：30\u003Cbr\u003E\n地點：旺角登打士街56號柏裕商業中心15樓安利體驗館會議室B\u003Cbr\u003E\n費用：$90一位\u002F$230三位 (包三文治及飲品)","2018-04-08","香港電台清談節目《清晨爽利》及《講東講西》嘉賓主持岑練英教授","professor-sum","蘇東坡","2018-04-08T00:00:00.000Z",{"data":99},[100],{"id":35,"attributes":101},{"name":37,"slug":38,"description":10,"createdAt":39,"updatedAt":40},{"data":10},{"id":104,"attributes":105},48,{"title":106,"content":107,"start_date":108,"excerpt":8,"slug":109,"end_date":10,"tags":110,"createdAt":111,"updatedAt":111,"event_categories":112,"image":116},"讀書會主題：動漫狂派","\n\n漫畫，一直被視為次文化，然而其影響力與日俱增，更衍生出動畫、電玩、模型等不同類型的創作，風靡全世界，是另類的藝術平台。\u003Cbr\u003E\n由生活小品，以至歷史記載，諷刺時弊，內容主題十分多樣。而漫畫又以東洋及歐美作分水嶺，各自運用着不用的繪畫技巧，描繪出一幅又一幅藝術作品。\u003Cbr\u003E\n透過這次讀書會，希望藉此打破大家對漫畫的成見與迷思，以開放的態度，去了解及踏足這深邃又引人入勝的動漫世界。\u003Cbr\u003E\n說書人：4位 (每位15分鐘)\u003Cbr\u003E\n愛書人：10位\u003Cbr\u003E\n備註：分享書籍的朋友，請於17\u002F3或之前通知我們書名及作者，最好有網址連結讓我們大約知道書本內容，讓分享會更順暢進行。\u003Cbr\u003E\n日期：24\u002F03\u002F2018 (星期六)\u003Cbr\u003E\n時間：14:15-16:30\u003Cbr\u003E\n地點：咖啡綠茶＠旺角西洋菜南街38-40號萬高商業大廈3樓\u003Cbr\u003E\n費用：自費在餐廳點單\u003Cbr\u003E\n名額：14人","2018-03-24","bookshare1803","動漫","2018-03-24T00:00:00.000Z",{"data":113},[114],{"id":68,"attributes":115},{"name":70,"slug":71,"description":10,"createdAt":72,"updatedAt":72},{"data":10},{"id":118,"attributes":119},50,{"title":120,"content":121,"start_date":122,"excerpt":8,"slug":123,"end_date":10,"tags":124,"createdAt":125,"updatedAt":125,"event_categories":126,"image":130},"周末郊遊鬆一鬆：海闊天空 -- 山頂西高山","\n\n平時侷促在辦公室及煩囂市區，放假一於逃離市區抖抖氣！\u003Cbr\u003E\n今次我地由山頂出發，步步高升走樓梯上西高山，沿途飽覽薄扶林水塘、數碼港，並遠眺南丫島，登頂後更可一覽無遺地觀賞維港兩岸景色。\u003Cbr\u003E\n下山時尋找維多利亞城界石及松林炮台遺址 -- 松林廢堡。\u003Cbr\u003E\n行完山，一齊去西營盤食埋晏歎埋茶先走！\u003Cbr\u003E\n今次登山路線：山頂 › 西高山 › 松林廢堡 › 香港大學（預計行山時間為2.5小時）\u003Cbr\u003E\n由中環碼頭集合坐15號巴士\u003Cbr\u003E\n日期：11\u002F3\u002F2018 星期日\u003Cbr\u003E\n時間：9:30-14:30\u003Cbr\u003E\n集合地點：中環5號碼頭巴士總站（9：30，不見即散）坐15巴士前往山頂\u003Cbr\u003E\n預計10:15到山頂\u003Cbr\u003E\n預計12:45-13:00到香港大學附近\u003Cbr\u003E\n預計食晏時間：13:30-14:30","2018-03-11","hiking1803","山頂,西高山","2018-03-11T00:00:00.000Z",{"data":127},[128],{"id":16,"attributes":129},{"name":18,"slug":19,"description":10,"createdAt":20,"updatedAt":20},{"data":10},{"id":132,"attributes":133},46,{"title":134,"content":135,"start_date":136,"excerpt":8,"slug":137,"end_date":10,"tags":138,"createdAt":139,"updatedAt":139,"event_categories":140,"image":148},"活化歷史·永續生活 -綠匯學院","\n\n綠匯學院前身為舊大埔警署，是殖民地政府在1899年接管新界時舉行升旗禮的地點。作為殖民地政府於新界建設的首間永久警署，舊大埔警署是昔日殖民地政府管治新界的權力象徵，現為香港一級歷史建築。\n除了作為活化歷史建築項目，亦同時是本地重要的鷺鳥繁殖地。\n\nEmpower 特別安排了專人導賞，除介紹舊大埔警署的歷史、建築及生態特色外，也會講解綠匯學苑的綜合保育設計。\n\n日期：2018年3月3日(星期六)\u003Cbr\u003E\n時間：上午11:45至中午15:15\u003Cbr\u003E\n地點：香港新界大埔運頭角里11 號\u003Cbr\u003E\n費用：午餐自費，參觀免費\u003Cbr\u003E\n集合時間：11:45大埔港鐵站A1出口\u003Cbr\u003E\n我們將一起午飯，再一同前往綠滙學院，當中已預留時間供大家拍照 😊","2018-03-03","culturalvisit1803","綠匯學院","2018-03-03T00:00:00.000Z",{"data":141},[142],{"id":143,"attributes":144},3,{"name":145,"slug":146,"description":10,"createdAt":147,"updatedAt":147},"文化導賞","cultural","2023-02-12T02:38:55.943Z",{"data":10},{"id":150,"attributes":151},55,{"title":152,"content":153,"start_date":136,"excerpt":154,"slug":155,"end_date":10,"tags":156,"createdAt":139,"updatedAt":139,"event_categories":157,"image":161},"疾風中的神奇女俠","\n\n－ 事業正值高峰時突患嚴重出血性中風，經歷數年艱苦康復，憑努力不懈的精神，取得工商管理學博士及社會科學碩士銜\u003Cbr\u003E\n－ 從「受助者」變為「服務者」，除復康會的工作外，亦是香港電腦學會院士及名譽顧問，並在政府勞工及福利局、社會福利署、教育局及醫院管理局參與諮詢委員會的工作\n\n日期：2018年3月3日(星期六)\u003Cbr\u003E\n時間：晚上7:15-9:30\u003Cbr\u003E\n地點：九龍旺角登打士街56號柏裕商業中心15樓安利體驗館會議室B\u003Cbr\u003E\n費用：$90一位\u002F $230三位 (包括三文治及飲品)","香港賽馬會首位女性資訊科技事務司、 香港復康會副主席莫關雁卿博士Edith","edith","復康",{"data":158},[159],{"id":35,"attributes":160},{"name":37,"slug":38,"description":10,"createdAt":39,"updatedAt":40},{"data":10},{"id":163,"attributes":164},47,{"title":165,"content":166,"start_date":167,"excerpt":8,"slug":168,"end_date":10,"tags":169,"createdAt":170,"updatedAt":170,"event_categories":171,"image":175},"新春行大運: 綠風草原- 小夏威夷徑","\n\n侷促在辦公室及煩囂市區，放假一於逃離市區抖抖氣！\u003Cbr\u003E\n今次我地由西貢井欄樹出發，經過百多年前村民的私人遊泳池遺址，並近距離觀看小夏威夷瀑布，遠眺將軍澳市景。\u003Cbr\u003E\n沿途風景優美，雖在冬天亦可以感受到夏天的流水潺潺！\u003Cbr\u003E\n行完山，一齊去寶琳邨食埋晏歎埋茶先走！\u003Cbr\u003E\n今次登山路線：井欄樹 › 衛奕信徑三段 › 小夏威夷徑 › 水壩 › 將軍澳村（預計行山時間為2小時）\u003Cbr\u003E\n由鑽石山港鐵站集合坐91\u002F91M巴士\u003Cbr\u003E\n日期：19\u002F2\u002F2018 星期一（年初四）\u003Cbr\u003E\n時間：9:30-14:30\u003Cbr\u003E\n集合地點：鑽石山港鐵站C2出口（9：30，不見即散）\u003Cbr\u003E\n預計12:30會到寶琳邨午飯","2018-02-19","hiking1802","小夏威夷徑,新春行大運","2018-02-19T00:00:00.000Z",{"data":172},[173],{"id":16,"attributes":174},{"name":18,"slug":19,"description":10,"createdAt":20,"updatedAt":20},{"data":10},{"id":177,"attributes":178},42,{"title":179,"content":180,"start_date":181,"excerpt":182,"slug":183,"end_date":10,"tags":184,"createdAt":185,"updatedAt":185,"event_categories":186,"image":190},"如何透過社交媒體令你愛上一個品牌？","\n\n獲得獎項：\u003Cbr\u003E\n－《iChoice網絡至強人氣大獎頒獎典禮2017》：\u003Cbr\u003E\nUwants及Discuss Forum網民投選「網絡至強人氣至尊數碼市場策劃大獎」－csl 及\u003Cbr\u003E\n「網絡至強人氣顧客獎勵計劃大獎」－The Club\u003Cbr\u003E\n－《都市日報最佳創意廣告2017》頒獎禮：\u003Cbr\u003E\n「最佳數碼媒體營銷䇿略」及「專業評審跨平台大獎」－csl\n\n分享內容：\u003Cbr\u003E\n－ 如何善用社交媒體，與客戶進行深層次交流與銷售？\u003Cbr\u003E\n－ 打造明星（品牌）的竅門\n\n日期：2018年2月3日(星期六)\u003Cbr\u003E\n時間：晚上7:15-9:30\u003Cbr\u003E\n地點：九龍旺角登打士街56號柏裕商業中心15樓安利體驗館會議室B\u003Cbr\u003E\n費用：$90一位\u002F $230三位 (包括三文治及飲品)","2018-02-03","csl Mobile & The Club 甄坤儀小姐Methy","methy","社交媒體,營銷䇿略","2018-02-03T00:00:00.000Z",{"data":187},[188],{"id":35,"attributes":189},{"name":37,"slug":38,"description":10,"createdAt":39,"updatedAt":40},{"data":10},{"pagination":192},{"page":193,"pageSize":194,"pageCount":195,"total":196},11,12,16,188],"uses":{"dependencies":["http://127.0.0.1:1337/api/events?sort=start_date%3Adesc&populate[author]=true&populate[event_categories]=true&populate[image]=true&pagination[page]=11&pagination[pageSize]=12"],"params":["page","category"]}}]}