{"type":"data","nodes":[{"type":"data","data":[{"categories":1,"event_categories":27},[2,9,15,21],{"id":3,"attributes":4},1,{"slug":5,"name":6,"description":7,"createdAt":8,"updatedAt":8},"nutrition","營養隨筆",null,"2023-02-12T02:39:02.691Z",{"id":10,"attributes":11},2,{"slug":12,"name":13,"description":7,"createdAt":14,"updatedAt":14},"reflection","感悟隨筆","2023-02-12T02:39:02.692Z",{"id":16,"attributes":17},3,{"slug":18,"name":19,"description":7,"createdAt":20,"updatedAt":20},"fitness","運動筆記","2023-02-12T02:39:02.697Z",{"id":22,"attributes":23},4,{"slug":24,"name":25,"description":7,"createdAt":26,"updatedAt":26},"spiritual","心靈勵志","2023-02-12T02:39:02.698Z",[28,33,38,43,47,52],{"id":3,"attributes":29},{"name":30,"slug":31,"description":7,"createdAt":32,"updatedAt":32},"讀書會","book-sharing","2023-02-12T02:38:55.939Z",{"id":16,"attributes":34},{"name":35,"slug":36,"description":7,"createdAt":37,"updatedAt":37},"文化導賞","cultural","2023-02-12T02:38:55.943Z",{"id":22,"attributes":39},{"name":40,"slug":41,"description":7,"createdAt":42,"updatedAt":42},"遊山玩水","hiking","2023-02-12T02:38:55.946Z",{"id":44,"attributes":45},5,{"name":46,"slug":18,"description":7,"createdAt":42,"updatedAt":42},"健體運動",{"id":48,"attributes":49},6,{"name":50,"slug":5,"description":7,"createdAt":51,"updatedAt":51},"活學營養","2023-02-12T02:38:55.947Z",{"id":10,"attributes":53},{"name":54,"slug":55,"description":7,"createdAt":56,"updatedAt":57},"名人面對面","be-our-guest","2023-02-12T02:38:55.942Z","2023-03-08T13:16:12.875Z"],"uses":{"dependencies":["http://127.0.0.1:1337/api/categories?","http://127.0.0.1:1337/api/event-categories?"]},"slash":"always"},{"type":"data","data":[{"data":1,"meta":188},[2,23,38,53,68,83,98,113,128,143,158,173],{"id":3,"attributes":4},160,{"start_date":5,"title":6,"content":7,"excerpt":8,"slug":9,"end_date":10,"tags":11,"createdAt":12,"updatedAt":12,"event_categories":13,"image":22},"2021-11-06","兩岸三地書店形態的發展","\n\n疫情改變消費通路，網絡經濟大爆發，兩岸三地書店形態也有著翻天覆地的改變😉。\n\n11月名人面對面，Empower榮幸邀得熟諳中、港、台三地書店演進與轉型的陳萬雄博士擔任主講嘉賓🤗。陳博士曾任香港商務印書館總經過理兼總編輯、聯合出版集團有限公司副董事長兼總裁，亦是著名的出版家。\n\n💡大家不妨想想，甚麼書店才能令你流連忘返？\u003Cbr\u003E\n💡O2O書店如何帶來閱讀新體驗？\u003Cbr\u003E\n💡你心中的夢想書房，又是甚麼樣子？","曾任香港商務印書館總經理兼總編輯、聯合出版集團有限公司副董事長兼總裁，亦是著名的出版家陳萬雄博士","professor-chan-book",null,"出版商,閱讀,文化","2021-11-06T00:00:00.000Z",{"data":14},[15],{"id":16,"attributes":17},2,{"name":18,"slug":19,"description":10,"createdAt":20,"updatedAt":21},"名人面對面","be-our-guest","2023-02-12T02:38:55.942Z","2023-03-08T13:16:12.875Z",{"data":10},{"id":24,"attributes":25},147,{"start_date":26,"title":27,"content":28,"excerpt":29,"slug":30,"end_date":10,"tags":31,"createdAt":32,"updatedAt":32,"event_categories":33,"image":37},"2021-09-10","拼盡無悔的運動精神","\n\n主講嘉賓：張樹槐(Walter)\u003Cbr\u003E\n- 前恒生銀行總裁高級顧問\u003Cbr\u003E\n- 恒生乒乓球學院聯合創辦人\u003Cbr\u003E\n- 達人傳訊董事總經理\u003Cbr\u003E\n- 馬拉松達人，在世界六大洲完成90多個全馬，包括全球最高的珠峰馬拉松！\n\nWalter屆時將分享：\u003Cbr\u003E\n💡 香港乒乓球運動員搖籃「恒生乒乓球學院」的創辦經過及發展歷程\u003Cbr\u003E\n💡 普通人煉成業餘運動好手的秘訣\u003Cbr\u003E\n💡 運動產業推廣的最新形態與趨勢\n\n日期：9月10日(星期五)\u003Cbr\u003E\n時間：晚上7:30-8:30\u003Cbr\u003E\n地點：旺角登打士街56號家樂坊15樓安利體驗館，同步以zoom現場直播\u003Cbr\u003E\n費用：$30 (線上線下同價) ","前恒生銀行總裁高級顧問、恒生乒乓球學院聯合創辦人、馬拉松達人張樹槐(Walter)","walter-cheung-sharing","乒乓球,馬拉松","2021-09-10T00:00:00.000Z",{"data":34},[35],{"id":16,"attributes":36},{"name":18,"slug":19,"description":10,"createdAt":20,"updatedAt":21},{"data":10},{"id":39,"attributes":40},152,{"start_date":41,"title":42,"content":43,"excerpt":44,"slug":45,"end_date":10,"tags":46,"createdAt":47,"updatedAt":47,"event_categories":48,"image":52},"2021-08-07","品啡·追夢之旅","\n\n熱愛咖啡\u003Cbr\u003E\n至追尋咖啡\u003Cbr\u003E\n再到研發咖啡烘焙及味道配方......\u003Cbr\u003E\n遊歷世界，感受各地咖啡文化，跟隨風格殊異的咖啡師學習，由咖啡師到杯測師再到烘豆師，Yuki Kwan將帶領我們一起逐夢，細嚼咖啡裡的情懷。\u003Cbr\u003E\n⭐️如何由咖啡素人變身咖啡達人，再開啟味蕾成為杯測師？\u003Cbr\u003E\n⭐️ 營運自家cafe的苦與樂\u003Cbr\u003E\n⭐️ COE卓越杯咖啡競賽～哥倫比亞之旅分享\u003Cbr\u003E\n🌟️ Yuki 簡歷：\u003Cbr\u003E\nSCA Barista Skills Professional\u003Cbr\u003E\n精品咖啡協會 咖啡調配師(專業級)\u003Cbr\u003E\nSCA Roasting Professional\u003Cbr\u003E\n精品咖啡協會 咖啡烘焙師(專業級)\u003Cbr\u003E\nSCI Brewing Level 2\u003Cbr\u003E\n可持續咖啡學會 咖啡冲煮二級\u003Cbr\u003E\nSCI Roasting Level 3\u003Cbr\u003E\n可持續咖啡學會 咖啡烘焙三級\u003Cbr\u003E\nCQI Q Grader\u003Cbr\u003E\n咖啡質量研究所 國際咖啡品質鑑定師\u003Cbr\u003E\nCOE International Jury\u003Cbr\u003E\n卓越杯國際杯測師評審\n\n日期：2021年8月7日(星期六)\u003Cbr\u003E\n時間：上午11:30-12:30\u003Cbr\u003E\n地點：旺角登打士街56號家樂坊15樓安利體驗館，同步以zoom現場直播\u003Cbr\u003E\n費用：$30 (線上線下同價) ","COE卓越杯國際評審、日晨咖啡品牌創辦人、咖啡烘焙師Yuki Kwan","coffee-yuki-kwan-2108","咖啡分享,創業分享,杯測師,咖啡烘焙","2021-08-07T00:00:00.000Z",{"data":49},[50],{"id":16,"attributes":51},{"name":18,"slug":19,"description":10,"createdAt":20,"updatedAt":21},{"data":10},{"id":54,"attributes":55},150,{"start_date":56,"title":57,"content":58,"excerpt":59,"slug":60,"end_date":10,"tags":61,"createdAt":62,"updatedAt":62,"event_categories":63,"image":67},"2021-04-24","【送給吃貨們😆】美食與文化交融～從瑞士領事的雞翼困惑說起","\n\n4月名人面對面\n【送給吃貨們😆】美食與文化交融\u003Cbr\u003E\n～從瑞士領事的雞翼困惑說起\n\n🤓熱愛美食的歷史學家 蘇鋭鴻校長，將與各位饕餮分享：\u003Cbr\u003E\n🐔 瑞士領事的雞翼困惑\u003Cbr\u003E\n🧨 當「吃貨張騫」遇見「西域美食」，會有怎樣的火花？\u003Cbr\u003E\n📜 唐三藏取食經\u003Cbr\u003E\n🍝 馬可孛羅與意大利粉的小確幸\u003Cbr\u003E\n👫 從絲綢之路到哥倫布大交換\u003Cbr\u003E\n🏆 鄭和~品嚐燕窩第一人\u003Cbr\u003E\n🍅 番茄很晚才傳入中國，為何中國人率先發明了番茄炒蛋？\u003Cbr\u003E\n🍜 ラーメン的爺爺(清麵)和爸爸(中華麵)\u003Cbr\u003E\n🤝 由廣州太平館到港式茶餐廳~中西文化融合的典範\u003Cbr\u003E\n😚 美食就是生活\n\n⭐蘇鋭鴻校長簡歷：\u003Cbr\u003E\n● 退休中學校長\u003Cbr\u003E\n● 資深教育工作者\u003Cbr\u003E\n● 歷史學家\u003Cbr\u003E\n● 歷任教育局教科書審查委員、中國文化研究院專題審查委員\u003Cbr\u003E\n● 現為香港金融管理學院兼任講師、泛亞教育機構顧問、和富社會企業青少年網絡執行委員\u003Cbr\u003E \n● 著有《紅船淺探》、《香港百聞》、《 國史百聞》等書","蘇鋭鴻校長","so210424","美食文化,吃貨","2021-04-24T00:00:00.000Z",{"data":64},[65],{"id":16,"attributes":66},{"name":18,"slug":19,"description":10,"createdAt":20,"updatedAt":21},{"data":10},{"id":69,"attributes":70},140,{"start_date":71,"title":72,"content":73,"excerpt":74,"slug":75,"end_date":10,"tags":76,"createdAt":77,"updatedAt":77,"event_categories":78,"image":82},"2021-03-21","築．愛～從建築設計到建立關係的應用哲學","\n\n小卡出道以來獲獎無數，設計道路一帆風順，不為人知的背後卻是歷盡滄桑，飽受不同人際關係帶來的傷痛。\n\n從消沉到自省，從成長到突破，小卡通過自身的經歷，摸索建立關係的方法，並化作設計，傳遞溫暖的情感，讓人從中有所感悟，重建與家人、與社區，以及與世界的連繫，重建愛的能力，建立更理想的關係。\n\n由修頓球場看台扶手，到八十平米住宅，再到大館一百面、日安時刻，小卡將解構一系列空間設計作品背後的巧思，同時分享他的人生經歷。細看他對每段關係的處理，也許能為你的人生困惑找到解答🙌🏻。\n\n葉小卡（葉憬翰）\u003Cbr\u003E\nADO Culture一道文創　 創辦人\u003Cbr\u003E\nADO Living一道生活 創辦人\u003Cbr\u003E\nMissions.app 創辦人\u003Cbr\u003E\n香港設計師協會會長\u003Cbr\u003E\n香港設計中心董事\u003Cbr\u003E\n香港工業總會香港設計委員會副主席\u003Cbr\u003E\n香港智慧城市聯盟文創組長\n\n小卡在2003年創辦ADO Culture一道文創，以文化創新為目標，結合數碼科技，專注創作有文化意義的先進品牌空間，建立深刻難忘的體驗。於2005年獲香港青年設計才俊大獎、2009年獲香港十大設計師獎、2018年獲得中國十大最具影響力設計師獎。而他的藝術及建築作品曾獲：紐約Interior Design年度大獎、DFA亞洲最具影響力設計獎、FRAME年度設計大獎、A’ Design Award設計大獎、中國最成功設計大獎、日本JCD商業空間設計大獎等，其雕塑作品被收藏在香港特首辦公室。他也是Sparkle! 油街實現一系列藝術展的設計顧問，In PARK及Viva! River公共藝術的總策展人。","葉小卡先生 藝術家．設計師．香港設計師協會會長","202103-karr-yip","建築設計,設計師","2021-03-21T00:00:00.000Z",{"data":79},[80],{"id":16,"attributes":81},{"name":18,"slug":19,"description":10,"createdAt":20,"updatedAt":21},{"data":10},{"id":84,"attributes":85},146,{"start_date":86,"title":87,"content":88,"excerpt":89,"slug":90,"end_date":10,"tags":91,"createdAt":92,"updatedAt":92,"event_categories":93,"image":97},"2021-01-23","2021投資基本功","\n\n名人面對面2.0：投資基本功\u003Cbr\u003E\n極不平凡的2020年終於過去，經濟蕭條下，股金比特幣齊升，美元大弱勢，2021年何去何從？🤔\u003Cbr\u003E\nEmpower高興邀得涂國彬先生為大家分享《2021投資基本功》，早作準備💪🏻。\u003Cbr\u003E\n涂先生從事經濟及投資策略研究多年，近年創立經營環球宏觀多元資產對沖基金業務，現為永豐金融資產管理董事總經理。\u003Cbr\u003E\n日期：2021年1月23日（星期六）\u003Cbr\u003E\n時間：上午11:00-12:00\u003Cbr\u003E\n費用：全免\u003Cbr\u003E\n形式：Zoom及Facebook Live 現場直播\u003Cbr\u003E\n*若希望直接交流，歡迎問我們索取zoom直播連結。謝謝","永豐金融資產管理董事總經理涂國彬先生(Mark To)","mark-to","金融經濟,股市,滙市,投資","2021-01-23T00:00:00.000Z",{"data":94},[95],{"id":16,"attributes":96},{"name":18,"slug":19,"description":10,"createdAt":20,"updatedAt":21},{"data":10},{"id":99,"attributes":100},138,{"start_date":101,"title":102,"content":103,"excerpt":104,"slug":105,"end_date":10,"tags":106,"createdAt":107,"updatedAt":107,"event_categories":108,"image":112},"2020-12-13","暢談手工啤酒 酵釀香醇人生","\n\n榮幸邀得國際啤酒評審Tomy方啟聰先生來臨分享「暢談手工啤酒 酵釀香醇人生」🤗\u003Cbr\u003E\nTomy將會同大家拆解手工啤酒的迷思：\u003Cbr\u003E\n🍺手工啤酒只是汽水酒？\u003Cbr\u003E\n🍺精釀啤酒跟工業製啤酒有甚麼分別？\u003Cbr\u003E\n🍺啤酒泡原來有作用？\u003Cbr\u003E\n🍺啤酒杯真的雪凍會好啲？\u003Cbr\u003E\n\n另外，也會跟大家分享，\u003Cbr\u003E\n😋不同美食該配哪類啤酒？\u003Cbr\u003E\n🤔IPA又是咩東東？\u003Cbr\u003E\n🙄初嚐手工啤酒又該如何選擇？\u003Cbr\u003E\n內容豐富，萬勿錯過🤗","國際啤酒評審Tomy方啟聰先生","tomy-fong","手工啤酒,創業","2020-12-13T00:00:00.000Z",{"data":109},[110],{"id":16,"attributes":111},{"name":18,"slug":19,"description":10,"createdAt":20,"updatedAt":21},{"data":10},{"id":114,"attributes":115},123,{"start_date":116,"title":117,"content":118,"excerpt":119,"slug":120,"end_date":10,"tags":121,"createdAt":122,"updatedAt":122,"event_categories":123,"image":127},"2020-10-31","品茶的好處與禁忌","\n\n魯迅先生說：「有好茶喝，會喝好茶，是一種『清福』。」\u003Cbr\u003E\n喝茶重於解渴，品茶意在怡情。如何品茶，才能養心養性，健體益壽？不同氣候、不同時間，不同體質，品茶之道有何異同？\u003Cbr\u003E\n時值秋天，聽完此講，當不會被魯迅先生說：「不識好茶，沒有秋思，倒也罷了。」\n\n日期：2020年10月31日（星期六）\u003Cbr\u003E\n時間：下午5:00至6:00\u003Cbr\u003E\n費用：全免\u003Cbr\u003E\n形式：以Zoom Cloud Meetings軟件現場直播","90後茶藝師、瑜茶舍創辦人 容德如小姐 Catherine","catherine","品荼,茶藝師","2020-10-31T00:00:00.000Z",{"data":124},[125],{"id":16,"attributes":126},{"name":18,"slug":19,"description":10,"createdAt":20,"updatedAt":21},{"data":10},{"id":129,"attributes":130},124,{"start_date":131,"title":132,"content":133,"excerpt":134,"slug":135,"end_date":10,"tags":136,"createdAt":137,"updatedAt":137,"event_categories":138,"image":142},"2020-09-13","品味咖啡 探索人生 第二擊","\n\n榮幸邀得Dr Man再次教我們如何沖咖啡，品咖啡，同時解構咖啡的種種迷思，例如：\u003Cbr\u003E\n- 喝咖啡真的會上癮？\u003Cbr\u003E\n- 一天能喝幾杯咖啡？\u003Cbr\u003E\n- 喝咖啡後睡不著，跟咖啡有關還是跟體質有關？\n\nDr Man更會分享疫情下咖啡業界有何新趨勢，萬勿錯過！\n\n日期：2020年9月13日（星期日）\u003Cbr\u003E\n時間：下午3:00至4:00\u003Cbr\u003E\n費用：全免\u003Cbr\u003E\n形式：以Zoom Cloud Meetings軟件現場直播","香港咖啡業界首位女性國際咖啡師監考官、Coffee Lover咖啡課程總監文桂芳博士 Dr May Man","dr-may-man","咖啡","2020-09-13T00:00:00.000Z",{"data":139},[140],{"id":16,"attributes":141},{"name":18,"slug":19,"description":10,"createdAt":20,"updatedAt":21},{"data":10},{"id":144,"attributes":145},128,{"start_date":146,"title":147,"content":148,"excerpt":149,"slug":150,"end_date":10,"tags":151,"createdAt":152,"updatedAt":152,"event_categories":153,"image":157},"2020-08-16","網絡保安 你我都要識","\n\n分享嘉賓：黃廣達先生 Eric Wong\u003Cbr\u003E\n現職羅兵咸永道會計師事務所風險及控制服務高級經理，曾任香港電訊資訊科技保安助理副總裁\n\n- 在家工作及視像會議成為新常態，如何確保網絡安全，免被黑客入侵😖？\u003Cbr\u003E\n- 怎樣強化各社交媒體帳戶的私隱設定💪🏻💪🏻，以免洩露行蹤，或不斷接收曾查看網頁的相關資訊？\u003Cbr\u003E\n- 怎樣設定密碼才最安全？如何使用多重認證？🤔\n\n日期：2020年8月16日（星期日）\u003Cbr\u003E\n時間：下午4:00至5:00\u003Cbr\u003E\n費用：全免\u003Cbr\u003E\n形式：以Zoom Cloud Meetings軟件現場直播，請私訊Inbox我們查詢連結","黃廣達先生 Eric Wong","eric-wong","網絡保安","2020-08-16T00:00:00.000Z",{"data":154},[155],{"id":16,"attributes":156},{"name":18,"slug":19,"description":10,"createdAt":20,"updatedAt":21},{"data":10},{"id":159,"attributes":160},120,{"start_date":161,"title":162,"content":163,"excerpt":164,"slug":165,"end_date":10,"tags":166,"createdAt":167,"updatedAt":167,"event_categories":168,"image":172},"2020-06-27","以畫會友 傳遞快樂","\n\n榮幸邀得平面設計師及插畫師Christa，細述：\u003Cbr\u003E\n⭐ 平面設計師及插畫師之工作日常\u003Cbr\u003E\n⭐ 自由工作者如何覓得好客戶？\u003Cbr\u003E\n⭐ 四格漫畫構圖小貼士\u003Cbr\u003E\n⭐ 即場示範四格漫畫\u003Cbr\u003E\n萬勿錯過！\n\n日期：2020年6月27日(星期六)\u003Cbr\u003E\n時間：下午5:00-6:00\u003Cbr\u003E\n講座形式：將以Zoom Cloud Meetings軟件作現場直播\u003Cbr\u003E\n費用：全免\u003Cbr\u003E\n備註：請先下載免費應用程式ZOOM，連結確認報名後發放\u003Cbr\u003E\n請先下載免費應用程式ZOOM(詳情請參閱附件) ，連結將於稍後發放。","香港平面設計師及插畫師陳健殷小姐Christa","christa-chan","插畫,創業","2020-06-27T00:00:00.000Z",{"data":169},[170],{"id":16,"attributes":171},{"name":18,"slug":19,"description":10,"createdAt":20,"updatedAt":21},{"data":10},{"id":174,"attributes":175},117,{"start_date":176,"title":177,"content":178,"excerpt":179,"slug":180,"end_date":10,"tags":181,"createdAt":182,"updatedAt":182,"event_categories":183,"image":187},"2020-04-18","極深研幾 通天下志","\n\n榮幸邀得殿堂級極地專家何建宗教授，以深入淺出的方式，細述：\n\n🌟 從環境科學的角度看新冠肺炎疫情\u003Cbr\u003E\n⭐ 南北極的地貌和生物多樣性\u003Cbr\u003E\n⭐ 南北極對科研和環保的重要性\u003Cbr\u003E\n⭐ 香港人的兩極考察歷史、研究方向和成果\u003Cbr\u003E\n⭐ 為何要有一個「香港人的北極研究站」？\n\n屆時將展示南北極風貌的珍貴照片及錄像片段，萬勿錯過！\n\n日期：2020年4月18日(星期六)\u003Cbr\u003E\n時間：下午2:30-3:30\u003Cbr\u003E\n講座形式：將以Zoom Cloud Meetings軟件作現場直播\u003Cbr\u003E\n費用：全免\u003Cbr\u003E\n\n備註：請先下載免費應用程式ZOOM，連結確認報名後發放\n\n請先下載免費應用程式ZOOM(詳情請參閱附件) ，連結將於稍後發放。","香港極地研究中心創辦人何建宗教授","professor-ho","南北極,環保,保育","2020-04-18T00:00:00.000Z",{"data":184},[185],{"id":16,"attributes":186},{"name":18,"slug":19,"description":10,"createdAt":20,"updatedAt":21},{"data":10},{"pagination":189},{"page":16,"pageSize":190,"pageCount":191,"total":192},12,7,76],"uses":{"dependencies":["http://127.0.0.1:1337/api/events?sort=start_date%3Adesc&populate[author]=true&populate[event_categories]=true&populate[image]=true&pagination[page]=2&pagination[pageSize]=12&filters[event_categories][slug]=be-our-guest"],"params":["page","category"]}}]}