{"type":"data","nodes":[{"type":"data","data":[{"categories":1,"event_categories":27},[2,9,15,21],{"id":3,"attributes":4},1,{"slug":5,"name":6,"description":7,"createdAt":8,"updatedAt":8},"nutrition","營養隨筆",null,"2023-02-12T02:39:02.691Z",{"id":10,"attributes":11},2,{"slug":12,"name":13,"description":7,"createdAt":14,"updatedAt":14},"reflection","感悟隨筆","2023-02-12T02:39:02.692Z",{"id":16,"attributes":17},3,{"slug":18,"name":19,"description":7,"createdAt":20,"updatedAt":20},"fitness","運動筆記","2023-02-12T02:39:02.697Z",{"id":22,"attributes":23},4,{"slug":24,"name":25,"description":7,"createdAt":26,"updatedAt":26},"spiritual","心靈勵志","2023-02-12T02:39:02.698Z",[28,33,38,43,47,52],{"id":3,"attributes":29},{"name":30,"slug":31,"description":7,"createdAt":32,"updatedAt":32},"讀書會","book-sharing","2023-02-12T02:38:55.939Z",{"id":16,"attributes":34},{"name":35,"slug":36,"description":7,"createdAt":37,"updatedAt":37},"文化導賞","cultural","2023-02-12T02:38:55.943Z",{"id":22,"attributes":39},{"name":40,"slug":41,"description":7,"createdAt":42,"updatedAt":42},"遊山玩水","hiking","2023-02-12T02:38:55.946Z",{"id":44,"attributes":45},5,{"name":46,"slug":18,"description":7,"createdAt":42,"updatedAt":42},"健體運動",{"id":48,"attributes":49},6,{"name":50,"slug":5,"description":7,"createdAt":51,"updatedAt":51},"活學營養","2023-02-12T02:38:55.947Z",{"id":10,"attributes":53},{"name":54,"slug":55,"description":7,"createdAt":56,"updatedAt":57},"名人面對面","be-our-guest","2023-02-12T02:38:55.942Z","2023-03-08T13:16:12.875Z"],"uses":{"dependencies":["http://127.0.0.1:1337/api/categories?","http://127.0.0.1:1337/api/event-categories?"]},"slash":"always"},{"type":"data","data":[{"data":1,"meta":130},[2,23,36,48,61,74,87,101,116],{"id":3,"attributes":4},145,{"start_date":5,"title":6,"content":7,"excerpt":8,"slug":9,"end_date":10,"tags":11,"createdAt":12,"updatedAt":12,"event_categories":13,"image":22},"2015-12-06","走過高山低谷 迎來海濶天空","\n張昆隆先生是一位典型活出獅子山下拚搏精神的生意人。從8歲起已萌生各式\"生意\"念頭，為的是幫補家計、希望盡快遷出木屋區。中學畢業後，曾從事電工、裝修、泥水、珠寶等行業。憑著誠懇、勤奮的工作態度，張先生在工作數年間已成為置地廣場珠寶店的主管，收入可觀、穩定。\n\n或許，張先生受著傳統潮州人\"工字不出頭\"的思想影響，毅然放棄穩定生活，決心進軍海產業。可惜，由於創業缺乏經驗，加上屢次遇人不淑，終欠下巨債。\n\n究竟，張先生是如何從逆境中破斧沉舟賺取第一桶金，並繼續擴展業務? 經營海鲜業二十多年，現在每年營業額已逾億元。八年前更進軍飲食業，開設潮州海鲜酒家，並擁有多個物業。\n\nLeo育有四名子女，各具才能，在繁忙的工作中，卻能取得與家庭平衡。他是如何做到的? \n\n「走過高山低谷 迎來海濶天空」 - Leo 將會跟我們分享他的成功點滴。\n \n日期：2015年12月6日(星期日)\u003Cbr\u003E\n時間：晚上7:00-9:30\u003Cbr\u003E\n地點：九龍旺角登打士街56號柏裕商業中心15樓安利體驗館 Cooking Studio\u003Cbr\u003E\n費用：$150 (包括自家製美味有營晚餐)\n","張昆隆先生 (Leo)","leo-cheung",null,"","2021-01-10T00:00:00.000Z",{"data":14},[15],{"id":16,"attributes":17},2,{"name":18,"slug":19,"description":10,"createdAt":20,"updatedAt":21},"名人面對面","be-our-guest","2023-02-12T02:38:55.942Z","2023-03-08T13:16:12.875Z",{"data":10},{"id":24,"attributes":25},132,{"start_date":26,"title":27,"content":28,"excerpt":29,"slug":30,"end_date":10,"tags":11,"createdAt":12,"updatedAt":12,"event_categories":31,"image":35},"2015-11-22","從中港經濟與文化融合，透視香港年青人的未來","\n\n伍志濤先生 (Graham) 於2003年加入中銀國際證券有限公司，現任董事總經理兼證券銷售及研究板塊副主管。\n \nGraham 自2012年4月至2015年5月負責管理六個部門，分別為投資服務部、銀證合作部、零售交易部、業務發展及支援部、產品行銷部和優質服務部。自2015年5月獲委任為全球機構銷售部主管，並同時管理證券衍生產品部、證券研究部、機構銷售部及機構交易部。\n \nGraham 畢業於香港中文大學，擁有超過37年金融從業經驗。\n \n在中港融合這不可逆轉的必由之路下，香港社會應如何走出一條新路，年輕人又應如何自處？熟悉中國內地與香港社會經濟狀況的 Graham 將為我們一一透視。\n \n日期：2015年11月22日(星期日)\u003Cbr\u003E\n時間：晚上7:00-9:30\u003Cbr\u003E\n地點：九龍旺角登打士街56號柏裕商業中心15樓安利體驗館 Cooking Studio\u003Cbr\u003E\n費用：$150 (包括自家製美味有營晚餐)\n","中銀國際證券有限公司董事總經理兼證券銷售及研究板塊副主管伍志濤先生 (Graham) ","graham",{"data":32},[33],{"id":16,"attributes":34},{"name":18,"slug":19,"description":10,"createdAt":20,"updatedAt":21},{"data":10},{"id":16,"attributes":37},{"start_date":38,"title":39,"content":40,"excerpt":41,"slug":39,"end_date":10,"tags":11,"createdAt":42,"updatedAt":42,"event_categories":43,"image":47},"2015-10-25","plato","\n\n這次名人工作坊更曾被一流知名學府北京大學及清華大學的世界級EMBA 列為其中一門重要課堂\n\n全香港首批可親身學習這課堂 機會非常難得!!!\n\n日期：2015年10月25日 (星期日)\u003Cbr\u003E\n時間：晚上7:00-9:30\u003Cbr\u003E\n地點：旺角登打士街56號栢裕商業中心15樓安利體驗館 Cooking Studio\n","Plato 先生","2015-10-25T00:00:00.000Z",{"data":44},[45],{"id":16,"attributes":46},{"name":18,"slug":19,"description":10,"createdAt":20,"updatedAt":21},{"data":10},{"id":49,"attributes":50},127,{"start_date":51,"title":52,"content":53,"excerpt":54,"slug":55,"end_date":10,"tags":11,"createdAt":12,"updatedAt":12,"event_categories":56,"image":60},"2015-09-13","香港如何走下去？ ","\n\n陳景祥為資深新聞工作者，先後出任報紙、通訊社及電台工作，及至1986年加入香港《信報》，1993年任副總編輯，2003年出任總編輯，2010年獲委任為董事。任職《信報》期間，陳景祥曾先後管理新聞採訪、統籌專題評論及深度報導，撰寫人物專訪、新聞分析及《信報》社論，在新聞編、採、寫以及統籌、策劃等方面均有豐富經驗，成績卓越。據香港中文大學新聞傳播學院的調查，《信報》在新聞行業內的「公信力亅評分多年來都名列第一位。\n\n為配合數碼化發展，陳景祥在2013年就任信報數碼媒體總裁及副社長，為《信報》發展網站、流動Apps，並在社交媒體上作推廣，取得優異成績，在2014年獲香港互動市務商會（HKAIM）頒授總體、手機、社交媒體及網頁4項銅獎，並在整體大獎中獲優異獎。2014年12月31日，陳景祥辭去《信報》所有職務。\n\n除了新聞界的工作，陳景祥也積極在工餘時間參與新聞教育工作，曾任教香港樹仁學院新聞系六年，講授財經新聞採訪，培訓了一批香港財經新聞的骨幹採編人員。及後任教香港中文大學新聞傳播學院碩士班課程，前後達11年，現在活躍於新聞界的中堅份子很多都曾是他的學生。\n\n此外，陳景祥也曾擔任香港浸會大學新聞學院校外委員、香港公開大學中文傳播課程顧問，並在2008年至2010年出任香港浸會大學傳理學院諮詢委員會委員。2014年9月，他獲樹仁大學委任為學術諮詢委員會成員；2015年1月獲香港浸會大學傳理學院委任為特邀教授。\n\n公職方面，陳景祥於2006年1月獲行政長官委任，擔任公共廣播服務檢討委員會成員，並在翌年提交檢討報告書。此外，他在2010年1月獲香港證監會委任，出任【投資者教育委員會】及【產品諮詢委員會】成員。此外，他也經常應邀到大型企業、政府部門、大學及社團組織就政經議題發表演講，擔任大學辯論評判及各項新聞獎的評審委員。\n\n2010年7月1日，陳景祥獲特區政府頒授銅紫荊星章（BBS）。\n\n面對內地城市及新加坡的激烈劇爭，陳景祥先生將從經濟發展及人才等方面論述香港的優勢，探討香港今後的發展路向。\n\n日期：2015年9月13日 (星期日)\u003Cbr\u003E\n時間：晚上7:00-9:30\u003Cbr\u003E\n地點：旺角登打士街56號栢裕商業中心15樓安利體驗館 Cooking Studio\u003Cbr\u003E\n費用：150元 (包晚餐)\n","《信報》前總編輯、資深傳媒工作者陳景祥先生","chan-king-cheung",{"data":57},[58],{"id":16,"attributes":59},{"name":18,"slug":19,"description":10,"createdAt":20,"updatedAt":21},{"data":10},{"id":62,"attributes":63},137,{"start_date":64,"title":65,"content":66,"excerpt":67,"slug":68,"end_date":10,"tags":11,"createdAt":12,"updatedAt":12,"event_categories":69,"image":73},"2015-08-22","創新與領導思維-金融科技(Fin Tech) 大變革 ","\n\n⭐梁建文先生於2013年12月加入中信銀行（國際）為資訊及營運總監，負責全面管理本行資訊科技及業務營運，包括創新银行部及企業服務部等5個主要部門共400多名員工。\n\n⭐在加入中信銀行（國際）前之14年，梁先生為美國銀行\u002F 中國建設銀行（亞洲）副行長兼資訊科技總監。1978年大學畢業後，梁先生以奬學金在荷蘭取得工程碩士及美國維珍尼亜大學銀行管理高級文憑，並在荷蘭、瑞典、美國及澳洲工作。1996年末回港，于羅兵咸管理顧問及渣打銀行服務多年。\n\n⭐梁先生現為香港電腦學會會長及資深會員、HK CIO Board副主席、香港銀行學會執行委員會成員、香港董事學會資深會員、香港專業及資深行政人員協會遴選會員、香港金融業志同會會員。城市大學商學院IS學系諮詢委員會主席、香港大學IS及中文大學IT學系諮詢委員會成員。亦為香港唐氏綜合症協會前任副會長、現任執行委員會成員及財務委員會主席。除此之外, 梁先生歴任香港學術及職業資歷評審局專家，主持了十數次各行業評審小組工作。\n\n⭐2014年9月下旬，梁先生獲邀參加香港商界及專業界知名人仕訪京團，受到習近平主席及其他國家領導人接見和座談。\n\n梁先生將分享如何培養創新及領導思維，帶領團隊不斷突破並推陳出新。作為香港電腦學會會長兼 FinTech 領航者的 Michael，亦會解構電子支票及信用卡手機支付平台等金融科技的最新發展。\n\n日期：2015年8月22日 (星期六)\n時間：晚上7:15-9:30\n地點：旺角登打士街56號栢裕商業中心15樓安利體驗館 Cooking Studio\n費用：150元 (包晚餐)\n","梁建文先生(Michael Leung)","michael-leung",{"data":70},[71],{"id":16,"attributes":72},{"name":18,"slug":19,"description":10,"createdAt":20,"updatedAt":21},{"data":10},{"id":75,"attributes":76},131,{"start_date":77,"title":78,"content":79,"excerpt":80,"slug":81,"end_date":10,"tags":11,"createdAt":12,"updatedAt":12,"event_categories":82,"image":86},"2015-07-26","Sense and Sensibility ~ 不一樣的 AO 與藝術工作者，分享遊走現實與理想的逐夢之旅","\n\n黃藝蕾 (Elia) 於香港中文大學、加洲大學、倫敦經濟學院、倫敦大學、澳洲墨爾本皇家理工大學等學府修畢藝術碩士、法律、公共政策和人類學學士等課程。目前正在進行藝術創作哲學博士研究。\n                 \n她成長於香港，曾在美國、意大利、英國和中國內地多個城市居住，又隻身闖蕩五大洲，由喜瑪拉雅山到美國西部的沙漠和深谷、由蘇格蘭的天涯海角到澳洲的腹地。  \n\n多年來她致力研究如何將中國傳統書法的精粹，與當代人的生活相融，讓人們透過藝術，領受「天人合一」概念與我們生活的關係。\n\n同時，她亦希望透過公共政策的制定和介入，為香港市民服務，故回港後加入香港政府政務主任職系，歷任環境局助理秘書長（可持續發展）、勞工及福利局助理秘書長（康復）、民政事務局助理局長（專責公民教育、平等機會等）、香港駐紐約經濟貿易辦事處副處長，以及特區駐北京辦事處高級政務主任等。目前在民政事務總署負責地區行政和選舉等政策。\n\n創作和工作以外，她亦積極參與義務工作，包括為西藏唯一民辦的殘疾孤兒學校提供資源和支援， 並支持綠創科技，為受嚴重水污染的農民提供乾淨食水。\n\nElia 將分享如何訂定人生目標及追求夢想的心路歷程。育有兩名年幼子女的她，更會分享如何高效管理時間，將工作，家庭與藝術創作全面兼顧。萬勿錯過！\n\n日期：2015年7月26日 (星期日)\u003Cbr\u003E\n時間：晚上7:15-9:15\u003Cbr\u003E\n地點：旺角登打士街56號栢裕商業中心15樓安利體驗館 Cooking Studio\u003Cbr\u003E\n費用：150 元 (包晚餐)\n","高級政務官兼藝術創作博士生黃藝蕾女士 (Elia)","elia-wong",{"data":83},[84],{"id":16,"attributes":85},{"name":18,"slug":19,"description":10,"createdAt":20,"updatedAt":21},{"data":10},{"id":88,"attributes":89},139,{"start_date":90,"title":91,"content":92,"excerpt":93,"slug":94,"end_date":10,"tags":95,"createdAt":12,"updatedAt":12,"event_categories":96,"image":100},"2015-06-12","名人飯局：年青為夢想打拼","\n\n張樹槐先生是恒生銀行傳訊及可持續發展總監，直接向行政總裁李慧敏女士彙報。 \n\n張先生于1994年加入恒生銀行，成立企業傳訊部，負責公司形象、對外事務、企業可持續發展、環保管理、內部溝通、義工及員工活動。 \n\n于2011年，張先生在首屆香港公共關係獎評選中，獲頒「卓越公關專業人員大獎」 (Distinguished PR Professional of the Year)。于2001年，張先生亦曾獲《PRWeek》雜誌頒發「傑出公關專業人士大獎」 (PR Professional of the Year)，由他領導的g傳訊部則獲選為「傑出公關部門」。 \n\n張先生在企業傳訊及公關領域的成就，為他帶來多個在香港、內地，以至國際級的獎項，當中包括： \n\n·四度獲國際傳播專業人士協會（IABC）頒發「Gold Quill Awards」 \u003Cbr\u003E\n·獲中國國際公共關係協會頒發金獎四次、銀獎一次 \u003Cbr\u003E\n·「香港公共關係獎最佳創意獎 2010」 \u003Cbr\u003E\n·「亞洲企業社會責任大獎卓越環保大獎 2007」 \u003Cbr\u003E\n·浸會大學傳理學院「Meritorious Service Award」 \u003Cbr\u003E\n·兩度獲香港康體發展局（香港體育學院前身）頒發「傑出體育推廣貢獻獎」 \u003Cbr\u003E\n·三度獲《投資者關係雜誌》頒發「最佳投資者關係大獎」（大巿值公司） \u003Cbr\u003E\n·於香港管理專業協會最佳年報評選中，兩度獲頒銀獎、五度獲頒銅獎 \u003Cbr\u003E\n·香港報業公會授予「最佳一般性新聞記者」獎 \n\n張先生是現任中國國際公共關係協會理事，為香港公共關係專業人員協會資深會員（Fellow），曾出任此協會顧問。張先生亦是英國特許市務學會院士。張先生現時是香港大學工商管理碩士課程顧問、香港嶺南大學社會科學課程諮詢委員會委員、公益金公共關係委員會委員。 \n\n在2005年至2010年，他擔任香港中文大學新聞與傳播學院校友會主席，並曾任浸會大學傳理學院顧問委員會主席、浸大工商管理學院諮詢委員會成員、香港電臺節目顧問團、雇員再培訓局公關，以及推廣策略委員會成員。 \n\n他于香港中文大學畢業後，隨即加入香港英文《南華早報》任職記者，後晉升為副採訪主任。 \n\n加入恒生前，張先生為電視廣播有限公司（TVB）國際業務的高級市場經理，亦曾於一間入選排名美國 Fortune 30 的科技公司擔任亞洲區市場傳訊主管。 張先生畢業于香港中文大學，取得新聞及傳播學士銜，其後獲巿場學文憑、財務學文憑。他亦曾參加多項專業課程，包括由北京國家行政學院舉辦之香港高級工商專業人士研習班。 \n\n張先生致力發揚馬拉松精神，積極參與業餘長跑運動，於報章、雜誌、網站撰文及曾於電臺分享長跑經歷，並就長跑運動獲邀演講。去年更獲苗圃行動邀請擔任慈善越野馬拉松之挑戰大使。 \n\n自2002年至今，他曾於五大洲23個地方完成50個馬拉松賽事或遠征挑戰，足跡遍佈兩岸四地，其中11個馬拉松賽事是在內地6個城市完成（北京、上海、天津地段的長城、廈門、廣州及深圳）。 \n\n他於今年年初更到日本東京跑畢最後一個「世界六大」（the Big Six）馬拉松，完成「世界馬拉松大滿貫」賽事。他曾參與各項長跑賽事的長度總和約為2,850公里，其超過香港至上海2次的距離。 \n\n張先生是首位香港人跑畢全世界海拔最高的珠穆朗瑪峰馬拉松（起點在5,500米）。2014年初，張先生遠赴阿根廷挑戰阿空加（Aconcagua），最高攀登至海拔6,300米，即21,000呎，此為相當於13幢香港的環球貿易廣場（ICC）的總高度。\n\n張先生將分享其事業拼搏歷程及心得，歡迎堅毅的年青朋友出席，為夢想打拼！\n\n日期：2015年6月13日 (星期六)\u003Cbr\u003E\n時間：晚上7:15-9:15\u003Cbr\u003E\n地點：旺角登打士街56號栢裕商業中心15樓安利體驗館 Cooking Studio\u003Cbr\u003E\n費用：150 元 (包晚餐)\n","資深傳播系專業人士張樹槐先生","walter-cheung","為夢想打拼",{"data":97},[98],{"id":16,"attributes":99},{"name":18,"slug":19,"description":10,"createdAt":20,"updatedAt":21},{"data":10},{"id":102,"attributes":103},141,{"start_date":104,"title":105,"content":106,"excerpt":107,"slug":108,"end_date":10,"tags":109,"createdAt":110,"updatedAt":110,"event_categories":111,"image":115},"2015-05-09","名人飯局：年青創業","\n\n不少年青人渴望創業，擁有自己的生意。但如何知道自己是否具備創業的條件？甚麼時候才是創業良機？遭遇挑戰時，又如何迎難而上，突圍而出？\n\nKarr 畢業於香港中文大學建築系，畢業後旋即與友人創辦 ADO 建築及設計公司，獲獎無數，在業界享負盛名。近年進軍手機應用程式及社交網絡平台業務，並獲得本年度香港資訊及通訊科技獎 (Hong Kong ICT Awards)「最佳流動應用程式金獎(廣告及市場推廣)」。其領導才能及建構凝聚團隊的能力，備受肯定。\n\nKarr 將分享其創業歷程及心得，歡迎有志創業的年青朋友出席，為夢想打拼！\n\n日期：2015年5月9日 (星期六)\u003Cbr\u003E\n時間：晚上7:30-9:30\u003Cbr\u003E\n地點：旺角登打士街56號栢裕商業中心15樓安利體驗館 Cooking Studio\u003Cbr\u003E\n費用：150 元 (包晚餐)\n\n葉小卡 (Karr Yip) 小檔案：\n香港中文大學學士及碩士，英國皇家美術學院專業硏究文憑，美國哈佛大學建築學院PEP專業文憑。2003年創辦ADO，現職ADO創辦人及CEO，兼任香港中文大學藝術系講師。2005年獲創新科技署 香港青年設計才俊大獎 及 2009年香港十大設計師獎。藝術及建築獎作品曾獲：紐約室內設計雜誌年度大獎、亞洲最具影響力設計大獎、香港設計師協會空間設計大獎、環境平面設計獎、產品設計獎、ARROW 兩岸三地室內設計獎、2012 & 2013 International A' Design Award Winner、中國最成功設計大獎、日本JCD空間設計大獎等。\n\n參與項目包括中移動重慶旗艦展示廳、蛇口招商局總部會所、端安武漢新天地私人會所、武漢仙桃哥爾夫球場會所、長沙珍珠文化博物館、杜拜大型污水處理設施建築設計、位於屯門的全球最大型焚化爐建築方案設計、灣仔天星碼頭、旺角郵政局、馬鞍山圖書館、創新中心設計資源中心、名牌門市珠寶店、上市公司辦公室設計、名人別墅設計等過百個項目。\n\n由 Karr 領導的 ADO 榮獲2014 年度最佳中小企大奬，並於近年投資開發手機軟件、社交網絡、遊戲及網絡推廣服務等，為商業客戶提供更全面的服務。\n","著名建築師、設計師、手機應用程式開發商葉小卡先生 (Mr Karr Yip)","karr","年青創業","2015-05-09T00:00:00.000Z",{"data":112},[113],{"id":16,"attributes":114},{"name":18,"slug":19,"description":10,"createdAt":20,"updatedAt":21},{"data":10},{"id":117,"attributes":118},1,{"start_date":119,"title":120,"content":121,"excerpt":122,"slug":123,"end_date":10,"tags":11,"createdAt":124,"updatedAt":124,"event_categories":125,"image":129},"2015-04-12","名人飯局- 第一炮","\n\n聽成功人士一言勝讀百年書 \n\n想增值自己提升自我職場上價值？名人飯局第一炮特別邀請\u003Cbr\u003E\nDennis Fung lived in Silicon Valley for his education in network engineering and work for over a decade. He launched digital pay TV operation in the US before. He was an IT head at Next Media Group launching Taiwan's first over-the-top TV. Currently, Dennis works for Dim Sum TV developing the latest mobile apps for the China market. \n\nAt名人飯局 on April 12, Dennis will share with us how to build a team with strong team spirit and what traits a young employee should possess to succeed in a job. From his past experience in digital entertainment, he might even give us secret tips on how to get legitimate films and mini series from overseas for your enjoyment at home.\n\nTerry has agreed to be the host at our inaugural 名人飯局. It will be fun.\n\nDate : 12th April 2015\u003Cbr\u003E\nTime: 7:30-9:30pm\u003Cbr\u003E\nVenue: 旺角栢裕中心15樓\u003Cbr\u003E\nAEC cooking studio\u003Cbr\u003E\nFee: $150\n","聽成功人士一言勝讀百年書 ","to-be-guest-20150412","2015-04-12T00:00:00.000Z",{"data":126},[127],{"id":16,"attributes":128},{"name":18,"slug":19,"description":10,"createdAt":20,"updatedAt":21},{"data":10},{"pagination":131},{"page":132,"pageSize":133,"pageCount":132,"total":134},7,12,81],"uses":{"dependencies":["http://127.0.0.1:1337/api/events?sort=start_date%3Adesc&populate[author]=true&populate[event_categories]=true&populate[image]=true&pagination[page]=7&pagination[pageSize]=12&filters[event_categories][slug]=be-our-guest"],"params":["page","category"]}}]}