{"type":"data","nodes":[null,{"type":"data","data":[{"data":1,"meta":337},[2,27,57,87,107,139,158,188,223,250,285,305],{"id":3,"attributes":4},804,{"createdAt":5,"title":6,"excerpt":7,"content":8,"slug":9,"updatedAt":5,"author":10,"categories":11,"tags":19,"image":26},"2022-01-08T00:00:00.000Z","內外防護 擊退新冠病毒",null,"\n\n許多新冠肺炎患者康復後，仍深受後遺症所苦😣，主要因為感染期間，病毒或會攻擊肺部組織，導致肺纖維化，進一步影響呼吸功能；也影響其他器官系統，造成心血管、神經、免疫、凝血、腦部等器官系統受損。\n\n較常見的後遺症有肌肉無力、呼吸困難、慢性疲勞、咳嗽胸痛、胸悶、關節疼痛、失眠、焦慮、注意力不集中、記憶力下降、行走困難、吞嚥困難、情緒低落或認知功能下降等，這些後遺症被統稱為「新冠肺炎後綜合症」（Post COVID-19 syndrome）。\n\n在Omicron＋Delta＋流感，還有新冠新變種株IHU在非洲及歐洲出現， 提升自身免疫力刻不容緩💪🏻！\n\n💛維他命C -- 可增強身體免疫力，加速調動白血球，並維護黏膜組織健康。\n\n💜紫錐花 -- 自1920年代已獲醫學界採用，可短時間迅速提升免疫力，並加速身體復元。配合維他命C，免疫力可增強達86％！😱\n\n💚乳酸菌 -- 70%免疫細胞集中在腸道，故此確保腸道菌群平衡非常重要。購買乳酸菌時，必須選取經科研證實有效的菌株，益菌可直達腸道並保持活性，繼續在腸道繁殖，方能為身體構建最強的免疫防線。\n\n💙大蒜 -- 蒜氨酸及蒜素可強力抗菌，同時提升腸道免疫力\n\n除了內部提升防護力，外部防護也同樣重要。保持手口衛生😷，確保空氣流通，使用有效的空氣清新機，定期淨化室內空氣，防疫就更加到位！🌈","immense-improve20220108",{"data":7},{"data":12},[13],{"id":14,"attributes":15},1,{"slug":16,"name":17,"description":7,"createdAt":18,"updatedAt":18},"nutrition","營養隨筆","2023-02-07T08:03:25.893Z",{"data":20},[21],{"id":22,"attributes":23},152,{"name":24,"createdAt":25,"updatedAt":25},"抗疫","2023-02-07T08:03:10.917Z",{"data":7},{"id":28,"attributes":29},803,{"createdAt":30,"title":31,"excerpt":7,"content":32,"slug":33,"updatedAt":30,"author":34,"categories":35,"tags":39,"image":56},"2022-01-01T00:00:00.000Z","孩子健康 父母心安 -- 小食篇","\n\n要小朋友飲食均衡，難過登天？！ 😵‍💫\n\n事緣小朋友的味蕾仍在發育，較難接受“新”食物，故容易偏向單一營養。香港衛生署的統計更顯示，90%小學生平均每日只攝取2份蔬果，為建議量的一半🙈。而另一統計發現80%香港小朋友有吃小食的習慣，選取的往往是薯片、朱古力等高脂、高熱量的食品；常吃大量甜食及油炸食品，容易影響專注力與學習表現☹️。\n\n健康的茶點應符合低脂、低糖、低鹽、高膳食纖維的「3️⃣ 低 1️⃣ 高」原則，不含人造甜味劑及咖啡因，可以補充正餐時容易攝取不足的營養，例如膳食纖維、維他命C、鈣質，並與正餐相隔1.5至2小時，份量宜少，以免影響正餐胃口。\n\n健康茶點的選擇包括：\n💚 蔬菜，例如車厘茄、青瓜、甘筍，並可以橄欖油取代沙律醬，製作田園沙律🥗\u003Cbr\u003E\n❤️ 水果，可選擇新鮮的，也可選擇沒加糖的乾果（例如杏脯、西梅乾、提子乾），以及焗乾果片（例如蘋果片）\u003Cbr\u003E\n🤍 沒加糖\u002F低糖豆奶、沒加糖\u002F低糖燕麥飲品\u003Cbr\u003E\n🧡 沒加糖的新榨果汁、純天然果汁\u003Cbr\u003E\n💛 有機蔬果蓉，最好是提取自不同顏色的蔬菜水果，以攝取 5️⃣色植物營養素🌈，並富含植物蛋白，補充蛋白質幫助發育的同時，又避免因攝取太多動物性蛋白質而造成脂肪過高。\n\n🥰 若想多花心思的，更可以牛油果、雞蛋及水浸吞拿魚，製作紫菜壽司卷🍣；又或以番薯和雞蛋製作班戟，加入洋蔥、甘筍和檸檬汁🍋，增強免疫力，並最好用不沾鍋以橄欖油香煎，那就美味又少油🤩。\n\n下星期我們將探討如何進一步提升小朋友的免疫力💪🏻💪🏻，抵禦新冠病毒，以至上呼吸道感染及流感。\n\nEmpower謹祝大家2022年體健身強，小朋友快高長大，德才兼備！🎊🥳","kid-healthy-snack-202112",{"data":7},{"data":36},[37],{"id":14,"attributes":38},{"slug":16,"name":17,"description":7,"createdAt":18,"updatedAt":18},{"data":40},[41,46,51],{"id":42,"attributes":43},76,{"name":44,"createdAt":45,"updatedAt":45},"兒童營養","2023-02-07T08:03:10.193Z",{"id":47,"attributes":48},26,{"name":49,"createdAt":50,"updatedAt":50},"免疫力","2023-02-07T08:03:09.575Z",{"id":52,"attributes":53},150,{"name":54,"createdAt":55,"updatedAt":55},"健康茶點","2023-02-07T08:03:10.906Z",{"data":7},{"id":58,"attributes":59},800,{"createdAt":60,"title":61,"excerpt":7,"content":62,"slug":63,"updatedAt":60,"author":64,"categories":65,"tags":69,"image":86},"2021-12-10T00:00:00.000Z","快樂因子 -- 血清素","\n\n之前三篇活學營養文章，分別介紹了體內三種快樂物質 -- 安多酚、多巴胺及催產素。今次介紹最後一項，就是被稱為「快樂因子」的血清素Serotonin 💛。\n\n血清素是一種神經傳導物質，不單讓人有愉悅與快樂感，也令人注意力集中，穩定情緒，與食慾、睡眠及學習記憶的調節也息息相關！\u003Cbr\u003E\n美國德克薩斯大學西南醫學中心研究發現，血清素能夠增加飽足感並抑制食慾，從而改善肥胖。\u003Cbr\u003E\n血清素亦協助調節睡眠及清醒周期，讓人精力充沛。日間，陽光有助分泌血清素；晚上，血清素會轉化為褪黑激素，幫助入眠。所以受失眠困擾的朋友，要留意血清素的分泌啊！\u003Cbr\u003E\n當血清素過低時，人會容易出現憂鬱、煩躁及焦慮的情緒。\n\n身體有80%-90%的血清素由腸道製造，健康的腸道能促進血清素分泌。故此保持腸道健康，有益於我們的情緒健康呢！\n\n如何提升我們體內血清素的分泌呢🤔？提供4個小貼士給大家：\u003Cbr\u003E\n- 曬太陽☀️：陽光刺激血清素的分泌。每天的陽光強度有所不同，一般來說早上曬20分鐘至1小時的陽光，有助提升血清素的分泌。\u003Cbr\u003E\n- 有節奏的運動🏃‍♀️：走路、跑步、游泳等有節奏的運動，可以活化血清素神經核系統。\u003Cbr\u003E\n- 保持腸道健康🍎：多吃蔬果，每天要至少3份蔬菜＋2份水果啊！\u003Cbr\u003E\n- 色胺酸是身體製造血清素的主要原料，維他命B6、B12、葉酸、菸鹼素有助轉化色胺酸成為血清素。多進食富含色胺酸及維他命B的食物，如香蕉🍌、雞蛋、豆製品、果仁。\n\n腸道好，心情好，多曬太陽無煩惱😁！\n\n一連四篇關於身體的快樂因子文章，希望大家看後有所得著。祝福大家天天心情愉快！☺️","serotonin-211210",{"data":7},{"data":66},[67],{"id":14,"attributes":68},{"slug":16,"name":17,"description":7,"createdAt":18,"updatedAt":18},{"data":70},[71,76,81],{"id":72,"attributes":73},5,{"name":74,"createdAt":75,"updatedAt":75},"血清素","2023-02-07T08:03:09.318Z",{"id":77,"attributes":78},144,{"name":79,"createdAt":80,"updatedAt":80},"情緒健康","2023-02-07T08:03:10.870Z",{"id":82,"attributes":83},32,{"name":84,"createdAt":85,"updatedAt":85},"睡眠","2023-02-07T08:03:09.673Z",{"data":7},{"id":88,"attributes":89},802,{"createdAt":90,"title":91,"excerpt":7,"content":92,"slug":93,"updatedAt":90,"author":94,"categories":95,"tags":99,"image":106},"2021-12-05T00:00:00.000Z","幸福荷爾蒙 -- 催產素","\n\n上兩篇介紹了兩多兄弟 -- 安多酚及多巴胺。今次介紹另一快樂荷爾蒙，亦被稱為「擁抱荷爾蒙」、「愛的荷爾蒙」或「幸福荷爾蒙」，就是催產素Oxytocin❤️。\n\n顧名思義，「催產素」這荷爾蒙是關於生育🤰，但卻不只生育！催產素在雌性哺乳類動物繁殖期間發揮重要作用，有助調節懷孕、子宮收縮和催乳等生理功能，同時刺激大腦產生親密、信任、忠誠的感受。催產素亦具有減輕壓力、抗壓、降低血糖值、提升免疫力並強化心臟血管系統等功效。\n\n一項關於催產素對於忠貞度的科學研究相當有趣：科學家對🐭草原田鼠Prairie vole及山地田鼠 Montane vole進行研究，發現草原田鼠非常忠誠，會與唯一的伴侶長相廝守，並主動照顧後代；山地田鼠卻是花花公子，對後代甚少關顧。然而，若以人工方法阻止草原田鼠的催產素發揮作用，草原田鼠便會變得花心又不照顧後代；如果把催產素注射進草原田鼠體內，牠便會變得專一又會照顧後代😯。這項實驗十分有趣，也突顯體內的催產素水平是會影響著我們對伴侶的忠誠度呢！\n\n研究催產素的美國科學家保羅·扎克（Paul J. Zak）指出，體內的催產素水平越高，與他人的關係也顯得越親密，越信任別人並越有同理心。催產素對於人際關係及減壓有著重要的作用，那麼要如何提升我們體內催產素的分泌呢🤔？其中的方法就是加強感官刺激，包括：\n\n🤚增加身體接觸：按摩手、腳及背部，擁抱、牽手、親吻、撫摸乃至於性行為均有助提升催產素的分泌。美國《The Inquisitr》新聞網站報道，人們熱烈擁抱愛侶或好友時，會釋放「催產素」。\n\n👀增加視覺刺激：根據美國加州大學洛杉磯分校的研究，觀看感人催淚影片的測試者，催產素的分泌平均增加47％。當犬隻看見主人出現時，體內會分泌催產素；每當主人與犬隻有眼神交流，犬隻所分泌的催產素會大幅增加。犬隻與主人對視的時間越久，體內催產素的水平也越高。欣賞自然景色或藝術作品也有助催產素的分泌。\n\n👥增加社交上的親密接觸：與家人好友聚會，促膝談心，多與別人甚至動物作眼神交流，多關愛別人也可。\n\n👂增加聽覺刺激：聆聽喜歡的音樂，鼓勵和讚美別人，或接收別人的鼓勵讚美。\n\n關愛自己，關愛別人多一點，就能讓自己感受幸福，分泌更多催產素啊🥰！\n\n更詳盡分享，請觀看早前於15分鐘Mini Talk的分享：https:\u002F\u002Ffb.watch\u002F9IgptEKI0-\u002F","oxytocin",{"data":7},{"data":96},[97],{"id":14,"attributes":98},{"slug":16,"name":17,"description":7,"createdAt":18,"updatedAt":18},{"data":100},[101],{"id":102,"attributes":103},149,{"name":104,"createdAt":105,"updatedAt":105},"荷爾蒙","2023-02-07T08:03:10.895Z",{"data":7},{"id":108,"attributes":109},799,{"createdAt":110,"title":111,"excerpt":7,"content":112,"slug":113,"updatedAt":110,"author":114,"categories":115,"tags":119,"image":138},"2021-11-19T00:00:00.000Z","快樂荷爾蒙-多巴胺","\n\n上一篇介紹了兩多兄弟之一的安多酚，今天介紹另一多兄弟- 多巴胺Dopamine。\n\n多巴胺主要負責大腦的情慾、感覺，將興奮及開心的信息傳遞。\n\n雖然多巴胺跟心情愉悅有關，但它卻不會引發愉悅感。多巴胺啟動身體的”想要”系統，當身體認為完成某件事情之後可能會獲得獎勵，便會釋放多巴胺，這便給了我們一定要得到那個獎勵的動機，令身體作出相關的行為。例如，每次當你吃過蛋糕之後也感覺心情愉快，如是這幾次之後，身體便會刻上了吃蛋糕便會開心的記憶，那麼，以後每當看見蛋糕，身體便會分泌多巴胺令你去買蛋糕然後讓自己開心。所以，多巴胺也是雙面刃，從好的方向應用，可以增加我們對目標產生動力並提升學習能力及工作效率； 但多巴胺同時也與上癮有關，如吸煙、吸毒、賭博等等。\n\n美國霍夫斯特拉大學（Hofstra University）祖克醫學院精神科副教授陳至暉指出：「有些人比較懶散，提不起精神做事，就可能是腦中多巴胺比較少。」若果覺得自己經常提不起精神做事，對任何事情也沒什麼動力，可能跟身體多巴胺含量較少有關啊！可以嘗試刺激分泌多些多巴胺呢！\n\n從以下途徑可以促進身體分泌更多多巴胺：\n💫走路：有報告指出，走路能增強人體的鈣代謝，使鈣充分供應腦部，有助於產生多巴胺\u003Cbr\u003E\n💫活動：我們活動的時候，會促進分泌多巴胺，使我們更想動起來。但當我們不活動時，多巴胺便會減少，所以會讓我們更不想動。\u003Cbr\u003E\n💫新的刺激：經歷從未經驗過的狀況能刺激多巴胺的分泌，例如第一次未到過的地方旅行，或是到訪從未去過但很想去的店舖，在新領域進行探索等等，這些「第一次的經驗」\u003Cbr\u003E\n💫飲食：酪胺酸（Tyrosine）和苯丙氨酸（phenylalanine）是合成多巴胺的重要物質，如：豆類、魚類、奶製品和禽畜肉。高脂肪的飲食可能會破壞多巴胺合成，限制飽和脂肪酸的攝取也有助維持多巴胺穩定。\n\n更詳盡分享，請觀看早前於15分鐘Mini Talk的分享：https:\u002F\u002Ffb.watch\u002F90HdTwAvIs\u002F","dopamine-211121",{"data":7},{"data":116},[117],{"id":14,"attributes":118},{"slug":16,"name":17,"description":7,"createdAt":18,"updatedAt":18},{"data":120},[121,126,131,136],{"id":122,"attributes":123},147,{"name":124,"createdAt":125,"updatedAt":125},"Dopamine","2023-02-07T08:03:10.888Z",{"id":127,"attributes":128},148,{"name":129,"createdAt":130,"updatedAt":130},"安多酚","2023-02-07T08:03:10.893Z",{"id":132,"attributes":133},146,{"name":134,"createdAt":135,"updatedAt":135},"快樂荷爾蒙","2023-02-07T08:03:10.883Z",{"id":77,"attributes":137},{"name":79,"createdAt":80,"updatedAt":80},{"data":7},{"id":140,"attributes":141},801,{"createdAt":142,"title":143,"excerpt":7,"content":144,"slug":145,"updatedAt":142,"author":146,"categories":147,"tags":151,"image":157},"2021-11-12T00:00:00.000Z","快樂荷爾蒙-安多酚Endrophin","\n\n哼著哼著許冠傑的 “快樂其實分分鐘把您等　只要您 識得點去搵” ，找快樂，記得要識搵快樂4兄弟，今次率先介紹安多酚Endrophin。\n\n安多酚又稱為「內啡肽」或「腦內啡」。大家對它該不陌生，普遍也認知做運動使人愉快是因為運動令人釋出安多酚，從而讓大家感覺愉悅快樂。安多酚除了能給人平靜、愉悅的感覺以外，也提供止痛和抗壓作用，功效如天然的嗎啡。\u003Cbr\u003E\n然而，觸發安多酚生成的因素主要是來自身體的疼痛，當身體感覺疼痛時，會釋放安多酚以協助隱藏身體的痛苦並讓我們能堅持下去完成一個行為或任務。怪不得在拳擊比賽中，拳擊選手縱使已經頭破血流，但仍能堅持到底，原來是安多酚的作用呢！\n\n從以下途徑可以促進身體釋放更多安多酚：\u003Cbr\u003E\n1️⃣運動：長時間，連續性的，中量至重量級的運動，配合深呼吸也是分泌安多酚的條件，跑步、游泳、騎單車、舉重、有氧運動舞、球類運動等等\u003Cbr\u003E\n2️⃣冥想：冥想促使腦部呈現α波，有助身體分泌安多酚\u003Cbr\u003E\n3️⃣大笑：大笑能減低焦慮及放鬆身體，有助促進分泌安多酚\u003Cbr\u003E\n4️⃣飲食：低熱量、高蛋白質的食物是製造安多泌的原材料\n\n更詳盡分享，請觀看早前於15分鐘Mini Talk的分享：https:\u002F\u002Ffb.watch\u002F90HdTwAvIs\u002F\n","endrophin-211112",{"data":7},{"data":148},[149],{"id":14,"attributes":150},{"slug":16,"name":17,"description":7,"createdAt":18,"updatedAt":18},{"data":152},[153,155],{"id":77,"attributes":154},{"name":79,"createdAt":80,"updatedAt":80},{"id":132,"attributes":156},{"name":134,"createdAt":135,"updatedAt":135},{"data":7},{"id":159,"attributes":160},798,{"createdAt":161,"title":162,"excerpt":7,"content":163,"slug":164,"updatedAt":161,"author":165,"categories":166,"tags":170,"image":187},"2021-11-02T00:00:00.000Z","救救玻璃肚","\n\n夏秋交替，腸胃脆弱，加上不健康的飲食習慣，是急性腸胃炎容易發作的誘因！🥺\n\n急性腸胃炎是胃腸黏膜的急性炎症，通常由微生物感染引起。患者症狀包括噁心、嘔吐不止、腹痛腹瀉嚴重；病情若惡化，可引致高熱不退、脫水、電解質紊亂、腸穿孔、休克等併發症，構成生命危險。\n\n此時可採取以下應急措施：\u003Cbr\u003E\n1️⃣ 暫時禁食\u003Cbr\u003E\n胃腸道需要充分休息，讓受損的胃腸道黏膜盡快修復，此時需適度禁食。\u003Cbr\u003E\n2️⃣ 補充水分和益生菌\u003Cbr\u003E\n嘔吐和腹瀉，導致體內水份大量流失。腹瀉症狀較輕時，可以自行補充電解質水溶液；當出現飲水會加重嘔吐腹瀉症狀時，則應立即配合醫生通過靜脈輸液的方式補水。\u003Cbr\u003E\n3️⃣ 及時就醫\u003Cbr\u003E\n由於急性腸胃炎的病情發展難控，如果患者腹瀉嚴重，或輕微脫水，必須盡早就診，在醫生指導下進行規範治療，以避免不可挽回的後果發生。\n\n要養護腸胃，可參考以下7️⃣大方法：💡\u003Cbr\u003E\n1️⃣ 食療養胃\u003Cbr\u003E\n胃寒脾虛的人食用生薑或大棗，可以補溫和胃，益氣養血。此外，蛋白質可以修護胃黏膜，對藥物性胃黏膜損傷及慢性胃潰瘍均有很好的緩解作用。\u003Cbr\u003E\n2️⃣ 補充益生菌\u003Cbr\u003E\n益生菌是腸道菌群中極之重要的組成部分，幫助維持腸道菌群平衡，增強免疫力。在選擇益生菌時，首先要了解產品中的菌株是否耐胃酸、耐膽汁，是否含有益生元。低聚果糖、菊粉等天然益生元可作為有益菌群的食物，幫助益生菌活著到達腸道並穩定繁殖😀。\u003Cbr\u003E\n3️⃣ 調整情緒\u003Cbr\u003E\n情緒大起大落，容易導致腸胃神經系統紊亂，誘發潰瘍、糜爛等胃部病變，造成腹痛、腹瀉、便秘等狀況。\u003Cbr\u003E\n4️⃣ 腹部保暖\u003Cbr\u003E\n季節交替時的腸胃炎多發，大部分與氣溫下降有關。建議不要穿露臍裝或低腰褲，少吹空調，夜間蓋好被子以防腹部受涼。\u003Cbr\u003E\n5️⃣ 戒掉煙酒\u003Cbr\u003E\n酒精導致胃黏膜產生損傷，容易充血糜爛，引發潰瘍；吸煙增加患胃潰瘍、慢性胃炎和胃酸倒流的風險。\u003Cbr\u003E\n6️⃣ 細嚼慢嚥\u003Cbr\u003E\n吃飯不要狼吞虎嚥，通過咀嚼盡量將食物磨碎，使唾液和食物充份融合，這樣吃下去的東西更容易消化，而且不會損傷胃黏膜。\u003Cbr\u003E\n7️⃣ 注重衛生\u003Cbr\u003E\n飯前便後洗手，少吃生冷食物，冰箱中的食物不同種類要進行密封分裝，避免細菌滋生，吃之前要徹底加熱。","gastroenteritis-notes",{"data":7},{"data":167},[168],{"id":14,"attributes":169},{"slug":16,"name":17,"description":7,"createdAt":18,"updatedAt":18},{"data":171},[172,177,182],{"id":173,"attributes":174},143,{"name":175,"createdAt":176,"updatedAt":176},"腸胃炎","2023-02-07T08:03:10.866Z",{"id":178,"attributes":179},36,{"name":180,"createdAt":181,"updatedAt":181},"益生菌","2023-02-07T08:03:09.684Z",{"id":183,"attributes":184},145,{"name":185,"createdAt":186,"updatedAt":186},"電解質","2023-02-07T08:03:10.876Z",{"data":7},{"id":189,"attributes":190},796,{"createdAt":191,"title":192,"excerpt":7,"content":193,"slug":194,"updatedAt":191,"author":195,"categories":196,"tags":200,"image":222},"2021-09-24T00:00:00.000Z","腹式呼吸有助減壓","\n\n香港，作為全球生活壓力最大的城市之一，學習處理無時無刻出現的壓力更顯得非常重要。今天跟大家分享第一個減壓錦囊，也是最簡便的一個方法，就是💡腹式呼吸法（深呼吸）！\n\n每每在演講、考試、比賽前，只要深呼吸幾口，心神頓時定下來，情緒也會放鬆，專注力也會提升😀。為甚麼深呼吸能有如此大的作用呢？\n\n身體非常聰明，在不同狀況下均會盡力維持體內平衡，例如從酷熱的街道進入如雪櫃般寒冷的商場，體溫也不會大幅變化。當中自律神經系統（亦稱自主神經系統）扮演非常重要的角色 -- 它不受大腦控制，卻掌管調節血液循環、呼吸、消化、體溫、代謝、內分泌等。作為自律神經系統的兩位主角，交感神經及副交感神經不停比拼：交感神經好比車子的油門，副交感神經就好比車子的煞車。\n\n當這兩主角合作無間，運作協調時，身體處於和諧狀態。當交感神經繃緊時，身體會處於戒備狀態，甚至變得緊張，人的心跳會加快，呼吸急促，血壓隨之上升，腸胃蠕動變慢，肌肉緊張。當副交感神經活躍時，身體安靜下來，變得放鬆，心跳減緩，血壓下降，瞳孔縮小。\n\n當我們遇上突發事情，身體便會啟動交感神經系統，讓交感神經系統處於主導地位。正常情況下，副交感神經系統將會稍後被啟動以平衡身體狀況。但當自律神經系統失調，交感神經系統長期處於主導狀況，那就不只影響我們的生活與情緒，更會令器官受損。\n\n深呼吸時，正好令身體提高副交感神經的活性，促進大腦釋放α波（Alpha波)。α波能使身心放鬆，有助平復心情，提升專注力，深度睡眠。\n\n大家不妨試試由哈佛大學醫學博士安德魯·威爾（Andrew Weil）提倡的4-7-8呼吸法，步驟如下：\u003Cbr\u003E\n1. 先用嘴巴呼出空氣\u003Cbr\u003E\n2. 輕輕地用鼻吸氣4秒\u003Cbr\u003E\n3. 閉氣7秒\u003Cbr\u003E\n4. 慢慢從嘴巴呼氣8秒\n\n第2-4步為1個循環，建議大家每次做4個循環，聞說睡前做這呼吸法，更易入睡呢！👍🏻😴","deep-breathing-20210924",{"data":7},{"data":197},[198],{"id":14,"attributes":199},{"slug":16,"name":17,"description":7,"createdAt":18,"updatedAt":18},{"data":201},[202,207,212,217],{"id":203,"attributes":204},139,{"name":205,"createdAt":206,"updatedAt":206},"深呼吸","2023-02-07T08:03:10.839Z",{"id":208,"attributes":209},140,{"name":210,"createdAt":211,"updatedAt":211},"減壓","2023-02-07T08:03:10.849Z",{"id":213,"attributes":214},142,{"name":215,"createdAt":216,"updatedAt":216},"壓力","2023-02-07T08:03:10.858Z",{"id":218,"attributes":219},141,{"name":220,"createdAt":221,"updatedAt":221},"腹式呼吸","2023-02-07T08:03:10.853Z",{"data":7},{"id":224,"attributes":225},797,{"createdAt":226,"title":227,"excerpt":7,"content":228,"slug":229,"updatedAt":226,"author":230,"categories":231,"tags":235,"image":249},"2021-09-15T00:00:00.000Z","激活免疫力 體溫要上升？","\n\n白血球是免疫系統的中樞，體溫上升，殺菌能力就變活躍。故此感冒或身體狀況不佳時，往往會發燒🤒，此時身體正在讓體溫上升，好讓白血球的免疫作用能夠火力全開。\n\n原來體溫只要比正常值多升1℃，免疫力就會瞬間提升5至6倍💪🏻；相反，體溫一降，白血球的活動力會變得遲緩，造成免疫力低落。\n\n美國史丹福大學醫學院的研究發現，成年人的平均體溫持續下降，在不到200年間，人體體溫從1851年的37℃，下降至現在的36.6℃。人體體溫不斷下降，不太有利於對抗病毒。日本醫學博士石原結實更指出，人體體溫每下降1℃，代謝率就會降低12%，免疫力也會減少30%😰。他續指許多慢性疾病如糖尿、肺炎、心肌梗塞及腦梗塞，以至癌症，都跟低體溫息息相關。\n\n體溫下降的主因，是以前做家務相當於全身活動，現在家庭電器普及，不怎麽動身體也能做好家事；以前交通亦不發達，往往走很長一段路買東西、上班、上課，現今都用交通工具代步。\n\n我們的活動量變少，使用肌肉的機會也減少了。人體的體溫約有40%由肌肉負責產出，故此肌肉是人體重要的發熱器。使用肌肉，就能讓體溫升高。一般情況下，做運動或勞動肌肉至身體稍微開始出汗時，體溫會上升1℃；也就是只要我們動一動身體開始流汗時，免疫力也會一瞬間提升5至6倍！🤩\n\n全身肌肉約70%集中在下半身。「老化從腿部開始」，就是指人到了某個年紀，腹部和腿部的肌肉變少，令體溫變低，免疫力也跟著變差。做運動鍛煉下半身，有助於打造健康的體魄。有見及此，Empower定期開辦🌟伸展及肌肉鍛錬工作坊🌟，下周三9月22日公眾假期將有一課😉（詳情請參閱： https:\u002F\u002Ffb.me\u002Fe\u002FXmO1DKqd ），10月1日更有🌟爸媽動起來 肌少症不再🌟的成人親子運動班（ https:\u002F\u002Ffb.me\u002Fe\u002FFPqtArrG ）及🌟有骨氣 有肌力🌟營養講座（ https:\u002F\u002Ffb.me\u002Fe\u002F2s4Gcz5A9 ），歡迎大家參與🤗。透過合適運動與得當飲食，健康地增加肌力，同時增強免疫力！👍🏻\n","body-temperature",{"data":7},{"data":232},[233],{"id":14,"attributes":234},{"slug":16,"name":17,"description":7,"createdAt":18,"updatedAt":18},{"data":236},[237,239,244],{"id":47,"attributes":238},{"name":49,"createdAt":50,"updatedAt":50},{"id":240,"attributes":241},137,{"name":242,"createdAt":243,"updatedAt":243},"體溫","2023-02-07T08:03:10.833Z",{"id":245,"attributes":246},138,{"name":247,"createdAt":248,"updatedAt":248},"白血球","2023-02-07T08:03:10.835Z",{"data":7},{"id":251,"attributes":252},794,{"createdAt":253,"title":254,"excerpt":7,"content":255,"slug":256,"updatedAt":253,"author":257,"categories":258,"tags":262,"image":284},"2021-08-29T00:00:00.000Z","減肥大忌：有入無出！","\n\n腸道約有8公尺長，如果將腸道表面的所有孔隙和絨毛完全展開，總面積可以覆蓋一整個網球場，而廢物很可能藏匿在直腸內的每一個小角落裡。每個人的大腸裡大約堆積了3至4.5公斤的廢物😱。\n\n統計發現大約1\u002F7人有便秘問題。便秘的原因包括：\u003Cbr\u003E\n😓膳食纖維不足\u003Cbr\u003E\n😓喝水不夠\u003Cbr\u003E\n😓腸道菌群不平衡\u003Cbr\u003E\n😓延誤了上洗手間的時機\u003Cbr\u003E\n😓壓力\u003Cbr\u003E\n以上因素皆會引致腸道蠕動遲鈍，毒素開始積聚，腹部漸隆！\n\n便秘若不妥善處理，有機會引致：\u003Cbr\u003E\n❗肛裂\u003Cbr\u003E\n糞便過硬，令肛門組織出現少許撕裂，排便時糞便帶血。\u003Cbr\u003E\n❗痔瘡\u003Cbr\u003E\n長時間蹲坐馬桶，肛門靜脈壓過強，形成痔瘡。\u003Cbr\u003E\n❗誘發中風\u003Cbr\u003E\n高血壓者排便時過份用力，令血壓上升。\n\n為大家介紹擊退便秘3️⃣法寶：\u003Cbr\u003E\n🌟膳食纖維\u003Cbr\u003E\n可增加糞便體積，刺激腸道蠕動；容易吸附水份，增加便便的柔軟性；同時有助促進腸道內益菌繁殖，增強腸道抵抗力，並減少腸內毒素積聚，保持腸道健康。\u003Cbr\u003E\n要攝取充足纖維，建議每天吃至少3至4份(6至8両)蔬菜🥦，以及2至3份水果🍎；穀物的話，可選擇高纖維的，例如麥皮、糙米、全麥包。\u003Cbr\u003E\n🌟水\u003Cbr\u003E\n吃進大量纖維，卻少了水份這潤滑劑，糞便會變得又乾又硬，難以排出😖。\u003Cbr\u003E\n建議每天飲水量為體重(公斤) x 0.04(公升)，例如53公斤體重的人，一天應喝2.12公升水，且應為含氧量高而去蕪存菁的乾淨食水。\u003Cbr\u003E\n🌟乳酸菌\u003Cbr\u003E\n腸道內好菌有助改善腸道微生物平衡，促進腸道蠕動；腸道內壞菌因偏食、老化及壓力等因素而大量繁殖，於腸內製造毒素，造成便秘。\u003Cbr\u003E\n研究發現益生菌可以降低腸道整體運輸時間，增加便便次數，並且軟化便便👍🏻。","constipate-210829",{"data":7},{"data":259},[260],{"id":14,"attributes":261},{"slug":16,"name":17,"description":7,"createdAt":18,"updatedAt":18},{"data":263},[264,269,274,279],{"id":265,"attributes":266},135,{"name":267,"createdAt":268,"updatedAt":268},"便秘","2023-02-07T08:03:10.819Z",{"id":270,"attributes":271},122,{"name":272,"createdAt":273,"updatedAt":273},"減肥","2023-02-07T08:03:10.721Z",{"id":275,"attributes":276},60,{"name":277,"createdAt":278,"updatedAt":278},"纖維","2023-02-07T08:03:10.030Z",{"id":280,"attributes":281},102,{"name":282,"createdAt":283,"updatedAt":283},"乳酸菌","2023-02-07T08:03:10.453Z",{"data":7},{"id":286,"attributes":287},795,{"createdAt":288,"title":289,"excerpt":7,"content":290,"slug":291,"updatedAt":288,"author":292,"categories":293,"tags":297,"image":304},"2021-08-22T00:00:00.000Z","你是肥，還是水腫？","\n所謂水腫，是指皮下與血管外的間隙中，有異常的組織間液堆積，進而引起腫脹。\n使用Tanita的身體成份分析儀，若細胞外液比例高於42%，即代表身體有水腫。另外也可自行簡單量度，以指腹按壓疑似水腫部份5至10秒，若需要數秒才恢復，即反映有輕微水腫；10至20秒才恢復的話，水腫就頗嚴重了😰。\n水腫的原因林林總總，包括：\u003Cbr\u003E\n😐 鹽份攝取過多，常外食者或味覺逐漸退化的長者皆是高風險一族\u003Cbr\u003E\n😐 長時間維持相同姿勢，例如久坐的上班族或久站的售貨員；加上重力影響，令水份容易積聚於下肢\u003Cbr\u003E\n😐 運動不足，令新陳代謝偏低，血液偱環不良\u003Cbr\u003E\n😐 喝水太少，因為只有水份充足才有助代謝，確保血中滲透壓維持正常\u003Cbr\u003E\n😐 營養不良，尤其蛋白質及\u002F或鉀、鈣、鎂等礦物質攝取不足\u003Cbr\u003E\n😐 腎臟、心血管、肝臟、甲狀腺疾病影響\u003Cbr\u003E\n😐 藥物副作用，包括某些類固醇、雌激素及降血壓藥物\n\n💡 改善水腫8大建議，供大家參考：\u003Cbr\u003E\n1️⃣ 適量運動，改善新陳代謝，促進血液循環\u003Cbr\u003E\n2️⃣ 避免久坐久站，適時變換姿勢或起來活動，令下肢循環改善\u003Cbr\u003E\n3️⃣ 穿壓力襪，在足踝提供最大壓力，然後順著腿部逐漸向上遞減，令下肢的靜脈血液從腳底往上回流至心臟，減低下肢靜脈及靜脈瓣膜所承受的壓力\u003Cbr\u003E\n4️⃣ 抬高受影響部位，令其高於心臟，加速血液回流\u003Cbr\u003E\n5️⃣ 充足睡眠，減少壓力荷爾蒙，改善新陳代謝\u003Cbr\u003E\n6️⃣ 低鹽飲食，改善新陳代謝，促進血液循環\u003Cbr\u003E\n7️⃣ 養成多喝水的習慣，每天喝水量應為體重(公斤) x 0.04(公升)，例如60公斤重的人，每天應喝2.4公升水\u003Cbr\u003E\n8️⃣ 營養均衡，多吃改善水腫的食物，包括：\u003Cbr\u003E\n🌟 富含鉀的食物：蕃薯、牛油果、香蕉、杏脯乾\u003Cbr\u003E\n🌟 高蛋白質食物：雞蛋、豆腐、肉類\u003Cbr\u003E\n🌟 富含維他命B的食物：粗糧、豬肉、鰻魚","fat-or-edema-2021sep",{"data":7},{"data":294},[295],{"id":14,"attributes":296},{"slug":16,"name":17,"description":7,"createdAt":18,"updatedAt":18},{"data":298},[299],{"id":300,"attributes":301},136,{"name":302,"createdAt":303,"updatedAt":303},"水腫,細胞外液","2023-02-07T08:03:10.822Z",{"data":7},{"id":306,"attributes":307},792,{"createdAt":308,"title":309,"excerpt":7,"content":310,"slug":311,"updatedAt":308,"author":312,"categories":313,"tags":317,"image":336},"2021-08-11T00:00:00.000Z","“被運動”，有效用？（下篇）","\n\n上星期解構了冷凍溶脂，今次我們來了解家用瘦身儀的成效😉。\n\n家用瘦身儀大多採用EMS (Electrical Muscle Stimulation)技術：聲稱以低頻微電流向神經發出微電流信號，即使沒有運動，都可以通過微電流的刺激，令肌肉達到運動效果，繼而瘦身。\n\n肌肉訓練器（俗稱“\n腹肌貼\"）💪🏻則是把帶有電極的腰帶或貼片固定在身體上，透過電流刺激，給肌肉施加負荷，大多用於復健及物理治療上。\n\n確實有不少職業運動員，透過EMS加強訓練效果。例如仰臥起坐時，將儀器貼於腹部，令人更著意腹部動作，有助收緊線條。\n\n然而，肌肉訓練器或其他EMS儀器均沒有燒脂效果。脂肪細胞的分解，與物理性的刺激無關；而單靠電流建立肌肉，必須使用極高電流，人體難以承受。\n\n“被動式運動”，看起來身體在動，但其實只在耗電，並不能提升熱量消耗😅。只有運用肌肉力量去活動身體時，才可真正提高能量消耗及脂肪燃燒的速率。","weight-loss-210811",{"data":7},{"data":314},[315],{"id":14,"attributes":316},{"slug":16,"name":17,"description":7,"createdAt":18,"updatedAt":18},{"data":318},[319,324,329,334],{"id":320,"attributes":321},132,{"name":322,"createdAt":323,"updatedAt":323},"瘦身","2023-02-07T08:03:10.800Z",{"id":325,"attributes":326},133,{"name":327,"createdAt":328,"updatedAt":328},"肌肉","2023-02-07T08:03:10.804Z",{"id":330,"attributes":331},112,{"name":332,"createdAt":333,"updatedAt":333},"脂肪","2023-02-07T08:03:10.608Z",{"id":270,"attributes":335},{"name":272,"createdAt":273,"updatedAt":273},{"data":7},{"pagination":338},{"page":339,"pageSize":340,"pageCount":341,"total":342},2,12,8,85],"uses":{"dependencies":["http://localhost:1337/api/posts?sort=createdAt%3Adesc&populate[author]=true&populate[categories]=true&populate[tags]=true&populate[image]=true&pagination[page]=2&pagination[pageSize]=12&filters[categories][slug]=nutrition"],"params":["page","category"]}}]}