{"type":"data","nodes":[null,{"type":"data","data":[{"data":1,"meta":310},[2,42,69,98,127,167,191,210,232,254,271,293],{"id":3,"attributes":4},752,{"createdAt":5,"title":6,"excerpt":7,"content":8,"slug":9,"updatedAt":5,"author":10,"categories":11,"tags":19,"image":41},"2020-05-23T00:00:00.000Z","清肝利膽",null,"\n\n中年以後，膽管系統容易結石😖；根據所處位置，分為肝內膽管結石、總膽管結石及膽囊結石。\n\n膽管系統將肝細胞產生的膽汁，藉由管狀結構輸送至十二指腸，幫助食物消化。膽汁中的膽汁酸、卵磷脂及膽固醇必需保持一定的比例，才能維持膽汁液體的穩定性。當膽汁酸及卵磷脂減少而膽固醇增加時，膽固醇被沉澱析出，慢慢累積而形成結石😱。喝水不足，口味偏濃，食無定時，不吃早餐，飲食過量，尤其是糖、脂肪（特別是反式脂肪）吃得太多，皆是原因。飯後容易脹氣者，較大機會肝膽已有結石🙈。\n\n蛋白質是肝細胞再生的必需成分，且防止脂肪在肝內堆積；惟蛋白質在體內會產生氨氣，若肝功能下降，無法有效代謝氨氣，會傷肝及其他器官，所以必需選擇優質蛋白質😉。此外，維他命B是護肝的主要營養素：B1分解糖分，B2代謝脂肪，B6促進糖分、脂肪及蛋白質的代謝，膽素和肌醇能將多餘脂肪帶離肝臟。米飯可選擇以糙米取代部分白米，多加補充維他命B。\n\n本周日【活學營養：肝膽排毒】將進一步解構肝膽結石的種類與成因，並講解具五千年歴史的肝膽排毒DIY古方，萬勿錯過！💪🏻🤗請發訊息給我們獲取相關資訊及連結。","post200523",{"data":7},{"data":12},[13],{"id":14,"attributes":15},1,{"slug":16,"name":17,"description":7,"createdAt":18,"updatedAt":18},"nutrition","營養隨筆","2023-02-07T08:03:25.893Z",{"data":20},[21,26,31,36],{"id":22,"attributes":23},45,{"name":24,"createdAt":25,"updatedAt":25},"膽結石","2023-02-07T08:03:09.818Z",{"id":27,"attributes":28},20,{"name":29,"createdAt":30,"updatedAt":30},"蛋白質","2023-02-07T08:03:09.445Z",{"id":32,"attributes":33},48,{"name":34,"createdAt":35,"updatedAt":35},"肝","2023-02-07T08:03:09.838Z",{"id":37,"attributes":38},40,{"name":39,"createdAt":40,"updatedAt":40},"維他命B","2023-02-07T08:03:09.723Z",{"data":7},{"id":43,"attributes":44},750,{"createdAt":45,"title":46,"excerpt":7,"content":47,"slug":48,"updatedAt":45,"author":49,"categories":50,"tags":54,"image":68},"2020-05-15T00:00:00.000Z","告別口罩瘡","\n\n炎炎夏日，皮膚本身已較黐𥹉，而長時間戴口罩，所覆蓋皮膚的溫度上升，進一步刺激油脂分泌；加上呼出的空氣帶有水分，提高口罩內的濕度，令細菌更易滋生😖。\n\n皮膚本來就存在很多微生物如細菌，臉上的微生物及皮脂分泌「封在一起」，容易侵害皮膚，引致發炎，刺激粉刺、黑頭、暗瘡甚至痤瘡生長😭。若本來就容易長暗瘡，又或本身皮膚抵抗力較差，問題會更為嚴重。\n\n要加強皮膚的免疫力並修復皮膚，蛋白質極為重要💪🏻💪🏻。蛋白質更有助細胞鎖水，改善皮膚水油平衡。建議可多攝取植物性蛋白質☘️，包括豆類及堅果類，🥛奶類飲品也可選擇植物性的，例如豆奶、杏仁奶及燕麥奶。\n\n大豆和堅果同時含豐富卵磷脂，可促進皮膚新陳代謝，排除皮膚表面的毒素，減少粉刺、黑頭、暗瘡的形成，並有助去斑，亦有助皮膚水油平衡👍🏻🤗。\n\n此外，奧米加三脂肪酸Omega-3可減少身體發炎和㾗癢，提升免疫力，滋潤皮膚。Omega-3無法自行合成，必須從飲食攝取。香港人喜歡吃的三文魚、鯖魚和沙甸魚均含豐富Omega-3，惟必須注意所來自海域有否受重金屬污染，否則得不償失。","post200515",{"data":7},{"data":51},[52],{"id":14,"attributes":53},{"slug":16,"name":17,"description":7,"createdAt":18,"updatedAt":18},{"data":55},[56,58,63],{"id":27,"attributes":57},{"name":29,"createdAt":30,"updatedAt":30},{"id":59,"attributes":60},46,{"name":61,"createdAt":62,"updatedAt":62},"奧米加三","2023-02-07T08:03:09.833Z",{"id":64,"attributes":65},44,{"name":66,"createdAt":67,"updatedAt":67},"皮膚","2023-02-07T08:03:09.780Z",{"data":7},{"id":70,"attributes":71},751,{"createdAt":72,"title":73,"excerpt":7,"content":74,"slug":75,"updatedAt":72,"author":76,"categories":77,"tags":81,"image":97},"2020-05-06T00:00:00.000Z","3秒記憶有救星","\n\n3秒記憶，不期然想起《逃學威龍》內的曾sir🤣，現實中也有不少人覺得自己越來越健忘🙈。原因之一，是現代人經常multi-tasking，致使專注力下降，精神容易渙散🙄。記憶力某程度是天生的，但後天的營養攝取，絕對有助保持以至提升記憶力。\n\n隨著年紀增長，腦內神經傳導物質「乙醯膽鹼」的分泌越來越少，造成記憶力減退，反應變得遲鈍😖。作為製造「乙醯膽鹼」的主要材料，卵磷脂能修復受損的細胞膜，令腦部更加靈活，並提升記憶力。豆製品如豆腐、豆漿，以及雞蛋（尤其糖心蛋😍）都富含卵磷脂。\n\n大家經常聽到omega-3能促進腦細胞發育，原來這必需脂肪酸還能降低失智及認知衰退的風險，改善專注力和記憶力。奧米加三脂肪酸無法靠人體自行合成，必須從飲食中攝取，野生三文魚、沙丁魚及鯷魚都是好的來源，惟須注意有否受重金屬污染😉。選擇營養補充品的話，應留意有否加入維他命E，否則脂肪酸容易氧化，得不償失。\n\n此外，正如《髮的疑惑》一文所述，我們全身細胞幾乎全由蛋白質構成，蛋白質攝取必須充足，方能維持腦細胞健康💪🏻💪🏻。\n","post200506",{"data":7},{"data":78},[79],{"id":14,"attributes":80},{"slug":16,"name":17,"description":7,"createdAt":18,"updatedAt":18},{"data":82},[83,85,90,92],{"id":27,"attributes":84},{"name":29,"createdAt":30,"updatedAt":30},{"id":86,"attributes":87},42,{"name":88,"createdAt":89,"updatedAt":89},"記憶力","2023-02-07T08:03:09.758Z",{"id":59,"attributes":91},{"name":61,"createdAt":62,"updatedAt":62},{"id":93,"attributes":94},43,{"name":95,"createdAt":96,"updatedAt":96},"專注力","2023-02-07T08:03:09.768Z",{"data":7},{"id":99,"attributes":100},749,{"createdAt":101,"title":102,"excerpt":7,"content":103,"slug":104,"updatedAt":101,"author":105,"categories":106,"tags":110,"image":126},"2020-04-10T00:00:00.000Z","髮的疑惑","\n\n有頭髮邊個想做癩痢？大家都害怕脫髮，或擔心頭髮稀薄😖。遺傳是一大原因，此外飲食不當、減肥方法有誤或懷孕，也容易令蛋白質、維他命B及鐵等營養不足，造成脫髮問題。\n\n身體細胞幾乎全由蛋白質構成，蛋白質攝取必須充足，方能滋養頭皮和頭髮。每日蛋白質攝取量當為體重千分之一，再乘1至1.5，如60公斤體重人士，每天必須攝取60至90克蛋白質才足夠。\n\n維他命B群也是補髮法寶，當中的生物素更有「頭髮維他命」之稱。肝臟、酵母粉、米糠（糙米）含豐富維他命B，可惜都市人較少吃，以致我們不少都「低B」😅。\n\n鐵製造紅血球，有助輸送養分給頭髮。紅肉、肝臟、深綠色蔬菜富含鐵質；前兩者現代人較少吃，植物性鐵質則須配合維他命C，以提高吸收率。\n\n中醫所講的補腎養髮食物，例如黑豆、木耳、紫米、黑芝麻，其實也是富含蛋白質、維他命B及鐵的食物，可見中醫學與營養學皆醫食同源，異曲同工😊。","post200410",{"data":7},{"data":107},[108],{"id":14,"attributes":109},{"slug":16,"name":17,"description":7,"createdAt":18,"updatedAt":18},{"data":111},[112,117,119,124],{"id":113,"attributes":114},38,{"name":115,"createdAt":116,"updatedAt":116},"頭髮","2023-02-07T08:03:09.708Z",{"id":27,"attributes":118},{"name":29,"createdAt":30,"updatedAt":30},{"id":120,"attributes":121},41,{"name":122,"createdAt":123,"updatedAt":123},"鐵質","2023-02-07T08:03:09.734Z",{"id":37,"attributes":125},{"name":39,"createdAt":40,"updatedAt":40},{"data":7},{"id":128,"attributes":129},748,{"createdAt":130,"title":131,"excerpt":7,"content":132,"slug":133,"updatedAt":130,"author":134,"categories":135,"tags":139,"image":166},"2020-04-03T00:00:00.000Z","腸道健康與睡眠息息相關","\n\n有人體「第二大腦🧠」之稱的腸道，不僅是人體7成以上免疫細胞的聚集地方，腸道的微生物更影響我們的睡眠周期💤。\n\n腸道的微生物能透過免疫調節通道、神經內分泌通道和迷走神經通道與大腦交流，並通過這雙向交流🔛的\"腸道 -- 大腦軸\"來調節我們的睡眠周期、睡眠質量及睡眠時間。\n\n研究發現，若腸道內的微生物菌叢種類越多，睡眠質量與時間也越好。\n\n若果我們改變睡眠時間，便會干擾我們的生物鐘，從而改變腸道微生物群的組成比例與健康狀況。若我們因壓力、時差、捱夜等而導致睡眠不足或睡眠質素下降，這樣會破壞腸道內微生物的生態，從而影響我們整體的健康狀況。\n\n同樣，若我們經常進食高脂高糖食物，常服抗生素或壓力過大，也會導致腸道的微生物失衡，不單影響自身的免疫力，也影響我們的睡眠質量。\n\n✅研究顯示，若我們以植物性餐膳為主，並進食優質碳水化合物、高纖維、低飽和脂肪的食物，可以減低我們晚上睡眠時醒來的次數，且延長深層睡眠的時間。\n\n若要提升睡眠質量，大家也可以從腸道入手，改善飲食🥗。如前一篇貼文所分享：\u003Cbr\u003E\n- 不要胡亂服用抗生素，以免破壞腸道益菌\u003Cbr\u003E\n- 多吃蔬果及其他高纖食物，有助增加腸道益菌\u003Cbr\u003E\n- 少吃含添加劑的食物和加工食品，因添加劑會破壞腸道益菌，引致腸道發炎，更可能導致肥胖或炎症性腸病\u003Cbr\u003E\n- 適量補充益生菌，但必須注意菌株和菌種，以及能否有效黏附於腸道細胞上，單看宣稱的益菌數量意義不大","post200403",{"data":7},{"data":136},[137],{"id":14,"attributes":138},{"slug":16,"name":17,"description":7,"createdAt":18,"updatedAt":18},{"data":140},[141,146,151,156,161],{"id":142,"attributes":143},35,{"name":144,"createdAt":145,"updatedAt":145},"腸道健康","2023-02-07T08:03:09.682Z",{"id":147,"attributes":148},26,{"name":149,"createdAt":150,"updatedAt":150},"免疫力","2023-02-07T08:03:09.575Z",{"id":152,"attributes":153},32,{"name":154,"createdAt":155,"updatedAt":155},"睡眠","2023-02-07T08:03:09.673Z",{"id":157,"attributes":158},37,{"name":159,"createdAt":160,"updatedAt":160},"失眠","2023-02-07T08:03:09.698Z",{"id":162,"attributes":163},39,{"name":164,"createdAt":165,"updatedAt":165},"生物鐘","2023-02-07T08:03:09.713Z",{"data":7},{"id":168,"attributes":169},746,{"createdAt":170,"title":171,"excerpt":7,"content":172,"slug":173,"updatedAt":170,"author":174,"categories":175,"tags":179,"image":190},"2020-03-23T00:00:00.000Z","3歲定80？","\n\n所謂「3歲定80」，原來也適用於腸道菌叢😯。從母親懷孕至孩子3歲前，腸道微生物十分不穩定，容易受環境影響，因此3歲前是建立有益腸道菌群的黃金時期，對孩子日後的健康攸關重要。\n\n不少研究發現當腸道微生物失衡，即惡菌增加而益菌減少的時候，會引致不同疾病，例如炎症性腸病、糖尿病、肥胖，嚴重者更可誘發癌症😖。而兒童皮膚過敏、濕疹、自閉症等，更與腸道細菌息息相關。中大醫學院一項研究比較了150名自閉症兒童與健康兒童的腸道細菌群，發現自閉症兒童的腸道多出5至6種「惡菌」，少了3至4種「益菌」😱。研究結果顯示如能盡早發現腸道菌群不平衡，可望更有效預防並治療自閉症。\n\n那麼過了3歲，是否就無法逆轉腸道菌群失衡呢？幸好答案並非如此😌。我們可以透過不同方法改變腸道微生物，包括：\n\n🔶 不要胡亂服用抗生素，以免破壞腸道益菌\n\n🔶 多吃蔬果及其他高纖食物，有助增加腸道益菌\n\n🔶 少吃含添加劑的食物和加工食品，因添加劑會破壞腸道益菌，引致腸道發炎，更可能導致肥胖或炎症性腸病\n\n🔶 多做運動，有研究指出馬拉松跑手的腸道益生菌較沒有跑馬拉松的人為多\n\n🔶 適量補充益生菌，但必須注意菌株和菌種，以及能否有效黏","post200323",{"data":7},{"data":176},[177],{"id":14,"attributes":178},{"slug":16,"name":17,"description":7,"createdAt":18,"updatedAt":18},{"data":180},[181,183,185],{"id":147,"attributes":182},{"name":149,"createdAt":150,"updatedAt":150},{"id":142,"attributes":184},{"name":144,"createdAt":145,"updatedAt":145},{"id":186,"attributes":187},36,{"name":188,"createdAt":189,"updatedAt":189},"益生菌","2023-02-07T08:03:09.684Z",{"data":7},{"id":192,"attributes":193},747,{"createdAt":194,"title":195,"excerpt":7,"content":196,"slug":197,"updatedAt":194,"author":198,"categories":199,"tags":203,"image":209},"2020-03-13T00:00:00.000Z","保腸保命保健康","\n\n不少人都知道，70%免疫細胞在腸道生成；這些免疫細胞的防禦作戰能力🤺，決定了能否阻擋細菌病毒進入體內肆虐。\n\n腸道的神經系統有1億以上的神經細胞🤯，透過迷走神經影響全身的器官，包括大腦。\n\n被譽為快樂荷爾蒙的血清素😄，95%居住在腸道，與我們的睡眠、食慾、喜怒哀樂息息相關。\n\n連血液的品質，也是由腸道決定😱。唯有優質的血液可以被充份運送到身體每個細胞，我們才能享受真正的健康。\n\n由此可見，腸道並不單單是垃圾車，把人體代謝出來的廢棄物收走，更是守護我們健康的堅固長城💪🏻💪🏻。\n\n未來兩星期我們將講解如何透過調整飲食營養與生活習慣，全面提升腸道健康，讓我們百毒不侵，頭腦靈活，心境舒暢🤗！","post200313",{"data":7},{"data":200},[201],{"id":14,"attributes":202},{"slug":16,"name":17,"description":7,"createdAt":18,"updatedAt":18},{"data":204},[205,207],{"id":142,"attributes":206},{"name":144,"createdAt":145,"updatedAt":145},{"id":147,"attributes":208},{"name":149,"createdAt":150,"updatedAt":150},{"data":7},{"id":211,"attributes":212},745,{"createdAt":213,"title":214,"excerpt":7,"content":215,"slug":216,"updatedAt":213,"author":217,"categories":218,"tags":222,"image":231},"2020-02-29T00:00:00.000Z","維他命C吃多少才足夠？","\n\n上一篇＜活學營養＞文章提及維他命C可有效增強免疫力，基本上凡哺乳類動物都會自行製造維他命C，只有四類不會，就是人類、猴子、天竺鼠及蝙蝠。原始人沒速食文化，沒珍珠奶茶🙈，大多以蔬果維生，推算一天可以從食物中攝取2,300毫克維他命C，相當足夠；反之現代人常吃加工食品，且高溫煮食令維他命C及其他營養素流失，據統計美國人一天的維他命C攝取量平均僅為70毫克😯。\n\n現代大部份疾病都與身體發炎有關，補充維他命C可抗發炎，抗衰老，抗癌化💪💪。此外，有助體能改善的肉鹼、抗壓力的腎上腺荷爾蒙，以及令皮膚緊緻的膠原蛋白等的合成，都需要維他命C。\n\n維他命C那麼重要，那麼一天需攝取多少維他命C才足夠呢？兩奪諾貝爾獎的著名科學家萊納斯鮑林（Linus Pauling）表示，維他命C有兩種劑量：一是政府所建議「免於死亡」的劑量，通常為一天75至100毫克；二是令身體健康不生病的劑量，鮑林博士沒硬性建議多少，他自己一天則攝取3,000至18,000毫克。\n\n後者份量看似驚人，但與人類體重相似的山羊，每天會自行製造13,000毫克維他命C；生病或受傷時，更會製造高達100,000毫克維他命C😱！只要我們攝取的維他命C是提取自天然蔬果（有機更佳），蘊含生物類黃酮及其他植物營養素☘，即使過量，身體也只會輕瀉排掉，不會產生結石或其他副作用，大家不用擔心😉。\n","post200229",{"data":7},{"data":219},[220],{"id":14,"attributes":221},{"slug":16,"name":17,"description":7,"createdAt":18,"updatedAt":18},{"data":223},[224,229],{"id":225,"attributes":226},27,{"name":227,"createdAt":228,"updatedAt":228},"維他命C","2023-02-07T08:03:09.582Z",{"id":147,"attributes":230},{"name":149,"createdAt":150,"updatedAt":150},{"data":7},{"id":233,"attributes":234},744,{"createdAt":235,"title":236,"excerpt":7,"content":237,"slug":238,"updatedAt":235,"author":239,"categories":240,"tags":244,"image":253},"2020-02-20T00:00:00.000Z","理性面對COVID-19　慎而不慌","\n\n關於新型冠狀病毒，坊間資訊繁多📖，在此整理一下：這新型病毒是一種冠狀病毒，SARS和MERS都屬於這類型。此類病毒可以由飛沫🗣傳播，也可以經氣溶膠即霧化傳播。這特性與流感病毒一樣，故此並非如肺結核般能經空氣傳染的類型。\n\n簡而言之，如不少研究所指，新冠肺炎病毒要騎著重重的水點💧才可以飛行；若要四處飛，就要有人刻意製造霧化，或向對方迎面噴出帶有病毒的水點才行。觸摸到病毒不用擔心，因病毒是不會穿透皮膚的；但若觸摸到病毒而沒洗手，然後又觸摸了眼口鼻，就有很大機會感染。所以要勤洗手🤲，就是這個原因。\n\n😷口罩方面，配戴N95是否更好？當然不是。N95是用來防止空氣傳染，除非你在做霧化程序，製造了氣溶膠，否則N95是不會帶來額外保護的。若N95戴得不舒服，又不斷用髒手將口罩弄來弄去，感染風險反而會大大增加。\n\n一個人是否生病，要看病毒到達呼吸道的多寡並令其發病的能力，而最重要的就是看我們的抵抗力💪。武漢大學中南醫院重症醫學科主任彭志勇教授上周透露，其團隊正在進行以大劑量維他命C治療新冠肺炎的臨床試驗，同時明確表示普羅大眾也可以服用維C來預防新冠病毒。「當年非典的時候，我們每個人都發了維生素C泡騰片，確實有預防效果。」上月底中央電視台專訪國家醫療救治專家組童朝暉教授，他亦表示「維C已經有大量證據證明是可以抗病毒，所以說我們日常吃蔬菜也好，補充維C也好，是可以增強機體的防禦能力，能夠抗擊病毒，包括新型冠狀病毒。」\n\n補充維他命C時，宜選擇有機蔬果🍎，營養補充品亦然。合成維他命C人體未必能完全吸收，故應當選擇由有機植物萃取的維他命C，後者含植物營養素「生物類黃酮」，可以大大提升維他命C的生物利用率至單純維他命C的1.63倍，增強免疫力就事半功倍！","post200220",{"data":7},{"data":241},[242],{"id":14,"attributes":243},{"slug":16,"name":17,"description":7,"createdAt":18,"updatedAt":18},{"data":245},[246,251],{"id":247,"attributes":248},34,{"name":249,"createdAt":250,"updatedAt":250},"病毒","2023-02-07T08:03:09.678Z",{"id":225,"attributes":252},{"name":227,"createdAt":228,"updatedAt":228},{"data":7},{"id":255,"attributes":256},743,{"createdAt":257,"title":258,"excerpt":7,"content":259,"slug":260,"updatedAt":257,"author":261,"categories":262,"tags":266,"image":270},"2020-02-03T00:00:00.000Z","病毒是甚麼？","\n近來令人聞風喪膽的武漢肺炎，是由一種傳播力極高的新型病毒所引起。讓我們一起了解對手，裝備自己。\n\n病毒被定義為非生物粒子，必須依賴寄主例如人類、動物、植物甚至細菌來幫忙為自己繁殖後代。\n\n病毒是可怕的，現今近乎沒有無害病毒的存在。絕大部份的病毒均會為動物及人類帶來疾病，釀成大量豬隻死亡的非洲豬瘟病毒，以及引起非典型肺炎的SARS和武漢肺炎的WARS便是近來常在新聞聽到的病毒名字。\n\n暫時全世界皆未有疫苗可以直接應付這種病毒(2003年SARS病毒的疫苗需要6個月時間才成功研發並量產)，抗生素亦對病毒起不了任何作用。那麼我們應該如何自處？下一篇文章會與大家一起探討。\n\n參考影片：https:\u002F\u002Fyoutu.be\u002FE46_veB0DPU","post200203",{"data":7},{"data":263},[264],{"id":14,"attributes":265},{"slug":16,"name":17,"description":7,"createdAt":18,"updatedAt":18},{"data":267},[268],{"id":247,"attributes":269},{"name":249,"createdAt":250,"updatedAt":250},{"data":7},{"id":272,"attributes":273},740,{"createdAt":274,"title":275,"excerpt":7,"content":276,"slug":277,"updatedAt":274,"author":278,"categories":279,"tags":283,"image":292},"2020-01-12T00:00:00.000Z","免疫力下降成因-身理、心理","\n\n踏入流感高峰期，大家都更關注身體狀況，「增強免疫力」更是各人鎯鎯上口的口頭禪。其實免疫力是衡量一個人身體健康指數最為關鍵的因素之一，一個人的免疫力過低就會引起各種疾病，不利於身體健康。那麼引起人體免疫力下降的原因有哪些呢？\n\n原因大致可分為生理及心理兩方面：\n\n生理方面，主要是內分泌系統不能正常運作，過度勞累、營養失衡、運動不當及身體老化等因素都會令新陳代謝不良，從而影響內分泌系統，再而令免疫力下降。\n\n心理方面，情緒不穩定會影響植物性神經，從而造成更大的疾病。都市人壓力過大便是引致免疫力下降的常見原因。\n\n下回將講解如何從飲食習慣提升免疫力，萬勿錯過啊！","post200112",{"data":7},{"data":280},[281],{"id":14,"attributes":282},{"slug":16,"name":17,"description":7,"createdAt":18,"updatedAt":18},{"data":284},[285,287],{"id":147,"attributes":286},{"name":149,"createdAt":150,"updatedAt":150},{"id":288,"attributes":289},33,{"name":290,"createdAt":291,"updatedAt":291},"內分泌","2023-02-07T08:03:09.676Z",{"data":7},{"id":294,"attributes":295},739,{"createdAt":296,"title":297,"excerpt":7,"content":298,"slug":299,"updatedAt":296,"author":300,"categories":301,"tags":305,"image":309},"2019-12-27T00:00:00.000Z","優質蛋白質-五穀加豆","\n\n說到蛋白質，大家會想起甚麼呢？\n\n很多人自然地想到牛肉🐂、豬肉🐷、雞肉🐔或雞蛋。雞蛋是營養豐富的食物，而肉類的蛋白質似乎更豐富，但肉類通常需要最少四小時消化，而身體只能吸收其中部份的蛋白質。\n\n蛋白質由氨基酸組成，動物性蛋白質有齊人體必需的9種氨基酸，但肉類的氨基酸比例與人體差異很大，未能最符合人體需要。\n\n優質的蛋白質應是容易吸收又可完全利用。來自植物的蛋白質如大豆正是優質蛋白質。大豆蛋白質雖然缺乏一種名為蛋氨酸的氨基酸，但其他都是優質蛋白質。所謂「五穀加豆可團圓」，大米含有蛋氨酸，米加豆就有齊9種氨基酸，故此紅豆飯或其他類型的豆飯，以至豆漿配飯糰，都是補充蛋白質的理想餐膳😃。\n\n想對蛋白質或其他營養有更多了解，來1月份的營養班一起學習吧！","post191227",{"data":7},{"data":302},[303],{"id":14,"attributes":304},{"slug":16,"name":17,"description":7,"createdAt":18,"updatedAt":18},{"data":306},[307],{"id":27,"attributes":308},{"name":29,"createdAt":30,"updatedAt":30},{"data":7},{"pagination":311},{"page":312,"pageSize":313,"pageCount":314,"total":315},6,12,8,85],"uses":{"dependencies":["http://localhost:1337/api/posts?sort=createdAt%3Adesc&populate[author]=true&populate[categories]=true&populate[tags]=true&populate[image]=true&pagination[page]=6&pagination[pageSize]=12&filters[categories][slug]=nutrition"],"params":["page","category"]}}]}