{"type":"data","nodes":[{"type":"data","data":[{"categories":1,"event_categories":27},[2,9,15,21],{"id":3,"attributes":4},1,{"slug":5,"name":6,"description":7,"createdAt":8,"updatedAt":8},"nutrition","營養隨筆",null,"2023-02-12T02:39:02.691Z",{"id":10,"attributes":11},2,{"slug":12,"name":13,"description":7,"createdAt":14,"updatedAt":14},"reflection","感悟隨筆","2023-02-12T02:39:02.692Z",{"id":16,"attributes":17},3,{"slug":18,"name":19,"description":7,"createdAt":20,"updatedAt":20},"fitness","運動筆記","2023-02-12T02:39:02.697Z",{"id":22,"attributes":23},4,{"slug":24,"name":25,"description":7,"createdAt":26,"updatedAt":26},"spiritual","心靈勵志","2023-02-12T02:39:02.698Z",[28,33,38,43,47,52],{"id":3,"attributes":29},{"name":30,"slug":31,"description":7,"createdAt":32,"updatedAt":32},"讀書會","book-sharing","2023-02-12T02:38:55.939Z",{"id":16,"attributes":34},{"name":35,"slug":36,"description":7,"createdAt":37,"updatedAt":37},"文化導賞","cultural","2023-02-12T02:38:55.943Z",{"id":22,"attributes":39},{"name":40,"slug":41,"description":7,"createdAt":42,"updatedAt":42},"遊山玩水","hiking","2023-02-12T02:38:55.946Z",{"id":44,"attributes":45},5,{"name":46,"slug":18,"description":7,"createdAt":42,"updatedAt":42},"健體運動",{"id":48,"attributes":49},6,{"name":50,"slug":5,"description":7,"createdAt":51,"updatedAt":51},"活學營養","2023-02-12T02:38:55.947Z",{"id":10,"attributes":53},{"name":54,"slug":55,"description":7,"createdAt":56,"updatedAt":57},"名人面對面","be-our-guest","2023-02-12T02:38:55.942Z","2023-03-08T13:16:12.875Z"],"uses":{"dependencies":["http://127.0.0.1:1337/api/categories?","http://127.0.0.1:1337/api/event-categories?"]},"slash":"always"},{"type":"data","data":[{"data":1,"meta":106},[2,22,36,50,64,78,92],{"id":3,"attributes":4},33,{"start_date":5,"title":6,"content":7,"excerpt":8,"slug":9,"end_date":10,"tags":11,"createdAt":12,"updatedAt":12,"event_categories":13,"image":21},"2017-11-25","周末郊遊鬆一鬆古蹟石橋- 香港仔水塘","\n\n平時侷促在辦公室及煩囂市區，放假一於逃離市區抖抖氣！\u003Cbr\u003E\n今次我地由金鐘出發，寶雲道上山，經過警隊博物館，再徐徐下山往香港仔終點。\u003Cbr\u003E\n香港仔水塘於1931年落成，內有四項法定古蹟：上水塘的大壩、大壩石橋、壩上的水掣泵房、下水塘的大壩。\u003Cbr\u003E\n行完山，一齊在香港仔食埋晏歎埋茶先走！\u003Cbr\u003E\n今次登山路線：港安醫院-\u003E寶雲道-\u003E警隊博物館-\u003E香港仔水塘（預計行山時間為2小時）\u003Cbr\u003E\n備註：輕鬆易走\u003Cbr\u003E\n日期：25\u002F11\u002F2017 星期六\u003Cbr\u003E\n時間：09:45-12:00\u003Cbr\u003E\n集合地點：金鐘港鐵站F出口地面（09：45，不見即散）","","hiking1711",null,"香港仔水塘","2017-11-25T00:00:00.000Z",{"data":14},[15],{"id":16,"attributes":17},4,{"name":18,"slug":19,"description":10,"createdAt":20,"updatedAt":20},"遊山玩水","hiking","2023-02-12T02:38:55.946Z",{"data":10},{"id":23,"attributes":24},27,{"start_date":25,"title":26,"content":27,"excerpt":8,"slug":28,"end_date":10,"tags":29,"createdAt":30,"updatedAt":30,"event_categories":31,"image":35},"2017-06-25","週末郊遊鬆一鬆:香港郊野十景之一-河貝水塘","\n\n平時侷促在辦公室及煩囂市區，放假一於逃離市區抖抖氣！\n\n今次我們會漫步往曾獲選為香港十景之一的河貝水塘。由元朗雷公田出發，沿引水道前往河貝水塘。沿途景色開揚，俯瞰錦田八鄉並遠眺元朗市中心。\n起步不久，即會經過農場鮮奶小食店，大家可品嚐農場馳名的薑汁撞奶。\n\n行完山，一齊食埋晏先走！\n\n預計行山時間為2.5小時。\n\n備註：沿途是柏油路，平緩路段，只有河背村附近一段是斜路。\u003Cbr\u003E\n日期：25\u002F6\u002F2016 星期日\u003Cbr\u003E\n集合時間：上午9:30，不見即散 (若不午餐，預計13:15到河貝村坐小巴到元朗市中心)\u003Cbr\u003E\n集合地點：西鐵荃灣西站A1出口集合 (前往坐51號巴士) （預計10:30到雷公田起步）\u003Cbr\u003E\n路線： 雷公田-\u003E清潭水塘-\u003E河貝水塘\u003Cbr\u003E\n午餐暫定13:45-15:00，地點稍後確定。\u003Cbr\u003E\n若不午餐，請報名時註明。","hiking1706","雷公田,河貝水塘","2017-06-25T00:00:00.000Z",{"data":32},[33],{"id":16,"attributes":34},{"name":18,"slug":19,"description":10,"createdAt":20,"updatedAt":20},{"data":10},{"id":37,"attributes":38},24,{"start_date":39,"title":40,"content":41,"excerpt":8,"slug":42,"end_date":10,"tags":43,"createdAt":44,"updatedAt":44,"event_categories":45,"image":49},"2017-05-20","週末郊遊鬆一鬆:湖光山色— 流水響及鶴藪水塘","\n\n平時侷促在辦公室及煩囂市區，放假一於逃離市區抖抖氣！\n\n今次我們同時走訪2個灌溉水塘－流水響水塘及鶴藪水塘。流水響水塘塘邊滿佈白千層及落羽松，平靜碧綠的水邊倒影處處，天空之鏡呈現眼前！\n行完山，一齊食埋晏先走！\n\n預計行山時間為2.5小時。\n\n備註：途中中段有一段上斜幅度較大的斜路及有上落梯級\u003Cbr\u003E\n日期：20\u002F5\u002F2016 星期六\u003Cbr\u003E\n集合時間：上午9:30，不見即散 (若不午餐，預計13:00到鶴藪坐小巴回粉嶺)\u003Cbr\u003E\n集合地點：港鐵粉嶺站C出口集合 (前往坐52B小巴)\u003Cbr\u003E\n路線： 流水響-\u003E流水響水塘-\u003E鶴藪水塘-\u003E鶴藪營地-\u003E鶴藪道\u003Cbr\u003E\n午餐暫定13:30-14:30，地點稍後確定。\u003Cbr\u003E\n若不午餐，請報名時註明。","hiking1705","流水響,鶴藪水塘","2017-05-20T00:00:00.000Z",{"data":46},[47],{"id":16,"attributes":48},{"name":18,"slug":19,"description":10,"createdAt":20,"updatedAt":20},{"data":10},{"id":51,"attributes":52},13,{"start_date":53,"title":54,"content":55,"excerpt":8,"slug":56,"end_date":10,"tags":57,"createdAt":58,"updatedAt":58,"event_categories":59,"image":63},"2017-04-14","週末郊遊鬆一鬆@青蔥碧海- 西貢赤徑","\n\n平時侷促在辦公室及煩囂市區，放假一於逃離市區抖抖氣！\n\n西貢沿岸景色醉人， 赤徑位於西貢東部的海濱低地，風景開揚。我們選擇由北潭凹的涼亭起步，大約一小時的路程中，除了沿途飽覽西貢東的壯麗山嶺及海岸風光，尾段更會沿漫步海灘，欣賞美麗的海岸。\n離開時，將會在赤徑碼頭乘坐街渡前往黃石碼頭。\n\n行完山，一齊食埋晏先走！\u003Cbr\u003E\n預計行山時間為1小時，加上車程及回程坐船坐車時間，整段行程大約3.5小時。\n\n日期：14\u002F4\u002F2016 星期五(公眾假期)\u003Cbr\u003E\n集合時間：上午9:50，不見即散 (坐10:00的94巴士)\u003Cbr\u003E\n集合地點：西貢巴士總站\u003Cbr\u003E\n路線：北潭凹\u003E赤徑\u003E赤徑碼頭\u003Cbr\u003E\n備註：預計坐12:20赤徑碼頭至黃石碼頭的街渡，再在黃石碼頭坐94號巴士回西貢碼頭，預計大約13:45到西貢碼頭\u003Cbr\u003E\n🍚 午餐暫定13:45-15:00，地點稍後確定。\u003Cbr\u003E\n若不午餐，請報名時註明。","hiking1704","西貢赤徑","2017-04-14T00:00:00.000Z",{"data":60},[61],{"id":16,"attributes":62},{"name":18,"slug":19,"description":10,"createdAt":20,"updatedAt":20},{"data":10},{"id":65,"attributes":66},11,{"start_date":67,"title":68,"content":69,"excerpt":8,"slug":70,"end_date":10,"tags":71,"createdAt":72,"updatedAt":72,"event_categories":73,"image":77},"2017-03-18","週末郊遊鬆一鬆@鄉土情懷·西貢古道","\n\n平時侷促在辦公室及煩囂市區，放假一於逃離市區抖抖氣！🚶\n\n今次我們選擇充滿鄉土情懷的西貢古道，走訪百花林，途經逾百年的國父孫中山先生母親楊太君夫人墓，俯瞰西貢及白沙灣一帶幽美景色。古道沿途細味田園風光，再訪有逾400年歷史，現已列為一級歷史建築的車公古廟。\n行完山，一齊食埋晏先走！🍜\n\n預計行山時間為3小時。\u003Cbr\u003E\n備註：全程主要為下坡路段，近九成為混凝土小徑，輕鬆易行，其餘為地衣處處的石砌古道。\u003Cbr\u003E\n日期：18\u002F3\u002F2016 星期六\u003Cbr\u003E\n集合時間：上午9:30，不見即散 (若不午餐，預計13:00到西貢蠔涌)\u003Cbr\u003E\n集合地點：港鐵鑽石山站C2地面出口集合 (前往坐92號巴士，「德望中學」下車)\u003Cbr\u003E\n路線：飛鵝山道\u003E百花林(孫中山母親之墓)\u003E大藍湖\u003E蠔涌\u003Cbr\u003E\n🍚 午餐暫定13:00-14:30，地點稍後確定。\u003Cbr\u003E\n若不午餐，請報名時註明。","hiking1703","西貢古道","2017-03-18T00:00:00.000Z",{"data":74},[75],{"id":16,"attributes":76},{"name":18,"slug":19,"description":10,"createdAt":20,"updatedAt":20},{"data":10},{"id":79,"attributes":80},10,{"start_date":81,"title":82,"content":83,"excerpt":8,"slug":84,"end_date":10,"tags":85,"createdAt":86,"updatedAt":86,"event_categories":87,"image":91},"2017-01-31","新春行山團- 暢遊南丫島","\n\n雞年伊始，我們特選暢遊南丫島，讓我們乘風破浪，舉目四方，海闊天空！祝願大家身體健康、日日心曠神怡！\u003Cbr\u003E\n今次路線由榕樹灣出發，浴途景色開揚。\u003Cbr\u003E\n行完山，一齊食埋晏先走！🍜\u003Cbr\u003E\n預計行山時間為1.5小時\u003Cbr\u003E\n日期：31\u002F1\u002F2017 初四星期二\u003Cbr\u003E\n時間：10:30-13:30（若不午餐，預計13:30到索罟灣碼頭）\u003Cbr\u003E\n集合地點：10:05中環往南丫島4號碼頭集合（坐10:30船出發，預計人多，請提早集合，太遲有機會無船位）\u003Cbr\u003E\n路線：中環＞榕樹灣＞索罟灣","hiking1702","南丫島","2017-01-31T00:00:00.000Z",{"data":88},[89],{"id":16,"attributes":90},{"name":18,"slug":19,"description":10,"createdAt":20,"updatedAt":20},{"data":10},{"id":93,"attributes":94},6,{"start_date":95,"title":96,"content":97,"excerpt":8,"slug":98,"end_date":10,"tags":99,"createdAt":100,"updatedAt":100,"event_categories":101,"image":105},"2017-01-21","新年登高步步高陞- 大帽山俯瞰大地四方","\n\n平時侷促在辦公室及煩囂市區，放假一於逃離市區抖抖氣！\u003Cbr\u003E\n1月新年伊始，我們今次選擇了登上香港之巔－大帽山(957米高)，祝願大家今年都步步高陞。今次路線由荃錦坳(478米高)出發，沿途景色開揚壯觀，若天朗氣清，能俯瞰全港景色，西北的錦田元朗、東西的大埔馬鞍山、南面的九龍港島等都一覽無遺。\u003Cbr\u003E\n行完山，一齊飲埋茶，食埋晏先走！\u003Cbr\u003E\n預計行山時間為3小時\u003Cbr\u003E\n備註：海拔較高，請帶備足夠外套保暖並請帶備防曬用品\u003Cbr\u003E\n日期：2017年1月21日(星期六)\u003Cbr\u003E\n時間：09:30至13:00\u003Cbr\u003E\n集合地點：09：30於荃港鐵荃灣西站A1出口集合（前往坐51號巴士到效野公園站下車），不見即散\u003Cbr\u003E\n路線：荃錦坳＞大帽山道＞大㡌山山頂＞大帽山道＞荃錦坳\u003Cbr\u003E\n活動結束後將返回荃灣一起午膳\u003Cbr\u003E","hiking1701","大帽山","2017-01-21T00:00:00.000Z",{"data":102},[103],{"id":16,"attributes":104},{"name":18,"slug":19,"description":10,"createdAt":20,"updatedAt":20},{"data":10},{"pagination":107},{"page":108,"pageSize":109,"pageCount":108,"total":110},3,12,31],"uses":{"dependencies":["http://127.0.0.1:1337/api/events?sort=start_date%3Adesc&populate[author]=true&populate[event_categories]=true&populate[image]=true&pagination[page]=3&pagination[pageSize]=12&filters[event_categories][slug]=hiking"],"params":["page","category"]}}]}