{"type":"data","nodes":[null,{"type":"data","data":[{"data":1,"meta":326},[2,43,74,96,133,160,186,213,235,259,284,306],{"id":3,"attributes":4},820,{"title":5,"excerpt":6,"content":7,"slug":8,"createdAt":9,"updatedAt":9,"author":10,"categories":17,"tags":25,"image":42},"糖尿病，使乜驚\"",null,"\n\n根據2021年統計，香港近50萬人患有糖尿病；估計至2024年，患者人數將超越62萬人。\n\n患者中，逾95%屬II型糖尿病。病因通常被認為是胰島或胰島素異常，惟臨床證據並不支持此說法。\n\n首先，糖尿病早期尤其是潛伏期，患者的胰島素水平通常偏高，或至少正常，反映胰島素功能正常。後期即使胰島素水平下降，也是由於糖尿病導致全身血管病變，包括胰島內的血管，進而導致胰島素發生進一步病變；而糖尿病人不斷注射胰島素，亦會對胰島功能造成損害。\n\n此外，糖尿患者有蛋白質、脂肪及糖的三大代謝紊亂；這跟胰島素分泌無關，卻與肝功能息息相關。肝功能異常或紊亂，通過糖異生合成糖原的能力下降，以致肝對血糖的回收能力降低，血糖升高。故此，若只服降血糖藥或打胰島素，卻置肝功能紊亂於不顧，表面上糖尿病似乎得到控制，事實上病情卻在惡化。\n\n因此，糖尿病其實是高血糖性肝病，真正的病因不在胰島和胰島素，而在肝臟。只有糾正肝的三大代謝，使之恢復正常，糖尿病才可以根治。\n\n要想糾正三大代謝紊亂，只有飲食與營養調理方可有效做到：一方面，營養使受損的肝細胞通過自身修復能力，迅速回復正常；另方面，營養使肝細胞內各種反應所需的酵素和輔酵素獲得充足供應，肝細胞的功能因而迅速恢復。而且，飲食與營養調理，也可防止榶尿病併發症發生。","diabetes-220925","2022-09-25T00:00:00.000Z",{"data":11},{"id":12,"attributes":13},4,{"name":14,"slug":15,"profile":6,"createdAt":16,"updatedAt":16},"Melissa Wong","melissa","2023-02-07T08:03:28.224Z",{"data":18},[19],{"id":20,"attributes":21},1,{"slug":22,"name":23,"description":6,"createdAt":24,"updatedAt":24},"nutrition","營養隨筆","2023-02-07T08:03:25.893Z",{"data":26},[27,32,37],{"id":28,"attributes":29},167,{"name":30,"createdAt":31,"updatedAt":31},"糖尿病","2023-02-07T08:03:11.004Z",{"id":33,"attributes":34},168,{"name":35,"createdAt":36,"updatedAt":36},"代謝","2023-02-07T08:03:11.018Z",{"id":38,"attributes":39},48,{"name":40,"createdAt":41,"updatedAt":41},"肝","2023-02-07T08:03:09.838Z",{"data":6},{"id":44,"attributes":45},819,{"title":46,"excerpt":6,"content":47,"slug":48,"createdAt":9,"updatedAt":9,"author":49,"categories":52,"tags":56,"image":73},"立秋後如何養生？","\n\n所謂立秋先養肺，今天跟大家分享“3宜”養生貼士😉\n\n1️⃣宜淡補\u003Cbr\u003E\n秋季進補應循序漸進。盛夏未散，這幾個月的冷飲、冰凍、寒涼食物使得腸胃變得“脆弱”，特別是體虛者，此時盲目進補必然難以消化吸收。\u003Cbr\u003E\n秋季進補之前，給脾胃一個調整適應的時間，可先食用富營養又易消化的食物，以調理脾胃功能，如蓮藕、准山、紅棗、魚蝦、雞蛋；當中蓮藕富含蛋白質、維他命C、胡蘿蔔素等營養，可清熱生津，補益脾胃。\n\n2️⃣宜潤肺\u003Cbr\u003E\n秋燥傷肺，耗人津液，需潤燥、養陰、潤肺，可多吃銀耳、雪梨、百合、海帶、杏仁等柔潤食品。\u003Cbr\u003E\n同時可適量吃一些酸味果蔬，《黃帝內經》的《素問•臟氣法時論》指出：“肺收斂，急食酸以收之”，可選用山楂、葡萄、柚子、檸檬。柚子富含鉀、鈣、磷、維他命B1、維他命B2、維他命C、胡蘿蔔素等，有健胃、潤肺、清腸等功效。\n\n3️⃣宜健脾益胃\u003Cbr\u003E\n立秋時節，雖然暑熱未退，但已不適合大量食用消暑食物，如西瓜、冷飲，否則在晝夜溫差影響下，易發生腸胃不適，甚至引發嚴重病癥。\u003Cbr\u003E\n可選用健脾益胃的食物，如小米、茨實、准山、茯苓。准山富含蛋白質、維他命、鈣、鐵、磷、皂苷等多種營養成份；其黏糊糊的汁液是黏蛋白，能保持血管彈性，潤肺止咳。\n\n整體而言，可以多補充優質蛋白質，以及多種維他命及礦物質，尤其是胡蘿蔔素、維他命B、維他命C、鈣、鐵和鋅。傳統漢方“人參百合湯”，可以益氣、潤肺、清心，也是不二之選👍🏻。","autumn-220925",{"data":50},{"id":12,"attributes":51},{"name":14,"slug":15,"profile":6,"createdAt":16,"updatedAt":16},{"data":53},[54],{"id":20,"attributes":55},{"slug":22,"name":23,"description":6,"createdAt":24,"updatedAt":24},{"data":57},[58,63,68],{"id":59,"attributes":60},163,{"name":61,"createdAt":62,"updatedAt":62},"立秋","2023-02-07T08:03:10.981Z",{"id":64,"attributes":65},166,{"name":66,"createdAt":67,"updatedAt":67},"肺","2023-02-07T08:03:11.000Z",{"id":69,"attributes":70},165,{"name":71,"createdAt":72,"updatedAt":72},"節氣","2023-02-07T08:03:10.989Z",{"data":6},{"id":75,"attributes":76},818,{"title":77,"excerpt":6,"content":78,"slug":79,"createdAt":80,"updatedAt":80,"author":81,"categories":84,"tags":88,"image":95},"糖得甩","\n\n你今日食左糖未呀？沒有食糖果，也沒有食甜品，但糖經常也會悄悄地進入你的消化道。\n\n糖，對我們身體的影響極大。專注力不足、過度活躍症、糖尿、濕疹、肥胖等皆與糖息息相關。世界衞生組織建議成年人每日應攝取少於25克游離糖，即5粒方糖的份量。游離糖是指食品和飲料在製作加工時添加的額外糖份。\n\n雖然我們沒有刻意進食糖，但日常飲食往往不自覺地吞了很多的糖。以茶餐廳的凍檸茶為例，一杯大約含25克糖，經已是建議攝取游離糖的最高份量。500毫升的瓶裝檸檬茶，糖份更達65克！相信大家喝檸檬茶時，不會放13粒方糖，否則應甜到喝不下；但工業化生產的飲品，作了酸度甜度調節，令飲的時候不覺太甜，委實傷身！\n\n大眾提升了健康意識，很多時候餐飲也會少甜、走甜，甚至改飲果汁。果汁看似健康，但其糖份也不容忽視，一支「X汁先生」含糖達31.7克。購買前記得看營養標籤呢！\n\n所謂「最安全的地方就是最危險的地方」，早餐及主餐原來是糖份小偷最神出鬼沒之處。很多香港人以麵包、蛋糕作早餐，惟一份袋裝提子包的糖份原來達10.8克（佔了一天建議量的40%），一個「說謊蛋糕」也有20.9克糖（接近一天的建議量）。一日之計在於晨，早餐是我們最重要的餐膳。選對早餐，身體才健康；不要單單貪方便而犧牲了這重要的一餐呢！ \n\n守護我們的健康，記得處處提防糖份小偷！\n\n想了解更多，歡迎觀看15分鐘Mini Talk的分享：https:\u002F\u002Ffb.watch\u002FeMqlxOFCjf\u002F ","sugarfree-220810","2022-08-10T00:00:00.000Z",{"data":82},{"id":12,"attributes":83},{"name":14,"slug":15,"profile":6,"createdAt":16,"updatedAt":16},{"data":85},[86],{"id":20,"attributes":87},{"slug":22,"name":23,"description":6,"createdAt":24,"updatedAt":24},{"data":89},[90],{"id":91,"attributes":92},164,{"name":93,"createdAt":94,"updatedAt":94},"糖","2023-02-07T08:03:10.983Z",{"data":6},{"id":97,"attributes":98},817,{"title":99,"excerpt":6,"content":100,"slug":101,"createdAt":102,"updatedAt":102,"author":103,"categories":106,"tags":110,"image":132},"代謝綜合症 身體響警號","\n\n代謝綜合症是由中央肥胖引致的多個高風險致病因素的統稱，在香港愈見普遍😧。當脂肪積存於皮下或腹腔，直接或間接影響肝臟、胰臟及腎臟的荷爾蒙平衡，造成高血壓、高血糖等健康問題。\n\n血壓是指血液由心臟送出時，在動脈血管內產生的壓力。收縮期血壓俗稱「上壓」，舒張期血壓俗稱「下壓」，上壓140或以上，下壓90或以上即為高血壓。不受控制的高血壓有機會令血管壁變薄並膨脹，形成動脈瘤，動脈瘤破裂可致命☠️。若腦部的動脈瘤破裂，可引致中風；不受控制的高血壓也可令頸動脈產生血塊，如血塊流入腦部，可致栓塞性中風。\n\n要了解高血糖，必須先認識胰島素。胰島素為體內荷爾蒙，由胰臟細胞分泌；主要作用為促進血液內的葡萄糖輸入肝臟、肌肉和脂肪細胞，產生能量。胰島素分泌不足，或對胰島素功能產生抗拒，血液內的葡萄糖便不能進入細胞，導致血糖上升，並由小便排出，造成糖尿病。\n\nHbA1c 糖化血紅素反映身體過去2至3個月的平均血糖值，所以較檢驗空腹血糖為準確。根據英國糖尿研究報告（UKPDS），HbA1c每下降1%，即可減低糖尿併發症的傷害。\n\n代謝綜合症在香港愈發普遍，原因之一，是港人常外出用膳。碟頭飯1碟相當於2至3碗飯量，即使男士也可選擇減飯，並配以大碟蔬菜🥗，以增加纖維量和飽腹感；黑椒汁、洋葱汁、白汁、肉醬含極高卡路里，例如🍝肉醬意粉的肉醬汁達750卡路里，相當於3碗白飯的熱量😱，可要求餐廳將飯餸分開，自己調節加入多少醬汁。\n\n此外，根據衛生署衛生防護中心統計，90%香港人的平均每日蔬果攝取量未達世界衛生組織建議攝取量（5份蔬果）的一半🫣，而且攝取種類單一，情況令人關注。\n\n如欲了解如何有效減肥瘦身，以至逆轉糖尿，歡迎參與逢星期一晚上8:30舉行的《營養讀書會》🤗，詳情請私訊我們查詢。","metabolic-syndrome-220701","2022-07-01T00:00:00.000Z",{"data":104},{"id":12,"attributes":105},{"name":14,"slug":15,"profile":6,"createdAt":16,"updatedAt":16},{"data":107},[108],{"id":20,"attributes":109},{"slug":22,"name":23,"description":6,"createdAt":24,"updatedAt":24},{"data":111},[112,117,122,127],{"id":113,"attributes":114},124,{"name":115,"createdAt":116,"updatedAt":116},"代謝綜合症","2023-02-07T08:03:10.735Z",{"id":118,"attributes":119},162,{"name":120,"createdAt":121,"updatedAt":121},"血壓","2023-02-07T08:03:10.976Z",{"id":123,"attributes":124},11,{"name":125,"createdAt":126,"updatedAt":126},"糖尿","2023-02-07T08:03:09.345Z",{"id":128,"attributes":129},63,{"name":130,"createdAt":131,"updatedAt":131},"血糖","2023-02-07T08:03:10.082Z",{"data":6},{"id":134,"attributes":135},816,{"title":136,"excerpt":6,"content":137,"slug":138,"createdAt":139,"updatedAt":139,"author":140,"categories":143,"tags":147,"image":159},"反直脂肪 萬病之源","\n\n早前的活學營養文章《胰島素 — 致肥荷爾蒙》（https:\u002F\u002Fwww.facebook.com\u002F1307967419223525\u002Fposts\u002F5229871923699702\u002F ），探討了「胰島素製脂」如何由古時的保命功能，演變為現代人的致肥原因😖。今次將繼續引用袁維康醫生的《營養謬誤》，解構都市人的萬病之源 -- 反直脂肪 （Trans fat）。\n\n反直脂肪俗稱反式脂肪，可謂無處不在。除了麫包、蛋糕、餅乾往往含有反直脂肪外，超市所買到的植物油，如芥花籽油、葵花籽油、大豆油、粟米油、花生油、菜油，全是經氫化過程處理，以便儲存更久。呈液態狀的植物油有近5%身體無法處理的反直脂肪，半固體狀的人造牛油更有40%之多！😱\n\n加拿大University of Guelph營養學教授Bruce Holub的科研證據顯示，每日只是進食1克的反直脂肪，數年後已足以明顯地大增患上心血管疾病的風險。他續指，每日少至2塊餅乾，已含有足夠1克致病的反直脂肪😵。因此，科學家總結出反直脂肪的安全食用量為0️⃣。\n\n如欲了解更多「脂肪謬誤」，歡迎於本月20日晚上7:30，參與營養讀書會星級版，屆時袁醫生將親自剖析何謂優質脂肪、食油如何挑選，以及膽固醇與心臟病的關係👍🏻，詳情請參閱 https:\u002F\u002Fwww.facebook.com\u002F1307967419223525\u002Fposts\u002F5405866726100220\u002F 。機會難逢，萬勿錯過！🤗","transfat-sickness-220613","2022-06-13T00:00:00.000Z",{"data":141},{"id":12,"attributes":142},{"name":14,"slug":15,"profile":6,"createdAt":16,"updatedAt":16},{"data":144},[145],{"id":20,"attributes":146},{"slug":22,"name":23,"description":6,"createdAt":24,"updatedAt":24},{"data":148},[149,154],{"id":150,"attributes":151},160,{"name":152,"createdAt":153,"updatedAt":153},"反直脂肪","2023-02-07T08:03:10.963Z",{"id":155,"attributes":156},161,{"name":157,"createdAt":158,"updatedAt":158},"植物油","2023-02-07T08:03:10.970Z",{"data":6},{"id":161,"attributes":162},814,{"title":163,"excerpt":6,"content":164,"slug":165,"createdAt":166,"updatedAt":166,"author":167,"categories":170,"tags":178,"image":185},"運動前，有食的疑惑？","\n\n運動與飲食的關係，迷思處處🧐。有人認為餓著做運動，會有更佳的消脂效果，真相是否如此🤔？\n\n餓著的，有早上一覺醒來，甚麼也不吃便出外做運動；睡了一夜，晚餐完全消化，身體處於肌餓狀態。也有下班後立即趕著做運動的，午餐後若沒再進食，加上工作消耗體能，身體能量就會大減😯。\n\n飢餓時，血糖濃度降低，未必有足夠能量供給身體應付運動需求，做運動時身體會較快感到疲倦，更有機會影響運動的專注力和表現，亦容易出現頭暈、無氣力等問題。\n\n最重要的是餓著做運動，更易造成肌肉流失😱。運動時，身體消耗大量能量，肌肉內的醣份會第一時間被使用，其次是以蛋白質作為能量來源。故此，若無適當補充，肌肉量會不增反降，造成基礎代謝率下降，養成易胖體質🥺，亦會影響運動表現。\u003Cbr\u003E\n因此，建議大家不要空肚做運動，而是運動前半小時至1小時，應該：\u003Cbr\u003E\n• 進食容易消化的低脂低纖食物，如蘋果、豆漿、天然果汁\u003Cbr\u003E\n• 避免攝取辛辣、刺激、纖維多的雜糧和易脹氣的豆類或牛奶，以免引起腸胃不適\u003Cbr\u003E\n• 吸收優質的蛋白質，研究證明能增加肌肉表現\n\n運動前切勿空肚，應適量進食，才能為身體提供充足能量及力氣，支撐整個運動過程，並提升運動質素。\n\nBy Ophelia Wong","food-before-exercise-220519","2022-05-19T00:00:00.000Z",{"data":168},{"id":12,"attributes":169},{"name":14,"slug":15,"profile":6,"createdAt":16,"updatedAt":16},{"data":171},[172],{"id":173,"attributes":174},3,{"slug":175,"name":176,"description":6,"createdAt":177,"updatedAt":177},"fitness","運動筆記","2023-02-07T08:03:25.905Z",{"data":179},[180],{"id":181,"attributes":182},157,{"name":183,"createdAt":184,"updatedAt":184},"運動飲食","2023-02-07T08:03:10.947Z",{"data":6},{"id":187,"attributes":188},815,{"title":189,"excerpt":6,"content":190,"slug":191,"createdAt":192,"updatedAt":192,"author":193,"categories":196,"tags":200,"image":212},"睡前小酌真的能助眠？","\n\n不知大家有否聽過甚至試過睡前喝一杯酒精飲品，讓自己易於入睡呢？🤔睡前小酌真的能助眠嗎？\n\n小編年少無知時，也曾經試過🙈，但並沒有想像中的效果，喝了感覺好像睡得到，但卻發現醒來後，始終仍是疲憊不堪😟。\n\n酒精並不是助眠劑，而是鎮靜劑。😳吓！明明喝了酒精會讓人情緒興奮，為何會是鎮靜劑呢😐？\n\n飲用酒精飲料的初期，酒精會令克制衝動及控制行為的腦部前額葉皮質鎮靜下來，所以人便會興奮起來，也會比平常衝動🤯；後期階段，酒精會對其他腦區產生鎮靜效果，讓這些腦區和前額葉皮質一樣進入恍惚狀態，所以在飲用酒精一段時間後，反應開始變得遲鈍，注意力下降，身體慢慢進入麻木狀態😐；最後，維持意識的慾望和能力下滑，並且容易失去意識，但失去意識並不是代表進入睡眠狀態。酒精的鎮靜效用只是讓人不清醒，並沒引發自然的睡眠，效果反而是較接近輕微的麻醉😨。\n\n更甚者，睡前小酌會影響睡眠質素：\u003Cbr\u003E\n- 睡眠片段化：整晚處於不連續的睡眠，且只是維持在淺層睡眠狀態，怪不得翌日會精神疲憊😭。\u003Cbr\u003E\n- 抑制快速動眼睡眠：酒精代謝時會產生醛類，阻礙大腦產生快速動眼睡眠，亦即不能進入做夢階段。關於做夢階段的好處，請見早前的活學營養帖文《發夢好處多》 empower.hk\u002Fblog\u002Fsleep-dream-220318 。\u003Cbr\u003E\n\n故此，睡前小酌不單令我們沒有進入自然的睡眠，更影響睡眠質素，讓我們變得更加疲乏。飲與不飲，自行決定，但謹記不要以為酒精能助眠啊！\n\n想了解更多，歡迎觀看15分鐘Mini Talk的分享：https:\u002F\u002Ffb.watch\u002Fd0qxO4cGEc\u002F\n","sleep-wine-220515","2022-05-15T00:00:00.000Z",{"data":194},{"id":12,"attributes":195},{"name":14,"slug":15,"profile":6,"createdAt":16,"updatedAt":16},{"data":197},[198],{"id":20,"attributes":199},{"slug":22,"name":23,"description":6,"createdAt":24,"updatedAt":24},{"data":201},[202,207],{"id":203,"attributes":204},32,{"name":205,"createdAt":206,"updatedAt":206},"睡眠","2023-02-07T08:03:09.673Z",{"id":208,"attributes":209},158,{"name":210,"createdAt":211,"updatedAt":211},"酒","2023-02-07T08:03:10.951Z",{"data":6},{"id":214,"attributes":215},813,{"title":216,"excerpt":6,"content":217,"slug":218,"createdAt":219,"updatedAt":219,"author":220,"categories":223,"tags":227,"image":234},"腰酸背痛點算好","\n\n不少人都試過腰酸背痛😑，原來這不是成年人的專利。2019年有調查發現超過6成中學生及逾3成半小學生在調查內3個月曾有頭痛、頸痛及腰痛等問題，甚至有32.5%小學生及44%中學生出現寒背😱。\n\n腰酸背痛在香港確實普遍，除了搽藥油舒緩暫時的痠疼之外，還有方法改善根本問題嗎🤔？\n\n腰酸背痛的原因林林總總，其中之一，是翹腳、坐姿或站姿重心偏重一邊，用電腦時長期上身前傾或低頭過久，均會導致肌肉失衡，從而帶來肌肉骨骼的問題。當然，老土一句說「鬼唔知阿媽係女人」，習慣很難改啊🤦‍♀️！有意識時，會留意自己的姿勢；專注其他事情時，身體很快回復原本的姿勢習慣。正常的，當肌肉開始失衡，這些習慣性的姿態會讓身體感覺較舒服。故此，必須要讓肌肉骨骼重拾平衡狀態，才能根本性地糾正姿勢。\n\n近年，越來越多人了解矯正運動有助肌肉骨骼從訓練中恢復，並長遠改善肌肉骨骼健康，重拾正常的活動效能，根本性地改善因姿勢不良而引發的疼痛。\n\n大家可以透過矯正運動教練作姿勢評估及制定針對性的運動訓練。矯正運動可輕鬆地在家居進行，由針對性的放鬆性運動以放鬆過度緊張的肌肉，到伸展運動以增加肌肉骨骼的活動範圍，最後作肌肉鍛以強化及鞏固肌肉，透過循序漸進的運動方式讓肌肉骨骼重獲平衡狀態😌。\n\n鼓勵大家，平日也要多留意自己的姿勢習慣啊！不良姿勢長遠誘發的痛症困擾呢！\n\n如欲了解更多，歡迎觀看早前於15分鐘Mini Talk的分享：https:\u002F\u002Ffb.watch\u002FcS-ocXAd5N\u002F","corrective-exercise","2022-05-08T00:00:00.000Z",{"data":221},{"id":12,"attributes":222},{"name":14,"slug":15,"profile":6,"createdAt":16,"updatedAt":16},{"data":224},[225],{"id":173,"attributes":226},{"slug":175,"name":176,"description":6,"createdAt":177,"updatedAt":177},{"data":228},[229],{"id":230,"attributes":231},159,{"name":232,"createdAt":233,"updatedAt":233},"矯正運動","2023-02-07T08:03:10.953Z",{"data":6},{"id":236,"attributes":237},812,{"title":238,"excerpt":6,"content":239,"slug":240,"createdAt":241,"updatedAt":241,"author":242,"categories":245,"tags":249,"image":258},"有記性有記性瞓多多","\n\n大家昨晚睡了多久呢？有8小時嗎？很多朋友跟我說：「睡8小時？很奢侈啊！哪有可能？沒辦法呢，香港人繁忙嘛！」\n\n世界衛生組織(WHO)指出「睡眠缺乏是所有工業化國家的流行病」，並建議「成人每晚平均睡眠時間應為8小時」。香港，作為國際都會，睡眠缺乏這流行病非常普遍😑。\n\n睡眠非常重要，在上一篇文章《發夢好處多》提及睡眠的發夢階段有助提升我們的情商及創造力，是次將探討睡眠如果影響我們的記憶力。\n\n睡眠時，我們的大腦就像電腦進入磁碟重組模式。大腦中央的視丘會切斷我們對外界的感知，⛔️關閉了我們的感覺訊息，如聲音、視覺、觸覺，就像電腦在進入磁碟重組模式時再不能進行其他工作。當大腦停止接收外界的訊息時，大腦便開始進行訊息的傳輸，把存放記憶的位置重新整理。\n\n大腦的海馬迴Hippocampus負責存放我們清醒時所接收到的訊息，但海馬迴的空間是有限的，只能作短暫存放。就如同USB記憶體，當記憶體爆滿時，新的記憶就會覆蓋另一筆舊記憶。\u003Cbr\u003E\n睡眠時，暫存在海馬迴的事實記憶會轉移至能永久存放及極大容量的大腦皮層，就如同把檔案由USB記憶體轉至更安全及更大容量的硬碟。\u003Cbr\u003E\n那麼，🤔要多少時間才能完全把海馬迴的暫存記憶轉移呢？就像電腦轉輸檔案一樣，傳輸速度非常重要，我們是用USB 2.0還是USB 3.0？把記憶由海馬迴轉移至大腦皮層的速度取決於我們產生多少睡眠紡錘波。睡眠紡錘波越頻繁出現，我們的記憶傳輸速度也就越快。睡眠紡錘波的密度，在睡眠後期的早晨階段特別豐富。若只有6小時或更少的睡眠時間，大腦得不到充足的睡眠紡錘波，腦就無法讓學習能力恢復，也會影響我們的記憶力😳。\u003Cbr\u003E\n除了晚上充足8小時的睡眠，小睡20分鐘也會讓我們產生睡眠紡錘波，也有助我們鞏固記憶呢。根據2006年的一項測驗學習研究，對比睡眠充足的學生，睡眠剝奪的學生令事實記在腦中的能力落後了40%！而且，在睡眠剝奪期間學得的少數記憶，在幾小時和幾天之間就會很快忘掉，而且遺忘的速度也會加快很多。所以，請不要低估了睡眠不足的後果。若希望增加小朋友的學習表現，首要是該鼓勵他們睡眠充足，甚至回家後給他們小睡一會才溫習做功課，這樣也能提升學習力及記憶力呢😌！\u003Cbr\u003E\n想增強記憶力，大家記得要有8小時睡眠啊😴！\u003Cbr\u003E\n想了解更多，歡迎觀看早前於15分鐘Mini Talk的分享：https:\u002F\u002Ffb.watch\u002FcwItRy65ry\u002F\n","sleep-memory-220426","2022-04-26T00:00:00.000Z",{"data":243},{"id":12,"attributes":244},{"name":14,"slug":15,"profile":6,"createdAt":16,"updatedAt":16},{"data":246},[247],{"id":20,"attributes":248},{"slug":22,"name":23,"description":6,"createdAt":24,"updatedAt":24},{"data":250},[251,253],{"id":203,"attributes":252},{"name":205,"createdAt":206,"updatedAt":206},{"id":254,"attributes":255},42,{"name":256,"createdAt":257,"updatedAt":257},"記憶力","2023-02-07T08:03:09.758Z",{"data":6},{"id":260,"attributes":261},811,{"title":262,"excerpt":6,"content":263,"slug":264,"createdAt":265,"updatedAt":265,"author":266,"categories":267,"tags":271,"image":283},"胰島素 — 「致肥荷爾蒙」","\n\n近年香港人對營養學的認知加深，明白了原形食物如蕃薯、芋頭，以及粗糧如全穀包、糙米，遠較白糖、白米、白麫粉等精煉澱粉質健康。究其原因，是這些精製碳水化合物可在幾分鐘內消化成單糖，其後迅速吸收入血液，使血糖濃度由80mg\u002Fdl激增至155mg\u002Fdl以上😱。血糖激增，逼使胰臟加速製造過量胰島素，將血糖引導至細胞。\n\n低澱粉質飲食一直為在自然療法界赫赫有名的袁維康醫生稱頌。袁醫生為牙醫醫學士、自然醫學博士及中醫醫學博士，醫見獨到精闢，故在此特別引述其見解。袁醫生認為，若非體力勞動，大部份精製澱粉質的糖分會在肝臟及脂肪組織轉化為脂肪，以防止這些糖分在尿液流失。因此，胰島素被稱為「致肥荷爾蒙」，進食愈多碳水化合物，便製造愈多脂肪，愈易肥胖😣。\n\n「胰島素製脂」是人類自古以來的重要保命功能，幫助身體短時間內將稍為多出來的糖分，迅速以脂肪形式儲存，以便度過將來的飢荒日子。但時移世易，城市人的食物質量與祖先的已大相徑庭；若不了解「胰島素製脂」法則，遠離令人上癮的精製澱粉質，一切減肥方法都只是徒然😉。\n\n本月15日上午11時，Empower創辦人之一兼ACE美國運動協會認證健康教練Joyce Wong將與大家分享《肥胖與糖尿》，讓大家進一步了解糖胖症，並講解如何有效運用逾50年歷史的HP纖體方法，改善糖尿病甚至停針停藥🤩。\n\n稍後我們也會舉辦讀書會📘，一起研讀袁維康醫生所著的《營養謬誤》，糾正眾多營養誤區，包括高膽固醇會阻塞血管而引致心臟病，高鈣食物可預防骨質疏鬆，吃鹹的就會血壓高🤨......具體日期將不日公佈，敬請留意，謝謝！\n","insulin-overweight-220409","2022-04-09T00:00:00.000Z",{"data":6},{"data":268},[269],{"id":20,"attributes":270},{"slug":22,"name":23,"description":6,"createdAt":24,"updatedAt":24},{"data":272},[273,278],{"id":274,"attributes":275},12,{"name":276,"createdAt":277,"updatedAt":277},"胰島素","2023-02-07T08:03:09.351Z",{"id":279,"attributes":280},149,{"name":281,"createdAt":282,"updatedAt":282},"荷爾蒙","2023-02-07T08:03:10.895Z",{"data":6},{"id":285,"attributes":286},809,{"title":287,"excerpt":6,"content":288,"slug":289,"createdAt":290,"updatedAt":290,"author":291,"categories":292,"tags":296,"image":305},"發夢好處多","\n\n今日3月18日，是世界睡眠日😴。不知道昨晚大家睡了多久呢？還記得昨晚的夢境嗎？\n\n大家有否想過為甚麼我們會發夢？原來發夢對我們非常重要呢！\n\n夢境通常都是視覺或動作為主；然而，為何我們不會把夢境中的行為動作表現出來🤔？原來當我們進入發夢階段前的數秒，腦幹會發出訊號並經由脊髓往下傳送，讓肌肉完全失去張力和強度，令其對於來自腦部的命令完全沒有反應。身體在發夢階段會令隨意肌完全沒有張力，亦即處於完全癱瘓狀態；但身體的不隨意肌，例如控制呼吸、心跳等功能的肌肉則持續運作。這樣的機制正好防止我們把夢中的經歷表現出來。大腦讓身體癱瘓，我們的心智才能夠無拘無束地安全做夢😌。\n\n那麼，為何身體要花那麼多的精力來讓我們發夢？\n\n睡眠分5️⃣個階段，每個階段均有其重要性。\n\n我們所指的發夢階段大多處於「快速動眼睡眠」階段，這階段的睡眠有助於提升辨認情緒訊號的能力及創造力。\n\n快速動眼睡眠能使我們更敏鋭地辨認並理解別人的情緒訊號，提升我們冷靜掌握情緒的能力。簡單來說，即是提升情緒智商EQ。大家有否發現睡眠不足時，情緒會變得不太冷靜呢🤯？\n\n大家有否試過遇到解決不了的疑難，睡一覺醒來，卻頓時有了解決方案？原來大腦在快速動眼睡眠階段，會將腦中的訊息連結起來，把本來沒關連的訊息作出整合，有助提升我們的創造力。\n\n一般來說，充足睡眠需要8小時。若只有6小時的睡眠時間，表面看來只是缺少了2小時，但實際卻不是如此計算。我們的快速動眼睡眠階段大部分都處於睡眠的最後階段，即清晨時分。少睡2小時，就會損失60%至90%的快速動眼睡眠，即是少發了夢，換句話說，即是負面地影響了我們的情緒及創造力啊！\n\n祝大家今晚睡個好覺，發個好夢！😴","sleep-dream-220318","2022-03-18T00:00:00.000Z",{"data":6},{"data":293},[294],{"id":20,"attributes":295},{"slug":22,"name":23,"description":6,"createdAt":24,"updatedAt":24},{"data":297},[298,300],{"id":203,"attributes":299},{"name":205,"createdAt":206,"updatedAt":206},{"id":301,"attributes":302},156,{"name":303,"createdAt":304,"updatedAt":304},"發夢","2023-02-07T08:03:10.937Z",{"data":6},{"id":307,"attributes":308},810,{"title":309,"excerpt":6,"content":310,"slug":311,"createdAt":312,"updatedAt":312,"author":313,"categories":314,"tags":318,"image":325},"營養標籤 求支上上籤","\n\n疫情下多買了預先包裝食品，大家懂得閱讀營養標籤嗎？🧐\n\n營養標籤於2010年7月1日推出，是有系統地標示食品營養資料的方法，當中必須列出能量及7種指定標示營養素 -- 總脂肪、飽和脂肪、反式脂肪、碳水化合物、糖、蛋白質、鈉，即俗稱「1+7」。\n\n能量以千卡或千焦標示（1千卡約=4.2千焦）。1克碳水化合物或1克蛋白質提供4千卡能量，1克脂肪提供9千卡能量。低體力活動量的男士和女士每天分別需要2400千卡和2100千卡能量；能量過多會引致肥胖，也會增加患上心臟病、糖尿病的風險😖。\n\n碳水化合物包括糖。根據世界衛生組織，糖的攝取量應控制在每日總能量攝取的10%以內，如控制在5%即25克糖更佳；25克糖已相當於5粒方糖😅。一杯台式的抹茶拿鐵含14克糖，紙包裝檸檬茶的含糖量也高達34克，大家切勿掉以輕心。\n\n飽和脂肪增加低密度脂蛋白，攝入量應少於每日所需總能量的10%（約22克）；反式脂肪是對心臟最壞的脂肪，使壞膽固醇增加的同時，也減少高密度脂蛋白，攝入量應少於每日所需總能量的1%（約2.2克）。吃含部分氫化油（partially hydrogenated oil）的食物須格外留神，例如人造牛油、烘焙食品及油炸食品。\n\n蛋白質是非常重要的營養素，幫助身體生長和復元，製造酵素和荷爾蒙，可謂沒有蛋白質就沒有生命。\n\n鈉的每天攝取量應限制在2000毫克。鈉水平偏高時，腎臟有時候未能排出足夠的鈉，令鈉和體液積存在體內，可致高血壓。加工食品、鹽醃食物，甚至日式手打烏冬的鈉含量往往較高，必須注意。\n\n消費者須小心魚目混珠，「不含味精」、「含電解質」、「不加甜味」、「少甜」、「無添加糖」均不屬於營養聲稱。因此，少甜不等於低糖，每100克少甜食物或100毫升少甜飲料可以含多於5克糖呢。","nutrition-label-220305","2022-03-05T00:00:00.000Z",{"data":6},{"data":315},[316],{"id":20,"attributes":317},{"slug":22,"name":23,"description":6,"createdAt":24,"updatedAt":24},{"data":319},[320],{"id":321,"attributes":322},153,{"name":323,"createdAt":324,"updatedAt":324},"營養標籤","2023-02-07T08:03:10.922Z",{"data":6},{"pagination":327},{"page":20,"pageSize":274,"pageCount":328,"total":329},9,100],"uses":{"dependencies":["http://localhost:1337/api/posts?sort=createdAt%3Adesc&populate[author]=true&populate[categories]=true&populate[tags]=true&populate[image]=true&pagination[page]=1&pagination[pageSize]=12"],"params":["page","category"]}}]}