{"type":"data","nodes":[{"type":"data","data":[{"categories":1,"event_categories":27},[2,9,15,21],{"id":3,"attributes":4},1,{"slug":5,"name":6,"description":7,"createdAt":8,"updatedAt":8},"nutrition","營養隨筆",null,"2023-02-12T02:39:02.691Z",{"id":10,"attributes":11},2,{"slug":12,"name":13,"description":7,"createdAt":14,"updatedAt":14},"reflection","感悟隨筆","2023-02-12T02:39:02.692Z",{"id":16,"attributes":17},3,{"slug":18,"name":19,"description":7,"createdAt":20,"updatedAt":20},"fitness","運動筆記","2023-02-12T02:39:02.697Z",{"id":22,"attributes":23},4,{"slug":24,"name":25,"description":7,"createdAt":26,"updatedAt":26},"spiritual","心靈勵志","2023-02-12T02:39:02.698Z",[28,33,38,43,47,52],{"id":3,"attributes":29},{"name":30,"slug":31,"description":7,"createdAt":32,"updatedAt":32},"讀書會","book-sharing","2023-02-12T02:38:55.939Z",{"id":16,"attributes":34},{"name":35,"slug":36,"description":7,"createdAt":37,"updatedAt":37},"文化導賞","cultural","2023-02-12T02:38:55.943Z",{"id":22,"attributes":39},{"name":40,"slug":41,"description":7,"createdAt":42,"updatedAt":42},"遊山玩水","hiking","2023-02-12T02:38:55.946Z",{"id":44,"attributes":45},5,{"name":46,"slug":18,"description":7,"createdAt":42,"updatedAt":42},"健體運動",{"id":48,"attributes":49},6,{"name":50,"slug":5,"description":7,"createdAt":51,"updatedAt":51},"活學營養","2023-02-12T02:38:55.947Z",{"id":10,"attributes":53},{"name":54,"slug":55,"description":7,"createdAt":56,"updatedAt":57},"名人面對面","be-our-guest","2023-02-12T02:38:55.942Z","2023-03-08T13:16:12.875Z"],"uses":{"dependencies":["http://127.0.0.1:1337/api/categories?","http://127.0.0.1:1337/api/event-categories?"]},"slash":"always"},{"type":"data","data":[{"data":1,"meta":356},[2,32,56,91,121,159,182,212,235,260,304,336],{"id":3,"attributes":4},178,{"createdAt":5,"title":6,"excerpt":7,"content":8,"slug":9,"updatedAt":5,"author":10,"categories":11,"tags":19,"image":31},"2020-10-02T00:00:00.000Z","兒童應攝取多少鐵？",null,"\n\n上星期＜活學營養＞分享了兒童缺鐵缺血的表癥，以及缺鐵為何有機會導致體內鉛超標😱。今日我們講解兒童應攝取多少鐵，並如何攝取😉。\n\n出生至6個月大BB，每日建議攝取7毫克鐵，7個月至9歲的鐵質建議攝取量為10毫克，10至18歲為15毫克。\n\n100克的菠菜或扁豆含3克鐡，85克紅燒牛肉或鯖魚含2克鐵，1隻雞蛋含1克鐡。因此每日都攝取足夠鐵質，似乎並不容易，天然有機營養素就可協助補充🤗。\n\n鐵在體內儲存和運用的原理，就好像我們有一家經營鐵的店舖，櫃台每賣出一塊鐵，就從倉庫拿出一塊擺上。櫃台上擺的鐵相當於我們日常消耗的鐡，倉庫相當於體內鐵的庫存。如果倉庫裡有存貨，就可保證櫃台上擺得滿，能滿足我的日常所需；如果櫃台擺不滿，就表示倉庫裡一塊鐵也沒有，相當於貧血了😖。補鐵後，先在櫃台擺；擺滿後，身體就不受影響。這時候補貨不能停，因為只補了櫃台，庫存是零，所以必須持續地補，把庫存補滿👍🏻。\n\n給缺鐵缺血的孩子補鐵以後，大約3周，會看到面色變紅潤，不再那麼疲倦💪🏻💪🏻。這時候要將他體內鐵的儲存填滿，同時供應充足的鐵供日常使用，這需要半年以上、每日足量地補鐵。所以家長們發現孩子身體改善以後，也必須繼續規律地補鐵，方能令孩子身體健壯，不會前功盡廢。","post201002",{"data":7},{"data":12},[13],{"id":14,"attributes":15},1,{"slug":16,"name":17,"description":7,"createdAt":18,"updatedAt":18},"nutrition","營養隨筆","2023-02-12T02:39:02.691Z",{"data":20},[21,26],{"id":22,"attributes":23},199,{"name":24,"createdAt":25,"updatedAt":25},"兒童營養","2023-02-12T03:32:01.381Z",{"id":27,"attributes":28},191,{"name":29,"createdAt":30,"updatedAt":30},"鐵","2023-02-12T03:32:01.376Z",{"data":7},{"id":33,"attributes":34},188,{"createdAt":35,"title":36,"excerpt":7,"content":37,"slug":38,"updatedAt":35,"author":39,"categories":40,"tags":44,"image":55},"2020-09-19T00:00:00.000Z","兒童營養：缺鐵與貧血","\n\n兒童在不同發育階段，對各種營養的需求量都很大，因為不僅要滿足日常新陳代謝和能量消耗所需，而且還要滿足整個生長發育過程，方能從一個很小的個體👶🏻，長大成人。\n\n缺鐵與貧血是其中一個常見的兒童健康問題😯。據統計在發展中國家和工業化國家，分別有50%以上和30%-40%的兒童和孕婦有貧血的情況。最常見的貧血是缺鐵性貧血，佔所有貧血症的83%-90%，影響全球大約1\u002F4女性和兒童😖。\n\n兒童缺鐵缺血的表癥包括：\u003Cbr\u003E\n1️⃣ 面色較蠟黃或土黃，甚至帶有一點點淡淡的白斑\u003Cbr\u003E\n2️⃣ 異食癖，例如愛咬指甲\u003Cbr\u003E\n3️⃣ 常感疲乏倦怠，愛睡覺，上課時注意力難以集中\u003Cbr\u003E\n4️⃣ 免疫力下降，經常生病😷\n\n隨著缺鐵缺血愈發嚴重，體內的鉛有機會超標😱。為甚麼呢？我們吃的食物包括鐵和其他營養素都在腸道裡，要把食物裡的鐵吸收到血液來，要有一個運轉的系統。這系統好比一個小車，專門運轉營養素。如果鐵是方形，我要將鐵運進來，就要有一個方形的小車，把鐵坐在上面，我一拉，把它拉進來，我就吸收了鐵。食物裡沒有足量的鐵時，這小車就空了，也是方形的鉛趁機坐了上去，我一拉，鉛就進來了。故此當兒童缺鐵久了，日積月累，體內的鉛就容易超標。\n\n要減少鉛的吸收，膳食上必須多補充鐵，用更多的鐡佔住運轉的小車，阻止鉛的吸收。至於已經吸收進來的鉛，可以藉補充維他命C，促進體內鉛的排出，同時幫助鐵的吸收，故此⭐鐵素+維他命C是兒童營養的黃金組合⭐。\n\n下星期＜活學營養＞將分享由BB至18歲的每日建議鐵質攝取量，如何補鐵，以及補多久才見效，萬勿錯過！🤗\n","post200919",{"data":7},{"data":41},[42],{"id":14,"attributes":43},{"slug":16,"name":17,"description":7,"createdAt":18,"updatedAt":18},{"data":45},[46,48,53],{"id":27,"attributes":47},{"name":29,"createdAt":30,"updatedAt":30},{"id":49,"attributes":50},198,{"name":51,"createdAt":52,"updatedAt":52},"貧血","2023-02-12T03:32:01.380Z",{"id":22,"attributes":54},{"name":24,"createdAt":25,"updatedAt":25},{"data":7},{"id":57,"attributes":58},175,{"createdAt":59,"title":60,"excerpt":7,"content":61,"slug":62,"updatedAt":59,"author":63,"categories":64,"tags":68,"image":90},"2020-09-11T00:00:00.000Z","你今日有飲咖啡提神嗎？","\n\n會否已習慣每天都必需一杯甚至兩杯或以上的咖啡，才覺得精神奕奕？\n\n的確，咖啡因對我們的中樞神經系統有興奮作用，能令我們情緒亢奮，思路更清晰敏捷。但切記不要空腹飲用，而且成人每天的咖啡因攝取量不要超過400毫克啊，即是大約兩杯咖啡或奶茶。\n\n🤔歸根究底，咖啡為何能提神呢？\n\n我們工作或活動時，身體逐漸累積疲勞的感覺，大腦釋放神經傳導物質 -- 腺苷Adenosine；當腺苷與身體的受體（接收器）結合後，便會產生睡意。當累積到一定睡意時，便會睡眠了😴。\n\n咖啡因的結構與腺苷相似，咖啡因會取代原本腺苷與受體的作用，阻截大腦產生睡意，故此咖啡並非為我們提神，只是讓我們無法睡著而已🤨。\n\n人體代謝咖啡因的速度因人異議，一般來說，咖啡因的半衰期大約是3小時，大約會在人體停留6至14小時，所以建議大家睡眠前6小時避免攝取咖啡因，否則會影響我們的睡眠質素呢！\n\n其實，身體有睡意是在提示我們要休息。睡眠充足，我們自然會活力充沛，精神奕奕😄，根本毋需依賴咖啡因提神！當然，若是餐後飯氣攻心而產生睡意，則可能是體內維他命B不足，進而影響交感神經及副交感神經的運作，導致我們感覺疲累😔。\n\n大家若想了解更多，歡迎瀏覽Empower YouTube 頻道的「15分鐘mini talk：咖啡因是提神還是吊命」 https:\u002F\u002Fyoutu.be\u002FXRM0UJ17QFw 。","post200911",{"data":7},{"data":65},[66],{"id":14,"attributes":67},{"slug":16,"name":17,"description":7,"createdAt":18,"updatedAt":18},{"data":69},[70,75,80,85],{"id":71,"attributes":72},215,{"name":73,"createdAt":74,"updatedAt":74},"咖啡","2023-02-12T03:32:01.391Z",{"id":76,"attributes":77},185,{"name":78,"createdAt":79,"updatedAt":79},"精神","2023-02-12T03:32:01.374Z",{"id":81,"attributes":82},167,{"name":83,"createdAt":84,"updatedAt":84},"維他命B","2023-02-12T03:32:01.366Z",{"id":86,"attributes":87},132,{"name":88,"createdAt":89,"updatedAt":89},"交感神經","2023-02-12T03:32:01.324Z",{"data":7},{"id":92,"attributes":93},183,{"createdAt":94,"title":95,"excerpt":7,"content":96,"slug":97,"updatedAt":94,"author":98,"categories":99,"tags":103,"image":120},"2020-08-28T00:00:00.000Z","肝繼續保","\n\n正常的肝，摸上去如嘴唇般柔軟；若有脂肪肝或肝炎，肝有一點腫硬，像鼻尖；若有肝癌或肝硬化，肝就會變得堅硬如額頭甚至石頭😖。肝的硬化過程一般持續15至20年，甚至30年。\n\n早前我們探討了飲食不當、熬夜、壓力等皆會傷肝，今次主要論及化學性傷肝因素，包括酒精、藥物、苯並芘、黃曲霉毒素、殘留農藥、亞硝酸鹽、丙烯酰胺及四氯化碳。這些毒素進入人體後，產生大量自由基，大量消耗體內抗氧化劑，致使肝細胞產生炎症反應，引發肝細胞凋亡😨，繼而導致一系列肝臟疾病，包括脂脂肪、肝炎、肝硬化以至肝癌。（如欲了解上述化學因素對肝細胞造成的具體損害，請收看＜營一世：肝繼續保 不忍亂嚟＞mini talk錄播🤗 https:\u002F\u002Fyoutu.be\u002FMS1Db78BAn4 ）\n\n要全方位、點對點切斷這些化學元素對肝的損害，兩類草本營養可幫上忙💪🏻💪🏻：\n一是乳薊果：逾千年來為草本療法採用，研究發現當中的有效成分水飛薊素（Silymarin）可以令肝臟再生速度加快至少一倍，助受損的肝臟細胞自行修復；具強大抗氧化能力，增加分泌穀胱甘肽，保護肝臟細胞免受自由基破壞，效力遠勝於維他命E；更可抑制酵素系統產生的毒素，減少毒素對肝細胞及DNA的破壞。\n\n二是甘草：所謂“見肝之病，知肝傳脾，當先實脾。” 現代藥理學發現甘草酸除了可滋陰健脾外，亦可以保護肝細胞膜，促進肝臟組織再生和功能恢復；同時抑制乙肝病毒破壞肝細胞，並協助肝臟排毒，減少慢性肝炎發病率。\n\n配合上星期《婦科百病由肝治》提及的優質蛋白質、維他命B群、維他命C及薑黃，就可以大大有助肝臟清除自由基，增強抗氧化劑活性，抑制炎症反應，全面改善肝功能！😀當然若能做肝膽排毒，修復將更為徹底。\n","post200828",{"data":7},{"data":100},[101],{"id":14,"attributes":102},{"slug":16,"name":17,"description":7,"createdAt":18,"updatedAt":18},{"data":104},[105,110,115],{"id":106,"attributes":107},170,{"name":108,"createdAt":109,"updatedAt":109},"肝","2023-02-12T03:32:01.367Z",{"id":111,"attributes":112},195,{"name":113,"createdAt":114,"updatedAt":114},"乳薊果","2023-02-12T03:32:01.379Z",{"id":116,"attributes":117},204,{"name":118,"createdAt":119,"updatedAt":119},"甘草","2023-02-12T03:32:01.388Z",{"data":7},{"id":122,"attributes":123},182,{"createdAt":124,"title":125,"excerpt":7,"content":126,"slug":127,"updatedAt":124,"author":128,"categories":129,"tags":133,"image":158},"2020-08-15T00:00:00.000Z","婦科百病由肝治？","\n\n所謂“女子以肝為先天”，肝經循小腹及陰部，經子宮再到乳房，與子宮相關的月經、懷孕，以至生產，都與肝經相關；而女性常見的壓力症候群、失眠、動輒生氣等精神情緒問題，也多半與肝經不順暢有關。中醫有「怒則傷肝」之說，情緒起伏過大，很容易影響肝臟，進而影響每個月的生理周期，甚至引致卵巢囊腫、子宮肌瘤、乳房腫塊，以至甲狀腺亢進等疾病😱。\n\n西方自然醫學發現大部分的生殖系統疾病，皆由不當的淋巴排泄引起。消化系統（包括肝、脾、胰、胃和腸）所有器官的淋巴液均通過胸導管(thoracic duct)排出。若肝膽健康不佳，例如因肝膽系統結石而影響食物的消化吸收，胸導管這個全身最大的淋巴管就會嚴重受阻，繼而影響生殖系統。若女性的骨盆區的淋巴排泄受影響，會造成免疫力低下、經前綜合症、更年期症狀、盆腔炎症、子宮頸炎、卵巢腫瘤、性欲降低以至不孕；胸導管阻塞則導致胸部的淋巴阻塞，滯留的有毒廢棄物可導致發炎、腫塊、乳腺阻塞。\n\n要肝臟健康，維他命B群必不可少：B1分解糖份，B2代謝脂肪，B6促進糖份、脂肪及蛋白質的代謝，B12具造血功能；維他命B群對代謝酒精更是不可或缺。惟現代人甚少吃動物肝臟、小麥胚芽、米糠（糙米）等富含維他命B的食物，大多“低B”😅，故此在家吃飯可刻意多吃糙米，也可透過天然有機的維他命B群多加補充。\n\n此外，蛋白質是肝細胞再生的必需原料，並防止脂肪在肝內堆積。然而，蛋白質在體內代謝過程會產生代謝物，對肝臟造成負擔🙁，故必須攝取100%的優質蛋白質。\n\n具消炎及解毒功效的維他命C，有助保護肝組織免受氧化；配合薑黃，研究發現不但能疏泄肝經，更可提升肝臟解毒能力，修復並賦活肝細胞💪🏻💪🏻。\n\n如欲徹底為肝臟排毒，可於本周日8月16日或下周三19日參加《活學營養：肝膽排毒》線上講座，了解這個具5,000年歴史的自然排毒古方，詳情歡迎Inbox私訊我們查詢🤗。","post200815",{"data":7},{"data":130},[131],{"id":14,"attributes":132},{"slug":16,"name":17,"description":7,"createdAt":18,"updatedAt":18},{"data":134},[135,140,142,147,151,153],{"id":136,"attributes":137},193,{"name":138,"createdAt":139,"updatedAt":139},"婦科","2023-02-12T03:32:01.377Z",{"id":106,"attributes":141},{"name":108,"createdAt":109,"updatedAt":109},{"id":143,"attributes":144},194,{"name":145,"createdAt":146,"updatedAt":146},"生殖系統","2023-02-12T03:32:01.378Z",{"id":148,"attributes":149},196,{"name":150,"createdAt":114,"updatedAt":114},"淋巴",{"id":81,"attributes":152},{"name":83,"createdAt":84,"updatedAt":84},{"id":154,"attributes":155},144,{"name":156,"createdAt":157,"updatedAt":157},"蛋白質","2023-02-12T03:32:01.351Z",{"data":7},{"id":160,"attributes":161},180,{"createdAt":162,"title":163,"excerpt":7,"content":164,"slug":165,"updatedAt":162,"author":166,"categories":167,"tags":171,"image":181},"2020-08-09T00:00:00.000Z","你夠鐵嗎？","\n\n天天沒精打采，提不起勁，原來跟鐵質有關！\n全球有約20億人（30%人口）患有貧血，而導致貧血的最常見原因是缺乏鐵質。\n\n鐵質負責製造紅血球內的血紅素，繼而把氧氣供應給全身細胞；尤其是女士們，每月均有所流失，更需要特別注意鐵質的補充呢！\n\n鐵質攝取不足，會影響細胞的氧氣供給，使身體容易疲倦；此外也會令人容易患上缺鐵性貧血，癥狀包括疲倦、暈眩、面色蒼白、心跳加速、難以集中精神，以及工作及與運動能力降低。\n鐵質的食物來源主要分為動物性的血基鐵質（Heme Iron）及植物性的非血基質鐵（Non-Heme Iron）。血基鐵質的吸收率約為20~30%，而非血基質鐵的吸收率僅約5%，故動物性來源的鐵吸收率為植物性的3倍。\n蠔、紅豆、芝麻、黑木耳、牛肉、羊肉等均含較豐富的鐵質。大家留意進食時，若配合維他命C的食物同時攝取，將有助促進鐵的吸收呢！相反，茶、咖啡、牛奶卻會阻礙鐵質的吸收。一杯茶大約會降低64％的鐵質吸收率，一杯咖啡則會令鐵的吸收率降低39％。所以，餐飲點一杯熱檸檬水，對吸收鐵質有幫助呢！\n當我們鐵質足夠，人就會精神奕奕！","post200809",{"data":7},{"data":168},[169],{"id":14,"attributes":170},{"slug":16,"name":17,"description":7,"createdAt":18,"updatedAt":18},{"data":172},[173,175,179],{"id":27,"attributes":174},{"name":29,"createdAt":30,"updatedAt":30},{"id":176,"attributes":177},192,{"name":178,"createdAt":139,"updatedAt":139},"血紅素",{"id":76,"attributes":180},{"name":78,"createdAt":79,"updatedAt":79},{"data":7},{"id":183,"attributes":184},172,{"createdAt":185,"title":186,"excerpt":7,"content":187,"slug":188,"updatedAt":185,"author":189,"categories":190,"tags":194,"image":211},"2020-07-24T00:00:00.000Z","胃氣不再","\n\n胃脹胃氣，成因可分為三方面：\n一是飲食因素，包括進食難消化、過酸、油膩、辛辣刺激的食物，又或進食可產生較多氣體的食物，例如蕃薯、芋頭、乳製品。食無定時，吃得過飽或太快，嚼口香糖，咀嚼時說話，都會容易產生胃氣。\n\n二是精神因素，生活或工作壓力大，致使精神緊張，直接影響胃腸道功能。\n\n三與體質有關，例如小腸細菌過度生長可導致胃脹、腹脹和腹瀉等；便秘可能使氣體難以通過和排出；胃部受幽門螺旋菌感染也是原因。\n\n要養胃，必須攝取足夠且容易消化的蛋白質，修補胃黏膜之餘，又不會對胃造成負擔。因此，植物質蛋白質是較好選擇，100%吸收的全植物蛋白質粉或氨基酸粉更佳。\n\n此外，胡蘿蔔素參與胃內上皮組織的正常生長代謝，對胃黏膜的毛細血管和細胞具保護作用，且能促進黏膜癒合，故此對胃潰瘍患者尤具功效。南瓜、紅蘿蔔、杏等橙紅色蔬果，以及羽衣甘藍、西蘭花、菠菜等深綠色蔬菜，均富含胡蘿蔔素。由於胡蘿蔔素是脂溶性維他命，用橄欖油以小至中火炒，吸收率較水煮要好。\n\n此外，大家應有留意Empower定期舉辦《活學營養：肝膽排毒》講座，肝膽排毒對緩解胃部不適也有莫大幫助。膽結石和持續的消化問題，導致膽汁和膽汁鹽回流到胃部，大大改變胃液的成分和所產生的黏液量，容易引發胃炎。肝膽結石清除後，大部份的胃部疾病皆能痊癒。","post200724",{"data":7},{"data":191},[192],{"id":14,"attributes":193},{"slug":16,"name":17,"description":7,"createdAt":18,"updatedAt":18},{"data":195},[196,200,204,206],{"id":197,"attributes":198},206,{"name":199,"createdAt":119,"updatedAt":119},"胃氣",{"id":201,"attributes":202},190,{"name":203,"createdAt":30,"updatedAt":30},"幽門螺旋菌",{"id":154,"attributes":205},{"name":156,"createdAt":157,"updatedAt":157},{"id":207,"attributes":208},184,{"name":209,"createdAt":210,"updatedAt":210},"胡蘿蔔素","2023-02-12T03:32:01.373Z",{"data":7},{"id":213,"attributes":214},179,{"createdAt":215,"title":216,"excerpt":7,"content":217,"slug":218,"updatedAt":215,"author":219,"categories":220,"tags":224,"image":234},"2020-07-17T00:00:00.000Z","頭皮，NO WAY！","\n\n頭皮屑是皮膚代謝的產物，男女老幼皆有。經正常角質化脫落的皮膚細胞透明且細小，在強光下才顯現；若頭皮細胞過度代謝，角質化不完全，頭皮屑則大顆且清晰可見😖。\n\n頭皮屑的成因林林總總，包括：\u003Cbr\u003E\n🔶皮脂腺分泌過多或過少\u003Cbr\u003E\n🔶睡眠不足\u003Cbr\u003E\n🔶壓力大\u003Cbr\u003E\n🔶季節轉換或氣候變化\u003Cbr\u003E\n🔶過度洗頭\u003Cbr\u003E\n🔶使用洗髮水不當\u003Cbr\u003E\n🔶皮膚疾病，例如脂漏性皮膚炎、乾癬（通常伴隨頭皮紅、頭皮癢等發炎症狀）\u003Cbr\u003E\n🔶飲食不當，例如嗜吃辛辣油膩食品、營養不足\n\n內調方面，除避免煎炸及刺激性食品外，可多補充維他命B群👍🏻😀。體內維他命B不足將影響正常新陳代謝，令頭皮表層的油脂和鱗屑增多，出現大量頭皮屑；缺乏維化命B也容易引起脂漏性皮膚炎。維他命B屬水溶性，在炎炎夏日出汗或長處空調地方均容易流失，必須定時補充。之前多篇活學營養文章已提及何種食物含豐富維他命B，在此不贅😉。\n\n此外，胡蘿蔔素能保持頭皮中的菌群平衡，避免頭皮因油脂分泌旺盛而令寄生的細菌過度繁殖😱，致使頭皮屑越來越多。缺乏胡蘿蔔素，頭皮的新陳代謝也會過快，形成頭皮屑過多。胡蘿蔔、南瓜、芒果等橙色的蔬果，以及羽衣甘藍、菠菜、西蘭花等深綠色菜蔬均富含胡蘿蔔素😊。","post200717",{"data":7},{"data":221},[222],{"id":14,"attributes":223},{"slug":16,"name":17,"description":7,"createdAt":18,"updatedAt":18},{"data":225},[226,230,232],{"id":227,"attributes":228},205,{"name":229,"createdAt":119,"updatedAt":119},"頭皮",{"id":207,"attributes":231},{"name":209,"createdAt":210,"updatedAt":210},{"id":81,"attributes":233},{"name":83,"createdAt":84,"updatedAt":84},{"data":7},{"id":207,"attributes":236},{"createdAt":237,"title":238,"excerpt":7,"content":239,"slug":240,"updatedAt":237,"author":241,"categories":242,"tags":246,"image":259},"2020-07-13T00:00:00.000Z","一日之計在於晨","\n\n早餐、午餐甚至晚飯後，都會不由自主瞌眼瞓😴？原來我們的精神狀態與血糖息息相關，只要我們能夠調整餐膳配撘，就能在該要精神奕奕的時間跟睡魔😈說再見。\n\n所謂一日之計在於晨☀️，若能在胃經開動時（即早上7-9時），吃一份優質早餐，肯定整個早上也精神飽滿😄！相反，若早上只是吃一個麵包、蛋糕、茶記ABC餐甚至一盅兩件，這些高油、高脂、低纖維、低蛋白質的餐膳，肯定在餐後2小時左右便睡魔急召💤。\n\n餐膳欠缺纖維，醣份會迅速進入血液，令血糖迅速飆升🚀，消化過後血糖即快速下降。血糖上升時，我們會精神為之一振；血糖下降時，我們便會覺得疲累😪。所以大家總是吃了糖果後，便會感覺精神，但一會又開始感到疲累，又想再吃糖果。纖維幫助我們包裹醣份，使血糖緩慢上升，這樣精神狀態也能保持穩定。\n\n蛋白質🥚亦有助我們穩定血糖。根據美國密蘇里大學(University of Missouri)一項針對18~55歲女性的研究，高蛋白質的早餐更能控制女性體內的血糖值。中國營養學會建議早餐應攝取整天所需蛋白質的30%，即是約21克蛋白質。\n\n一份優質的早餐，應包含高蛋白質及高纖維，讓我們整天活力充沛，精神奕奕！💪","post200713",{"data":7},{"data":243},[244],{"id":14,"attributes":245},{"slug":16,"name":17,"description":7,"createdAt":18,"updatedAt":18},{"data":247},[248,251,253,255],{"id":92,"attributes":249},{"name":250,"createdAt":210,"updatedAt":210},"纖維",{"id":154,"attributes":252},{"name":156,"createdAt":157,"updatedAt":157},{"id":76,"attributes":254},{"name":78,"createdAt":79,"updatedAt":79},{"id":256,"attributes":257},186,{"name":258,"createdAt":79,"updatedAt":79},"血糖",{"data":7},{"id":261,"attributes":262},177,{"createdAt":263,"title":264,"excerpt":7,"content":265,"slug":266,"updatedAt":263,"author":267,"categories":268,"tags":272,"image":303},"2020-06-26T00:00:00.000Z","滋養眼睛 拒絕乾眼症","\n\n香港人乾眼症狀十分普遍。奧比斯聯同香港眼科學會及香港防盲協會於2018年進行的調查顯示，30%受訪者被界定為有嚴重乾眼症，當中76%為白領，且愈趨年輕化😖。\n\n造成乾眼症的原因廣泛，包括：\u003Cbr\u003E\n💡個人健康狀況（例如罹患乾燥症，女性過了更年期），淚水分泌減少\u003Cbr\u003E\n💡環境污染\u003Cbr\u003E\n💡長期配戴隱形眼鏡，或曾進行激光矯視手術\u003Cbr\u003E\n💡經常待在冷氣房間，空氣乾燥\u003Cbr\u003E\n💡長時間盯著電腦與手機，眨眼較少\u003Cbr\u003E\n💡長期服用降血壓藥、抗抑鬱藥等藥物\n\n眼乾人士為求方便，或會到藥房購買眼藥水使用，惟部份收紅筋的眼藥水的成分屬血管收縮劑，長期使用，眼睛只會越用越乾😰；另含防腐劑的人工淚水也容易引致敏感，必須慎用。\n\n要滋潤眼睛，舒緩或預防眼乾，可多補充胡蘿蔔素🥕。β胡蘿蔔素可以在體內轉化成維他命A，而維他命A號稱「眼睛的維他命」，是構成眼睛感光物質的重要原料。人體的維他命A充足，能有效預防夜盲症、乾眼症、角膜軟化症，並預防甚至改善視網膜黃斑部病變等眼部疾病，保持眼角膜的潤滑及透明度，建構眼睛的「保護膜」💪🏻。\n\n此外，視網膜感光細胞膜的成分50%以上是DHA，在眼睛中扮演極重要的抗氧化及保護作用。DHA在黃斑部具抗發炎及抗氧化作用，可抵抗光線對黃斑部的傷害，減少黃斑部病變；同時抑制眼睛表面發炎物產生，舒緩眼乾而導致的發炎不適症狀，並增加淚膜穩定度及基礎淚液量😉。DHA與維他命A亦具協同作用，能幫助身體吸收維他命A，相輔相成，事半功倍，故此飲食上應多攝取Omega-3奧米加三脂肪酸。","post200626",{"data":7},{"data":269},[270],{"id":14,"attributes":271},{"slug":16,"name":17,"description":7,"createdAt":18,"updatedAt":18},{"data":273},[274,279,284,289,293,297,299],{"id":275,"attributes":276},140,{"name":277,"createdAt":278,"updatedAt":278},"眼睛","2023-02-12T03:32:01.349Z",{"id":280,"attributes":281},176,{"name":282,"createdAt":283,"updatedAt":283},"乾眼症","2023-02-12T03:32:01.370Z",{"id":285,"attributes":286},207,{"name":287,"createdAt":288,"updatedAt":288},"DHA","2023-02-12T03:32:01.389Z",{"id":33,"attributes":290},{"name":291,"createdAt":292,"updatedAt":292},"黃斑","2023-02-12T03:32:01.375Z",{"id":122,"attributes":294},{"name":295,"createdAt":296,"updatedAt":296},"維他命A","2023-02-12T03:32:01.372Z",{"id":207,"attributes":298},{"name":209,"createdAt":210,"updatedAt":210},{"id":300,"attributes":301},169,{"name":302,"createdAt":84,"updatedAt":84},"奧米加三",{"data":7},{"id":106,"attributes":305},{"createdAt":306,"title":307,"excerpt":7,"content":308,"slug":309,"updatedAt":306,"author":310,"categories":311,"tags":315,"image":335},"2020-06-19T00:00:00.000Z","告別惱人油脂粒","\n\n皮膚上的油脂粒或脂肪粒是甚麼，人言人殊。皮膚科醫生認為沒油脂粒這回事，稱這些粒粒為汗管瘤或粟粒腫。汗管瘤約3至4毫米，是小汗腺發育不完全而在皮膚增生形成的小球狀物，裡頭沒有角質化的物質，類似肉芽，觸感較軟；粟粒腫更小，是僅1至2毫米的白色顆粒，類似白頭粉刺，主要成分為角質層，觸感較硬。美容界則有不同看法，美容師認為皮膚有許多細小的分泌孔，若有較黏稠的物質堆積，久而久之就容易形成油脂粒。\n\n不論名稱為何，成因可分為內因及外因。內因主要是內分泌失調，以及脂肪代謝功能欠佳，後者與肝臟健康息息相關；外因主要為皮膚清潔不當，且水油不平衡。\n\n有甚麼營養素可以幫忙呢？卵磷脂被稱為血管清道夫，可以乳化脂肪，幫助肝臟解油；同時促進皮膚新陳代謝，排除皮膚表面的毒素，並有助皮膚水油平衡。奧米加三脂肪酸Omega-3可調節內分泌，減少炎症，滋潤皮膚；而Omega-3是維持身體機能的必需脂肪酸，無法自行合成，必須從飲食攝取。最後，蛋白質也必不可少，除了可以讓皮膚水油更加平衡，也可全面重建和修復細胞，令皮膚回復光滑。","post200619",{"data":7},{"data":312},[313],{"id":14,"attributes":314},{"slug":16,"name":17,"description":7,"createdAt":18,"updatedAt":18},{"data":316},[317,322,326,330],{"id":318,"attributes":319},173,{"name":320,"createdAt":321,"updatedAt":321},"油脂粒","2023-02-12T03:32:01.368Z",{"id":3,"attributes":323},{"name":324,"createdAt":325,"updatedAt":325},"皮膚","2023-02-12T03:32:01.371Z",{"id":327,"attributes":328},174,{"name":329,"createdAt":321,"updatedAt":321},"卵磷脂",{"id":331,"attributes":332},157,{"name":333,"createdAt":334,"updatedAt":334},"內分泌","2023-02-12T03:32:01.361Z",{"data":7},{"id":337,"attributes":338},181,{"createdAt":339,"title":340,"excerpt":7,"content":341,"slug":342,"updatedAt":339,"author":343,"categories":344,"tags":348,"image":355},"2020-06-14T00:00:00.000Z","植物奶 -- 如何挑選才最好？","\n\n隨著越來越多人傾向以植物奶取代牛奶，以降低潛在健康風險，超市裡的豆奶、杏仁奶、燕麥奶、米奶及椰子奶的選擇有增無減😀。\n\n下述營養成分按250毫升的植物奶計算。就蛋白質含量而言，豆奶最為豐富，每250毫升普遍含約7克蛋白質💪🏻💪🏻。燕麥奶次之，含4克；杏仁奶及米奶各含1克，椰子奶則不含蛋白質。\n\n脂肪方面，豆奶含7克，杏仁奶、燕麥奶及米奶的脂肪含量同為2.5克，椰子奶的脂肪含量則為7.5克。椰子奶脂肪含量相對較高，蛋白質又欠奉🙄，依然大受歡迎，主要歸功於其獨特椰香風味。\n\n至於醣含量，燕麥奶及米奶由碳水化合物提煉，每250毫升的醣含量分別達24克及23克😯。豆奶為4克，杏仁奶及椰子奶僅為1克。\n\n以上數字僅供參考，不同品牌的同一款植物奶，其營養成分可相距甚遠😳。即使同一品牌同一種類植物奶，也可因應檔次及價格越高，蛋白質含量也越豐富。\n\n另一注意事項，是豆奶粉與豆奶並不一樣，有的豆奶粉是由大豆搭配全脂乳粉製作而成，並非純素植物奶。而豆奶、豆漿及豆乳也各所不同，今後有機會再在此活學營養專欄或mini talk與大家探討❤️。","post200614",{"data":7},{"data":345},[346],{"id":14,"attributes":347},{"slug":16,"name":17,"description":7,"createdAt":18,"updatedAt":18},{"data":349},[350,353],{"id":57,"attributes":351},{"name":352,"createdAt":283,"updatedAt":283},"植物奶",{"id":154,"attributes":354},{"name":156,"createdAt":157,"updatedAt":157},{"data":7},{"pagination":357},{"page":358,"pageSize":359,"pageCount":360,"total":361},6,12,9,99],"uses":{"dependencies":["http://127.0.0.1:1337/api/posts?sort=createdAt%3Adesc&populate[author]=true&populate[categories]=true&populate[tags]=true&populate[image]=true&pagination[page]=6&pagination[pageSize]=12&filters[categories][slug]=nutrition"],"params":["page","category"]}}]}