{"type":"data","nodes":[{"type":"data","data":[{"categories":1,"event_categories":27},[2,9,15,21],{"id":3,"attributes":4},1,{"slug":5,"name":6,"description":7,"createdAt":8,"updatedAt":8},"nutrition","營養隨筆",null,"2023-02-07T08:03:25.893Z",{"id":10,"attributes":11},2,{"slug":12,"name":13,"description":7,"createdAt":14,"updatedAt":14},"spiritual","心靈勵志","2023-02-07T08:03:25.896Z",{"id":16,"attributes":17},3,{"slug":18,"name":19,"description":7,"createdAt":20,"updatedAt":20},"fitness","運動筆記","2023-02-07T08:03:25.905Z",{"id":22,"attributes":23},4,{"slug":24,"name":25,"description":7,"createdAt":26,"updatedAt":26},"reflection","感悟隨筆","2023-02-07T08:03:25.906Z",[28,33,38,43,47,52],{"id":3,"attributes":29},{"name":30,"slug":31,"description":7,"createdAt":32,"updatedAt":32},"名人面對面","be-our-guess","2023-02-07T08:03:24.223Z",{"id":10,"attributes":34},{"name":35,"slug":36,"description":7,"createdAt":37,"updatedAt":37},"文化導賞","cultural","2023-02-07T08:03:24.230Z",{"id":16,"attributes":39},{"name":40,"slug":41,"description":7,"createdAt":42,"updatedAt":42},"遊山玩水","hiking","2023-02-07T08:03:24.235Z",{"id":22,"attributes":44},{"name":45,"slug":5,"description":7,"createdAt":46,"updatedAt":46},"活學營養","2023-02-07T08:03:24.241Z",{"id":48,"attributes":49},5,{"name":50,"slug":18,"description":7,"createdAt":51,"updatedAt":51},"健體運動","2023-02-07T08:03:24.256Z",{"id":53,"attributes":54},6,{"name":55,"slug":56,"description":7,"createdAt":57,"updatedAt":57},"讀書會","book-sharing","2023-02-07T08:03:24.257Z"],"uses":{"dependencies":["http://localhost:1337/api/categories?","http://localhost:1337/api/event-categories?"]},"slash":"always"},{"type":"data","data":[{"data":1,"meta":319},[2,32,56,86,106,136,156,186,206,238,257,284],{"id":3,"attributes":4},807,{"title":5,"excerpt":6,"content":7,"slug":8,"createdAt":9,"updatedAt":9,"author":10,"categories":11,"tags":19,"image":31},"立春養生：護肝排毒 振興免疫力",null,"\n\n🌸今天立春，象徵春天來臨。\n\n春屬木，與肝經相應；有謂「肝木逢春生」，春天是肝氣最旺盛的季節，更應多加注意養肝，生血氣，振生機。\n\n此外，「百草回芽，舊病萌發。」早春時節是呼吸道疾病的易發時期，特別是孩子的上呼吸道或下呼吸道感染，包括流感、扁桃腺炎、支氣管炎。春天免疫力容易下降，尤其在新冠病毒肆虐下，更要加倍重視健康管理，除了戴口罩，勤洗手，保持社交距離外，順應自然節氣食補養生，方能打好基礎預防疾病👊🏻。\n\n如何食補？\u003Cbr\u003E\n春天對應中醫五色中的「青」色，🥬青綠色食物有助促進肝氣循環與人體代謝，有利肝臟排毒，消除身體疲勞，還有明目和保健視神經的效果。\n\n「正月蔥，二月韭」最符合時令。此外，春天盛產的蔬菜如菠菜、蕃薯葉、萵苣、芹菜、蒜苗均合宜。\n\n營養素方面，可多補充優質蛋白質、維他命B族、維他命C，既有利於肝臟排毒，修復肝臟，也可大大振興免疫力！💪🏻\n\n衣著下厚上薄\u003Cbr\u003E\n「藥王」孫思邈在《千金要方》特別提醒春天宜「下厚上薄」，即上身少穿一些也可，但下身應多穿，因「寒從腳起，濕從下入」，下身保暖非常重要。\n\n鼓勵大家把握春天養肝好時節，進行 #肝膽排毒，為默默耕耘的肝臟打掃一下，明目解鬱，舒睏提神，同時增強免疫力！\u003Cbr\u003E\n如欲了解肝膽排毒法，歡迎私訊Inbox我們聯絡。謝謝！🤗","srping-2022","2022-02-04T00:00:00.000Z",{"data":6},{"data":12},[13],{"id":14,"attributes":15},1,{"slug":16,"name":17,"description":6,"createdAt":18,"updatedAt":18},"nutrition","營養隨筆","2023-02-07T08:03:25.893Z",{"data":20},[21,26],{"id":22,"attributes":23},154,{"name":24,"createdAt":25,"updatedAt":25},"立春","2023-02-07T08:03:10.924Z",{"id":27,"attributes":28},155,{"name":29,"createdAt":30,"updatedAt":30},"養肝","2023-02-07T08:03:10.930Z",{"data":6},{"id":33,"attributes":34},806,{"title":35,"excerpt":6,"content":36,"slug":37,"createdAt":38,"updatedAt":38,"author":39,"categories":40,"tags":48,"image":55},"苦去虎進，虎進甘來","\n\n苦去虎進，虎進甘來🧧\u003Cbr\u003E\n虎嘯香江驅毒疫\u003Cbr\u003E\n善進惡黜選賢能\u003Cbr\u003E\n沛雨甘霖恩澤豐\u003Cbr\u003E\n繼往開來萬象新\u003Cbr\u003E\n恭祝各位友好：\u003Cbr\u003E\n戰勝疫情，龍精虎猛💪🏻\u003Cbr\u003E\n恩深澤厚，萬象更新🥳","chinese-new-year-2022","2022-02-01T00:00:00.000Z",{"data":6},{"data":41},[42],{"id":43,"attributes":44},2,{"slug":45,"name":46,"description":6,"createdAt":47,"updatedAt":47},"spiritual","心靈勵志","2023-02-07T08:03:25.896Z",{"data":49},[50],{"id":51,"attributes":52},31,{"name":53,"createdAt":54,"updatedAt":54},"","2023-02-07T08:03:09.642Z",{"data":6},{"id":57,"attributes":58},808,{"title":59,"excerpt":6,"content":60,"slug":61,"createdAt":62,"updatedAt":62,"author":63,"categories":64,"tags":68,"image":85},"益生菌 x 益生元：抗菌又紓困","\n\n最早提出腸道菌群可以引起衰老和慢性病的，是1908年諾貝爾獎得主、微生物學家與免疫學家梅契尼科夫，他亦有「乳酸菌之父」的稱號。\n\n無獨有偶，中醫學也有「糞毒入血，百病蜂起」的概念，意謂若腸道裡的害菌過度生長，將產生有毒物質進入血液，促使不同疾病出現。\n\n上海交通大學、內蒙古農業大學、江南大學2015年合作研究，從全國20個地區採集了314個18至35歲健康年輕人的糞便樣本，發現這些健康年青人的腸道皆有短鏈脂肪酸產生菌的功能菌，且平均佔了總測序量約一半。這不禁令人思忖，這些短鏈脂肪酸產生菌是否健康人群應該具備的呢？🤔\n\n負責該研究的上海交通大學生命科學與技術學院教授趙立平表示，大量研究發現，短鏈脂肪酸可以：\u003Cbr\u003E\n1️⃣為腸道上皮細胞提供生長所需的能量\u003Cbr\u003E\n2️⃣減輕腸道的炎症\u003Cbr\u003E\n3️⃣調節食慾中樞，增加飽腹感\n\n短鏈脂肪酸無法由人體合成，食物裡也沒有😱，只有吃了膳食纖維才能產出。\n\n越來越多研究表明，患有肥胖症、糖尿病、結腸癌等慢性疾病的人群，皆有一個共同的特徵，就是短鏈脂肪酸產生菌的種類少，數量低。\n\n短鏈脂肪酸產生菌減少，跟現代人膳食纖維攝取量大減息息相關😖。根據2萬多年前古人的糞便化石分析，古代人類每天膳食纖維攝入量為200至400克，現在發達國家的人，平均一天只吃進15克膳食纖維，美國醫學會建議的攝入量也不過30克，相當於我們祖先的十分之一左右😵。因此，我們必須多吃粗糧、蔬果、藥食同源食品如枸杞等，增加攝取膳食纖維。\n\n膳食纖維作為益生元，是益生菌最佳的食物。👶🏻新生嬰兒的腸道是微生物的天堂，裡面營養十分豐富，自然分娩且母乳餵養的孩子，益菌約佔其腸道菌群總量的70%至80%。然而，剖腹生產、配方奶粉而非母乳餵養，又或服食抗生素，都會令腸道益菌數量大減，家長們切記留意。\n\n如欲透過保健品補充益生菌，必須選擇：\u003Cbr\u003E\n1️⃣經科研證實有效的菌株\u003Cbr\u003E\n2️⃣包裝上標示的菌量至保質期結束依然維持\u003Cbr\u003E\n3️⃣能夠黏附腸道定值並繁殖\u003Cbr\u003E\n此種乳酸菌，方為佳品。","probiotic-220125","2022-01-25T00:00:00.000Z",{"data":6},{"data":65},[66],{"id":14,"attributes":67},{"slug":16,"name":17,"description":6,"createdAt":18,"updatedAt":18},{"data":69},[70,75,80],{"id":71,"attributes":72},102,{"name":73,"createdAt":74,"updatedAt":74},"乳酸菌","2023-02-07T08:03:10.453Z",{"id":76,"attributes":77},36,{"name":78,"createdAt":79,"updatedAt":79},"益生菌","2023-02-07T08:03:09.684Z",{"id":81,"attributes":82},151,{"name":83,"createdAt":84,"updatedAt":84},"益生元","2023-02-07T08:03:10.908Z",{"data":6},{"id":87,"attributes":88},804,{"title":89,"excerpt":6,"content":90,"slug":91,"createdAt":92,"updatedAt":92,"author":93,"categories":94,"tags":98,"image":105},"內外防護 擊退新冠病毒","\n\n許多新冠肺炎患者康復後，仍深受後遺症所苦😣，主要因為感染期間，病毒或會攻擊肺部組織，導致肺纖維化，進一步影響呼吸功能；也影響其他器官系統，造成心血管、神經、免疫、凝血、腦部等器官系統受損。\n\n較常見的後遺症有肌肉無力、呼吸困難、慢性疲勞、咳嗽胸痛、胸悶、關節疼痛、失眠、焦慮、注意力不集中、記憶力下降、行走困難、吞嚥困難、情緒低落或認知功能下降等，這些後遺症被統稱為「新冠肺炎後綜合症」（Post COVID-19 syndrome）。\n\n在Omicron＋Delta＋流感，還有新冠新變種株IHU在非洲及歐洲出現， 提升自身免疫力刻不容緩💪🏻！\n\n💛維他命C -- 可增強身體免疫力，加速調動白血球，並維護黏膜組織健康。\n\n💜紫錐花 -- 自1920年代已獲醫學界採用，可短時間迅速提升免疫力，並加速身體復元。配合維他命C，免疫力可增強達86％！😱\n\n💚乳酸菌 -- 70%免疫細胞集中在腸道，故此確保腸道菌群平衡非常重要。購買乳酸菌時，必須選取經科研證實有效的菌株，益菌可直達腸道並保持活性，繼續在腸道繁殖，方能為身體構建最強的免疫防線。\n\n💙大蒜 -- 蒜氨酸及蒜素可強力抗菌，同時提升腸道免疫力\n\n除了內部提升防護力，外部防護也同樣重要。保持手口衛生😷，確保空氣流通，使用有效的空氣清新機，定期淨化室內空氣，防疫就更加到位！🌈","immense-improve20220108","2022-01-08T00:00:00.000Z",{"data":6},{"data":95},[96],{"id":14,"attributes":97},{"slug":16,"name":17,"description":6,"createdAt":18,"updatedAt":18},{"data":99},[100],{"id":101,"attributes":102},152,{"name":103,"createdAt":104,"updatedAt":104},"抗疫","2023-02-07T08:03:10.917Z",{"data":6},{"id":107,"attributes":108},803,{"title":109,"excerpt":6,"content":110,"slug":111,"createdAt":112,"updatedAt":112,"author":113,"categories":114,"tags":118,"image":135},"孩子健康 父母心安 -- 小食篇","\n\n要小朋友飲食均衡，難過登天？！ 😵‍💫\n\n事緣小朋友的味蕾仍在發育，較難接受“新”食物，故容易偏向單一營養。香港衛生署的統計更顯示，90%小學生平均每日只攝取2份蔬果，為建議量的一半🙈。而另一統計發現80%香港小朋友有吃小食的習慣，選取的往往是薯片、朱古力等高脂、高熱量的食品；常吃大量甜食及油炸食品，容易影響專注力與學習表現☹️。\n\n健康的茶點應符合低脂、低糖、低鹽、高膳食纖維的「3️⃣ 低 1️⃣ 高」原則，不含人造甜味劑及咖啡因，可以補充正餐時容易攝取不足的營養，例如膳食纖維、維他命C、鈣質，並與正餐相隔1.5至2小時，份量宜少，以免影響正餐胃口。\n\n健康茶點的選擇包括：\n💚 蔬菜，例如車厘茄、青瓜、甘筍，並可以橄欖油取代沙律醬，製作田園沙律🥗\u003Cbr\u003E\n❤️ 水果，可選擇新鮮的，也可選擇沒加糖的乾果（例如杏脯、西梅乾、提子乾），以及焗乾果片（例如蘋果片）\u003Cbr\u003E\n🤍 沒加糖\u002F低糖豆奶、沒加糖\u002F低糖燕麥飲品\u003Cbr\u003E\n🧡 沒加糖的新榨果汁、純天然果汁\u003Cbr\u003E\n💛 有機蔬果蓉，最好是提取自不同顏色的蔬菜水果，以攝取 5️⃣色植物營養素🌈，並富含植物蛋白，補充蛋白質幫助發育的同時，又避免因攝取太多動物性蛋白質而造成脂肪過高。\n\n🥰 若想多花心思的，更可以牛油果、雞蛋及水浸吞拿魚，製作紫菜壽司卷🍣；又或以番薯和雞蛋製作班戟，加入洋蔥、甘筍和檸檬汁🍋，增強免疫力，並最好用不沾鍋以橄欖油香煎，那就美味又少油🤩。\n\n下星期我們將探討如何進一步提升小朋友的免疫力💪🏻💪🏻，抵禦新冠病毒，以至上呼吸道感染及流感。\n\nEmpower謹祝大家2022年體健身強，小朋友快高長大，德才兼備！🎊🥳","kid-healthy-snack-202112","2022-01-01T00:00:00.000Z",{"data":6},{"data":115},[116],{"id":14,"attributes":117},{"slug":16,"name":17,"description":6,"createdAt":18,"updatedAt":18},{"data":119},[120,125,130],{"id":121,"attributes":122},76,{"name":123,"createdAt":124,"updatedAt":124},"兒童營養","2023-02-07T08:03:10.193Z",{"id":126,"attributes":127},26,{"name":128,"createdAt":129,"updatedAt":129},"免疫力","2023-02-07T08:03:09.575Z",{"id":131,"attributes":132},150,{"name":133,"createdAt":134,"updatedAt":134},"健康茶點","2023-02-07T08:03:10.906Z",{"data":6},{"id":137,"attributes":138},805,{"title":139,"excerpt":6,"content":140,"slug":141,"createdAt":112,"updatedAt":112,"author":142,"categories":143,"tags":151,"image":155},"Happy New Year 2022","\n\n2021，香港疫情依然，但恐慌減少，Empower恢復了部份實體活動，包括名人面對面、活學營養、伸展拉筋工作坊。\n\n#名人面對面 由投資基本功，到建築與築愛、美食與文化交融、咖啡杯測Cupping、書店形態、親子調解，覆蓋不同層面，線上線下O2O同步進行。感謝嘉賓們大力配合，完會後更留下繼續與實體出席的朋友交流。若情況許可，鼓勵大家實體參與名人面對面呢，氣氛與溫度真的不一樣😉。\n\n肝膽排毒、強化骨骼、杜絕肌少症，都是 #活學營養 大受歡迎的題目。配合伸展拉筋與經絡拍打，就肝膽更強健，更有骨氣，更有肌力💪🏻！\n\n去年首次涉獵 #生命密碼 與 #血型飲食 課題，發現不少朋友甚感興趣，希望今年可更深入探討。\n\n蛇宴雖未能如期舉行，幸年底時仍有機會與一眾饕客品嚐禦寒羊腩煲及生炒糯米飯等冬日美饌，為 #美食文化 活動添上一筆。\n\n1月名人面對面，將由再生勇士龔黃螢敏女士Linda打響頭炮，分享其身患癌，體有憾，但心無缺的精彩人生，為2022年注入滿滿正能量！🔥詳情請參閱： https:\u002F\u002Fempower.hk\u002Fevent\u002Flinda-220115 或 https:\u002F\u002Ffb.me\u002Fe\u002F3YpPj5HJK\n\n2月Empower也會首次舉辦太極班，由獲獎無數的陳婉珍師傅Annie小班教學👏🏻👏🏻。所謂名師出高徒，各學員「打得」 之餘，更可有效提升腿部肌力、平衡力、靈活度，同時預防腦退化🤯。\n\n㊗️各方友好2022年繼續Empower ourselves，Empower the community，無論靈性、健康、家庭、事業皆勝舊年！❤️","new-year-2022",{"data":6},{"data":144},[145],{"id":146,"attributes":147},4,{"slug":148,"name":149,"description":6,"createdAt":150,"updatedAt":150},"reflection","感悟隨筆","2023-02-07T08:03:25.906Z",{"data":152},[153],{"id":51,"attributes":154},{"name":53,"createdAt":54,"updatedAt":54},{"data":6},{"id":157,"attributes":158},800,{"title":159,"excerpt":6,"content":160,"slug":161,"createdAt":162,"updatedAt":162,"author":163,"categories":164,"tags":168,"image":185},"快樂因子 -- 血清素","\n\n之前三篇活學營養文章，分別介紹了體內三種快樂物質 -- 安多酚、多巴胺及催產素。今次介紹最後一項，就是被稱為「快樂因子」的血清素Serotonin 💛。\n\n血清素是一種神經傳導物質，不單讓人有愉悅與快樂感，也令人注意力集中，穩定情緒，與食慾、睡眠及學習記憶的調節也息息相關！\u003Cbr\u003E\n美國德克薩斯大學西南醫學中心研究發現，血清素能夠增加飽足感並抑制食慾，從而改善肥胖。\u003Cbr\u003E\n血清素亦協助調節睡眠及清醒周期，讓人精力充沛。日間，陽光有助分泌血清素；晚上，血清素會轉化為褪黑激素，幫助入眠。所以受失眠困擾的朋友，要留意血清素的分泌啊！\u003Cbr\u003E\n當血清素過低時，人會容易出現憂鬱、煩躁及焦慮的情緒。\n\n身體有80%-90%的血清素由腸道製造，健康的腸道能促進血清素分泌。故此保持腸道健康，有益於我們的情緒健康呢！\n\n如何提升我們體內血清素的分泌呢🤔？提供4個小貼士給大家：\u003Cbr\u003E\n- 曬太陽☀️：陽光刺激血清素的分泌。每天的陽光強度有所不同，一般來說早上曬20分鐘至1小時的陽光，有助提升血清素的分泌。\u003Cbr\u003E\n- 有節奏的運動🏃‍♀️：走路、跑步、游泳等有節奏的運動，可以活化血清素神經核系統。\u003Cbr\u003E\n- 保持腸道健康🍎：多吃蔬果，每天要至少3份蔬菜＋2份水果啊！\u003Cbr\u003E\n- 色胺酸是身體製造血清素的主要原料，維他命B6、B12、葉酸、菸鹼素有助轉化色胺酸成為血清素。多進食富含色胺酸及維他命B的食物，如香蕉🍌、雞蛋、豆製品、果仁。\n\n腸道好，心情好，多曬太陽無煩惱😁！\n\n一連四篇關於身體的快樂因子文章，希望大家看後有所得著。祝福大家天天心情愉快！☺️","serotonin-211210","2021-12-10T00:00:00.000Z",{"data":6},{"data":165},[166],{"id":14,"attributes":167},{"slug":16,"name":17,"description":6,"createdAt":18,"updatedAt":18},{"data":169},[170,175,180],{"id":171,"attributes":172},5,{"name":173,"createdAt":174,"updatedAt":174},"血清素","2023-02-07T08:03:09.318Z",{"id":176,"attributes":177},144,{"name":178,"createdAt":179,"updatedAt":179},"情緒健康","2023-02-07T08:03:10.870Z",{"id":181,"attributes":182},32,{"name":183,"createdAt":184,"updatedAt":184},"睡眠","2023-02-07T08:03:09.673Z",{"data":6},{"id":187,"attributes":188},802,{"title":189,"excerpt":6,"content":190,"slug":191,"createdAt":192,"updatedAt":192,"author":193,"categories":194,"tags":198,"image":205},"幸福荷爾蒙 -- 催產素","\n\n上兩篇介紹了兩多兄弟 -- 安多酚及多巴胺。今次介紹另一快樂荷爾蒙，亦被稱為「擁抱荷爾蒙」、「愛的荷爾蒙」或「幸福荷爾蒙」，就是催產素Oxytocin❤️。\n\n顧名思義，「催產素」這荷爾蒙是關於生育🤰，但卻不只生育！催產素在雌性哺乳類動物繁殖期間發揮重要作用，有助調節懷孕、子宮收縮和催乳等生理功能，同時刺激大腦產生親密、信任、忠誠的感受。催產素亦具有減輕壓力、抗壓、降低血糖值、提升免疫力並強化心臟血管系統等功效。\n\n一項關於催產素對於忠貞度的科學研究相當有趣：科學家對🐭草原田鼠Prairie vole及山地田鼠 Montane vole進行研究，發現草原田鼠非常忠誠，會與唯一的伴侶長相廝守，並主動照顧後代；山地田鼠卻是花花公子，對後代甚少關顧。然而，若以人工方法阻止草原田鼠的催產素發揮作用，草原田鼠便會變得花心又不照顧後代；如果把催產素注射進草原田鼠體內，牠便會變得專一又會照顧後代😯。這項實驗十分有趣，也突顯體內的催產素水平是會影響著我們對伴侶的忠誠度呢！\n\n研究催產素的美國科學家保羅·扎克（Paul J. Zak）指出，體內的催產素水平越高，與他人的關係也顯得越親密，越信任別人並越有同理心。催產素對於人際關係及減壓有著重要的作用，那麼要如何提升我們體內催產素的分泌呢🤔？其中的方法就是加強感官刺激，包括：\n\n🤚增加身體接觸：按摩手、腳及背部，擁抱、牽手、親吻、撫摸乃至於性行為均有助提升催產素的分泌。美國《The Inquisitr》新聞網站報道，人們熱烈擁抱愛侶或好友時，會釋放「催產素」。\n\n👀增加視覺刺激：根據美國加州大學洛杉磯分校的研究，觀看感人催淚影片的測試者，催產素的分泌平均增加47％。當犬隻看見主人出現時，體內會分泌催產素；每當主人與犬隻有眼神交流，犬隻所分泌的催產素會大幅增加。犬隻與主人對視的時間越久，體內催產素的水平也越高。欣賞自然景色或藝術作品也有助催產素的分泌。\n\n👥增加社交上的親密接觸：與家人好友聚會，促膝談心，多與別人甚至動物作眼神交流，多關愛別人也可。\n\n👂增加聽覺刺激：聆聽喜歡的音樂，鼓勵和讚美別人，或接收別人的鼓勵讚美。\n\n關愛自己，關愛別人多一點，就能讓自己感受幸福，分泌更多催產素啊🥰！\n\n更詳盡分享，請觀看早前於15分鐘Mini Talk的分享：https:\u002F\u002Ffb.watch\u002F9IgptEKI0-\u002F","oxytocin","2021-12-05T00:00:00.000Z",{"data":6},{"data":195},[196],{"id":14,"attributes":197},{"slug":16,"name":17,"description":6,"createdAt":18,"updatedAt":18},{"data":199},[200],{"id":201,"attributes":202},149,{"name":203,"createdAt":204,"updatedAt":204},"荷爾蒙","2023-02-07T08:03:10.895Z",{"data":6},{"id":207,"attributes":208},799,{"title":209,"excerpt":6,"content":210,"slug":211,"createdAt":212,"updatedAt":212,"author":213,"categories":214,"tags":218,"image":237},"快樂荷爾蒙-多巴胺","\n\n上一篇介紹了兩多兄弟之一的安多酚，今天介紹另一多兄弟- 多巴胺Dopamine。\n\n多巴胺主要負責大腦的情慾、感覺，將興奮及開心的信息傳遞。\n\n雖然多巴胺跟心情愉悅有關，但它卻不會引發愉悅感。多巴胺啟動身體的”想要”系統，當身體認為完成某件事情之後可能會獲得獎勵，便會釋放多巴胺，這便給了我們一定要得到那個獎勵的動機，令身體作出相關的行為。例如，每次當你吃過蛋糕之後也感覺心情愉快，如是這幾次之後，身體便會刻上了吃蛋糕便會開心的記憶，那麼，以後每當看見蛋糕，身體便會分泌多巴胺令你去買蛋糕然後讓自己開心。所以，多巴胺也是雙面刃，從好的方向應用，可以增加我們對目標產生動力並提升學習能力及工作效率； 但多巴胺同時也與上癮有關，如吸煙、吸毒、賭博等等。\n\n美國霍夫斯特拉大學（Hofstra University）祖克醫學院精神科副教授陳至暉指出：「有些人比較懶散，提不起精神做事，就可能是腦中多巴胺比較少。」若果覺得自己經常提不起精神做事，對任何事情也沒什麼動力，可能跟身體多巴胺含量較少有關啊！可以嘗試刺激分泌多些多巴胺呢！\n\n從以下途徑可以促進身體分泌更多多巴胺：\n💫走路：有報告指出，走路能增強人體的鈣代謝，使鈣充分供應腦部，有助於產生多巴胺\u003Cbr\u003E\n💫活動：我們活動的時候，會促進分泌多巴胺，使我們更想動起來。但當我們不活動時，多巴胺便會減少，所以會讓我們更不想動。\u003Cbr\u003E\n💫新的刺激：經歷從未經驗過的狀況能刺激多巴胺的分泌，例如第一次未到過的地方旅行，或是到訪從未去過但很想去的店舖，在新領域進行探索等等，這些「第一次的經驗」\u003Cbr\u003E\n💫飲食：酪胺酸（Tyrosine）和苯丙氨酸（phenylalanine）是合成多巴胺的重要物質，如：豆類、魚類、奶製品和禽畜肉。高脂肪的飲食可能會破壞多巴胺合成，限制飽和脂肪酸的攝取也有助維持多巴胺穩定。\n\n更詳盡分享，請觀看早前於15分鐘Mini Talk的分享：https:\u002F\u002Ffb.watch\u002F90HdTwAvIs\u002F","dopamine-211121","2021-11-19T00:00:00.000Z",{"data":6},{"data":215},[216],{"id":14,"attributes":217},{"slug":16,"name":17,"description":6,"createdAt":18,"updatedAt":18},{"data":219},[220,225,230,235],{"id":221,"attributes":222},147,{"name":223,"createdAt":224,"updatedAt":224},"Dopamine","2023-02-07T08:03:10.888Z",{"id":226,"attributes":227},148,{"name":228,"createdAt":229,"updatedAt":229},"安多酚","2023-02-07T08:03:10.893Z",{"id":231,"attributes":232},146,{"name":233,"createdAt":234,"updatedAt":234},"快樂荷爾蒙","2023-02-07T08:03:10.883Z",{"id":176,"attributes":236},{"name":178,"createdAt":179,"updatedAt":179},{"data":6},{"id":239,"attributes":240},801,{"title":241,"excerpt":6,"content":242,"slug":243,"createdAt":244,"updatedAt":244,"author":245,"categories":246,"tags":250,"image":256},"快樂荷爾蒙-安多酚Endrophin","\n\n哼著哼著許冠傑的 “快樂其實分分鐘把您等　只要您 識得點去搵” ，找快樂，記得要識搵快樂4兄弟，今次率先介紹安多酚Endrophin。\n\n安多酚又稱為「內啡肽」或「腦內啡」。大家對它該不陌生，普遍也認知做運動使人愉快是因為運動令人釋出安多酚，從而讓大家感覺愉悅快樂。安多酚除了能給人平靜、愉悅的感覺以外，也提供止痛和抗壓作用，功效如天然的嗎啡。\u003Cbr\u003E\n然而，觸發安多酚生成的因素主要是來自身體的疼痛，當身體感覺疼痛時，會釋放安多酚以協助隱藏身體的痛苦並讓我們能堅持下去完成一個行為或任務。怪不得在拳擊比賽中，拳擊選手縱使已經頭破血流，但仍能堅持到底，原來是安多酚的作用呢！\n\n從以下途徑可以促進身體釋放更多安多酚：\u003Cbr\u003E\n1️⃣運動：長時間，連續性的，中量至重量級的運動，配合深呼吸也是分泌安多酚的條件，跑步、游泳、騎單車、舉重、有氧運動舞、球類運動等等\u003Cbr\u003E\n2️⃣冥想：冥想促使腦部呈現α波，有助身體分泌安多酚\u003Cbr\u003E\n3️⃣大笑：大笑能減低焦慮及放鬆身體，有助促進分泌安多酚\u003Cbr\u003E\n4️⃣飲食：低熱量、高蛋白質的食物是製造安多泌的原材料\n\n更詳盡分享，請觀看早前於15分鐘Mini Talk的分享：https:\u002F\u002Ffb.watch\u002F90HdTwAvIs\u002F\n","endrophin-211112","2021-11-12T00:00:00.000Z",{"data":6},{"data":247},[248],{"id":14,"attributes":249},{"slug":16,"name":17,"description":6,"createdAt":18,"updatedAt":18},{"data":251},[252,254],{"id":176,"attributes":253},{"name":178,"createdAt":179,"updatedAt":179},{"id":231,"attributes":255},{"name":233,"createdAt":234,"updatedAt":234},{"data":6},{"id":258,"attributes":259},798,{"title":260,"excerpt":6,"content":261,"slug":262,"createdAt":263,"updatedAt":263,"author":264,"categories":265,"tags":269,"image":283},"救救玻璃肚","\n\n夏秋交替，腸胃脆弱，加上不健康的飲食習慣，是急性腸胃炎容易發作的誘因！🥺\n\n急性腸胃炎是胃腸黏膜的急性炎症，通常由微生物感染引起。患者症狀包括噁心、嘔吐不止、腹痛腹瀉嚴重；病情若惡化，可引致高熱不退、脫水、電解質紊亂、腸穿孔、休克等併發症，構成生命危險。\n\n此時可採取以下應急措施：\u003Cbr\u003E\n1️⃣ 暫時禁食\u003Cbr\u003E\n胃腸道需要充分休息，讓受損的胃腸道黏膜盡快修復，此時需適度禁食。\u003Cbr\u003E\n2️⃣ 補充水分和益生菌\u003Cbr\u003E\n嘔吐和腹瀉，導致體內水份大量流失。腹瀉症狀較輕時，可以自行補充電解質水溶液；當出現飲水會加重嘔吐腹瀉症狀時，則應立即配合醫生通過靜脈輸液的方式補水。\u003Cbr\u003E\n3️⃣ 及時就醫\u003Cbr\u003E\n由於急性腸胃炎的病情發展難控，如果患者腹瀉嚴重，或輕微脫水，必須盡早就診，在醫生指導下進行規範治療，以避免不可挽回的後果發生。\n\n要養護腸胃，可參考以下7️⃣大方法：💡\u003Cbr\u003E\n1️⃣ 食療養胃\u003Cbr\u003E\n胃寒脾虛的人食用生薑或大棗，可以補溫和胃，益氣養血。此外，蛋白質可以修護胃黏膜，對藥物性胃黏膜損傷及慢性胃潰瘍均有很好的緩解作用。\u003Cbr\u003E\n2️⃣ 補充益生菌\u003Cbr\u003E\n益生菌是腸道菌群中極之重要的組成部分，幫助維持腸道菌群平衡，增強免疫力。在選擇益生菌時，首先要了解產品中的菌株是否耐胃酸、耐膽汁，是否含有益生元。低聚果糖、菊粉等天然益生元可作為有益菌群的食物，幫助益生菌活著到達腸道並穩定繁殖😀。\u003Cbr\u003E\n3️⃣ 調整情緒\u003Cbr\u003E\n情緒大起大落，容易導致腸胃神經系統紊亂，誘發潰瘍、糜爛等胃部病變，造成腹痛、腹瀉、便秘等狀況。\u003Cbr\u003E\n4️⃣ 腹部保暖\u003Cbr\u003E\n季節交替時的腸胃炎多發，大部分與氣溫下降有關。建議不要穿露臍裝或低腰褲，少吹空調，夜間蓋好被子以防腹部受涼。\u003Cbr\u003E\n5️⃣ 戒掉煙酒\u003Cbr\u003E\n酒精導致胃黏膜產生損傷，容易充血糜爛，引發潰瘍；吸煙增加患胃潰瘍、慢性胃炎和胃酸倒流的風險。\u003Cbr\u003E\n6️⃣ 細嚼慢嚥\u003Cbr\u003E\n吃飯不要狼吞虎嚥，通過咀嚼盡量將食物磨碎，使唾液和食物充份融合，這樣吃下去的東西更容易消化，而且不會損傷胃黏膜。\u003Cbr\u003E\n7️⃣ 注重衛生\u003Cbr\u003E\n飯前便後洗手，少吃生冷食物，冰箱中的食物不同種類要進行密封分裝，避免細菌滋生，吃之前要徹底加熱。","gastroenteritis-notes","2021-11-02T00:00:00.000Z",{"data":6},{"data":266},[267],{"id":14,"attributes":268},{"slug":16,"name":17,"description":6,"createdAt":18,"updatedAt":18},{"data":270},[271,276,278],{"id":272,"attributes":273},143,{"name":274,"createdAt":275,"updatedAt":275},"腸胃炎","2023-02-07T08:03:10.866Z",{"id":76,"attributes":277},{"name":78,"createdAt":79,"updatedAt":79},{"id":279,"attributes":280},145,{"name":281,"createdAt":282,"updatedAt":282},"電解質","2023-02-07T08:03:10.876Z",{"data":6},{"id":285,"attributes":286},796,{"title":287,"excerpt":6,"content":288,"slug":289,"createdAt":290,"updatedAt":290,"author":291,"categories":292,"tags":296,"image":318},"腹式呼吸有助減壓","\n\n香港，作為全球生活壓力最大的城市之一，學習處理無時無刻出現的壓力更顯得非常重要。今天跟大家分享第一個減壓錦囊，也是最簡便的一個方法，就是💡腹式呼吸法（深呼吸）！\n\n每每在演講、考試、比賽前，只要深呼吸幾口，心神頓時定下來，情緒也會放鬆，專注力也會提升😀。為甚麼深呼吸能有如此大的作用呢？\n\n身體非常聰明，在不同狀況下均會盡力維持體內平衡，例如從酷熱的街道進入如雪櫃般寒冷的商場，體溫也不會大幅變化。當中自律神經系統（亦稱自主神經系統）扮演非常重要的角色 -- 它不受大腦控制，卻掌管調節血液循環、呼吸、消化、體溫、代謝、內分泌等。作為自律神經系統的兩位主角，交感神經及副交感神經不停比拼：交感神經好比車子的油門，副交感神經就好比車子的煞車。\n\n當這兩主角合作無間，運作協調時，身體處於和諧狀態。當交感神經繃緊時，身體會處於戒備狀態，甚至變得緊張，人的心跳會加快，呼吸急促，血壓隨之上升，腸胃蠕動變慢，肌肉緊張。當副交感神經活躍時，身體安靜下來，變得放鬆，心跳減緩，血壓下降，瞳孔縮小。\n\n當我們遇上突發事情，身體便會啟動交感神經系統，讓交感神經系統處於主導地位。正常情況下，副交感神經系統將會稍後被啟動以平衡身體狀況。但當自律神經系統失調，交感神經系統長期處於主導狀況，那就不只影響我們的生活與情緒，更會令器官受損。\n\n深呼吸時，正好令身體提高副交感神經的活性，促進大腦釋放α波（Alpha波)。α波能使身心放鬆，有助平復心情，提升專注力，深度睡眠。\n\n大家不妨試試由哈佛大學醫學博士安德魯·威爾（Andrew Weil）提倡的4-7-8呼吸法，步驟如下：\u003Cbr\u003E\n1. 先用嘴巴呼出空氣\u003Cbr\u003E\n2. 輕輕地用鼻吸氣4秒\u003Cbr\u003E\n3. 閉氣7秒\u003Cbr\u003E\n4. 慢慢從嘴巴呼氣8秒\n\n第2-4步為1個循環，建議大家每次做4個循環，聞說睡前做這呼吸法，更易入睡呢！👍🏻😴","deep-breathing-20210924","2021-09-24T00:00:00.000Z",{"data":6},{"data":293},[294],{"id":14,"attributes":295},{"slug":16,"name":17,"description":6,"createdAt":18,"updatedAt":18},{"data":297},[298,303,308,313],{"id":299,"attributes":300},139,{"name":301,"createdAt":302,"updatedAt":302},"深呼吸","2023-02-07T08:03:10.839Z",{"id":304,"attributes":305},140,{"name":306,"createdAt":307,"updatedAt":307},"減壓","2023-02-07T08:03:10.849Z",{"id":309,"attributes":310},142,{"name":311,"createdAt":312,"updatedAt":312},"壓力","2023-02-07T08:03:10.858Z",{"id":314,"attributes":315},141,{"name":316,"createdAt":317,"updatedAt":317},"腹式呼吸","2023-02-07T08:03:10.853Z",{"data":6},{"pagination":320},{"page":43,"pageSize":321,"pageCount":322,"total":323},12,9,100],"uses":{"dependencies":["http://localhost:1337/api/posts?sort=createdAt%3Adesc&populate[author]=true&populate[categories]=true&populate[tags]=true&populate[image]=true&pagination[page]=2&pagination[pageSize]=12"],"params":["page","category"]}}]}