{"type":"data","nodes":[{"type":"data","data":[{"categories":1,"event_categories":27},[2,9,15,21],{"id":3,"attributes":4},1,{"slug":5,"name":6,"description":7,"createdAt":8,"updatedAt":8},"nutrition","營養隨筆",null,"2023-02-12T02:39:02.691Z",{"id":10,"attributes":11},2,{"slug":12,"name":13,"description":7,"createdAt":14,"updatedAt":14},"reflection","感悟隨筆","2023-02-12T02:39:02.692Z",{"id":16,"attributes":17},3,{"slug":18,"name":19,"description":7,"createdAt":20,"updatedAt":20},"fitness","運動筆記","2023-02-12T02:39:02.697Z",{"id":22,"attributes":23},4,{"slug":24,"name":25,"description":7,"createdAt":26,"updatedAt":26},"spiritual","心靈勵志","2023-02-12T02:39:02.698Z",[28,33,38,43,47,52],{"id":3,"attributes":29},{"name":30,"slug":31,"description":7,"createdAt":32,"updatedAt":32},"讀書會","book-sharing","2023-02-12T02:38:55.939Z",{"id":16,"attributes":34},{"name":35,"slug":36,"description":7,"createdAt":37,"updatedAt":37},"文化導賞","cultural","2023-02-12T02:38:55.943Z",{"id":22,"attributes":39},{"name":40,"slug":41,"description":7,"createdAt":42,"updatedAt":42},"遊山玩水","hiking","2023-02-12T02:38:55.946Z",{"id":44,"attributes":45},5,{"name":46,"slug":18,"description":7,"createdAt":42,"updatedAt":42},"健體運動",{"id":48,"attributes":49},6,{"name":50,"slug":5,"description":7,"createdAt":51,"updatedAt":51},"活學營養","2023-02-12T02:38:55.947Z",{"id":10,"attributes":53},{"name":54,"slug":55,"description":7,"createdAt":56,"updatedAt":57},"名人面對面","be-our-guest","2023-02-12T02:38:55.942Z","2023-03-08T13:16:12.875Z"],"uses":{"dependencies":["http://127.0.0.1:1337/api/categories?","http://127.0.0.1:1337/api/event-categories?"]},"slash":"always"},{"type":"data","data":[{"data":1,"meta":290},[2,32,57,79,99,124,148,177,196,226,246,273],{"id":3,"attributes":4},227,{"title":5,"excerpt":6,"content":7,"slug":8,"createdAt":9,"updatedAt":9,"author":10,"categories":11,"tags":19,"image":31},"有記性有記性瞓多多",null,"\n\n大家昨晚睡了多久呢？有8小時嗎？很多朋友跟我說：「睡8小時？很奢侈啊！哪有可能？沒辦法呢，香港人繁忙嘛！」\n\n世界衛生組織(WHO)指出「睡眠缺乏是所有工業化國家的流行病」，並建議「成人每晚平均睡眠時間應為8小時」。香港，作為國際都會，睡眠缺乏這流行病非常普遍😑。\n\n睡眠非常重要，在上一篇文章《發夢好處多》提及睡眠的發夢階段有助提升我們的情商及創造力，是次將探討睡眠如果影響我們的記憶力。\n\n睡眠時，我們的大腦就像電腦進入磁碟重組模式。大腦中央的視丘會切斷我們對外界的感知，⛔️關閉了我們的感覺訊息，如聲音、視覺、觸覺，就像電腦在進入磁碟重組模式時再不能進行其他工作。當大腦停止接收外界的訊息時，大腦便開始進行訊息的傳輸，把存放記憶的位置重新整理。\n\n大腦的海馬迴Hippocampus負責存放我們清醒時所接收到的訊息，但海馬迴的空間是有限的，只能作短暫存放。就如同USB記憶體，當記憶體爆滿時，新的記憶就會覆蓋另一筆舊記憶。\u003Cbr\u003E\n睡眠時，暫存在海馬迴的事實記憶會轉移至能永久存放及極大容量的大腦皮層，就如同把檔案由USB記憶體轉至更安全及更大容量的硬碟。\u003Cbr\u003E\n那麼，🤔要多少時間才能完全把海馬迴的暫存記憶轉移呢？就像電腦轉輸檔案一樣，傳輸速度非常重要，我們是用USB 2.0還是USB 3.0？把記憶由海馬迴轉移至大腦皮層的速度取決於我們產生多少睡眠紡錘波。睡眠紡錘波越頻繁出現，我們的記憶傳輸速度也就越快。睡眠紡錘波的密度，在睡眠後期的早晨階段特別豐富。若只有6小時或更少的睡眠時間，大腦得不到充足的睡眠紡錘波，腦就無法讓學習能力恢復，也會影響我們的記憶力😳。\u003Cbr\u003E\n除了晚上充足8小時的睡眠，小睡20分鐘也會讓我們產生睡眠紡錘波，也有助我們鞏固記憶呢。根據2006年的一項測驗學習研究，對比睡眠充足的學生，睡眠剝奪的學生令事實記在腦中的能力落後了40%！而且，在睡眠剝奪期間學得的少數記憶，在幾小時和幾天之間就會很快忘掉，而且遺忘的速度也會加快很多。所以，請不要低估了睡眠不足的後果。若希望增加小朋友的學習表現，首要是該鼓勵他們睡眠充足，甚至回家後給他們小睡一會才溫習做功課，這樣也能提升學習力及記憶力呢😌！\u003Cbr\u003E\n想增強記憶力，大家記得要有8小時睡眠啊😴！\u003Cbr\u003E\n想了解更多，歡迎觀看早前於15分鐘Mini Talk的分享：https:\u002F\u002Ffb.watch\u002FcwItRy65ry\u002F\n","sleep-memory-220426","2022-04-26T00:00:00.000Z",{"data":6},{"data":12},[13],{"id":14,"attributes":15},1,{"slug":16,"name":17,"description":6,"createdAt":18,"updatedAt":18},"nutrition","營養隨筆","2023-02-12T02:39:02.691Z",{"data":20},[21,26],{"id":22,"attributes":23},161,{"name":24,"createdAt":25,"updatedAt":25},"睡眠","2023-02-12T03:32:01.363Z",{"id":27,"attributes":28},168,{"name":29,"createdAt":30,"updatedAt":30},"記憶力","2023-02-12T03:32:01.366Z",{"data":6},{"id":33,"attributes":34},223,{"title":35,"excerpt":6,"content":36,"slug":37,"createdAt":38,"updatedAt":38,"author":39,"categories":40,"tags":44,"image":56},"胰島素 — 「致肥荷爾蒙」","\n\n近年香港人對營養學的認知加深，明白了原形食物如蕃薯、芋頭，以及粗糧如全穀包、糙米，遠較白糖、白米、白麫粉等精煉澱粉質健康。究其原因，是這些精製碳水化合物可在幾分鐘內消化成單糖，其後迅速吸收入血液，使血糖濃度由80mg\u002Fdl激增至155mg\u002Fdl以上😱。血糖激增，逼使胰臟加速製造過量胰島素，將血糖引導至細胞。\n\n低澱粉質飲食一直為在自然療法界赫赫有名的袁維康醫生稱頌。袁醫生為牙醫醫學士、自然醫學博士及中醫醫學博士，醫見獨到精闢，故在此特別引述其見解。袁醫生認為，若非體力勞動，大部份精製澱粉質的糖分會在肝臟及脂肪組織轉化為脂肪，以防止這些糖分在尿液流失。因此，胰島素被稱為「致肥荷爾蒙」，進食愈多碳水化合物，便製造愈多脂肪，愈易肥胖😣。\n\n「胰島素製脂」是人類自古以來的重要保命功能，幫助身體短時間內將稍為多出來的糖分，迅速以脂肪形式儲存，以便度過將來的飢荒日子。但時移世易，城市人的食物質量與祖先的已大相徑庭；若不了解「胰島素製脂」法則，遠離令人上癮的精製澱粉質，一切減肥方法都只是徒然😉。\n\n本月15日上午11時，Empower創辦人之一兼ACE美國運動協會認證健康教練Joyce Wong將與大家分享《肥胖與糖尿》，讓大家進一步了解糖胖症，並講解如何有效運用逾50年歷史的HP纖體方法，改善糖尿病甚至停針停藥🤩。\n\n稍後我們也會舉辦讀書會📘，一起研讀袁維康醫生所著的《營養謬誤》，糾正眾多營養誤區，包括高膽固醇會阻塞血管而引致心臟病，高鈣食物可預防骨質疏鬆，吃鹹的就會血壓高🤨......具體日期將不日公佈，敬請留意，謝謝！\n","insulin-overweight-220409","2022-04-09T00:00:00.000Z",{"data":6},{"data":41},[42],{"id":14,"attributes":43},{"slug":16,"name":17,"description":6,"createdAt":18,"updatedAt":18},{"data":45},[46,51],{"id":47,"attributes":48},143,{"name":49,"createdAt":50,"updatedAt":50},"胰島素","2023-02-12T03:32:01.350Z",{"id":52,"attributes":53},281,{"name":54,"createdAt":55,"updatedAt":55},"荷爾蒙","2023-02-12T03:32:01.420Z",{"data":6},{"id":58,"attributes":59},225,{"title":60,"excerpt":6,"content":61,"slug":62,"createdAt":63,"updatedAt":63,"author":64,"categories":65,"tags":69,"image":78},"發夢好處多","\n\n今日3月18日，是世界睡眠日😴。不知道昨晚大家睡了多久呢？還記得昨晚的夢境嗎？\n\n大家有否想過為甚麼我們會發夢？原來發夢對我們非常重要呢！\n\n夢境通常都是視覺或動作為主；然而，為何我們不會把夢境中的行為動作表現出來🤔？原來當我們進入發夢階段前的數秒，腦幹會發出訊號並經由脊髓往下傳送，讓肌肉完全失去張力和強度，令其對於來自腦部的命令完全沒有反應。身體在發夢階段會令隨意肌完全沒有張力，亦即處於完全癱瘓狀態；但身體的不隨意肌，例如控制呼吸、心跳等功能的肌肉則持續運作。這樣的機制正好防止我們把夢中的經歷表現出來。大腦讓身體癱瘓，我們的心智才能夠無拘無束地安全做夢😌。\n\n那麼，為何身體要花那麼多的精力來讓我們發夢？\n\n睡眠分5️⃣個階段，每個階段均有其重要性。\n\n我們所指的發夢階段大多處於「快速動眼睡眠」階段，這階段的睡眠有助於提升辨認情緒訊號的能力及創造力。\n\n快速動眼睡眠能使我們更敏鋭地辨認並理解別人的情緒訊號，提升我們冷靜掌握情緒的能力。簡單來說，即是提升情緒智商EQ。大家有否發現睡眠不足時，情緒會變得不太冷靜呢🤯？\n\n大家有否試過遇到解決不了的疑難，睡一覺醒來，卻頓時有了解決方案？原來大腦在快速動眼睡眠階段，會將腦中的訊息連結起來，把本來沒關連的訊息作出整合，有助提升我們的創造力。\n\n一般來說，充足睡眠需要8小時。若只有6小時的睡眠時間，表面看來只是缺少了2小時，但實際卻不是如此計算。我們的快速動眼睡眠階段大部分都處於睡眠的最後階段，即清晨時分。少睡2小時，就會損失60%至90%的快速動眼睡眠，即是少發了夢，換句話說，即是負面地影響了我們的情緒及創造力啊！\n\n祝大家今晚睡個好覺，發個好夢！😴","sleep-dream-220318","2022-03-18T00:00:00.000Z",{"data":6},{"data":66},[67],{"id":14,"attributes":68},{"slug":16,"name":17,"description":6,"createdAt":18,"updatedAt":18},{"data":70},[71,73],{"id":22,"attributes":72},{"name":24,"createdAt":25,"updatedAt":25},{"id":74,"attributes":75},289,{"name":76,"createdAt":77,"updatedAt":77},"發夢","2023-02-12T03:32:01.423Z",{"data":6},{"id":80,"attributes":81},220,{"title":82,"excerpt":6,"content":83,"slug":84,"createdAt":85,"updatedAt":85,"author":86,"categories":87,"tags":91,"image":98},"營養標籤 求支上上籤","\n\n疫情下多買了預先包裝食品，大家懂得閱讀營養標籤嗎？🧐\n\n營養標籤於2010年7月1日推出，是有系統地標示食品營養資料的方法，當中必須列出能量及7種指定標示營養素 -- 總脂肪、飽和脂肪、反式脂肪、碳水化合物、糖、蛋白質、鈉，即俗稱「1+7」。\n\n能量以千卡或千焦標示（1千卡約=4.2千焦）。1克碳水化合物或1克蛋白質提供4千卡能量，1克脂肪提供9千卡能量。低體力活動量的男士和女士每天分別需要2400千卡和2100千卡能量；能量過多會引致肥胖，也會增加患上心臟病、糖尿病的風險😖。\n\n碳水化合物包括糖。根據世界衛生組織，糖的攝取量應控制在每日總能量攝取的10%以內，如控制在5%即25克糖更佳；25克糖已相當於5粒方糖😅。一杯台式的抹茶拿鐵含14克糖，紙包裝檸檬茶的含糖量也高達34克，大家切勿掉以輕心。\n\n飽和脂肪增加低密度脂蛋白，攝入量應少於每日所需總能量的10%（約22克）；反式脂肪是對心臟最壞的脂肪，使壞膽固醇增加的同時，也減少高密度脂蛋白，攝入量應少於每日所需總能量的1%（約2.2克）。吃含部分氫化油（partially hydrogenated oil）的食物須格外留神，例如人造牛油、烘焙食品及油炸食品。\n\n蛋白質是非常重要的營養素，幫助身體生長和復元，製造酵素和荷爾蒙，可謂沒有蛋白質就沒有生命。\n\n鈉的每天攝取量應限制在2000毫克。鈉水平偏高時，腎臟有時候未能排出足夠的鈉，令鈉和體液積存在體內，可致高血壓。加工食品、鹽醃食物，甚至日式手打烏冬的鈉含量往往較高，必須注意。\n\n消費者須小心魚目混珠，「不含味精」、「含電解質」、「不加甜味」、「少甜」、「無添加糖」均不屬於營養聲稱。因此，少甜不等於低糖，每100克少甜食物或100毫升少甜飲料可以含多於5克糖呢。","nutrition-label-220305","2022-03-05T00:00:00.000Z",{"data":6},{"data":88},[89],{"id":14,"attributes":90},{"slug":16,"name":17,"description":6,"createdAt":18,"updatedAt":18},{"data":92},[93],{"id":94,"attributes":95},276,{"name":96,"createdAt":97,"updatedAt":97},"營養標籤","2023-02-12T03:32:01.418Z",{"data":6},{"id":100,"attributes":101},231,{"title":102,"excerpt":6,"content":103,"slug":104,"createdAt":105,"updatedAt":105,"author":106,"categories":107,"tags":111,"image":123},"立春養生：護肝排毒 振興免疫力","\n\n🌸今天立春，象徵春天來臨。\n\n春屬木，與肝經相應；有謂「肝木逢春生」，春天是肝氣最旺盛的季節，更應多加注意養肝，生血氣，振生機。\n\n此外，「百草回芽，舊病萌發。」早春時節是呼吸道疾病的易發時期，特別是孩子的上呼吸道或下呼吸道感染，包括流感、扁桃腺炎、支氣管炎。春天免疫力容易下降，尤其在新冠病毒肆虐下，更要加倍重視健康管理，除了戴口罩，勤洗手，保持社交距離外，順應自然節氣食補養生，方能打好基礎預防疾病👊🏻。\n\n如何食補？\u003Cbr\u003E\n春天對應中醫五色中的「青」色，🥬青綠色食物有助促進肝氣循環與人體代謝，有利肝臟排毒，消除身體疲勞，還有明目和保健視神經的效果。\n\n「正月蔥，二月韭」最符合時令。此外，春天盛產的蔬菜如菠菜、蕃薯葉、萵苣、芹菜、蒜苗均合宜。\n\n營養素方面，可多補充優質蛋白質、維他命B族、維他命C，既有利於肝臟排毒，修復肝臟，也可大大振興免疫力！💪🏻\n\n衣著下厚上薄\u003Cbr\u003E\n「藥王」孫思邈在《千金要方》特別提醒春天宜「下厚上薄」，即上身少穿一些也可，但下身應多穿，因「寒從腳起，濕從下入」，下身保暖非常重要。\n\n鼓勵大家把握春天養肝好時節，進行 #肝膽排毒，為默默耕耘的肝臟打掃一下，明目解鬱，舒睏提神，同時增強免疫力！\u003Cbr\u003E\n如欲了解肝膽排毒法，歡迎私訊Inbox我們聯絡。謝謝！🤗","srping-2022","2022-02-04T00:00:00.000Z",{"data":6},{"data":108},[109],{"id":14,"attributes":110},{"slug":16,"name":17,"description":6,"createdAt":18,"updatedAt":18},{"data":112},[113,118],{"id":114,"attributes":115},286,{"name":116,"createdAt":117,"updatedAt":117},"立春","2023-02-12T03:32:01.422Z",{"id":119,"attributes":120},278,{"name":121,"createdAt":122,"updatedAt":122},"養肝","2023-02-12T03:32:01.419Z",{"data":6},{"id":125,"attributes":126},230,{"title":127,"excerpt":6,"content":128,"slug":129,"createdAt":130,"updatedAt":130,"author":131,"categories":132,"tags":140,"image":147},"苦去虎進，虎進甘來","\n\n苦去虎進，虎進甘來🧧\u003Cbr\u003E\n虎嘯香江驅毒疫\u003Cbr\u003E\n善進惡黜選賢能\u003Cbr\u003E\n沛雨甘霖恩澤豐\u003Cbr\u003E\n繼往開來萬象新\u003Cbr\u003E\n恭祝各位友好：\u003Cbr\u003E\n戰勝疫情，龍精虎猛💪🏻\u003Cbr\u003E\n恩深澤厚，萬象更新🥳","chinese-new-year-2022","2022-02-01T00:00:00.000Z",{"data":6},{"data":133},[134],{"id":135,"attributes":136},4,{"slug":137,"name":138,"description":6,"createdAt":139,"updatedAt":139},"spiritual","心靈勵志","2023-02-12T02:39:02.698Z",{"data":141},[142],{"id":143,"attributes":144},165,{"name":145,"createdAt":146,"updatedAt":146},"","2023-02-12T03:32:01.365Z",{"data":6},{"id":149,"attributes":150},232,{"title":151,"excerpt":6,"content":152,"slug":153,"createdAt":154,"updatedAt":154,"author":155,"categories":156,"tags":160,"image":176},"益生菌 x 益生元：抗菌又紓困","\n\n最早提出腸道菌群可以引起衰老和慢性病的，是1908年諾貝爾獎得主、微生物學家與免疫學家梅契尼科夫，他亦有「乳酸菌之父」的稱號。\n\n無獨有偶，中醫學也有「糞毒入血，百病蜂起」的概念，意謂若腸道裡的害菌過度生長，將產生有毒物質進入血液，促使不同疾病出現。\n\n上海交通大學、內蒙古農業大學、江南大學2015年合作研究，從全國20個地區採集了314個18至35歲健康年輕人的糞便樣本，發現這些健康年青人的腸道皆有短鏈脂肪酸產生菌的功能菌，且平均佔了總測序量約一半。這不禁令人思忖，這些短鏈脂肪酸產生菌是否健康人群應該具備的呢？🤔\n\n負責該研究的上海交通大學生命科學與技術學院教授趙立平表示，大量研究發現，短鏈脂肪酸可以：\u003Cbr\u003E\n1️⃣為腸道上皮細胞提供生長所需的能量\u003Cbr\u003E\n2️⃣減輕腸道的炎症\u003Cbr\u003E\n3️⃣調節食慾中樞，增加飽腹感\n\n短鏈脂肪酸無法由人體合成，食物裡也沒有😱，只有吃了膳食纖維才能產出。\n\n越來越多研究表明，患有肥胖症、糖尿病、結腸癌等慢性疾病的人群，皆有一個共同的特徵，就是短鏈脂肪酸產生菌的種類少，數量低。\n\n短鏈脂肪酸產生菌減少，跟現代人膳食纖維攝取量大減息息相關😖。根據2萬多年前古人的糞便化石分析，古代人類每天膳食纖維攝入量為200至400克，現在發達國家的人，平均一天只吃進15克膳食纖維，美國醫學會建議的攝入量也不過30克，相當於我們祖先的十分之一左右😵。因此，我們必須多吃粗糧、蔬果、藥食同源食品如枸杞等，增加攝取膳食纖維。\n\n膳食纖維作為益生元，是益生菌最佳的食物。👶🏻新生嬰兒的腸道是微生物的天堂，裡面營養十分豐富，自然分娩且母乳餵養的孩子，益菌約佔其腸道菌群總量的70%至80%。然而，剖腹生產、配方奶粉而非母乳餵養，又或服食抗生素，都會令腸道益菌數量大減，家長們切記留意。\n\n如欲透過保健品補充益生菌，必須選擇：\u003Cbr\u003E\n1️⃣經科研證實有效的菌株\u003Cbr\u003E\n2️⃣包裝上標示的菌量至保質期結束依然維持\u003Cbr\u003E\n3️⃣能夠黏附腸道定值並繁殖\u003Cbr\u003E\n此種乳酸菌，方為佳品。","probiotic-220125","2022-01-25T00:00:00.000Z",{"data":6},{"data":157},[158],{"id":14,"attributes":159},{"slug":16,"name":17,"description":6,"createdAt":18,"updatedAt":18},{"data":161},[162,166,171],{"id":125,"attributes":163},{"name":164,"createdAt":165,"updatedAt":165},"乳酸菌","2023-02-12T03:32:01.398Z",{"id":167,"attributes":168},159,{"name":169,"createdAt":170,"updatedAt":170},"益生菌","2023-02-12T03:32:01.362Z",{"id":172,"attributes":173},273,{"name":174,"createdAt":175,"updatedAt":175},"益生元","2023-02-12T03:32:01.417Z",{"data":6},{"id":178,"attributes":179},218,{"title":180,"excerpt":6,"content":181,"slug":182,"createdAt":183,"updatedAt":183,"author":184,"categories":185,"tags":189,"image":195},"內外防護 擊退新冠病毒","\n\n許多新冠肺炎患者康復後，仍深受後遺症所苦😣，主要因為感染期間，病毒或會攻擊肺部組織，導致肺纖維化，進一步影響呼吸功能；也影響其他器官系統，造成心血管、神經、免疫、凝血、腦部等器官系統受損。\n\n較常見的後遺症有肌肉無力、呼吸困難、慢性疲勞、咳嗽胸痛、胸悶、關節疼痛、失眠、焦慮、注意力不集中、記憶力下降、行走困難、吞嚥困難、情緒低落或認知功能下降等，這些後遺症被統稱為「新冠肺炎後綜合症」（Post COVID-19 syndrome）。\n\n在Omicron＋Delta＋流感，還有新冠新變種株IHU在非洲及歐洲出現， 提升自身免疫力刻不容緩💪🏻！\n\n💛維他命C -- 可增強身體免疫力，加速調動白血球，並維護黏膜組織健康。\n\n💜紫錐花 -- 自1920年代已獲醫學界採用，可短時間迅速提升免疫力，並加速身體復元。配合維他命C，免疫力可增強達86％！😱\n\n💚乳酸菌 -- 70%免疫細胞集中在腸道，故此確保腸道菌群平衡非常重要。購買乳酸菌時，必須選取經科研證實有效的菌株，益菌可直達腸道並保持活性，繼續在腸道繁殖，方能為身體構建最強的免疫防線。\n\n💙大蒜 -- 蒜氨酸及蒜素可強力抗菌，同時提升腸道免疫力\n\n除了內部提升防護力，外部防護也同樣重要。保持手口衛生😷，確保空氣流通，使用有效的空氣清新機，定期淨化室內空氣，防疫就更加到位！🌈","immense-improve20220108","2022-01-08T00:00:00.000Z",{"data":6},{"data":186},[187],{"id":14,"attributes":188},{"slug":16,"name":17,"description":6,"createdAt":18,"updatedAt":18},{"data":190},[191],{"id":192,"attributes":193},285,{"name":194,"createdAt":117,"updatedAt":117},"抗疫",{"data":6},{"id":197,"attributes":198},219,{"title":199,"excerpt":6,"content":200,"slug":201,"createdAt":202,"updatedAt":202,"author":203,"categories":204,"tags":208,"image":225},"孩子健康 父母心安 -- 小食篇","\n\n要小朋友飲食均衡，難過登天？！ 😵‍💫\n\n事緣小朋友的味蕾仍在發育，較難接受“新”食物，故容易偏向單一營養。香港衛生署的統計更顯示，90%小學生平均每日只攝取2份蔬果，為建議量的一半🙈。而另一統計發現80%香港小朋友有吃小食的習慣，選取的往往是薯片、朱古力等高脂、高熱量的食品；常吃大量甜食及油炸食品，容易影響專注力與學習表現☹️。\n\n健康的茶點應符合低脂、低糖、低鹽、高膳食纖維的「3️⃣ 低 1️⃣ 高」原則，不含人造甜味劑及咖啡因，可以補充正餐時容易攝取不足的營養，例如膳食纖維、維他命C、鈣質，並與正餐相隔1.5至2小時，份量宜少，以免影響正餐胃口。\n\n健康茶點的選擇包括：\n💚 蔬菜，例如車厘茄、青瓜、甘筍，並可以橄欖油取代沙律醬，製作田園沙律🥗\u003Cbr\u003E\n❤️ 水果，可選擇新鮮的，也可選擇沒加糖的乾果（例如杏脯、西梅乾、提子乾），以及焗乾果片（例如蘋果片）\u003Cbr\u003E\n🤍 沒加糖\u002F低糖豆奶、沒加糖\u002F低糖燕麥飲品\u003Cbr\u003E\n🧡 沒加糖的新榨果汁、純天然果汁\u003Cbr\u003E\n💛 有機蔬果蓉，最好是提取自不同顏色的蔬菜水果，以攝取 5️⃣色植物營養素🌈，並富含植物蛋白，補充蛋白質幫助發育的同時，又避免因攝取太多動物性蛋白質而造成脂肪過高。\n\n🥰 若想多花心思的，更可以牛油果、雞蛋及水浸吞拿魚，製作紫菜壽司卷🍣；又或以番薯和雞蛋製作班戟，加入洋蔥、甘筍和檸檬汁🍋，增強免疫力，並最好用不沾鍋以橄欖油香煎，那就美味又少油🤩。\n\n下星期我們將探討如何進一步提升小朋友的免疫力💪🏻💪🏻，抵禦新冠病毒，以至上呼吸道感染及流感。\n\nEmpower謹祝大家2022年體健身強，小朋友快高長大，德才兼備！🎊🥳","kid-healthy-snack-202112","2022-01-01T00:00:00.000Z",{"data":6},{"data":205},[206],{"id":14,"attributes":207},{"slug":16,"name":17,"description":6,"createdAt":18,"updatedAt":18},{"data":209},[210,215,220],{"id":211,"attributes":212},199,{"name":213,"createdAt":214,"updatedAt":214},"兒童營養","2023-02-12T03:32:01.381Z",{"id":216,"attributes":217},153,{"name":218,"createdAt":219,"updatedAt":219},"免疫力","2023-02-12T03:32:01.357Z",{"id":221,"attributes":222},283,{"name":223,"createdAt":224,"updatedAt":224},"健康茶點","2023-02-12T03:32:01.421Z",{"data":6},{"id":227,"attributes":228},217,{"title":229,"excerpt":6,"content":230,"slug":231,"createdAt":202,"updatedAt":202,"author":232,"categories":233,"tags":241,"image":245},"Happy New Year 2022","\n\n2021，香港疫情依然，但恐慌減少，Empower恢復了部份實體活動，包括名人面對面、活學營養、伸展拉筋工作坊。\n\n#名人面對面 由投資基本功，到建築與築愛、美食與文化交融、咖啡杯測Cupping、書店形態、親子調解，覆蓋不同層面，線上線下O2O同步進行。感謝嘉賓們大力配合，完會後更留下繼續與實體出席的朋友交流。若情況許可，鼓勵大家實體參與名人面對面呢，氣氛與溫度真的不一樣😉。\n\n肝膽排毒、強化骨骼、杜絕肌少症，都是 #活學營養 大受歡迎的題目。配合伸展拉筋與經絡拍打，就肝膽更強健，更有骨氣，更有肌力💪🏻！\n\n去年首次涉獵 #生命密碼 與 #血型飲食 課題，發現不少朋友甚感興趣，希望今年可更深入探討。\n\n蛇宴雖未能如期舉行，幸年底時仍有機會與一眾饕客品嚐禦寒羊腩煲及生炒糯米飯等冬日美饌，為 #美食文化 活動添上一筆。\n\n1月名人面對面，將由再生勇士龔黃螢敏女士Linda打響頭炮，分享其身患癌，體有憾，但心無缺的精彩人生，為2022年注入滿滿正能量！🔥詳情請參閱： https:\u002F\u002Fempower.hk\u002Fevent\u002Flinda-220115 或 https:\u002F\u002Ffb.me\u002Fe\u002F3YpPj5HJK\n\n2月Empower也會首次舉辦太極班，由獲獎無數的陳婉珍師傅Annie小班教學👏🏻👏🏻。所謂名師出高徒，各學員「打得」 之餘，更可有效提升腿部肌力、平衡力、靈活度，同時預防腦退化🤯。\n\n㊗️各方友好2022年繼續Empower ourselves，Empower the community，無論靈性、健康、家庭、事業皆勝舊年！❤️","new-year-2022",{"data":6},{"data":234},[235],{"id":236,"attributes":237},2,{"slug":238,"name":239,"description":6,"createdAt":240,"updatedAt":240},"reflection","感悟隨筆","2023-02-12T02:39:02.692Z",{"data":242},[243],{"id":143,"attributes":244},{"name":145,"createdAt":146,"updatedAt":146},{"data":6},{"id":247,"attributes":248},214,{"title":249,"excerpt":6,"content":250,"slug":251,"createdAt":252,"updatedAt":252,"author":253,"categories":254,"tags":258,"image":272},"快樂因子 -- 血清素","\n\n之前三篇活學營養文章，分別介紹了體內三種快樂物質 -- 安多酚、多巴胺及催產素。今次介紹最後一項，就是被稱為「快樂因子」的血清素Serotonin 💛。\n\n血清素是一種神經傳導物質，不單讓人有愉悅與快樂感，也令人注意力集中，穩定情緒，與食慾、睡眠及學習記憶的調節也息息相關！\u003Cbr\u003E\n美國德克薩斯大學西南醫學中心研究發現，血清素能夠增加飽足感並抑制食慾，從而改善肥胖。\u003Cbr\u003E\n血清素亦協助調節睡眠及清醒周期，讓人精力充沛。日間，陽光有助分泌血清素；晚上，血清素會轉化為褪黑激素，幫助入眠。所以受失眠困擾的朋友，要留意血清素的分泌啊！\u003Cbr\u003E\n當血清素過低時，人會容易出現憂鬱、煩躁及焦慮的情緒。\n\n身體有80%-90%的血清素由腸道製造，健康的腸道能促進血清素分泌。故此保持腸道健康，有益於我們的情緒健康呢！\n\n如何提升我們體內血清素的分泌呢🤔？提供4個小貼士給大家：\u003Cbr\u003E\n- 曬太陽☀️：陽光刺激血清素的分泌。每天的陽光強度有所不同，一般來說早上曬20分鐘至1小時的陽光，有助提升血清素的分泌。\u003Cbr\u003E\n- 有節奏的運動🏃‍♀️：走路、跑步、游泳等有節奏的運動，可以活化血清素神經核系統。\u003Cbr\u003E\n- 保持腸道健康🍎：多吃蔬果，每天要至少3份蔬菜＋2份水果啊！\u003Cbr\u003E\n- 色胺酸是身體製造血清素的主要原料，維他命B6、B12、葉酸、菸鹼素有助轉化色胺酸成為血清素。多進食富含色胺酸及維他命B的食物，如香蕉🍌、雞蛋、豆製品、果仁。\n\n腸道好，心情好，多曬太陽無煩惱😁！\n\n一連四篇關於身體的快樂因子文章，希望大家看後有所得著。祝福大家天天心情愉快！☺️","serotonin-211210","2021-12-10T00:00:00.000Z",{"data":6},{"data":255},[256],{"id":14,"attributes":257},{"slug":16,"name":17,"description":6,"createdAt":18,"updatedAt":18},{"data":259},[260,265,270],{"id":261,"attributes":262},134,{"name":263,"createdAt":264,"updatedAt":264},"血清素","2023-02-12T03:32:01.338Z",{"id":266,"attributes":267},270,{"name":268,"createdAt":269,"updatedAt":269},"情緒健康","2023-02-12T03:32:01.416Z",{"id":22,"attributes":271},{"name":24,"createdAt":25,"updatedAt":25},{"data":6},{"id":274,"attributes":275},224,{"title":276,"excerpt":6,"content":277,"slug":278,"createdAt":279,"updatedAt":279,"author":280,"categories":281,"tags":285,"image":289},"幸福荷爾蒙 -- 催產素","\n\n上兩篇介紹了兩多兄弟 -- 安多酚及多巴胺。今次介紹另一快樂荷爾蒙，亦被稱為「擁抱荷爾蒙」、「愛的荷爾蒙」或「幸福荷爾蒙」，就是催產素Oxytocin❤️。\n\n顧名思義，「催產素」這荷爾蒙是關於生育🤰，但卻不只生育！催產素在雌性哺乳類動物繁殖期間發揮重要作用，有助調節懷孕、子宮收縮和催乳等生理功能，同時刺激大腦產生親密、信任、忠誠的感受。催產素亦具有減輕壓力、抗壓、降低血糖值、提升免疫力並強化心臟血管系統等功效。\n\n一項關於催產素對於忠貞度的科學研究相當有趣：科學家對🐭草原田鼠Prairie vole及山地田鼠 Montane vole進行研究，發現草原田鼠非常忠誠，會與唯一的伴侶長相廝守，並主動照顧後代；山地田鼠卻是花花公子，對後代甚少關顧。然而，若以人工方法阻止草原田鼠的催產素發揮作用，草原田鼠便會變得花心又不照顧後代；如果把催產素注射進草原田鼠體內，牠便會變得專一又會照顧後代😯。這項實驗十分有趣，也突顯體內的催產素水平是會影響著我們對伴侶的忠誠度呢！\n\n研究催產素的美國科學家保羅·扎克（Paul J. Zak）指出，體內的催產素水平越高，與他人的關係也顯得越親密，越信任別人並越有同理心。催產素對於人際關係及減壓有著重要的作用，那麼要如何提升我們體內催產素的分泌呢🤔？其中的方法就是加強感官刺激，包括：\n\n🤚增加身體接觸：按摩手、腳及背部，擁抱、牽手、親吻、撫摸乃至於性行為均有助提升催產素的分泌。美國《The Inquisitr》新聞網站報道，人們熱烈擁抱愛侶或好友時，會釋放「催產素」。\n\n👀增加視覺刺激：根據美國加州大學洛杉磯分校的研究，觀看感人催淚影片的測試者，催產素的分泌平均增加47％。當犬隻看見主人出現時，體內會分泌催產素；每當主人與犬隻有眼神交流，犬隻所分泌的催產素會大幅增加。犬隻與主人對視的時間越久，體內催產素的水平也越高。欣賞自然景色或藝術作品也有助催產素的分泌。\n\n👥增加社交上的親密接觸：與家人好友聚會，促膝談心，多與別人甚至動物作眼神交流，多關愛別人也可。\n\n👂增加聽覺刺激：聆聽喜歡的音樂，鼓勵和讚美別人，或接收別人的鼓勵讚美。\n\n關愛自己，關愛別人多一點，就能讓自己感受幸福，分泌更多催產素啊🥰！\n\n更詳盡分享，請觀看早前於15分鐘Mini Talk的分享：https:\u002F\u002Ffb.watch\u002F9IgptEKI0-\u002F","oxytocin","2021-12-05T00:00:00.000Z",{"data":6},{"data":282},[283],{"id":14,"attributes":284},{"slug":16,"name":17,"description":6,"createdAt":18,"updatedAt":18},{"data":286},[287],{"id":52,"attributes":288},{"name":54,"createdAt":55,"updatedAt":55},{"data":6},{"pagination":291},{"page":292,"pageSize":293,"pageCount":294,"total":295},3,12,10,116],"uses":{"dependencies":["http://127.0.0.1:1337/api/posts?sort=createdAt%3Adesc&populate[author]=true&populate[categories]=true&populate[tags]=true&populate[image]=true&pagination[page]=3&pagination[pageSize]=12"],"params":["page","category"]}}]}