{"type":"data","nodes":[{"type":"data","data":[{"categories":1,"event_categories":27},[2,9,15,21],{"id":3,"attributes":4},1,{"slug":5,"name":6,"description":7,"createdAt":8,"updatedAt":8},"nutrition","營養隨筆",null,"2023-02-12T02:39:02.691Z",{"id":10,"attributes":11},2,{"slug":12,"name":13,"description":7,"createdAt":14,"updatedAt":14},"reflection","感悟隨筆","2023-02-12T02:39:02.692Z",{"id":16,"attributes":17},3,{"slug":18,"name":19,"description":7,"createdAt":20,"updatedAt":20},"fitness","運動筆記","2023-02-12T02:39:02.697Z",{"id":22,"attributes":23},4,{"slug":24,"name":25,"description":7,"createdAt":26,"updatedAt":26},"spiritual","心靈勵志","2023-02-12T02:39:02.698Z",[28,33,38,43,47,52],{"id":3,"attributes":29},{"name":30,"slug":31,"description":7,"createdAt":32,"updatedAt":32},"讀書會","book-sharing","2023-02-12T02:38:55.939Z",{"id":16,"attributes":34},{"name":35,"slug":36,"description":7,"createdAt":37,"updatedAt":37},"文化導賞","cultural","2023-02-12T02:38:55.943Z",{"id":22,"attributes":39},{"name":40,"slug":41,"description":7,"createdAt":42,"updatedAt":42},"遊山玩水","hiking","2023-02-12T02:38:55.946Z",{"id":44,"attributes":45},5,{"name":46,"slug":18,"description":7,"createdAt":42,"updatedAt":42},"健體運動",{"id":48,"attributes":49},6,{"name":50,"slug":5,"description":7,"createdAt":51,"updatedAt":51},"活學營養","2023-02-12T02:38:55.947Z",{"id":10,"attributes":53},{"name":54,"slug":55,"description":7,"createdAt":56,"updatedAt":57},"名人面對面","be-our-guest","2023-02-12T02:38:55.942Z","2023-03-08T13:16:12.875Z"],"uses":{"dependencies":["http://127.0.0.1:1337/api/categories?","http://127.0.0.1:1337/api/event-categories?"]},"slash":"always"},{"type":"data","data":[{"data":1,"meta":359},[2,38,73,113,142,161,198,222,243,264,293,325],{"id":3,"attributes":4},201,{"createdAt":5,"title":6,"excerpt":7,"content":8,"slug":9,"updatedAt":5,"author":10,"categories":11,"tags":25,"image":37},"2021-03-05T00:00:00.000Z","你夠氣嗎？",null,"\n\n在上環看著不見盡頭的樓梯街，會否搖頭輕嘆，饒過我吧？🤦‍♀️\u003Cbr\u003E\n唔爬唔知身體好。要知道自己的心肺功能好不好，一爬樓梯就知道！😎\n\n提及做運動，大部分人會想起🏃跑步、游泳、騎單車、球類運動等，這些皆屬帶氧運動。帶氧運動指的就是我們使用身體大肌肉群，長時間持續進行，且具有節律性與有氧形態的身體活動。💚 心肺功能越好，持久力越高。隨年歲增長，體能往往轉弱，爬樓梯越來越容易喘氣，反映心肺系統的功能有所下降。\n\n心肺功能良好，代表心肺系統供氧給各身體細胞及其用氧能力均處於良好狀態，這涉及四個重要元素：\u003Cbr\u003E\n1. ❤️ 心臟 -- 作為人體的發電機，是否正常地收縮跳動，確保血液在體內不斷流動？\u003Cbr\u003E\n2. 🚗 血管 -- 好比人體內的馬路，讓運輸養分和代謝廢物的血液川流不息地流動；若中間有堵塞，就不能讓細胞吸收足夠的氧氣及養分。\u003Cbr\u003E\n3. 🫁 肺臟 -- 像人體內的空調，不停的為身體作氣體交換，將氧氣滲入血管，並將二氧化碳排出體外。若空調機制失靈，身體便得不到充足的氧氣供應。\u003Cbr\u003E\n4. ⚙️ 細胞 -- 就像體內的勞動者，用氧能力高，就表示非常壯健，做事也特別勤快；相反，若細胞用氧能力下降，則會導致人體慢性缺氧。\u003Cbr\u003E\n帶氧運動能有效提升並維持良好的心肺功能，亦有助提升胰島素的敏感度，增加骨質密度，紓解壓力。鼓勵大家定立恒常運動的習慣啊✅！\n\n不妨向專業的運動教練查詢做甚麼運動並如何做，才切合自己的需要呢！","nutrition210305",{"data":7},{"data":12},[13,19],{"id":14,"attributes":15},1,{"slug":16,"name":17,"description":7,"createdAt":18,"updatedAt":18},"nutrition","營養隨筆","2023-02-12T02:39:02.691Z",{"id":20,"attributes":21},3,{"slug":22,"name":23,"description":7,"createdAt":24,"updatedAt":24},"fitness","運動筆記","2023-02-12T02:39:02.697Z",{"data":26},[27,32],{"id":28,"attributes":29},233,{"name":30,"createdAt":31,"updatedAt":31},"心肺功能","2023-02-12T03:32:01.399Z",{"id":33,"attributes":34},249,{"name":35,"createdAt":36,"updatedAt":36},"帶氧運動","2023-02-12T03:32:01.406Z",{"data":7},{"id":39,"attributes":40},200,{"createdAt":41,"title":42,"excerpt":7,"content":43,"slug":44,"updatedAt":41,"author":45,"categories":46,"tags":50,"image":72},"2021-02-15T00:00:00.000Z","眉精眼企","\n\n牛年伊始，Empower謹祝大家體健身強，由內至外眉精眼企，營一世，fit一世！💪🏻💪🏻\n\n新年假期，看手機、平板、電腦或電視的時間大增。盯著螢幕時，眨眼的頻率會由正常每分鐘約12下減少至一半，導致眼周肌肉緊繃、血液循環不佳，引起眼睛疲勞及身體不適，被稱為「電腦視覺症候群」。電腦視覺症候群並非疾病，而是眼睛病變的警號；若長期不理會，嚴重者可導致失明。\n電子螢幕散發的藍光屬於高能量光源，波長接近紫外線。長時間注視螢幕，容易導致黃斑中的葉黃素消耗殆盡，造成：\u003Cbr\u003E\n😨中心視力模糊\u003Cbr\u003E\n😨無法分辨顏色\u003Cbr\u003E\n😨視覺扭曲\u003Cbr\u003E\n黃斑病變一旦發生就很難逆轉，所以預防很重要，必須堅持補充葉黃素！\u003Cbr\u003E\n除了葉黃素外，花青素亦十分重要。護眼往往想起藍莓（blueberry），但原來藍莓多用於果醬或食品添加劑；真正用於改善眼睛健康的是歐越莓（bilberry），又名越橘或山桑子，原產於北歐、美國北方及加拿大，較藍莓含更多花青素。歐越莓改善的不只視力，更重要是改善眼部的微循環，故此對預防青光眼也有幫助👍🏻。\n完整且足夠的護眼營養素，單靠天然食物補充實在困難，例如1隻雞蛋只含0.3毫克的葉黃素。建議大家選擇補充品時，除了注意原材料是否天然有機外，還需要葉黃素、花青素與Omega-3互相搭配，才能高效延緩眼睛老化，建構全方位的護眼機制，做個👀眉精眼企的消費者！","nutrition210215",{"data":7},{"data":47},[48],{"id":14,"attributes":49},{"slug":16,"name":17,"description":7,"createdAt":18,"updatedAt":18},{"data":51},[52,57,62,67],{"id":53,"attributes":54},220,{"name":55,"createdAt":56,"updatedAt":56},"花青素","2023-02-12T03:32:01.393Z",{"id":58,"attributes":59},221,{"name":60,"createdAt":61,"updatedAt":61},"葉黃素","2023-02-12T03:32:01.394Z",{"id":63,"attributes":64},140,{"name":65,"createdAt":66,"updatedAt":66},"眼睛","2023-02-12T03:32:01.349Z",{"id":68,"attributes":69},169,{"name":70,"createdAt":71,"updatedAt":71},"奧米加三","2023-02-12T03:32:01.366Z",{"data":7},{"id":74,"attributes":75},194,{"createdAt":76,"title":77,"excerpt":7,"content":78,"slug":79,"updatedAt":76,"author":80,"categories":81,"tags":85,"image":112},"2021-01-29T00:00:00.000Z","抗病毒的最關鍵食物","\n\n上海復旦大學附屬華山醫院感染科主任張文宏教授本月中出席一個防控新冠肺炎疫情講座時特別強調，早餐一定要準備充足的雞蛋🥚。\n\n張教授表示，針對病毒的抗體產生要靠甚麽？是蛋白質。他認為重症轉輕症最主要的一點，是要保證營養和蛋白質，這是有具體臨床經驗證實的。因此，他的醫療團隊調整了治療策略，在病房的醫囑中寫好每天要吃幾個雞蛋，提升患者的蛋白質水平和造血血清白蛋白水平。\n雞蛋含有9種人體所需的胺基酸，是最完整的蛋白質來源。根據研究結果，熟雞蛋吸收率為90％，而生雞蛋只有約50％😲。日本著名管理營養師松田真紀則表示：雞蛋會因為熟度而出現極大的營養差異，所需的消化時間也大不相同。她建議早餐食用半熟蛋👍🏻，不但營養價值最高，也能在1.5小時左右就能完全消化。若是煮到全熟，就需要2倍以上的消化時間。\n至於張文宏教授為何強調是在早餐要準備充足的雞蛋呢？中山大學公共衛生學院營養學教授兼預防醫學研究所副所長蔣卓勤教授表示，早餐提供的能量和營養素應佔全天總需求的30%以上，當中蛋白質至少達21克。吃早餐有利於：\n\n1️⃣營養平衡\u003Cbr\u003E\n2️⃣促進大腦功能的發揮\u003Cbr\u003E\n3️⃣保護心臟\u003Cbr\u003E\n4️⃣預防糖尿病\u003Cbr\u003E\n5️⃣預防膽結石\u003Cbr\u003E\n\n蔣教授指我們經常吃的早餐，包括麵包牛奶、白粥饅頭、餅乾零食都不達標😣。那麼怎樣才是營養滿分的早餐呢？\n中國人民解放軍空軍總醫院前營養科主任兼中國營養保健食品協會副主任委員劉東莉女士表示，只有從食物種類多樣且搭配合理的早餐中獲取了：\n\n✅均衡的碳水化合物；\u003Cbr\u003E\n✅優質蛋白；\u003Cbr\u003E\n✅多種維他命及礦物質；\u003Cbr\u003E\n✅植物營養素；及\u003Cbr\u003E\n✅足量的膳食纖維\u003Cbr\u003E\n才能為每一天的健康人生達成均衡營養的第一步😊。\n\n張文宏教授指，今冬疫情非常嚴峻；但也說，哪怕萬一感染了新冠病毒，只要有足夠的身體資本和免疫力資本，是可以扛得過去的。我們一起加油！💪🏻💪🏻","nutritionpost0210129",{"data":7},{"data":82},[83],{"id":14,"attributes":84},{"slug":16,"name":17,"description":7,"createdAt":18,"updatedAt":18},{"data":86},[87,92,97,102,107],{"id":88,"attributes":89},144,{"name":90,"createdAt":91,"updatedAt":91},"蛋白質","2023-02-12T03:32:01.351Z",{"id":93,"attributes":94},223,{"name":95,"createdAt":96,"updatedAt":96},"抗病毒","2023-02-12T03:32:01.395Z",{"id":98,"attributes":99},153,{"name":100,"createdAt":101,"updatedAt":101},"免疫力","2023-02-12T03:32:01.357Z",{"id":103,"attributes":104},234,{"name":105,"createdAt":106,"updatedAt":106},"抵抗力","2023-02-12T03:32:01.400Z",{"id":108,"attributes":109},216,{"name":110,"createdAt":111,"updatedAt":111},"早餐","2023-02-12T03:32:01.392Z",{"data":7},{"id":114,"attributes":115},199,{"createdAt":116,"title":117,"excerpt":7,"content":118,"slug":119,"updatedAt":116,"author":120,"categories":121,"tags":125,"image":141},"2021-01-17T00:00:00.000Z","健絡得法 健步如飛","\n\n衛生署公佈，在香港，關節毛病是病人求診的五大病因之一。香港中文大學醫學院的調查發現，50歲或以上男士中，17%曾有持續性關節疼痛，7%被診斷患上膝關節炎；至於50歲或以上女士，更有24%患有持續性關節疼痛，14%診斷患上膝關節炎😣。\n\n關節疾患林林總總，包括骨質增生、腰間椎盤突出、拇指外翻、滑膜炎、肩周炎、半月板損傷、退化性關節炎、風濕性關節炎...... 未能盡錄。\n\n當中，骨刺或骨質增生非常普遍。肥胖或常常需要久站的工作，給關節帶來很大負擔，導致關節裡的軟骨磨損，使關節變得不穩定。關節會增生骨刺以增加穩定度，故此容易增生骨刺的地方多位於負重的關節及活動度較高的骨頭，例如膝蓋關節及腰椎骨。若關節嚴重磨損或有嚴重骨質增生，或需進行關節置換手術：把骨磨掉一塊，安裝一個人工關節面，外面釘上人工靭帶，下面有人造的半月板作承托。人工關節的壽命約為15年，置換了一次，15年後磨壞了未必可以再次置換，故此人工關節置換不宜太早進行。\n\n預防勝於治療💪🏻，我們當加固護養關節3大組織 -- 軟骨、骨、韌帶，做到：\u003Cbr\u003E\n1. 修復軟骨損傷，抑制關節病變\u003Cbr\u003E\n2. 增加骨密度，防止骨質流失\u003Cbr\u003E\n3. 強化韌帶，關節更加穩固\n\n我們往往痛在關節，根在軟骨，源在葡萄糖胺！⭐葡萄糖胺是合成軟骨的重要原料，隨年齡增長，合成急劇減少，30歲後身體就不能合成足夠的葡萄糖胺，45歲時體內的葡萄糖胺相當於18歲時的18%😱。食物中蝦殼、蟹殼的葡萄糖胺含量最豐富，但難以每天攝取充足，故此可考慮透過補充品攝取，而葡萄糖胺是美國、歐盟及日本公認對骨關節具積極保護作用的營養品👍🏻，當中可起3大作用：\u003Cbr\u003E\n1. 修復軟骨，生成新的軟骨\u003Cbr\u003E\n2. 促成滑液分泌，減少軟骨磨損\u003Cbr\u003E\n3. 減少炎症和腫痛\n\n建議選用鹽酸葡萄糖胺😉，因純度高且穩定，生物使用率為硫酸葡萄糖胺的2倍，更易被人體吸收。如能配合乳香、菠蘿酵素及柑橘生物類黃酮，可起協同效應，進一步消炎止痛並抗氧化😊。\n汽車可能只用20年，都會保養，定期給它加潤滑劑；我們對陪伴終生的關節，豈能不好好保養呢！","joint210117",{"data":7},{"data":122},[123],{"id":14,"attributes":124},{"slug":16,"name":17,"description":7,"createdAt":18,"updatedAt":18},{"data":126},[127,132,137],{"id":128,"attributes":129},163,{"name":130,"createdAt":131,"updatedAt":131},"關節","2023-02-12T03:32:01.364Z",{"id":133,"attributes":134},214,{"name":135,"createdAt":136,"updatedAt":136},"軟骨","2023-02-12T03:32:01.391Z",{"id":138,"attributes":139},222,{"name":140,"createdAt":61,"updatedAt":61},"葡萄糖胺",{"data":7},{"id":143,"attributes":144},195,{"createdAt":145,"title":146,"excerpt":7,"content":147,"slug":148,"updatedAt":145,"author":149,"categories":150,"tags":154,"image":160},"2021-01-08T00:00:00.000Z","快靚正的B仔","\n\n維他命B族，大家都不陌生，但你對它又認識多少呢？🤔\n\nB族作為輔酶，參與能量代謝，是人人都需要的維他命💪🏻。由於是水溶性，不能在體內儲存，故非常容易缺乏，必須每天補充；而現代都市人由於甚少吃內臟\u002F常吃精煉澱粉質\u002F反複洗米\u002F浸菜時間過長\u002F洗菜先切再洗\u002F素食\u002F喝氯氣未經濾淨的食水等因素😅，對B族的攝取往往不足。\n\nB族的成員眾多，當中B1、B2、B3及泛酸對能量代謝至關重要，不足的話容易疲勞，焦燥，生痱滋，甚至暈車暈船😣；B6、B12及葉酸則對細胞發育不可或缺，不足的話易使同型半胱氨酸在體內堆積，導致高同型半胱氨酸血症，損害血管內皮細胞，血脂和膽固醇更容易被氧化，血小板黏附聚集，引致動脈粥樣硬化，是造成多種心血管疾病的危險因素！😱\n\n請注意，我們必須整個維B家族一起補充，方能產生協同效應。另請選擇有機植物提煉的營養素，並最好能分階段釋放不同種類的維B，確保人體能安全高效地吸收。若能輔以螺旋藻，將可進一步促進心血管及免疫系統健康👍🏻🥳。","post200108",{"data":7},{"data":151},[152],{"id":14,"attributes":153},{"slug":16,"name":17,"description":7,"createdAt":18,"updatedAt":18},{"data":155},[156],{"id":157,"attributes":158},167,{"name":159,"createdAt":71,"updatedAt":71},"維他命B",{"data":7},{"id":162,"attributes":163},185,{"createdAt":164,"title":165,"excerpt":7,"content":166,"slug":167,"updatedAt":164,"author":168,"categories":169,"tags":173,"image":197},"2020-12-26T00:00:00.000Z","“癢”是一種病？一到冬天就要命！","\n\n冬季寒冷乾燥，人體新陳代謝減慢，皮脂腺和汗腺分泌減少，皮膚作為人體最大器官，又是抵抗外來刺激的第一道防線，疏於防護，皮膚疾病就容易找上門。蕁麻疹、凍瘡、手足皸裂均是冬季常見的皮膚病。\n\n根據美國過敏氣喘與免疫學院（ACAAI），蕁麻疹（Urticaria，又稱風疹、風癩）的盛行率約20%。女士罹患的機率為男士的3倍😱，當中又以30多歲的女士最容易得病。典型症狀包括風疹塊，即身體各部位可能出現大小、形狀不一的發紅、腫脹、隆起的凸塊或痕跡，極度搔癢。蕁麻疹發作時幾乎都是急性，通常在24小時內消退，但可能輪流出現在身體不同部位，因此症狀可能維持數天或更久。如果蕁麻疹反覆發作，並持續6週以上，就稱為「慢性蕁麻疹」，惟只有不到10％的蕁麻疹病例被歸類為慢性病。過敏、情緒壓力、寒冷天氣均可對表皮下的肥大細胞造成刺激，釋出組織胺，進而使皮膚產生發炎、紅腫、搔癢等症狀。\n\n凍瘡為冬季另一常見病，容易發生在手指、腳趾、面頰、耳垂等部位，患處表現得又腫又紅，又痛又癢，而且一般很難治癒🥺，要等到天氣暖和後才會逐漸消失。所以預防是關鍵，維持血液循環旺盛至關重要！\n\n至於手足皸裂，又稱「皸裂症」，多見於中老年人、女士及戶外體力勞動者。起初皮膚乾燥、發緊、變硬，繼而變得粗糙、肥厚，失去光澤，進一步出現淺深、長短不一的裂隙。輕者無甚痛楚，重者疼痛難忍，可影響日常生活和工作。\n\n要應對有法，可補充3類營養素💪🏻：\u003Cbr\u003E\n1️⃣ 蛋白質：可同時減少過敏，舒緩壓力，鎖水滋養，促進血液循環。牛、羊、鴨可溫補袪寒，惟過敏者不適用。建議蛋白質量攝取的一半為植物性蛋白質☘️。\u003Cbr\u003E\n2️⃣ 奧米加三脂肪酸 Omega-3：減少身體的發炎反應，強化免疫系統，抗過敏，促進血液循環。美國心臟協會指出，成人每日的攝取量應至少為500毫克，心血管疾病人士則為1000毫克，高血脂人士在醫生指示下攝取量可達2000至4000毫克。\u003Cbr\u003E\n3️⃣ 維他命C：抑制組織胺，減少過敏原入侵作用；抗氧化成份可消除體內自由基，減少發炎。維他命C受熱易被破壞，而華人的飲食習慣傾向熱食，故食材中的維他命C往往在烹調過程中受破壞，致使維他命C容易攝取不足；而且維他命C為水溶性，必須恆常補充。\n\n此外，必須注意保暖，防風防寒；避免冷水直接刺激皮膚；同時使用具強保濕效果的乳霜，滋養肌膚💆🏻‍♀️💆🏻‍♂️。","post201226",{"data":7},{"data":170},[171],{"id":14,"attributes":172},{"slug":16,"name":17,"description":7,"createdAt":18,"updatedAt":18},{"data":174},[175,180,184,188,190,192],{"id":176,"attributes":177},178,{"name":178,"createdAt":179,"updatedAt":179},"皮膚","2023-02-12T03:32:01.371Z",{"id":181,"attributes":182},217,{"name":183,"createdAt":111,"updatedAt":111},"蕁麻疹",{"id":185,"attributes":186},218,{"name":187,"createdAt":111,"updatedAt":111},"凍瘡",{"id":88,"attributes":189},{"name":90,"createdAt":91,"updatedAt":91},{"id":68,"attributes":191},{"name":70,"createdAt":71,"updatedAt":71},{"id":193,"attributes":194},156,{"name":195,"createdAt":196,"updatedAt":196},"維他命C","2023-02-12T03:32:01.361Z",{"data":7},{"id":199,"attributes":200},192,{"createdAt":201,"title":202,"excerpt":7,"content":203,"slug":204,"updatedAt":201,"author":205,"categories":206,"tags":210,"image":221},"2020-12-11T00:00:00.000Z","最有效的藥物，是人的免疫力","\n\n標題這句話，是上海新冠肺炎臨床救治專家組組長、復旦大學附屬華山醫院感染科主任張文宏的名言。的確，在沒有特效藥的情況下，所有最先進的救命設備，起到的只是支援作用；我們自身的免疫力，才是最好的“醫生”！故此鍾南山院士也多次強調：“防控的關鍵還是自己！”💪🏻💪🏻\n\n免疫力是身體抵抗外來侵襲，維護體內環境穩定的能力，受眾多因素影響，包括：\u003Cbr\u003E\n1. 年齡\u003Cbr\u003E\n人體免疫細胞數量和增殖能力隨年齡增長而下降，60歲時免疫力較20歲下跌約60%😖，消滅細菌、病毒、癌變細胞的能力也會減弱。\n\n2. 睡眠\u003Cbr\u003E\n長期通宵熬夜，嚴重破壞人體免疫系統。美國芝加哥大學研究發現，每晚只睡4小時的人，體內抵禦流感的抗體較每晚睡7.5至8.5小時的人減少50%😨。\n\n3. 營養\u003Cbr\u003E\n飲食均衡是確保身體各項機能正常，維持免疫力的基礎。然而，要做到膳食均衡並不容易，微量營養素尤其容易攝取不足。根據美國癌症協會及台灣癌症基金會提倡的「蔬果579」飲食觀念，12歲以下兒童每日應攝取至少5份新鮮蔬果，12歲以上女士及男士則應分別攝取7份及9份蔬菜水果。香港衛生署表示，逾90%港人一天食用少於5份蔬果😓，加上食物營養貶值及高溫烹調，均令營養難以均衡。\n\n對一般人來說，提升免疫力最簡便的方法，是每天補充維他命C😙。維他命C是人體免疫系統必需的維他命，在提升免疫力方面具3大功效：\u003Cbr\u003E\n1. 加速調動白血球，促進中性粒細胞的功能和活動性，從而加速免疫細胞反應；\u003Cbr\u003E\n2. 製造干擾素，令身體有足夠時間製造抗體；\u003Cbr\u003E\n3. 還原解毒，將毒素中和分解，減少身體所受的毒害。\n\n維他命C作為人體必需的水溶性維他命，自身無法生產，只能通過飲食攝取。中國營養學會建議成人每日的維他命C攝入量為100毫克，可耐受最高攝入量為2000毫克。維他命C受熱易被破壞，而我們華人的飲食習慣傾向熱食，故食材中的維他命C往往在烹調過程中受破壞，致使維他命C的攝取不足。常見水果中，番石榴的維他命C含量最豐富，每100克含228毫克維C；其次為黑加侖子，維C含量為181毫克；之後依次為🥝奇異果、檸檬和蘋果。\n\n針葉櫻桃(acerola cherry)是世上維C含量最豐富的天然來源之一，每100克含逾1500毫克維C👍🏻😀。選取維他命C補充品時，提煉自有機針葉櫻桃的當為首選，輔以柑橘生物類黃酮，可促進維C吸收，並進一步提升抗氧化效能和免疫力。","post201211",{"data":7},{"data":207},[208],{"id":14,"attributes":209},{"slug":16,"name":17,"description":7,"createdAt":18,"updatedAt":18},{"data":211},[212,214,216],{"id":98,"attributes":213},{"name":100,"createdAt":101,"updatedAt":101},{"id":193,"attributes":215},{"name":195,"createdAt":196,"updatedAt":196},{"id":217,"attributes":218},211,{"name":219,"createdAt":220,"updatedAt":220},"針葉櫻桃","2023-02-12T03:32:01.390Z",{"data":7},{"id":223,"attributes":224},191,{"createdAt":225,"title":226,"excerpt":7,"content":227,"slug":228,"updatedAt":225,"author":229,"categories":230,"tags":234,"image":242},"2020-11-21T00:00:00.000Z","最最最重要的蛋白質","\n\n蛋白質Protein源自於希臘文的proteios，代表「第一品質」；又或來自於protos，意思是「第一」🥳。全身細胞皆由蛋白質組成，膽汁及尿液除外。\n\n胺基酸是構成蛋白質的單位，當中9種為必需胺基酸：組胺酸、異亮胺酸、亮胺酸、賴胺酸、甲硫胺酸、苯丙胺酸、蘇胺酸、色胺酸和纈胺酸；這些胺基酸身體無法合成，必須從食物取得。身體利用這9種必需胺基酸，合成22種胺基酸💪🏻。\n\n確定蛋白質品質較常用的方法被稱為“蛋白質消化率校正胺基酸評分”（PDCAAS），最高分數是1，代表蛋白質消化後，每單位蛋白質提供人體所需的100%必要胺基酸。\n\n疫情與流感肆虐，蛋白質如何有助我們提升免疫力呢？🧐呼吸系統助我們對抗空氣污染和細菌病毒的侵害，當中氣管壁長著纖毛，能夠分泌黏液黏著空氣中的污染物，並且單向向上抖動，抖出來的就是痰。若吸了一口氣，剛好有一個肺結核菌或新冠病毒在氣流中間，沒被黏住；沒被黏住就沒法靠痰排出來，那如何是好？😱\n\n幸好人體所有管腔包括消化道、腸道和泌尿道的細胞都有分泌型免疫球蛋白，即我們常說的抗體。這抗體可以被噴到管腔中間，抓住並消滅病毒和細菌，而合成這抗體的原料就是蛋白質。所以若蛋白質不足，相當於子彈不足😟，即使管腔內架設了槍，也無法及時殺滅敵人，以致容易發生呼吸道、泌尿道及消化道感染。\n\n下星期的《活學營養》將與大家探討蛋白質的其他特質，以及如何抗疲勞🤩。","post201121",{"data":7},{"data":231},[232],{"id":14,"attributes":233},{"slug":16,"name":17,"description":7,"createdAt":18,"updatedAt":18},{"data":235},[236,238],{"id":88,"attributes":237},{"name":90,"createdAt":91,"updatedAt":91},{"id":239,"attributes":240},210,{"name":241,"createdAt":220,"updatedAt":220},"胺基酸",{"data":7},{"id":244,"attributes":245},190,{"createdAt":246,"title":247,"excerpt":7,"content":248,"slug":249,"updatedAt":246,"author":250,"categories":251,"tags":255,"image":263},"2020-11-01T00:00:00.000Z","兒童肥胖\u002F瘦削，如何調整營養攝取？","\n\n兒童無論肥胖或瘦削，都與宏量營養素即蛋白質、脂肪及碳水化合物的攝入不合標準相關。這必須透過調整飲食結構去扭轉，不能單純壓縮或拼命增加能量的攝入😉。\n\n調整飲食結構，就要調整三大宏量營養素的攝入：想令肥胖的孩子脂肪降低，就要減少其對脂肪和碳水化合物的攝取，加強蛋白質的攝入；對於瘦削的孩子，要令他不能太挑食或偏食，另外也需要提供更多蛋白質，來促進身體的生長與發育。由此可見，蛋白質的補充對兒童非常重要！💪🏻💪🏻\n\n成長階段的嬰幼兒、兒童及青少年，身體各項組織、機能正在發展，對蛋白質的需求量大增。一般建議：\u003Cbr\u003E\n嬰幼兒時期的蛋白質攝取量為體重（公斤）Ｘ1.4（克）\u003Cbr\u003E\n兒童、青少年的蛋日質攝取量為體重（公斤）Ｘ1.2~1.4（克）\n\n舉例而言，若兒童的體重為40公斤，每日約需要48至56克的蛋白質；然而，兒童的胃容量只有成年男士的1\u002F6，但每日所需的蛋白質可媲美成年男性😱，那如何是好？\n\n家長應讓孩子2\u002F3的蛋白質攝取量為容易消化吸收的蛋白質，例如雞蛋、魚，以及豆漿和全植物蛋白質粉等植物性蛋白質，並少食多餐😉。","post201101",{"data":7},{"data":252},[253],{"id":14,"attributes":254},{"slug":16,"name":17,"description":7,"createdAt":18,"updatedAt":18},{"data":256},[257,261],{"id":114,"attributes":258},{"name":259,"createdAt":260,"updatedAt":260},"兒童營養","2023-02-12T03:32:01.381Z",{"id":88,"attributes":262},{"name":90,"createdAt":91,"updatedAt":91},{"data":7},{"id":265,"attributes":266},189,{"createdAt":267,"title":268,"excerpt":7,"content":269,"slug":270,"updatedAt":267,"author":271,"categories":272,"tags":276,"image":292},"2020-10-23T00:00:00.000Z","輔酵素Q10 為細胞快速充電","\n\n人體由數十萬億細胞構成，細胞健康，就像電池充滿電，能量充沛，幹勁十足💪🏻！正如煤、石油等須通過發電機轉化為電，家裡的電器才能運作；我們吃了碳水化合物、脂肪或蛋白質這些產生能量的食物後，須先經過消化吸收，然後在細胞的線粒體轉化為細胞的能量貨幣ATP，方能被人體運用。輔酵素Q10正是把能量物質轉化為ATP的核心發電機🤓。\n\n英國的彼得米切爾教授(Peter D. Mitchell)因發現人體一切細胞能量的轉換必須有輔酵素Q10的參與，而獲得第78屆諾貝爾化學獎💡。在西方國家，輔酵素Q10被視為護心補品，不少西醫在幫助心臟患者復健的處方中，都包括輔酵素Q10👍🏻，而不少研究結果反映輔酵素Q10在改善心律不正、心絞痛及心臟衰竭方面均有顯著功效。\n\n除了心臟健康外，若數十萬億細胞皆能量充沛，人就會精神奕奕。腦細胞能量充足，自然思維敏捷。細胞能量運轉充份，還會消耗更多脂肪，加速體內脂肪代謝。同時為肌膚抗衰老，減少長斑長痘💁🏻‍♀️💁🏻‍♂️。\n\n20歲起，人體合成輔酵素Q10的量開始減少；至40歲，大部份人的輔酵素Q10都已降至較低水平。合成不足，又因熬夜、空氣污染、壓力等因素而增加消耗，故此必須適時補充輔酵素Q10，才能避免身體透支。\n\n歐美國家建議健康成年人每天補充30毫克輔酵素Q10，亞健康的人應增加補充；若心臟或其他器官的功能明顯下降，就要額外再添。如欲一天補充90毫克輔酵素Q10，需要吃1500克沙甸魚或3000克牛肉😅，並不容易，故此一般人一天通常只能攝取3至5毫克輔酵素Q10，其餘必須靠營養補充品補充。選擇輔酵素Q10補充品，除了著眼於是否天然有機外，最好選擇複方，例如輔以左旋肉鹸、氨基乙磺酸及柑橘類生物類黃酮，全面提升細胞能量並對抗自由基，倍添心臟動力、燃脂力🔥、體力及肌膚活力！💪🏻","post201023",{"data":7},{"data":273},[274],{"id":14,"attributes":275},{"slug":16,"name":17,"description":7,"createdAt":18,"updatedAt":18},{"data":277},[278,283,288],{"id":279,"attributes":280},224,{"name":281,"createdAt":282,"updatedAt":282},"輔酵素Q10","2023-02-12T03:32:01.396Z",{"id":284,"attributes":285},209,{"name":286,"createdAt":287,"updatedAt":287},"心臟健康","2023-02-12T03:32:01.389Z",{"id":289,"attributes":290},208,{"name":291,"createdAt":287,"updatedAt":287},"抗衰老",{"data":7},{"id":294,"attributes":295},186,{"createdAt":296,"title":297,"excerpt":7,"content":298,"slug":299,"updatedAt":296,"author":300,"categories":301,"tags":305,"image":324},"2020-10-17T00:00:00.000Z","你的骨質每天收支平衡嗎？","\n\n我們每天不單生活有基本開支，原來鈣質也有每天的基本支出呢🤔！就如生活基本開支，若收入低於支出，就需要從銀行提款；若我們每天從飲食攝取的鈣質不足，身體便會從骨頭內提取鈣質使用，久而久之容易引致骨質疏鬆😨。\n\n成年人每天需要攝取1000毫克鈣質，50歲後（更年期後）每天需要攝取1500毫克鈣質。據國際骨質疏鬆基金會於2018年對全球74個國家鈣質攝取的研究發現，中國內地平均每天從飲食攝取的鈣量只有338毫克。另一項調查發現，香港女性每日平均的鈣攝取量低於600毫克😱。\n\n為何鈣攝取量會遠低於我們的日常所需呢？除了跟飲食文化有關，與鈣質的吸收率也不無關係。一般而言，人體對食物中鈣質的吸收率約為30%。例如，芥蘭屬於高鈣食物，每100克含180毫克的鈣質，吸收率屬不錯，有50%，即約90毫克鈣質；人體對豆腐鈣質的吸收率約30%，每100克豆腐約有300毫克鈣質，即人體可吸收的鈣約為90毫克。\n\n還須注意的是，身體需要鈣、鎂及磷這三種礦物質按比例吸收才能建構骨質，而理想的磷與鈣比例是1：1。若果磷質攝取過剩以致血液中的磷濃度上升，骨骼中的鈣質便會被釋放到血液，令血液回復鈣與磷的平衡狀態⚖️。香港流行速食文化，加工食品如汽水、罐頭、香腸大量添加磷酸鹽，若經常食用，攝取磷質便會過量，從而導致骨質疏鬆的傾向。所以，我們除了要積極攝取高鈣食物，如蝦皮、豆製品、連骨小魚、深綠色蔬菜之外，也要避免進食加工食品呢🤓！\n\n如欲了解更多關於鈣、鎂及磷這三種礦物質的黃金比例，請觀看15分鐘mini talk營一世影片 https:\u002F\u002Fyoutu.be\u002FRovz9o6B86Y","post201017",{"data":7},{"data":302},[303],{"id":14,"attributes":304},{"slug":16,"name":17,"description":7,"createdAt":18,"updatedAt":18},{"data":306},[307,312,316,320],{"id":308,"attributes":309},203,{"name":310,"createdAt":311,"updatedAt":311},"骨質","2023-02-12T03:32:01.382Z",{"id":313,"attributes":314},212,{"name":315,"createdAt":220,"updatedAt":220},"鈣",{"id":317,"attributes":318},225,{"name":319,"createdAt":282,"updatedAt":282},"骨質疏鬆",{"id":321,"attributes":322},213,{"name":323,"createdAt":136,"updatedAt":136},"鎂",{"data":7},{"id":326,"attributes":327},187,{"createdAt":328,"title":329,"excerpt":7,"content":330,"slug":331,"updatedAt":328,"author":332,"categories":333,"tags":337,"image":358},"2020-10-09T00:00:00.000Z","卵磷脂四大功效","\n\n細胞是組成人體最基本的單位，細胞健康是人體健康的基礎；而人體所有細胞膜都由卵磷脂構成，故此卵磷脂是基礎營養素，人人皆需要💪🏻。\n\n卵磷脂有4️⃣大功能，分別為：\u003Cbr\u003E\n1）血管清道夫\u003Cbr\u003E\n2）肝膽淨化劑\u003Cbr\u003E\n3）皮膚保濕霜\u003Cbr\u003E\n4）健腦營養素\n\n只有血管健康，方能確保所有營養成份能夠及時運送至五臟六腑。卵磷脂可以把血管裡積存的油乳化，也可以降低甘油三酯和膽固醇的水平❤️。\n\n此外，卵磷脂缺乏，容易導致脂肪肝😖。吃了脂肪後，先被送到肝臟，在肝臟重新組合成為人體的脂肪，此時需要一輛車把脂肪從肝臟運出去。缺乏卵磷脂，等於車沒有車輪，脂肪不能及時運出去，累積在肝臟的脂肪就會增加。膽方面，卵磷脂可減少膽固醇沉澱並增加其溶解度，讓膽囊裡的膽固醇更好地溶入血液並帶走，減少膽結石的病發率。\n\n皮膚細胞膜保護不佳，細胞容易破損，通過破口，水份蒸發，就容易乾燥，出現皺紋甚至脫皮。細胞也容易積聚色素，包括脂褐素，俗稱老人斑👵🏻👴🏻。研究發現補充卵磷脂後，細胞的脂褐素含量可大幅下降，含水量則飆升。\n\n人體注意力和記憶力與卵磷脂密切相關，因為所有細胞包括神經細胞的細胞膜都是卵磷脂組成。腦神經細胞中17%-20%是卵磷脂，對神經系統的正常運轉至關重要。神經細胞帶著很長的纖維尾巴，這纖維就是神經線，它的膜也是卵磷脂。神經纖維的傳導，相當於電線的傳導；每條電線都有絕緣皮，神經纖維也包著絕緣皮，這亦是由卵磷脂構成，保證訊號互不干擾。卵磷脂充足，確保小孩神經系統發育正常，長者則可預防腦退化🤩。\n\n卵磷脂極怕氧化也怕熱，故此必須加入可以抗口腔氧化的維他命E，才能被人體運用。符合以下四大特點的，方為「優質卵磷脂」👍🏻😍：\u003Cbr\u003E\n1）天然有機\u003Cbr\u003E\n2）有維他命E保護\u003Cbr\u003E\n3）達致上述四大功效\u003Cbr\u003E\n4）可咀嚼，方便男女老幼食用","post201009",{"data":7},{"data":334},[335],{"id":14,"attributes":336},{"slug":16,"name":17,"description":7,"createdAt":18,"updatedAt":18},{"data":338},[339,344,347,350,354],{"id":340,"attributes":341},174,{"name":342,"createdAt":343,"updatedAt":343},"卵磷脂","2023-02-12T03:32:01.368Z",{"id":39,"attributes":345},{"name":346,"createdAt":260,"updatedAt":260},"甘油三酯",{"id":3,"attributes":348},{"name":349,"createdAt":260,"updatedAt":260},"膽固醇",{"id":351,"attributes":352},202,{"name":353,"createdAt":311,"updatedAt":311},"注意力",{"id":355,"attributes":356},168,{"name":357,"createdAt":71,"updatedAt":71},"記憶力",{"data":7},{"pagination":360},{"page":361,"pageSize":362,"pageCount":363,"total":364},5,12,9,99],"uses":{"dependencies":["http://127.0.0.1:1337/api/posts?sort=createdAt%3Adesc&populate[author]=true&populate[categories]=true&populate[tags]=true&populate[image]=true&pagination[page]=5&pagination[pageSize]=12&filters[categories][slug]=nutrition"],"params":["page","category"]}}]}