{"type":"data","nodes":[{"type":"data","data":[{"categories":1,"event_categories":27},[2,9,15,21],{"id":3,"attributes":4},1,{"slug":5,"name":6,"description":7,"createdAt":8,"updatedAt":8},"nutrition","營養隨筆",null,"2023-02-12T02:39:02.691Z",{"id":10,"attributes":11},2,{"slug":12,"name":13,"description":7,"createdAt":14,"updatedAt":14},"reflection","感悟隨筆","2023-02-12T02:39:02.692Z",{"id":16,"attributes":17},3,{"slug":18,"name":19,"description":7,"createdAt":20,"updatedAt":20},"fitness","運動筆記","2023-02-12T02:39:02.697Z",{"id":22,"attributes":23},4,{"slug":24,"name":25,"description":7,"createdAt":26,"updatedAt":26},"spiritual","心靈勵志","2023-02-12T02:39:02.698Z",[28,33,38,43,47,52],{"id":3,"attributes":29},{"name":30,"slug":31,"description":7,"createdAt":32,"updatedAt":32},"讀書會","book-sharing","2023-02-12T02:38:55.939Z",{"id":16,"attributes":34},{"name":35,"slug":36,"description":7,"createdAt":37,"updatedAt":37},"文化導賞","cultural","2023-02-12T02:38:55.943Z",{"id":22,"attributes":39},{"name":40,"slug":41,"description":7,"createdAt":42,"updatedAt":42},"遊山玩水","hiking","2023-02-12T02:38:55.946Z",{"id":44,"attributes":45},5,{"name":46,"slug":18,"description":7,"createdAt":42,"updatedAt":42},"健體運動",{"id":48,"attributes":49},6,{"name":50,"slug":5,"description":7,"createdAt":51,"updatedAt":51},"活學營養","2023-02-12T02:38:55.947Z",{"id":10,"attributes":53},{"name":54,"slug":55,"description":7,"createdAt":56,"updatedAt":57},"名人面對面","be-our-guest","2023-02-12T02:38:55.942Z","2023-03-08T13:16:12.875Z"],"uses":{"dependencies":["http://127.0.0.1:1337/api/categories?","http://127.0.0.1:1337/api/event-categories?"]},"slash":"always"},{"type":"data","data":[{"data":1,"meta":78},[2,32,57],{"id":3,"attributes":4},155,{"createdAt":5,"title":6,"excerpt":7,"content":8,"slug":9,"updatedAt":5,"author":10,"categories":11,"tags":19,"image":31},"2019-09-13T00:00:00.000Z","看見藍天白雲，人特別醒神？",null,"\n\n陰天雨天情緒則相對低落？\n\n曬太陽有助合成維他命D。維他命D能夠增加血液中的血清素濃度，從而穩定情緒。若血清素分泌不足，會引起焦躁、衝動、情緒低落，甚至憂鬱等問題。😨\n\n每天曬5至10分鐘太陽，吸收的維他命D已有助心情開朗。😄\n\n大家可把握午飯時間到戶外散步，紓解心情之餘也增加運動量啊！🚶🏻‍♂🚶🏻‍♀\n\n食物中，油脂較高的魚類（例如三文魚、沙甸魚、吞拿魚）、蛋黃、肝臟等也含較豐富維他命D呢！😉","post190913",{"data":7},{"data":12},[13],{"id":14,"attributes":15},1,{"slug":16,"name":17,"description":7,"createdAt":18,"updatedAt":18},"nutrition","營養隨筆","2023-02-12T02:39:02.691Z",{"data":20},[21,26],{"id":22,"attributes":23},133,{"name":24,"createdAt":25,"updatedAt":25},"維他命D","2023-02-12T03:32:01.328Z",{"id":27,"attributes":28},134,{"name":29,"createdAt":30,"updatedAt":30},"血清素","2023-02-12T03:32:01.338Z",{"data":7},{"id":33,"attributes":34},147,{"createdAt":35,"title":36,"excerpt":7,"content":37,"slug":38,"updatedAt":35,"author":39,"categories":40,"tags":44,"image":56},"2019-09-06T00:00:00.000Z","每逢考試、開會、報告前夕，就會腹痛腹瀉？","\n\n每逢考試、開會、報告前夕，就會腹痛腹瀉？情緒緊張或突如其來的壓力引致的腹瀉，可能是跟腸躁症有關 -- 腸胃道自律神經失調，只要面對壓力刺激，腸道就過度敏感，影響腸道蠕動。而腸躁症原來與神經系統也息息相關呢！\n\n自律神經分為交感神經及副交感神經。\n交感神經負責處理「緊張情緒」，副交感神經負責掌管「放鬆情緒」。在正常的情況下，自律神經能讓交感神經及副交感神經達致平衡，讓我們的情緒、身體、血液循環、大腸收縮等功能均保持穩定。但若長期受壓或情緒起伏不定，將令交感神經處於亢奮狀態，導致自律神經失去平衡，讓身體處於警戒中，引起腸道問題。\n\n通常性格追求完美、工作壓力大、容易緊張的人都較容易患上腸躁症。除了腸胃道問題外，多半還會伴隨精神緊張、焦慮、易怒、失眠多夢等症狀。\n\n要告別壓力所引起的腸道問題，穩定「自律神經」是當務之急。學習自我放鬆，保持心情愉快，作息定時、規律運動，均有助自律神經逐漸重拾平衡，讓腸道回復正常蠕動。\n飲食小貼士：平日可以多吃健脾食物，例如准山、扁豆、紅棗，避免食用西瓜、冷飲及乳製品。多吸收高鈣食物也能穩定情緒，協助調整自律神經啊！","pressure190906",{"data":7},{"data":41},[42],{"id":14,"attributes":43},{"slug":16,"name":17,"description":7,"createdAt":18,"updatedAt":18},{"data":45},[46,51],{"id":47,"attributes":48},129,{"name":49,"createdAt":50,"updatedAt":50},"自律神經","2023-02-12T03:32:01.315Z",{"id":52,"attributes":53},132,{"name":54,"createdAt":55,"updatedAt":55},"交感神經","2023-02-12T03:32:01.324Z",{"data":7},{"id":58,"attributes":59},142,{"createdAt":60,"title":61,"excerpt":7,"content":62,"slug":63,"updatedAt":60,"author":64,"categories":65,"tags":69,"image":77},"2019-08-30T00:00:00.000Z","眼眉跳","\n\n眼眉跳不停，你試過咪？\n\n第一心理反應係問左吉右凶，定右吉左凶？\n\n莫問吉凶，休息不足、用眼過度、壓力大、自律神經出現異常，都會導致眼眉跳！\n\n當自律神經異常，肌肉便會不由自主地放鬆抽搐。其中一項影響自律神經系統的，就是體內鉀和鈣是否平衡。\n下次眼尾跳，大家可嘗試熱敷眼睛，多作休息，並刻意多攝取富含鈣質的食物呢！\n","eye190830",{"data":7},{"data":66},[67],{"id":14,"attributes":68},{"slug":16,"name":17,"description":7,"createdAt":18,"updatedAt":18},{"data":70},[71,75],{"id":72,"attributes":73},131,{"name":61,"createdAt":74,"updatedAt":74},"2023-02-12T03:32:01.318Z",{"id":47,"attributes":76},{"name":49,"createdAt":50,"updatedAt":50},{"data":7},{"pagination":79},{"page":80,"pageSize":81,"pageCount":80,"total":82},9,12,99],"uses":{"dependencies":["http://127.0.0.1:1337/api/posts?sort=createdAt%3Adesc&populate[author]=true&populate[categories]=true&populate[tags]=true&populate[image]=true&pagination[page]=9&pagination[pageSize]=12&filters[categories][slug]=nutrition"],"params":["page","category"]}}]}