{"type":"data","nodes":[{"type":"data","data":[{"categories":1,"event_categories":27},[2,9,15,21],{"id":3,"attributes":4},1,{"slug":5,"name":6,"description":7,"createdAt":8,"updatedAt":8},"nutrition","營養隨筆",null,"2023-02-12T02:39:02.691Z",{"id":10,"attributes":11},2,{"slug":12,"name":13,"description":7,"createdAt":14,"updatedAt":14},"reflection","感悟隨筆","2023-02-12T02:39:02.692Z",{"id":16,"attributes":17},3,{"slug":18,"name":19,"description":7,"createdAt":20,"updatedAt":20},"fitness","運動筆記","2023-02-12T02:39:02.697Z",{"id":22,"attributes":23},4,{"slug":24,"name":25,"description":7,"createdAt":26,"updatedAt":26},"spiritual","心靈勵志","2023-02-12T02:39:02.698Z",[28,33,38,43,47,52],{"id":3,"attributes":29},{"name":30,"slug":31,"description":7,"createdAt":32,"updatedAt":32},"讀書會","book-sharing","2023-02-12T02:38:55.939Z",{"id":16,"attributes":34},{"name":35,"slug":36,"description":7,"createdAt":37,"updatedAt":37},"文化導賞","cultural","2023-02-12T02:38:55.943Z",{"id":22,"attributes":39},{"name":40,"slug":41,"description":7,"createdAt":42,"updatedAt":42},"遊山玩水","hiking","2023-02-12T02:38:55.946Z",{"id":44,"attributes":45},5,{"name":46,"slug":18,"description":7,"createdAt":42,"updatedAt":42},"健體運動",{"id":48,"attributes":49},6,{"name":50,"slug":5,"description":7,"createdAt":51,"updatedAt":51},"活學營養","2023-02-12T02:38:55.947Z",{"id":10,"attributes":53},{"name":54,"slug":55,"description":7,"createdAt":56,"updatedAt":57},"名人面對面","be-our-guest","2023-02-12T02:38:55.942Z","2023-03-08T13:16:12.875Z"],"uses":{"dependencies":["http://127.0.0.1:1337/api/categories?","http://127.0.0.1:1337/api/event-categories?"]},"slash":"always"},{"type":"data","data":[{"data":1,"meta":299},[2,42,66,94,122,158,180,199,220,241,258,280],{"id":3,"attributes":4},171,{"title":5,"excerpt":6,"content":7,"slug":8,"createdAt":9,"updatedAt":9,"author":10,"categories":11,"tags":19,"image":41},"清肝利膽",null,"\n\n中年以後，膽管系統容易結石😖；根據所處位置，分為肝內膽管結石、總膽管結石及膽囊結石。\n\n膽管系統將肝細胞產生的膽汁，藉由管狀結構輸送至十二指腸，幫助食物消化。膽汁中的膽汁酸、卵磷脂及膽固醇必需保持一定的比例，才能維持膽汁液體的穩定性。當膽汁酸及卵磷脂減少而膽固醇增加時，膽固醇被沉澱析出，慢慢累積而形成結石😱。喝水不足，口味偏濃，食無定時，不吃早餐，飲食過量，尤其是糖、脂肪（特別是反式脂肪）吃得太多，皆是原因。飯後容易脹氣者，較大機會肝膽已有結石🙈。\n\n蛋白質是肝細胞再生的必需成分，且防止脂肪在肝內堆積；惟蛋白質在體內會產生氨氣，若肝功能下降，無法有效代謝氨氣，會傷肝及其他器官，所以必需選擇優質蛋白質😉。此外，維他命B是護肝的主要營養素：B1分解糖分，B2代謝脂肪，B6促進糖分、脂肪及蛋白質的代謝，膽素和肌醇能將多餘脂肪帶離肝臟。米飯可選擇以糙米取代部分白米，多加補充維他命B。\n\n本周日【活學營養：肝膽排毒】將進一步解構肝膽結石的種類與成因，並講解具五千年歴史的肝膽排毒DIY古方，萬勿錯過！💪🏻🤗請發訊息給我們獲取相關資訊及連結。","post200523","2020-05-23T00:00:00.000Z",{"data":6},{"data":12},[13],{"id":14,"attributes":15},1,{"slug":16,"name":17,"description":6,"createdAt":18,"updatedAt":18},"nutrition","營養隨筆","2023-02-12T02:39:02.691Z",{"data":20},[21,26,31,36],{"id":22,"attributes":23},179,{"name":24,"createdAt":25,"updatedAt":25},"膽結石","2023-02-12T03:32:01.371Z",{"id":27,"attributes":28},144,{"name":29,"createdAt":30,"updatedAt":30},"蛋白質","2023-02-12T03:32:01.351Z",{"id":32,"attributes":33},170,{"name":34,"createdAt":35,"updatedAt":35},"肝","2023-02-12T03:32:01.367Z",{"id":37,"attributes":38},167,{"name":39,"createdAt":40,"updatedAt":40},"維他命B","2023-02-12T03:32:01.366Z",{"data":6},{"id":43,"attributes":44},169,{"title":45,"excerpt":6,"content":46,"slug":47,"createdAt":48,"updatedAt":48,"author":49,"categories":50,"tags":54,"image":65},"告別口罩瘡","\n\n炎炎夏日，皮膚本身已較黐𥹉，而長時間戴口罩，所覆蓋皮膚的溫度上升，進一步刺激油脂分泌；加上呼出的空氣帶有水分，提高口罩內的濕度，令細菌更易滋生😖。\n\n皮膚本來就存在很多微生物如細菌，臉上的微生物及皮脂分泌「封在一起」，容易侵害皮膚，引致發炎，刺激粉刺、黑頭、暗瘡甚至痤瘡生長😭。若本來就容易長暗瘡，又或本身皮膚抵抗力較差，問題會更為嚴重。\n\n要加強皮膚的免疫力並修復皮膚，蛋白質極為重要💪🏻💪🏻。蛋白質更有助細胞鎖水，改善皮膚水油平衡。建議可多攝取植物性蛋白質☘️，包括豆類及堅果類，🥛奶類飲品也可選擇植物性的，例如豆奶、杏仁奶及燕麥奶。\n\n大豆和堅果同時含豐富卵磷脂，可促進皮膚新陳代謝，排除皮膚表面的毒素，減少粉刺、黑頭、暗瘡的形成，並有助去斑，亦有助皮膚水油平衡👍🏻🤗。\n\n此外，奧米加三脂肪酸Omega-3可減少身體發炎和㾗癢，提升免疫力，滋潤皮膚。Omega-3無法自行合成，必須從飲食攝取。香港人喜歡吃的三文魚、鯖魚和沙甸魚均含豐富Omega-3，惟必須注意所來自海域有否受重金屬污染，否則得不償失。","post200515","2020-05-15T00:00:00.000Z",{"data":6},{"data":51},[52],{"id":14,"attributes":53},{"slug":16,"name":17,"description":6,"createdAt":18,"updatedAt":18},{"data":55},[56,58,61],{"id":27,"attributes":57},{"name":29,"createdAt":30,"updatedAt":30},{"id":43,"attributes":59},{"name":60,"createdAt":40,"updatedAt":40},"奧米加三",{"id":62,"attributes":63},178,{"name":64,"createdAt":25,"updatedAt":25},"皮膚",{"data":6},{"id":67,"attributes":68},163,{"title":69,"excerpt":6,"content":70,"slug":71,"createdAt":72,"updatedAt":72,"author":73,"categories":74,"tags":78,"image":93},"3秒記憶有救星","\n\n3秒記憶，不期然想起《逃學威龍》內的曾sir🤣，現實中也有不少人覺得自己越來越健忘🙈。原因之一，是現代人經常multi-tasking，致使專注力下降，精神容易渙散🙄。記憶力某程度是天生的，但後天的營養攝取，絕對有助保持以至提升記憶力。\n\n隨著年紀增長，腦內神經傳導物質「乙醯膽鹼」的分泌越來越少，造成記憶力減退，反應變得遲鈍😖。作為製造「乙醯膽鹼」的主要材料，卵磷脂能修復受損的細胞膜，令腦部更加靈活，並提升記憶力。豆製品如豆腐、豆漿，以及雞蛋（尤其糖心蛋😍）都富含卵磷脂。\n\n大家經常聽到omega-3能促進腦細胞發育，原來這必需脂肪酸還能降低失智及認知衰退的風險，改善專注力和記憶力。奧米加三脂肪酸無法靠人體自行合成，必須從飲食中攝取，野生三文魚、沙丁魚及鯷魚都是好的來源，惟須注意有否受重金屬污染😉。選擇營養補充品的話，應留意有否加入維他命E，否則脂肪酸容易氧化，得不償失。\n\n此外，正如《髮的疑惑》一文所述，我們全身細胞幾乎全由蛋白質構成，蛋白質攝取必須充足，方能維持腦細胞健康💪🏻💪🏻。\n","post200506","2020-05-06T00:00:00.000Z",{"data":6},{"data":75},[76],{"id":14,"attributes":77},{"slug":16,"name":17,"description":6,"createdAt":18,"updatedAt":18},{"data":79},[80,82,86,88],{"id":27,"attributes":81},{"name":29,"createdAt":30,"updatedAt":30},{"id":83,"attributes":84},168,{"name":85,"createdAt":40,"updatedAt":40},"記憶力",{"id":43,"attributes":87},{"name":60,"createdAt":40,"updatedAt":40},{"id":89,"attributes":90},187,{"name":91,"createdAt":92,"updatedAt":92},"專注力","2023-02-12T03:32:01.375Z",{"data":6},{"id":95,"attributes":96},174,{"title":97,"excerpt":6,"content":98,"slug":99,"createdAt":100,"updatedAt":100,"author":101,"categories":102,"tags":106,"image":121},"髮的疑惑","\n\n有頭髮邊個想做癩痢？大家都害怕脫髮，或擔心頭髮稀薄😖。遺傳是一大原因，此外飲食不當、減肥方法有誤或懷孕，也容易令蛋白質、維他命B及鐵等營養不足，造成脫髮問題。\n\n身體細胞幾乎全由蛋白質構成，蛋白質攝取必須充足，方能滋養頭皮和頭髮。每日蛋白質攝取量當為體重千分之一，再乘1至1.5，如60公斤體重人士，每天必須攝取60至90克蛋白質才足夠。\n\n維他命B群也是補髮法寶，當中的生物素更有「頭髮維他命」之稱。肝臟、酵母粉、米糠（糙米）含豐富維他命B，可惜都市人較少吃，以致我們不少都「低B」😅。\n\n鐵製造紅血球，有助輸送養分給頭髮。紅肉、肝臟、深綠色蔬菜富含鐵質；前兩者現代人較少吃，植物性鐵質則須配合維他命C，以提高吸收率。\n\n中醫所講的補腎養髮食物，例如黑豆、木耳、紫米、黑芝麻，其實也是富含蛋白質、維他命B及鐵的食物，可見中醫學與營養學皆醫食同源，異曲同工😊。","post200410","2020-04-10T00:00:00.000Z",{"data":6},{"data":103},[104],{"id":14,"attributes":105},{"slug":16,"name":17,"description":6,"createdAt":18,"updatedAt":18},{"data":107},[108,112,114,119],{"id":109,"attributes":110},172,{"name":111,"createdAt":35,"updatedAt":35},"頭髮",{"id":27,"attributes":113},{"name":29,"createdAt":30,"updatedAt":30},{"id":115,"attributes":116},166,{"name":117,"createdAt":118,"updatedAt":118},"鐵質","2023-02-12T03:32:01.365Z",{"id":37,"attributes":120},{"name":39,"createdAt":40,"updatedAt":40},{"data":6},{"id":83,"attributes":123},{"title":124,"excerpt":6,"content":125,"slug":126,"createdAt":127,"updatedAt":127,"author":128,"categories":129,"tags":133,"image":157},"腸道健康與睡眠息息相關","\n\n有人體「第二大腦🧠」之稱的腸道，不僅是人體7成以上免疫細胞的聚集地方，腸道的微生物更影響我們的睡眠周期💤。\n\n腸道的微生物能透過免疫調節通道、神經內分泌通道和迷走神經通道與大腦交流，並通過這雙向交流🔛的\"腸道 -- 大腦軸\"來調節我們的睡眠周期、睡眠質量及睡眠時間。\n\n研究發現，若腸道內的微生物菌叢種類越多，睡眠質量與時間也越好。\n\n若果我們改變睡眠時間，便會干擾我們的生物鐘，從而改變腸道微生物群的組成比例與健康狀況。若我們因壓力、時差、捱夜等而導致睡眠不足或睡眠質素下降，這樣會破壞腸道內微生物的生態，從而影響我們整體的健康狀況。\n\n同樣，若我們經常進食高脂高糖食物，常服抗生素或壓力過大，也會導致腸道的微生物失衡，不單影響自身的免疫力，也影響我們的睡眠質量。\n\n✅研究顯示，若我們以植物性餐膳為主，並進食優質碳水化合物、高纖維、低飽和脂肪的食物，可以減低我們晚上睡眠時醒來的次數，且延長深層睡眠的時間。\n\n若要提升睡眠質量，大家也可以從腸道入手，改善飲食🥗。如前一篇貼文所分享：\u003Cbr\u003E\n- 不要胡亂服用抗生素，以免破壞腸道益菌\u003Cbr\u003E\n- 多吃蔬果及其他高纖食物，有助增加腸道益菌\u003Cbr\u003E\n- 少吃含添加劑的食物和加工食品，因添加劑會破壞腸道益菌，引致腸道發炎，更可能導致肥胖或炎症性腸病\u003Cbr\u003E\n- 適量補充益生菌，但必須注意菌株和菌種，以及能否有效黏附於腸道細胞上，單看宣稱的益菌數量意義不大","post200403","2020-04-03T00:00:00.000Z",{"data":6},{"data":130},[131],{"id":14,"attributes":132},{"slug":16,"name":17,"description":6,"createdAt":18,"updatedAt":18},{"data":134},[135,140,145,150,154],{"id":136,"attributes":137},158,{"name":138,"createdAt":139,"updatedAt":139},"腸道健康","2023-02-12T03:32:01.362Z",{"id":141,"attributes":142},153,{"name":143,"createdAt":144,"updatedAt":144},"免疫力","2023-02-12T03:32:01.357Z",{"id":146,"attributes":147},161,{"name":148,"createdAt":149,"updatedAt":149},"睡眠","2023-02-12T03:32:01.363Z",{"id":151,"attributes":152},160,{"name":153,"createdAt":149,"updatedAt":149},"失眠",{"id":3,"attributes":155},{"name":156,"createdAt":35,"updatedAt":35},"生物鐘",{"data":6},{"id":37,"attributes":159},{"title":160,"excerpt":6,"content":161,"slug":162,"createdAt":163,"updatedAt":163,"author":164,"categories":165,"tags":169,"image":179},"3歲定80？","\n\n所謂「3歲定80」，原來也適用於腸道菌叢😯。從母親懷孕至孩子3歲前，腸道微生物十分不穩定，容易受環境影響，因此3歲前是建立有益腸道菌群的黃金時期，對孩子日後的健康攸關重要。\n\n不少研究發現當腸道微生物失衡，即惡菌增加而益菌減少的時候，會引致不同疾病，例如炎症性腸病、糖尿病、肥胖，嚴重者更可誘發癌症😖。而兒童皮膚過敏、濕疹、自閉症等，更與腸道細菌息息相關。中大醫學院一項研究比較了150名自閉症兒童與健康兒童的腸道細菌群，發現自閉症兒童的腸道多出5至6種「惡菌」，少了3至4種「益菌」😱。研究結果顯示如能盡早發現腸道菌群不平衡，可望更有效預防並治療自閉症。\n\n那麼過了3歲，是否就無法逆轉腸道菌群失衡呢？幸好答案並非如此😌。我們可以透過不同方法改變腸道微生物，包括：\n\n🔶 不要胡亂服用抗生素，以免破壞腸道益菌\n\n🔶 多吃蔬果及其他高纖食物，有助增加腸道益菌\n\n🔶 少吃含添加劑的食物和加工食品，因添加劑會破壞腸道益菌，引致腸道發炎，更可能導致肥胖或炎症性腸病\n\n🔶 多做運動，有研究指出馬拉松跑手的腸道益生菌較沒有跑馬拉松的人為多\n\n🔶 適量補充益生菌，但必須注意菌株和菌種，以及能否有效黏","post200323","2020-03-23T00:00:00.000Z",{"data":6},{"data":166},[167],{"id":14,"attributes":168},{"slug":16,"name":17,"description":6,"createdAt":18,"updatedAt":18},{"data":170},[171,173,175],{"id":141,"attributes":172},{"name":143,"createdAt":144,"updatedAt":144},{"id":136,"attributes":174},{"name":138,"createdAt":139,"updatedAt":139},{"id":176,"attributes":177},159,{"name":178,"createdAt":139,"updatedAt":139},"益生菌",{"data":6},{"id":181,"attributes":182},162,{"title":183,"excerpt":6,"content":184,"slug":185,"createdAt":186,"updatedAt":186,"author":187,"categories":188,"tags":192,"image":198},"保腸保命保健康","\n\n不少人都知道，70%免疫細胞在腸道生成；這些免疫細胞的防禦作戰能力🤺，決定了能否阻擋細菌病毒進入體內肆虐。\n\n腸道的神經系統有1億以上的神經細胞🤯，透過迷走神經影響全身的器官，包括大腦。\n\n被譽為快樂荷爾蒙的血清素😄，95%居住在腸道，與我們的睡眠、食慾、喜怒哀樂息息相關。\n\n連血液的品質，也是由腸道決定😱。唯有優質的血液可以被充份運送到身體每個細胞，我們才能享受真正的健康。\n\n由此可見，腸道並不單單是垃圾車，把人體代謝出來的廢棄物收走，更是守護我們健康的堅固長城💪🏻💪🏻。\n\n未來兩星期我們將講解如何透過調整飲食營養與生活習慣，全面提升腸道健康，讓我們百毒不侵，頭腦靈活，心境舒暢🤗！","post200313","2020-03-13T00:00:00.000Z",{"data":6},{"data":189},[190],{"id":14,"attributes":191},{"slug":16,"name":17,"description":6,"createdAt":18,"updatedAt":18},{"data":193},[194,196],{"id":136,"attributes":195},{"name":138,"createdAt":139,"updatedAt":139},{"id":141,"attributes":197},{"name":143,"createdAt":144,"updatedAt":144},{"data":6},{"id":136,"attributes":200},{"title":201,"excerpt":6,"content":202,"slug":203,"createdAt":204,"updatedAt":204,"author":205,"categories":206,"tags":210,"image":219},"維他命C吃多少才足夠？","\n\n上一篇＜活學營養＞文章提及維他命C可有效增強免疫力，基本上凡哺乳類動物都會自行製造維他命C，只有四類不會，就是人類、猴子、天竺鼠及蝙蝠。原始人沒速食文化，沒珍珠奶茶🙈，大多以蔬果維生，推算一天可以從食物中攝取2,300毫克維他命C，相當足夠；反之現代人常吃加工食品，且高溫煮食令維他命C及其他營養素流失，據統計美國人一天的維他命C攝取量平均僅為70毫克😯。\n\n現代大部份疾病都與身體發炎有關，補充維他命C可抗發炎，抗衰老，抗癌化💪💪。此外，有助體能改善的肉鹼、抗壓力的腎上腺荷爾蒙，以及令皮膚緊緻的膠原蛋白等的合成，都需要維他命C。\n\n維他命C那麼重要，那麼一天需攝取多少維他命C才足夠呢？兩奪諾貝爾獎的著名科學家萊納斯鮑林（Linus Pauling）表示，維他命C有兩種劑量：一是政府所建議「免於死亡」的劑量，通常為一天75至100毫克；二是令身體健康不生病的劑量，鮑林博士沒硬性建議多少，他自己一天則攝取3,000至18,000毫克。\n\n後者份量看似驚人，但與人類體重相似的山羊，每天會自行製造13,000毫克維他命C；生病或受傷時，更會製造高達100,000毫克維他命C😱！只要我們攝取的維他命C是提取自天然蔬果（有機更佳），蘊含生物類黃酮及其他植物營養素☘，即使過量，身體也只會輕瀉排掉，不會產生結石或其他副作用，大家不用擔心😉。\n","post200229","2020-02-29T00:00:00.000Z",{"data":6},{"data":207},[208],{"id":14,"attributes":209},{"slug":16,"name":17,"description":6,"createdAt":18,"updatedAt":18},{"data":211},[212,217],{"id":213,"attributes":214},156,{"name":215,"createdAt":216,"updatedAt":216},"維他命C","2023-02-12T03:32:01.361Z",{"id":141,"attributes":218},{"name":143,"createdAt":144,"updatedAt":144},{"data":6},{"id":176,"attributes":221},{"title":222,"excerpt":6,"content":223,"slug":224,"createdAt":225,"updatedAt":225,"author":226,"categories":227,"tags":231,"image":240},"理性面對COVID-19　慎而不慌","\n\n關於新型冠狀病毒，坊間資訊繁多📖，在此整理一下：這新型病毒是一種冠狀病毒，SARS和MERS都屬於這類型。此類病毒可以由飛沫🗣傳播，也可以經氣溶膠即霧化傳播。這特性與流感病毒一樣，故此並非如肺結核般能經空氣傳染的類型。\n\n簡而言之，如不少研究所指，新冠肺炎病毒要騎著重重的水點💧才可以飛行；若要四處飛，就要有人刻意製造霧化，或向對方迎面噴出帶有病毒的水點才行。觸摸到病毒不用擔心，因病毒是不會穿透皮膚的；但若觸摸到病毒而沒洗手，然後又觸摸了眼口鼻，就有很大機會感染。所以要勤洗手🤲，就是這個原因。\n\n😷口罩方面，配戴N95是否更好？當然不是。N95是用來防止空氣傳染，除非你在做霧化程序，製造了氣溶膠，否則N95是不會帶來額外保護的。若N95戴得不舒服，又不斷用髒手將口罩弄來弄去，感染風險反而會大大增加。\n\n一個人是否生病，要看病毒到達呼吸道的多寡並令其發病的能力，而最重要的就是看我們的抵抗力💪。武漢大學中南醫院重症醫學科主任彭志勇教授上周透露，其團隊正在進行以大劑量維他命C治療新冠肺炎的臨床試驗，同時明確表示普羅大眾也可以服用維C來預防新冠病毒。「當年非典的時候，我們每個人都發了維生素C泡騰片，確實有預防效果。」上月底中央電視台專訪國家醫療救治專家組童朝暉教授，他亦表示「維C已經有大量證據證明是可以抗病毒，所以說我們日常吃蔬菜也好，補充維C也好，是可以增強機體的防禦能力，能夠抗擊病毒，包括新型冠狀病毒。」\n\n補充維他命C時，宜選擇有機蔬果🍎，營養補充品亦然。合成維他命C人體未必能完全吸收，故應當選擇由有機植物萃取的維他命C，後者含植物營養素「生物類黃酮」，可以大大提升維他命C的生物利用率至單純維他命C的1.63倍，增強免疫力就事半功倍！","post200220","2020-02-20T00:00:00.000Z",{"data":6},{"data":228},[229],{"id":14,"attributes":230},{"slug":16,"name":17,"description":6,"createdAt":18,"updatedAt":18},{"data":232},[233,238],{"id":234,"attributes":235},150,{"name":236,"createdAt":237,"updatedAt":237},"病毒","2023-02-12T03:32:01.356Z",{"id":213,"attributes":239},{"name":215,"createdAt":216,"updatedAt":216},{"data":6},{"id":242,"attributes":243},157,{"title":244,"excerpt":6,"content":245,"slug":246,"createdAt":247,"updatedAt":247,"author":248,"categories":249,"tags":253,"image":257},"病毒是甚麼？","\n近來令人聞風喪膽的武漢肺炎，是由一種傳播力極高的新型病毒所引起。讓我們一起了解對手，裝備自己。\n\n病毒被定義為非生物粒子，必須依賴寄主例如人類、動物、植物甚至細菌來幫忙為自己繁殖後代。\n\n病毒是可怕的，現今近乎沒有無害病毒的存在。絕大部份的病毒均會為動物及人類帶來疾病，釀成大量豬隻死亡的非洲豬瘟病毒，以及引起非典型肺炎的SARS和武漢肺炎的WARS便是近來常在新聞聽到的病毒名字。\n\n暫時全世界皆未有疫苗可以直接應付這種病毒(2003年SARS病毒的疫苗需要6個月時間才成功研發並量產)，抗生素亦對病毒起不了任何作用。那麼我們應該如何自處？下一篇文章會與大家一起探討。\n\n參考影片：https:\u002F\u002Fyoutu.be\u002FE46_veB0DPU","post200203","2020-02-03T00:00:00.000Z",{"data":6},{"data":250},[251],{"id":14,"attributes":252},{"slug":16,"name":17,"description":6,"createdAt":18,"updatedAt":18},{"data":254},[255],{"id":234,"attributes":256},{"name":236,"createdAt":237,"updatedAt":237},{"data":6},{"id":259,"attributes":260},165,{"title":261,"excerpt":6,"content":262,"slug":263,"createdAt":264,"updatedAt":264,"author":265,"categories":266,"tags":274,"image":279},"瑞鼠迎春","\n\n謝謝大家在豬年對Empower的鼎力支持！🥰🥰\n踏入鼠年，我們再次以Empower五位創辦人的名字為題，祝願大家：\n⭐️瑞氣盈門三陽泰，鼠年康寧百事興。迎樂接福納千祥，春滿花田萬山萌⭐️\n\n#瑞鼠迎春 #新年勝舊年","post200125","2020-01-25T00:00:00.000Z",{"data":6},{"data":267},[268],{"id":269,"attributes":270},2,{"slug":271,"name":272,"description":6,"createdAt":273,"updatedAt":273},"reflection","感悟隨筆","2023-02-12T02:39:02.692Z",{"data":275},[276],{"id":259,"attributes":277},{"name":278,"createdAt":118,"updatedAt":118},"",{"data":6},{"id":151,"attributes":281},{"title":282,"excerpt":6,"content":283,"slug":284,"createdAt":285,"updatedAt":285,"author":286,"categories":287,"tags":291,"image":298},"免疫力下降成因-身理、心理","\n\n踏入流感高峰期，大家都更關注身體狀況，「增強免疫力」更是各人鎯鎯上口的口頭禪。其實免疫力是衡量一個人身體健康指數最為關鍵的因素之一，一個人的免疫力過低就會引起各種疾病，不利於身體健康。那麼引起人體免疫力下降的原因有哪些呢？\n\n原因大致可分為生理及心理兩方面：\n\n生理方面，主要是內分泌系統不能正常運作，過度勞累、營養失衡、運動不當及身體老化等因素都會令新陳代謝不良，從而影響內分泌系統，再而令免疫力下降。\n\n心理方面，情緒不穩定會影響植物性神經，從而造成更大的疾病。都市人壓力過大便是引致免疫力下降的常見原因。\n\n下回將講解如何從飲食習慣提升免疫力，萬勿錯過啊！","post200112","2020-01-12T00:00:00.000Z",{"data":6},{"data":288},[289],{"id":14,"attributes":290},{"slug":16,"name":17,"description":6,"createdAt":18,"updatedAt":18},{"data":292},[293,295],{"id":141,"attributes":294},{"name":143,"createdAt":144,"updatedAt":144},{"id":242,"attributes":296},{"name":297,"createdAt":216,"updatedAt":216},"內分泌",{"data":6},{"pagination":300},{"page":301,"pageSize":302,"pageCount":303,"total":304},8,12,10,116],"uses":{"dependencies":["http://127.0.0.1:1337/api/posts?sort=createdAt%3Adesc&populate[author]=true&populate[categories]=true&populate[tags]=true&populate[image]=true&pagination[page]=8&pagination[pageSize]=12"],"params":["page","category"]}}]}