{"type":"data","nodes":[{"type":"data","data":[{"categories":1,"event_categories":27},[2,9,15,21],{"id":3,"attributes":4},1,{"slug":5,"name":6,"description":7,"createdAt":8,"updatedAt":8},"nutrition","營養隨筆",null,"2023-02-12T02:39:02.691Z",{"id":10,"attributes":11},2,{"slug":12,"name":13,"description":7,"createdAt":14,"updatedAt":14},"reflection","感悟隨筆","2023-02-12T02:39:02.692Z",{"id":16,"attributes":17},3,{"slug":18,"name":19,"description":7,"createdAt":20,"updatedAt":20},"fitness","運動筆記","2023-02-12T02:39:02.697Z",{"id":22,"attributes":23},4,{"slug":24,"name":25,"description":7,"createdAt":26,"updatedAt":26},"spiritual","心靈勵志","2023-02-12T02:39:02.698Z",[28,33,38,43,47,52],{"id":3,"attributes":29},{"name":30,"slug":31,"description":7,"createdAt":32,"updatedAt":32},"讀書會","book-sharing","2023-02-12T02:38:55.939Z",{"id":16,"attributes":34},{"name":35,"slug":36,"description":7,"createdAt":37,"updatedAt":37},"文化導賞","cultural","2023-02-12T02:38:55.943Z",{"id":22,"attributes":39},{"name":40,"slug":41,"description":7,"createdAt":42,"updatedAt":42},"遊山玩水","hiking","2023-02-12T02:38:55.946Z",{"id":44,"attributes":45},5,{"name":46,"slug":18,"description":7,"createdAt":42,"updatedAt":42},"健體運動",{"id":48,"attributes":49},6,{"name":50,"slug":5,"description":7,"createdAt":51,"updatedAt":51},"活學營養","2023-02-12T02:38:55.947Z",{"id":10,"attributes":53},{"name":54,"slug":55,"description":7,"createdAt":56,"updatedAt":57},"名人面對面","be-our-guest","2023-02-12T02:38:55.942Z","2023-03-08T13:16:12.875Z"],"uses":{"dependencies":["http://127.0.0.1:1337/api/categories?","http://127.0.0.1:1337/api/event-categories?"]},"slash":"always"},{"type":"data","data":[{"data":1,"meta":36},[2,22],{"id":3,"attributes":4},8,{"start_date":5,"title":6,"content":7,"excerpt":8,"slug":9,"end_date":10,"tags":11,"createdAt":12,"updatedAt":12,"event_categories":13,"image":21},"2017-02-11","春日品茶趣·輕茶道","\n\n一片春日的落英，搭配微微的茶香，好不愜意。\u003Cbr\u003E\nEmpower 榮幸邀得瑜茶舍創辦人 Catherine，為我們開辦“春日品茶趣·輕茶道”工作坊，內容包括：\u003Cbr\u003E\n- 茶藝表演\u003Cbr\u003E\n- 茶文化及茶藝講解\u003Cbr\u003E\n- 何謂六大茶類\u003Cbr\u003E\n- 茶器運用\u003Cbr\u003E\n- 茶與禮儀\u003Cbr\u003E\n- 品茗一至兩種茶品\u003Cbr\u003E\n- 問答環節\u003Cbr\u003E\n⭐ 導師：Ms Catherine Yung，自幼跟隨經營普洱茶葉生意的媽媽穿梭中港兩地，拜訪不同茶道老師，登雲南茶山採茶葉。為令茶道年青化和時尚化，4年前創辦瑜茶舍，以平易近人的品茗體驗，讓更多年輕人能透過實地教學，領略傳統茶道之美","","tea1702",null,"茶道,荼藝","2017-02-11T00:00:00.000Z",{"data":14},[15],{"id":16,"attributes":17},3,{"name":18,"slug":19,"description":10,"createdAt":20,"updatedAt":20},"文化導賞","cultural","2023-02-12T02:38:55.943Z",{"data":10},{"id":23,"attributes":24},5,{"start_date":25,"title":26,"content":27,"excerpt":8,"slug":28,"end_date":10,"tags":29,"createdAt":30,"updatedAt":30,"event_categories":31,"image":35},"2017-01-14","蛻變・美荷樓","\n\n2017年，Empower將安排各類歷史文化與藝術導賞團。1月我們將率先參觀被評為二級歷史建築的美荷樓。\u003Cbr\u003E\n美荷樓建於1954年，為現時碩果僅存的H型徒置大廈，亦是香港最早期公屋。活化後的美荷樓今日用作青年旅舍，並設有名為「美荷樓生活館」的展覽館，展示1950至70年代居民的生活寫照，以及他們艱苦奮進、自強不息的感人故事。\nEmpower榮幸邀得親身參與美荷樓活化工程的香港青年旅舍協會前主席黃奕鑑先生(Michael)為我們作星級導賞。Michael為新鴻基集團前執行董事，現為香港公開大學校董會主席。Michael 將引領我們走進美荷樓從徒置大廈蛻變為現代青年旅舍的超時空旅程，介紹老一輩香港人的生活起居，分享大導演吳宇森、資深大律師陳志海等名人的童年往事，體現無懼艱辛、肯捱肯搏的香港精神。\u003Cbr\u003E","cultural170114","美荷樓","2017-01-14T00:00:00.000Z",{"data":32},[33],{"id":16,"attributes":34},{"name":18,"slug":19,"description":10,"createdAt":20,"updatedAt":20},{"data":10},{"pagination":37},{"page":16,"pageSize":38,"pageCount":16,"total":39},12,26],"uses":{"dependencies":["http://127.0.0.1:1337/api/events?sort=start_date%3Adesc&populate[author]=true&populate[event_categories]=true&populate[image]=true&pagination[page]=3&pagination[pageSize]=12&filters[event_categories][slug]=cultural"],"params":["page","category"]}}]}