{"type":"data","nodes":[{"type":"data","data":[{"categories":1,"event_categories":27},[2,9,15,21],{"id":3,"attributes":4},1,{"slug":5,"name":6,"description":7,"createdAt":8,"updatedAt":8},"nutrition","營養隨筆",null,"2023-02-12T02:39:02.691Z",{"id":10,"attributes":11},2,{"slug":12,"name":13,"description":7,"createdAt":14,"updatedAt":14},"reflection","感悟隨筆","2023-02-12T02:39:02.692Z",{"id":16,"attributes":17},3,{"slug":18,"name":19,"description":7,"createdAt":20,"updatedAt":20},"fitness","運動筆記","2023-02-12T02:39:02.697Z",{"id":22,"attributes":23},4,{"slug":24,"name":25,"description":7,"createdAt":26,"updatedAt":26},"spiritual","心靈勵志","2023-02-12T02:39:02.698Z",[28,33,38,43,47,52],{"id":3,"attributes":29},{"name":30,"slug":31,"description":7,"createdAt":32,"updatedAt":32},"讀書會","book-sharing","2023-02-12T02:38:55.939Z",{"id":16,"attributes":34},{"name":35,"slug":36,"description":7,"createdAt":37,"updatedAt":37},"文化導賞","cultural","2023-02-12T02:38:55.943Z",{"id":22,"attributes":39},{"name":40,"slug":41,"description":7,"createdAt":42,"updatedAt":42},"遊山玩水","hiking","2023-02-12T02:38:55.946Z",{"id":44,"attributes":45},5,{"name":46,"slug":18,"description":7,"createdAt":42,"updatedAt":42},"健體運動",{"id":48,"attributes":49},6,{"name":50,"slug":5,"description":7,"createdAt":51,"updatedAt":51},"活學營養","2023-02-12T02:38:55.947Z",{"id":10,"attributes":53},{"name":54,"slug":55,"description":7,"createdAt":56,"updatedAt":57},"名人面對面","be-our-guest","2023-02-12T02:38:55.942Z","2023-03-08T13:16:12.875Z"],"uses":{"dependencies":["http://127.0.0.1:1337/api/categories?","http://127.0.0.1:1337/api/event-categories?"]},"slash":"always"},{"type":"data","data":[{"data":1,"meta":176},[2,22,42,55,70,83,96,109,123,136,150,163],{"id":3,"attributes":4},5,{"title":5,"content":6,"start_date":7,"excerpt":8,"slug":9,"end_date":10,"tags":11,"createdAt":12,"updatedAt":12,"event_categories":13,"image":21},"蛻變・美荷樓","\n\n2017年，Empower將安排各類歷史文化與藝術導賞團。1月我們將率先參觀被評為二級歷史建築的美荷樓。\u003Cbr\u003E\n美荷樓建於1954年，為現時碩果僅存的H型徒置大廈，亦是香港最早期公屋。活化後的美荷樓今日用作青年旅舍，並設有名為「美荷樓生活館」的展覽館，展示1950至70年代居民的生活寫照，以及他們艱苦奮進、自強不息的感人故事。\nEmpower榮幸邀得親身參與美荷樓活化工程的香港青年旅舍協會前主席黃奕鑑先生(Michael)為我們作星級導賞。Michael為新鴻基集團前執行董事，現為香港公開大學校董會主席。Michael 將引領我們走進美荷樓從徒置大廈蛻變為現代青年旅舍的超時空旅程，介紹老一輩香港人的生活起居，分享大導演吳宇森、資深大律師陳志海等名人的童年往事，體現無懼艱辛、肯捱肯搏的香港精神。\u003Cbr\u003E","2017-01-14","","cultural170114",null,"美荷樓","2017-01-14T00:00:00.000Z",{"data":14},[15],{"id":16,"attributes":17},3,{"name":18,"slug":19,"description":10,"createdAt":20,"updatedAt":20},"文化導賞","cultural","2023-02-12T02:38:55.943Z",{"data":10},{"id":23,"attributes":24},4,{"title":25,"content":26,"start_date":27,"excerpt":28,"slug":29,"end_date":10,"tags":30,"createdAt":31,"updatedAt":31,"event_categories":32,"image":41},"擁抱改變，乘勢而起，創出科網新天地","\n\n⭐英國海歸的Kevin，於香港大學會計及金融專業畢業後，隨己身興趣從事TMT(Technology, Media, Telecommunications) 領域之工作，工作數年有見中國內地科技及互聯網迅速發展，Kevin 捉緊機會，孤身一人北上至北京創業。首次創業已參與內地互聯網業務，以 COO及合夥人身份在北京中關村參與創建國內首個互聯網互動手機媒體平臺台－miniV，為國內最早基於地理位置定位技術的視頻交友社區之一。\n\n⭐公司產品上線並被併購後，於2011年回到香港創立紅點子創作(香港)有限公司，早著先機，專注於開發自家的AR、VR和3D等高新科技視覺技術領域業務，相關科技亦於近年逐步冒起，多年累積的經驗和技術造就了公司於此領域的領先地位，公司業務遍及中港澳台、日本、加拿大及歐洲等地。\n\n⭐積極擁抱改變，捕捉社會趨勢。是甚麼個人理想令Kevin可以堅持渡過創業時期的艱辛？經歷中又有甚麼反思？Kevin會帶我們一一細味。\n\n日期：2016年12月17日(星期六)\u003Cbr\u003E\n時間：晚上7:15-9:30\u003Cbr\u003E\n地點：九龍旺角登打士街56號柏裕商業中心15樓安利體驗館\u003Cbr\u003E\n費用：$150 (包括社企有營輕食)\n","2016-12-17","紅點子創作創辦人兼行政總裁 李嘉俊先生(Kevin) ","kevin-lee","創業","2016-12-17T00:00:00.000Z",{"data":33},[34],{"id":35,"attributes":36},2,{"name":37,"slug":38,"description":10,"createdAt":39,"updatedAt":40},"名人面對面","be-our-guest","2023-02-12T02:38:55.942Z","2023-03-08T13:16:12.875Z",{"data":10},{"id":16,"attributes":43},{"title":44,"content":45,"start_date":46,"excerpt":47,"slug":48,"end_date":10,"tags":30,"createdAt":49,"updatedAt":49,"event_categories":50,"image":54},"以天賦與興趣　改寫人生方程式","\n\n看Stephen履歷，百份百是人生勝利組：會考十優狀元，香港中文大學訊息工程系學士，美國史丹福大學電子工程系碩士，畢業後獲聘為雅虎香港第二位程式員。回港後獲邀到剛成立的TVB.com出任首席技術官(CTO)，開發TVB首個互聯網產品 myTV。擁有高薪厚職，Stephen卻毅然放棄，與兩位中學同學成立遊戲發佈平台Memoriki，並領導原公司旗下項目QooApp自立門戶，專門服務日韓遊戲玩家。成立兩年來，在不費一文宣傳下，已在全球錄得逾1,100萬次下載，成為廣受歡迎的日韓手機遊戲平台。\n\n如此少年得志，卻沒半點飛揚跋扈，與Stephen的童年經歷不無關係。Stephen幼年喪父，母親靠綜援獨力把他和兩個弟弟撫養成人。故此其童年夢想很簡單，就是希望如學校排球隊其他隊員般，擁有一雙像樣的運動鞋，不用只穿「白飯魚」。選擇創立遊戲平台，也是源於自小喜歡打機，按興趣把事情專心做好。\n\n由科網熱、web2.0、Facebook app到手遊平台，Stephen每次都在最合適的時機轉換跑道。他是如何有此眼光？成長的經歷，對他打工和創業又有何影響？同時，Stephen亦會解構備受青少年熱愛的二次元文化為何物，以及二次元文化對今後社會經濟舉足輕重的影響。\n\n日期：2016年11月27日(星期日)\u003Cbr\u003E\n時間：晚上7:15-9:30\u003Cbr\u003E\n地點：九龍旺角登打士街56號柏裕商業中心15樓安利體驗館C室\u003Cbr\u003E\n費用：$150 (包括自家製美味沙律及社企有營輕食)\n","2016-11-27","QooApp創辦人蒲得志先生(Stephen)","stephen","2016-11-27T00:00:00.000Z",{"data":51},[52],{"id":35,"attributes":53},{"name":37,"slug":38,"description":10,"createdAt":39,"updatedAt":40},{"data":10},{"id":56,"attributes":57},136,{"title":58,"content":59,"start_date":60,"excerpt":61,"slug":62,"end_date":10,"tags":63,"createdAt":64,"updatedAt":64,"event_categories":65,"image":69},"畢業旋即創業　經歷九死一生","\n\n「100% made in HK」的林曉鋒博士(Alan)，1999年於香港中文大學工程學院機械與自動化工程學系畢業，再取得碩士和博士學位。2004年博士畢業前，當時年僅27歲的他決定創業，創辦以研發動作感應技術為主的Sengital Limited 港科研有限公司，現時服務不同公職並兼任城市大學電子工程學系客席教授和職訓局講師，2015年當選香港十大傑出青年。為進一步推廣閱讀及創意，Alan決定執筆，現已出版多本勵志書、個人化兒童圖書及STEM科技教育叢書。\n \nAlan由研發動作感應遊戲機手掣，至進軍醫療設備，及後轉戰遙控直升機周邊產品，至今時今日涉足設計、餐飲、服裝及出版界，這10年間經歷不夠資金出糧，未能準時出貨而虧損逾700多萬元等窘境，可謂走過高山低谷，經歷「九死一生」。\n \n他指100家初創公司中，5年內近90家倒閉，最終能過渡10年的不足1%。Alan將與我們分享如何克服創業的重重難關，特別是如何把握首5年，善用順境時的資源，應對逆境時的挑戰，並令公司發展步入正軌，平穩渡過第二個5年。他亦會分享如何踏上傑青之路，並成為科技界文青、IT界才子的夢想。\n\n\n日期：2016年10月29日(星期六)\u003Cbr\u003E\n時間：晚上7:15-9:30\u003Cbr\u003E\n地點：九龍旺角登打士街56號柏裕商業中心15樓安利體驗館 C室\u003Cbr\u003E\n費用：$150 (包括自家製美味有營沙律及三文治)\n","2016-10-29","科研家、企業家、作家、「不一樣的傑青」林曉鋒博士","alan-lam","年輕創業","2021-01-10T00:00:00.000Z",{"data":66},[67],{"id":35,"attributes":68},{"name":37,"slug":38,"description":10,"createdAt":39,"updatedAt":40},{"data":10},{"id":71,"attributes":72},134,{"title":73,"content":74,"start_date":75,"excerpt":76,"slug":77,"end_date":10,"tags":8,"createdAt":64,"updatedAt":64,"event_categories":78,"image":82},"終生學習 擁抱變化","\n\n冼家逸先生(Eric)畢業於香港城市大學工商管理學系，沒得過甚麼高大上的獎項，打工仔一個，卻又不太尋常。\n\n政策研究、報紙、互聯網服務、企業融資、網上廣告、數據中心、展覽、電子出版、線上支付、電子商貿以至信用卡業務，看似不同領域的行業，Eric都曾涉獵，並在不同崗位留下奇妙的故事足跡；英國、美國、西班牙、印度、中國、新加坡、台灣、越南、印尼、泰國以至巴基斯坦，都因工作需要而踏足，相熟的士司機以為他是做飛機師的（懶懶的他總是坐的士出入機場，有些司機已經叫得出他的名字 😎）。\n\n因為老頂一句：「我覺得你的市場學理論有點舊囉」，而奮起修讀了市場傳訊學碩士；由於買屋裝修而修讀了樓宇管理課程；為了不喜歡自己的iPhone而報復，唸了Android程式編寫文憑 😱 …… 像到處尋找精靈一樣，吸收了一堆堆看似互不相干的知識，結果也與精靈們一樣大受歡迎，成為阿里巴巴、PayPal等大企業爭相羅致的對象。\n\nEric 將分享其有趣的工作經歷及堅持不懈的信念，細訴如何在擁抱變化的同時，反過來帶動變化。期望在與參加者的互動中，一同尋找各自心中的奇思妙想。\n\n日期：2016年9月24日(星期六)\u003Cbr\u003E\n時間：晚上7:00-9:30\u003Cbr\u003E\n地點：九龍旺角登打士街56號柏裕商業中心15樓安利體驗館 Cooking Studio\u003Cbr\u003E\n費用：$150 (包括自家製美味有營晚餐)\n","2016-09-24","萬事達卡商業支付業務主管冼家逸先生(Eric)","eric-sin",{"data":79},[80],{"id":35,"attributes":81},{"name":37,"slug":38,"description":10,"createdAt":39,"updatedAt":40},{"data":10},{"id":84,"attributes":85},130,{"title":86,"content":87,"start_date":88,"excerpt":89,"slug":90,"end_date":10,"tags":8,"createdAt":64,"updatedAt":64,"event_categories":91,"image":95},"修己善群　治病醫心","\n\n梁裕龍醫生(Dexter)以一級榮譽畢業於香港中文大學，並為英國格拉斯哥皇家醫學院外科院士及英國皇家眼科醫學院院士。現於養和醫院任職，兼任香港中文大學眼科及視覺科學學系名譽臨床助理教授。Dexter 是正常眼壓型青光眼專家，發表的論文逾65篇，贏得多個國際獎項，包括著名的美國眼科學院的最佳論文獎。\n\n本著其中學校訓「修己善群」的精神，Dexter 多年來積極參與預防及治療青光眼的義務工作，不但創辦「世界青光眼日 —— 香港站」並出任召集人，更在內地開展「亮睛工程」，推動偏遠地區的防盲及扶貧工作，為病人解除視障之餘，也解除他們的心障，讓人生重現色彩。治病更醫心，其仁心仁術與貢獻社會的精神，讓他榮膺2010年度香港十大傑出青年。\n\nDexter 將與我們分享其杏林成長路，讓我們了解如何在繁忙的醫護工作中，依然可以秉持人生使命，竭力服務社群，達致「臻善存德，居高懷仁」(Excellence with a Soul, Leadership with a Heart)。\n\n\n日期：2016年7月24日(星期日)\u003Cbr\u003E\n時間：晚上7:00-9:30\u003Cbr\u003E\n地點：九龍旺角登打士街56號柏裕商業中心15樓安利體驗館 Cooking Studio\u003Cbr\u003E\n費用：$150 (包括自家製美味有營晚餐)\n","2016-07-24","現任香港眼科學會會長、青光眼專家、香港十大傑出青年梁裕龍醫生","dexter-leung",{"data":92},[93],{"id":35,"attributes":94},{"name":37,"slug":38,"description":10,"createdAt":39,"updatedAt":40},{"data":10},{"id":97,"attributes":98},135,{"title":99,"content":100,"start_date":101,"excerpt":102,"slug":103,"end_date":10,"tags":8,"createdAt":64,"updatedAt":64,"event_categories":104,"image":108},"敢夢敢動　魔幻人生","\n張君恒先生(Kelvin)畢業於香港中文大學新亞書院藝術系，現職大學行政人員。熱愛魔術，積極參與本地魔術發展、製作及演出，單在2016年開首至今，已先後擔任「中國深圳魔術藝術節」及香港魔術家協會「香港青年魔術節」的表演嘉賓，並在「The Assembly 2016」香港魔術大會負責製作及演出。Kelvin亦是香港專業魔術團隊「The Ace Assembly」一員，自2015年起，與香港著名魔法主持人Harry 哥哥共同製作每月於藝穗會舉辦一次的「Magic at the Fringe」。\n\n曾獲獎項包括2014年香港魔術學院 Real Magic 全港舞台魔術比賽公開組冠軍、2014年香港魔術家協會香港公開舞台魔術大賽冠軍，以及2015年亞洲魔術大賽舞台魔術亞軍及最佳原創獎。願望是令香港魔術，能在世界佔一重要席位。\n\nKelvin 亦為香港本地魔術師設計及製作道具，曾出任毛記電視「萬千呃Like賀台慶 - 東方特異功能」、香港管弦樂團「Harry Wong's Christmas」、舞台劇「尋魂記之消失的女孩」、Yeah Show 2015 佈道會及香港電視「開台禮」的道具顧問。\n\nKelvin 將分享他如何在繁忙的工作中，繼續追尋魔術夢。同時，年紀輕輕已先後到訪俄羅斯、烏克蘭、斯洛文尼亞、拉脫維亞、匈牙利、奧地利、捷克、波蘭、蒙古等地的他，亦會分享遨遊四方的精彩經歷，帶動我們活出敢夢敢動的豐盛人生。\n\n⚡同場更會加映奇幻魔術表演，萬勿錯過！😎\n\n日期：2016年6月25日(星期六)\u003Cbr\u003E\n時間：晚上7:00-9:30\u003Cbr\u003E\n地點：九龍旺角登打士街56號柏裕商業中心15樓安利體驗館 Cooking Studio\u003Cbr\u003E\n費用：$150 (包括自家製美味有營晚餐)\n","2016-06-25","香港公開舞台魔術大賽冠軍張君恒先生(Kelvin)","kelvin-cheung",{"data":105},[106],{"id":35,"attributes":107},{"name":37,"slug":38,"description":10,"createdAt":39,"updatedAt":40},{"data":10},{"id":110,"attributes":111},168,{"title":112,"content":113,"start_date":114,"excerpt":115,"slug":116,"end_date":10,"tags":8,"createdAt":117,"updatedAt":117,"event_categories":118,"image":122},"堅毅自強 璀璨人生 ","\n\n三年前退休、人稱伍 sir 的黃大仙警署前警署警長伍強，36年前在觀塘街頭截查可疑人物時，遭對方冷槍射擊，子彈貫穿脊椎及肝臟，只得20歲出頭及僅出「學堂」一年的他，慘成半身不遂。失去一雙腿的他，並沒因此失去鬥志，繼續留在警隊工作，成為全港首名亦是全球首名「輪椅警察」，更憑努力屢獲晉升，讓原本遺憾的警察生涯，過得豐盛無悔。 \n\n工作以外，伍 sir 更投入輪椅籃球運動。輪椅籃球與普通籃球的玩法不同，需一手控制籃球，另一手控制輪椅，難度極高。惟伍 sir 無懼難度與挑戰，多年來一直積極參與，更不時代表香港往外地作賽，兩度獲得最佳運動員榮譽。之後伍 sir 轉當教練，教導殘障人士作賽，同時積極參與義務工作，鼓勵更多傷殘人士走出陰霾，面對社會，廣結朋友，積極向前。\n\n伍 sir 將與我們分享其生命的高山低谷，如何面對逆境，自強不息，並將兒子、長兄、丈夫、警察、運動員、教練以至義工不同角色均做得盡善盡美，締建美好家庭與事業，成就光輝人生！\n\n日期：2016年5月22日(星期日)\u003Cbr\u003E\n時間：晚上7:00-9:30\u003Cbr\u003E\n地點：九龍旺角登打士街56號柏裕商業中心15樓安利體驗館 Cooking Studio\u003Cbr\u003E\n費用：$150 (包括自家製美味有營晚餐)\n\n","2016-05-22","全球首位「輪椅警察」兼香港最佳運動員伍強先生","ng-cheung","2023-02-12T03:35:51.749Z",{"data":119},[120],{"id":35,"attributes":121},{"name":37,"slug":38,"description":10,"createdAt":39,"updatedAt":40},{"data":10},{"id":124,"attributes":125},144,{"title":126,"content":127,"start_date":128,"excerpt":129,"slug":130,"end_date":10,"tags":63,"createdAt":64,"updatedAt":64,"event_categories":131,"image":135},"年輕也可以不一樣","\n\nMedia Station Ltd 創辦人麥志豪先生 (Terry) 將分析年輕人如何在職塲上突圍而出，成為老闆心目中被升職加薪的人選！還會一一分享其之前作為“打工皇帝”與現在作為創業者截然不同的得著！\n\n麥志豪 （Terry）\n🔹早年在美國康乃狄格州大學取得工商管理學碩士。回港後曾任一國際公司海外業務經理，負責發展南、北美洲的高合金銲條市場。\n\n🔹其後轉職到美國運通信用咭公司，並於30歲時擔任香港區市場總監，成為當時全球最年輕之總監。\n\n🔹曾擔任TVB助理總經理，獲老闆賞識，委派負責全球海外發行業務達14年。在任期間，開拓多條海外新頻道，亦是TVB（澳洲）衛星電視的創辦人。\n\n🔹曾任全球最大華語電影片庫的天映娛樂公司之行政副總裁，發展中文電影頻道。\n\n🔹近年創立了顧問公司 Media Station Ltd，服務海外衛星、衛星站，電訊及雲端媒體機構。更開設獵頭公司，專為電視廣播業尋找人才。\n\n🔹最近成為數家海外電視頻道公司的代理商，供應電視內容予近期盛行的網絡電視平台。\n\n🔹現任新加坡上市公司mm2 Asia Ltd之非執董\n\n🔹新加坡 MyChinaChannel Ltd 及 香港 FM Events Ltd 的股東\n\n是次名人飯局，麥先生將分享其豐富的職場上打拼的經歷，分析年輕人應如何自處，成為高管眼中的人才，在職塲上更上一層樓！\n\n日期：2016年4月17日(星期日)\u003Cbr\u003E\n時間：晚上7:00-9:30\u003Cbr\u003E\n地點：九龍旺角登打士街56號柏裕商業中心15樓安利體驗館 Cooking Studio\u003Cbr\u003E\n費用：$150 (包括自家製美味有營晚餐)\n","2016-04-17","Media Station Ltd 創辦人麥志豪先生 (Terry)","terry-mak",{"data":132},[133],{"id":35,"attributes":134},{"name":37,"slug":38,"description":10,"createdAt":39,"updatedAt":40},{"data":10},{"id":137,"attributes":138},129,{"title":139,"content":140,"start_date":141,"excerpt":142,"slug":143,"end_date":10,"tags":144,"createdAt":64,"updatedAt":64,"event_categories":145,"image":149},"以法儒治商-論創業精神與香港樓市","\n\n王文彥先生(Denny)與香港地產的關係可說是源遠流長。\n\n王先生1974年畢業於香港中文大學經濟系。大學畢業後的最初四年，他先後服務於兩間著名的房地產開發商。\n\n1978年，與施永青先生攜手創辦「中原地產代理有限公司」，自此長期擔任中原地產兩名董事總經理之一（另一人為施永青先生），為中原地產營業系統最高領導人。\n\n1992年，為了貫徹個人理念，王先生離開中原管理層（迄今仍是中原地產集團的45%股東），創立長安地產顧問行並出任其CEO。\n\n1996年，王先生聯同多間著名房地產中介公司創立了「香港專業地產顧問商會」，並獲選為首屆商會會長。\n\n1999年及2002年，王先生分別收購了香港東區著名的怡居地產有限公司及沙田久享盛譽的怡居置業有限公司，並出任其董事總經理。\n\n2009年，王先生獲香港中文大學新亞書院委任為校董，並出任至今。\n\n過去37年，千變萬變王先生有一樣始終不變，他所領導的公司，無論是中原、長安，還是怡居走的都是一條嶄新的、與普通房地產中介公司截然不同的路，堅持不參與炒樓食價，強調專業操守、專業服務及完善的企業管理，更強調地產中介公司對社會的使命感和責任。他領導下的怡居地產在過往七年捐獻港幣660萬元予香港中文大學，以及超過100萬元為國內天災賑災和幫助香港教育工作，充份顯示公司的社會企業本色。\n\n閒時，王先生喜歡執筆撰文，評論地產市況及就政治、經濟、社會、教育及文史哲等問題抒發己見，文章散見各大報刊以及中原地產網、利嘉閣地產網、地產資訊網、祥益地產網、怡居地產網及財華網等網頁。\n\n從王先生的專欄文章可以看到，他自修的文史哲修學養似較其經濟專業更高，這倒是一個有趣現象。\n\n是次名人飯局，王先生將分享其創業打拼的經歷，並為香港樓市把脈，跟與會的朋友們分享其對樓市的獨到見解與分析。\n\n日期：2016年3月12日(星期六)\u003Cbr\u003E\n時間：晚上7:00-9:30\u003Cbr\u003E\n地點：九龍旺角登打士街56號柏裕商業中心15樓安利體驗館 Cooking Studio\u003Cbr\u003E\n費用：$150 (包括自家製美味有營晚餐)\n","2016-03-12","中原地產創辦人王文彥先生","denny-wong","創業精神,香港樓市",{"data":146},[147],{"id":35,"attributes":148},{"name":37,"slug":38,"description":10,"createdAt":39,"updatedAt":40},{"data":10},{"id":151,"attributes":152},142,{"title":153,"content":154,"start_date":155,"excerpt":156,"slug":157,"end_date":10,"tags":8,"createdAt":64,"updatedAt":64,"event_categories":158,"image":162},"垃圾堆找名畫  - 由窮過乞兒到40歲退休","\n\n張國樑先生 90年代開始從事地產及地皮買賣，身邊客戶全是香港頂級富豪及商家。\n\n見盡各大企業起起跌跌的Henry，對經濟及投資市場有精闢見解，曾以獨到眼光以$4.8買入騰訊到現在。\n\nHenry常說用6歲智慧就可輕鬆地找到過千倍甚至萬倍投資(10萬都變10億)，亦樂意把箇中技術與人分享，替無數好友財務自由。\n\n今次名人飯局，Henry 除了與大家分享自己如何扭轉人生命運，亦會分析未來香港及世界經濟形勢，助大家對未來作更好的準備。\n\n日期：2016年1月17日\u003Cbr\u003E\n時間：7-10 pm\u003Cbr\u003E\n地點：AEC Cooking studio\u003Cbr\u003E\n費用：$150\n","2016-01-17","張國樑先生 (Henry)","henry-cheung",{"data":159},[160],{"id":35,"attributes":161},{"name":37,"slug":38,"description":10,"createdAt":39,"updatedAt":40},{"data":10},{"id":164,"attributes":165},145,{"title":166,"content":167,"start_date":168,"excerpt":169,"slug":170,"end_date":10,"tags":8,"createdAt":64,"updatedAt":64,"event_categories":171,"image":175},"走過高山低谷 迎來海濶天空","\n張昆隆先生是一位典型活出獅子山下拚搏精神的生意人。從8歲起已萌生各式\"生意\"念頭，為的是幫補家計、希望盡快遷出木屋區。中學畢業後，曾從事電工、裝修、泥水、珠寶等行業。憑著誠懇、勤奮的工作態度，張先生在工作數年間已成為置地廣場珠寶店的主管，收入可觀、穩定。\n\n或許，張先生受著傳統潮州人\"工字不出頭\"的思想影響，毅然放棄穩定生活，決心進軍海產業。可惜，由於創業缺乏經驗，加上屢次遇人不淑，終欠下巨債。\n\n究竟，張先生是如何從逆境中破斧沉舟賺取第一桶金，並繼續擴展業務? 經營海鲜業二十多年，現在每年營業額已逾億元。八年前更進軍飲食業，開設潮州海鲜酒家，並擁有多個物業。\n\nLeo育有四名子女，各具才能，在繁忙的工作中，卻能取得與家庭平衡。他是如何做到的? \n\n「走過高山低谷 迎來海濶天空」 - Leo 將會跟我們分享他的成功點滴。\n \n日期：2015年12月6日(星期日)\u003Cbr\u003E\n時間：晚上7:00-9:30\u003Cbr\u003E\n地點：九龍旺角登打士街56號柏裕商業中心15樓安利體驗館 Cooking Studio\u003Cbr\u003E\n費用：$150 (包括自家製美味有營晚餐)\n","2015-12-06","張昆隆先生 (Leo)","leo-cheung",{"data":172},[173],{"id":35,"attributes":174},{"name":37,"slug":38,"description":10,"createdAt":39,"updatedAt":40},{"data":10},{"pagination":177},{"page":178,"pageSize":179,"pageCount":180,"total":181},15,12,16,188],"uses":{"dependencies":["http://127.0.0.1:1337/api/events?sort=start_date%3Adesc&populate[author]=true&populate[event_categories]=true&populate[image]=true&pagination[page]=15&pagination[pageSize]=12"],"params":["page","category"]}}]}