{"type":"data","nodes":[{"type":"data","data":[{"categories":1,"event_categories":27},[2,9,15,21],{"id":3,"attributes":4},1,{"slug":5,"name":6,"description":7,"createdAt":8,"updatedAt":8},"nutrition","營養隨筆",null,"2023-02-12T02:39:02.691Z",{"id":10,"attributes":11},2,{"slug":12,"name":13,"description":7,"createdAt":14,"updatedAt":14},"reflection","感悟隨筆","2023-02-12T02:39:02.692Z",{"id":16,"attributes":17},3,{"slug":18,"name":19,"description":7,"createdAt":20,"updatedAt":20},"fitness","運動筆記","2023-02-12T02:39:02.697Z",{"id":22,"attributes":23},4,{"slug":24,"name":25,"description":7,"createdAt":26,"updatedAt":26},"spiritual","心靈勵志","2023-02-12T02:39:02.698Z",[28,33,38,43,47,52],{"id":3,"attributes":29},{"name":30,"slug":31,"description":7,"createdAt":32,"updatedAt":32},"讀書會","book-sharing","2023-02-12T02:38:55.939Z",{"id":16,"attributes":34},{"name":35,"slug":36,"description":7,"createdAt":37,"updatedAt":37},"文化導賞","cultural","2023-02-12T02:38:55.943Z",{"id":22,"attributes":39},{"name":40,"slug":41,"description":7,"createdAt":42,"updatedAt":42},"遊山玩水","hiking","2023-02-12T02:38:55.946Z",{"id":44,"attributes":45},5,{"name":46,"slug":18,"description":7,"createdAt":42,"updatedAt":42},"健體運動",{"id":48,"attributes":49},6,{"name":50,"slug":5,"description":7,"createdAt":51,"updatedAt":51},"活學營養","2023-02-12T02:38:55.947Z",{"id":10,"attributes":53},{"name":54,"slug":55,"description":7,"createdAt":56,"updatedAt":57},"名人面對面","be-our-guest","2023-02-12T02:38:55.942Z","2023-03-08T13:16:12.875Z"],"uses":{"dependencies":["http://127.0.0.1:1337/api/categories?","http://127.0.0.1:1337/api/event-categories?"]},"slash":"always"},{"type":"data","data":[{"data":1,"meta":187},[2,23,38,57,72,86,102,117,132,147,160,172],{"id":3,"attributes":4},147,{"title":5,"content":6,"start_date":7,"excerpt":8,"slug":9,"end_date":10,"tags":11,"createdAt":12,"updatedAt":12,"event_categories":13,"image":22},"拼盡無悔的運動精神","\n\n主講嘉賓：張樹槐(Walter)\u003Cbr\u003E\n- 前恒生銀行總裁高級顧問\u003Cbr\u003E\n- 恒生乒乓球學院聯合創辦人\u003Cbr\u003E\n- 達人傳訊董事總經理\u003Cbr\u003E\n- 馬拉松達人，在世界六大洲完成90多個全馬，包括全球最高的珠峰馬拉松！\n\nWalter屆時將分享：\u003Cbr\u003E\n💡 香港乒乓球運動員搖籃「恒生乒乓球學院」的創辦經過及發展歷程\u003Cbr\u003E\n💡 普通人煉成業餘運動好手的秘訣\u003Cbr\u003E\n💡 運動產業推廣的最新形態與趨勢\n\n日期：9月10日(星期五)\u003Cbr\u003E\n時間：晚上7:30-8:30\u003Cbr\u003E\n地點：旺角登打士街56號家樂坊15樓安利體驗館，同步以zoom現場直播\u003Cbr\u003E\n費用：$30 (線上線下同價) ","2021-09-10","前恒生銀行總裁高級顧問、恒生乒乓球學院聯合創辦人、馬拉松達人張樹槐(Walter)","walter-cheung-sharing",null,"乒乓球,馬拉松","2021-09-10T00:00:00.000Z",{"data":14},[15],{"id":16,"attributes":17},2,{"name":18,"slug":19,"description":10,"createdAt":20,"updatedAt":21},"名人面對面","be-our-guest","2023-02-12T02:38:55.942Z","2023-03-08T13:16:12.875Z",{"data":10},{"id":24,"attributes":25},152,{"title":26,"content":27,"start_date":28,"excerpt":29,"slug":30,"end_date":10,"tags":31,"createdAt":32,"updatedAt":32,"event_categories":33,"image":37},"品啡·追夢之旅","\n\n熱愛咖啡\u003Cbr\u003E\n至追尋咖啡\u003Cbr\u003E\n再到研發咖啡烘焙及味道配方......\u003Cbr\u003E\n遊歷世界，感受各地咖啡文化，跟隨風格殊異的咖啡師學習，由咖啡師到杯測師再到烘豆師，Yuki Kwan將帶領我們一起逐夢，細嚼咖啡裡的情懷。\u003Cbr\u003E\n⭐️如何由咖啡素人變身咖啡達人，再開啟味蕾成為杯測師？\u003Cbr\u003E\n⭐️ 營運自家cafe的苦與樂\u003Cbr\u003E\n⭐️ COE卓越杯咖啡競賽～哥倫比亞之旅分享\u003Cbr\u003E\n🌟️ Yuki 簡歷：\u003Cbr\u003E\nSCA Barista Skills Professional\u003Cbr\u003E\n精品咖啡協會 咖啡調配師(專業級)\u003Cbr\u003E\nSCA Roasting Professional\u003Cbr\u003E\n精品咖啡協會 咖啡烘焙師(專業級)\u003Cbr\u003E\nSCI Brewing Level 2\u003Cbr\u003E\n可持續咖啡學會 咖啡冲煮二級\u003Cbr\u003E\nSCI Roasting Level 3\u003Cbr\u003E\n可持續咖啡學會 咖啡烘焙三級\u003Cbr\u003E\nCQI Q Grader\u003Cbr\u003E\n咖啡質量研究所 國際咖啡品質鑑定師\u003Cbr\u003E\nCOE International Jury\u003Cbr\u003E\n卓越杯國際杯測師評審\n\n日期：2021年8月7日(星期六)\u003Cbr\u003E\n時間：上午11:30-12:30\u003Cbr\u003E\n地點：旺角登打士街56號家樂坊15樓安利體驗館，同步以zoom現場直播\u003Cbr\u003E\n費用：$30 (線上線下同價) ","2021-08-07","COE卓越杯國際評審、日晨咖啡品牌創辦人、咖啡烘焙師Yuki Kwan","coffee-yuki-kwan-2108","咖啡分享,創業分享,杯測師,咖啡烘焙","2021-08-07T00:00:00.000Z",{"data":34},[35],{"id":16,"attributes":36},{"name":18,"slug":19,"description":10,"createdAt":20,"updatedAt":21},{"data":10},{"id":39,"attributes":40},143,{"title":41,"content":42,"start_date":43,"excerpt":44,"slug":45,"end_date":10,"tags":46,"createdAt":47,"updatedAt":47,"event_categories":48,"image":56},"伸展及肌肉鍛練工作坊-實體班","\n\n🌟 想告別肚腩及手臂ByeBye肉？一於動起來，齊齊塑造理想身型！\u003Cbr\u003E\n🌟 伸展拉筋- 舒展筋骨，放鬆僵硬肌肉\u003Cbr\u003E\nKeep Fit工作坊針對平日無運動習慣的朋友，循序漸進由基礎起步，讓大家起動💥\n\n日期：10\u002F5及17\u002F5 (星期一）\u003Cbr\u003E\n時間：11:00-12:15\u003Cbr\u003E\n地點：旺角登打士街家樂坊15樓安利體驗館B室\u003Cbr\u003E\n費用 : $50\u002F堂（請自備瑜珈墊）\u003Cbr\u003E\n備註：\u003Cbr\u003E\n1. 可單堂報名\u003Cbr\u003E\n2. 參加者須全程戴口罩\u003Cbr\u003E\n3. 報名請PM訊息給我們查詢報名詳情","2021-05-10","","keepfit-202105","伸展,拉筋,肌肉鍛練,運動,keep fit","2021-05-10T00:00:00.000Z",{"data":49},[50],{"id":51,"attributes":52},5,{"name":53,"slug":54,"description":10,"createdAt":55,"updatedAt":55},"健體運動","fitness","2023-02-12T02:38:55.946Z",{"data":10},{"id":58,"attributes":59},150,{"title":60,"content":61,"start_date":62,"excerpt":63,"slug":64,"end_date":10,"tags":65,"createdAt":66,"updatedAt":66,"event_categories":67,"image":71},"【送給吃貨們😆】美食與文化交融～從瑞士領事的雞翼困惑說起","\n\n4月名人面對面\n【送給吃貨們😆】美食與文化交融\u003Cbr\u003E\n～從瑞士領事的雞翼困惑說起\n\n🤓熱愛美食的歷史學家 蘇鋭鴻校長，將與各位饕餮分享：\u003Cbr\u003E\n🐔 瑞士領事的雞翼困惑\u003Cbr\u003E\n🧨 當「吃貨張騫」遇見「西域美食」，會有怎樣的火花？\u003Cbr\u003E\n📜 唐三藏取食經\u003Cbr\u003E\n🍝 馬可孛羅與意大利粉的小確幸\u003Cbr\u003E\n👫 從絲綢之路到哥倫布大交換\u003Cbr\u003E\n🏆 鄭和~品嚐燕窩第一人\u003Cbr\u003E\n🍅 番茄很晚才傳入中國，為何中國人率先發明了番茄炒蛋？\u003Cbr\u003E\n🍜 ラーメン的爺爺(清麵)和爸爸(中華麵)\u003Cbr\u003E\n🤝 由廣州太平館到港式茶餐廳~中西文化融合的典範\u003Cbr\u003E\n😚 美食就是生活\n\n⭐蘇鋭鴻校長簡歷：\u003Cbr\u003E\n● 退休中學校長\u003Cbr\u003E\n● 資深教育工作者\u003Cbr\u003E\n● 歷史學家\u003Cbr\u003E\n● 歷任教育局教科書審查委員、中國文化研究院專題審查委員\u003Cbr\u003E\n● 現為香港金融管理學院兼任講師、泛亞教育機構顧問、和富社會企業青少年網絡執行委員\u003Cbr\u003E \n● 著有《紅船淺探》、《香港百聞》、《 國史百聞》等書","2021-04-24","蘇鋭鴻校長","so210424","美食文化,吃貨","2021-04-24T00:00:00.000Z",{"data":68},[69],{"id":16,"attributes":70},{"name":18,"slug":19,"description":10,"createdAt":20,"updatedAt":21},{"data":10},{"id":73,"attributes":74},161,{"title":75,"content":76,"start_date":77,"excerpt":44,"slug":78,"end_date":10,"tags":79,"createdAt":80,"updatedAt":80,"event_categories":81,"image":85},"伸展拉筋工作坊","\n\n⭐越來越人關注上交叉\u002F下交叉綜合症，今次拉筋重點在放鬆受影響肌肉💪🏻，尤其適合日日坐寫字樓對住電腦的朋友呢😉\n\n備註：需要全程戴口罩\n\n報名優惠：以優惠價$60一併報名當天16:45-17:30的活學營養：肝膽排毒\n\n導師：\n黃海寧 Joyce Wong \b\u003Cbr\u003E\n伸展導師\u003Cbr\u003E\n團體運動導師 (ACE美國運動協會)","2021-04-06","stretching210406","拉筋,伸展","2021-04-06T00:00:00.000Z",{"data":82},[83],{"id":51,"attributes":84},{"name":53,"slug":54,"description":10,"createdAt":55,"updatedAt":55},{"data":10},{"id":87,"attributes":88},151,{"title":89,"content":90,"start_date":77,"excerpt":44,"slug":91,"end_date":10,"tags":92,"createdAt":80,"updatedAt":80,"event_categories":93,"image":101},"活學營養：肝膽排毒","\n\n☘️春季最宜排肝毒，特別在復活節長假期最後一天，為大家呈獻：\n✨ 活學營養：肝膽排毒\n\n所謂百病由肝治，無論\u003Cbr\u003E\n😖過胖過瘦\u003Cbr\u003E\n😖精神不佳\u003Cbr\u003E\n😖心血管疾病\u003Cbr\u003E\n😖糖尿病\u003Cbr\u003E\n😖腎病\u003Cbr\u003E\n😖荷爾蒙失調......\u003Cbr\u003E \n皆與肝臟健康息息相關。\n\n香港人壓力大，晚睡又外食多，對肝臟造成莫大負擔；30歲以後，肝膽結石問題更日益普遍😨。\n\n＜肝膽排毒＞專題講座 將為你解構：\u003Cbr\u003E\n🤔肝膽結石的種類與成因\u003Cbr\u003E\n🔪若有膽石，切除膽囊便一了百了？「膽」真的可有可無？\u003Cbr\u003E\n🔆5千年古方 -- 肝膽排毒DIY\n\n報名優惠：以優惠價$60一併報名當天15:30-16:30的伸展拉筋工作坊","detox210406","肝膽結石,膽結石",{"data":94},[95],{"id":96,"attributes":97},6,{"name":98,"slug":99,"description":10,"createdAt":100,"updatedAt":100},"活學營養","nutrition","2023-02-12T02:38:55.947Z",{"data":10},{"id":103,"attributes":104},140,{"title":105,"content":106,"start_date":107,"excerpt":108,"slug":109,"end_date":10,"tags":110,"createdAt":111,"updatedAt":111,"event_categories":112,"image":116},"築．愛～從建築設計到建立關係的應用哲學","\n\n小卡出道以來獲獎無數，設計道路一帆風順，不為人知的背後卻是歷盡滄桑，飽受不同人際關係帶來的傷痛。\n\n從消沉到自省，從成長到突破，小卡通過自身的經歷，摸索建立關係的方法，並化作設計，傳遞溫暖的情感，讓人從中有所感悟，重建與家人、與社區，以及與世界的連繫，重建愛的能力，建立更理想的關係。\n\n由修頓球場看台扶手，到八十平米住宅，再到大館一百面、日安時刻，小卡將解構一系列空間設計作品背後的巧思，同時分享他的人生經歷。細看他對每段關係的處理，也許能為你的人生困惑找到解答🙌🏻。\n\n葉小卡（葉憬翰）\u003Cbr\u003E\nADO Culture一道文創　 創辦人\u003Cbr\u003E\nADO Living一道生活 創辦人\u003Cbr\u003E\nMissions.app 創辦人\u003Cbr\u003E\n香港設計師協會會長\u003Cbr\u003E\n香港設計中心董事\u003Cbr\u003E\n香港工業總會香港設計委員會副主席\u003Cbr\u003E\n香港智慧城市聯盟文創組長\n\n小卡在2003年創辦ADO Culture一道文創，以文化創新為目標，結合數碼科技，專注創作有文化意義的先進品牌空間，建立深刻難忘的體驗。於2005年獲香港青年設計才俊大獎、2009年獲香港十大設計師獎、2018年獲得中國十大最具影響力設計師獎。而他的藝術及建築作品曾獲：紐約Interior Design年度大獎、DFA亞洲最具影響力設計獎、FRAME年度設計大獎、A’ Design Award設計大獎、中國最成功設計大獎、日本JCD商業空間設計大獎等，其雕塑作品被收藏在香港特首辦公室。他也是Sparkle! 油街實現一系列藝術展的設計顧問，In PARK及Viva! River公共藝術的總策展人。","2021-03-21","葉小卡先生 藝術家．設計師．香港設計師協會會長","202103-karr-yip","建築設計,設計師","2021-03-21T00:00:00.000Z",{"data":113},[114],{"id":16,"attributes":115},{"name":18,"slug":19,"description":10,"createdAt":20,"updatedAt":21},{"data":10},{"id":118,"attributes":119},146,{"title":120,"content":121,"start_date":122,"excerpt":123,"slug":124,"end_date":10,"tags":125,"createdAt":126,"updatedAt":126,"event_categories":127,"image":131},"2021投資基本功","\n\n名人面對面2.0：投資基本功\u003Cbr\u003E\n極不平凡的2020年終於過去，經濟蕭條下，股金比特幣齊升，美元大弱勢，2021年何去何從？🤔\u003Cbr\u003E\nEmpower高興邀得涂國彬先生為大家分享《2021投資基本功》，早作準備💪🏻。\u003Cbr\u003E\n涂先生從事經濟及投資策略研究多年，近年創立經營環球宏觀多元資產對沖基金業務，現為永豐金融資產管理董事總經理。\u003Cbr\u003E\n日期：2021年1月23日（星期六）\u003Cbr\u003E\n時間：上午11:00-12:00\u003Cbr\u003E\n費用：全免\u003Cbr\u003E\n形式：Zoom及Facebook Live 現場直播\u003Cbr\u003E\n*若希望直接交流，歡迎問我們索取zoom直播連結。謝謝","2021-01-23","永豐金融資產管理董事總經理涂國彬先生(Mark To)","mark-to","金融經濟,股市,滙市,投資","2021-01-23T00:00:00.000Z",{"data":128},[129],{"id":16,"attributes":130},{"name":18,"slug":19,"description":10,"createdAt":20,"updatedAt":21},{"data":10},{"id":133,"attributes":134},138,{"title":135,"content":136,"start_date":137,"excerpt":138,"slug":139,"end_date":10,"tags":140,"createdAt":141,"updatedAt":141,"event_categories":142,"image":146},"暢談手工啤酒 酵釀香醇人生","\n\n榮幸邀得國際啤酒評審Tomy方啟聰先生來臨分享「暢談手工啤酒 酵釀香醇人生」🤗\u003Cbr\u003E\nTomy將會同大家拆解手工啤酒的迷思：\u003Cbr\u003E\n🍺手工啤酒只是汽水酒？\u003Cbr\u003E\n🍺精釀啤酒跟工業製啤酒有甚麼分別？\u003Cbr\u003E\n🍺啤酒泡原來有作用？\u003Cbr\u003E\n🍺啤酒杯真的雪凍會好啲？\u003Cbr\u003E\n\n另外，也會跟大家分享，\u003Cbr\u003E\n😋不同美食該配哪類啤酒？\u003Cbr\u003E\n🤔IPA又是咩東東？\u003Cbr\u003E\n🙄初嚐手工啤酒又該如何選擇？\u003Cbr\u003E\n內容豐富，萬勿錯過🤗","2020-12-13","國際啤酒評審Tomy方啟聰先生","tomy-fong","手工啤酒,創業","2020-12-13T00:00:00.000Z",{"data":143},[144],{"id":16,"attributes":145},{"name":18,"slug":19,"description":10,"createdAt":20,"updatedAt":21},{"data":10},{"id":148,"attributes":149},126,{"title":75,"content":150,"start_date":151,"excerpt":44,"slug":152,"end_date":10,"tags":153,"createdAt":154,"updatedAt":154,"event_categories":155,"image":159},"\n\n伸展拉筋可以：\u003Cbr\u003E\n💪🏻增加身體柔靭度\u003Cbr\u003E\n💪🏻改善平衡\u003Cbr\u003E\n💪🏻減少關節痛症\u003Cbr\u003E\n💪🏻消除肌肉疲勞\u003Cbr\u003E\n......不過最重要是做對方法，做得正確😉\n\n屆時將面授安全有效的伸展運動及拉筋方法，最重要是 即時調整姿勢，並分享箇中竅門👍🏻\u003Cbr\u003E\n正確伸展拉筋，你我都要識！😙🤗\n\n日期：11月14日（星期一）\u003Cbr\u003E\n時間：11:00-13:00\u003Cbr\u003E\n伸展主題：胸、背及手部\u003Cbr\u003E\n日期：11月21日（星期一）\u003Cbr\u003E\n時間：11:00-13:00\u003Cbr\u003E\n伸展主題：腰及腿部\u003Cbr\u003E\n地點：旺角登打士街家樂坊15樓安利體驗館B及C室\u003Cbr\u003E\n費用：$50\u002F堂，請自備瑜珈墊（若需租用瑜珈墊，請提前2天通知，$10\u002F張）\u003Cbr\u003E\n備註：\u003Cbr\u003E\n1. 可單堂報名\u003Cbr\u003E\n2. 須全程戴口罩\n\n請聯絡我們報名及付款詳情😊","2020-11-14","stretching201114","伸展,拉筋","2020-11-14T00:00:00.000Z",{"data":156},[157],{"id":51,"attributes":158},{"name":53,"slug":54,"description":10,"createdAt":55,"updatedAt":55},{"data":10},{"id":161,"attributes":162},125,{"title":75,"content":163,"start_date":164,"excerpt":44,"slug":165,"end_date":10,"tags":153,"createdAt":166,"updatedAt":166,"event_categories":167,"image":171},"\n\n伸展拉筋可以：\u003Cbr\u003E\n💪🏻增加身體柔靭度\u003Cbr\u003E\n💪🏻改善平衡\u003Cbr\u003E\n💪🏻減少關節痛症\u003Cbr\u003E\n💪🏻消除肌肉疲勞\u003Cbr\u003E\n......不過最重要是做對方法，做得正確😉\n\n屆時將面授安全有效的伸展運動及拉筋方法，最重要是 即時調整姿勢，並分享箇中竅門👍🏻\u003Cbr\u003E\n正確伸展拉筋，你我都要識！😙🤗\n\n日期：11月9日（星期一）\u003Cbr\u003E\n時間：11:00-12:45\u003Cbr\u003E\n伸展主題：胸、背及手部\u003Cbr\u003E\n地點：旺角登打士街家樂坊15樓安利體驗館B及C室\u003Cbr\u003E\n費用：$50\u002F堂，請自備瑜珈墊（若需租用瑜珈墊，請提前2天通知，$10\u002F張）\u003Cbr\u003E\n備註：\u003Cbr\u003E\n1. 須全程戴口罩","2020-11-09","stretching2011","2020-11-09T00:00:00.000Z",{"data":168},[169],{"id":51,"attributes":170},{"name":53,"slug":54,"description":10,"createdAt":55,"updatedAt":55},{"data":10},{"id":173,"attributes":174},123,{"title":175,"content":176,"start_date":177,"excerpt":178,"slug":179,"end_date":10,"tags":180,"createdAt":181,"updatedAt":181,"event_categories":182,"image":186},"品茶的好處與禁忌","\n\n魯迅先生說：「有好茶喝，會喝好茶，是一種『清福』。」\u003Cbr\u003E\n喝茶重於解渴，品茶意在怡情。如何品茶，才能養心養性，健體益壽？不同氣候、不同時間，不同體質，品茶之道有何異同？\u003Cbr\u003E\n時值秋天，聽完此講，當不會被魯迅先生說：「不識好茶，沒有秋思，倒也罷了。」\n\n日期：2020年10月31日（星期六）\u003Cbr\u003E\n時間：下午5:00至6:00\u003Cbr\u003E\n費用：全免\u003Cbr\u003E\n形式：以Zoom Cloud Meetings軟件現場直播","2020-10-31","90後茶藝師、瑜茶舍創辦人 容德如小姐 Catherine","catherine","品荼,茶藝師","2020-10-31T00:00:00.000Z",{"data":183},[184],{"id":16,"attributes":185},{"name":18,"slug":19,"description":10,"createdAt":20,"updatedAt":21},{"data":10},{"pagination":188},{"page":189,"pageSize":190,"pageCount":191,"total":192},4,12,16,188],"uses":{"dependencies":["http://127.0.0.1:1337/api/events?sort=start_date%3Adesc&populate[author]=true&populate[event_categories]=true&populate[image]=true&pagination[page]=4&pagination[pageSize]=12"],"params":["page","category"]}}]}