{"type":"data","nodes":[{"type":"data","data":[{"categories":1,"event_categories":27},[2,9,15,21],{"id":3,"attributes":4},1,{"slug":5,"name":6,"description":7,"createdAt":8,"updatedAt":8},"nutrition","營養隨筆",null,"2023-02-12T02:39:02.691Z",{"id":10,"attributes":11},2,{"slug":12,"name":13,"description":7,"createdAt":14,"updatedAt":14},"reflection","感悟隨筆","2023-02-12T02:39:02.692Z",{"id":16,"attributes":17},3,{"slug":18,"name":19,"description":7,"createdAt":20,"updatedAt":20},"fitness","運動筆記","2023-02-12T02:39:02.697Z",{"id":22,"attributes":23},4,{"slug":24,"name":25,"description":7,"createdAt":26,"updatedAt":26},"spiritual","心靈勵志","2023-02-12T02:39:02.698Z",[28,33,38,43,47,52],{"id":3,"attributes":29},{"name":30,"slug":31,"description":7,"createdAt":32,"updatedAt":32},"讀書會","book-sharing","2023-02-12T02:38:55.939Z",{"id":16,"attributes":34},{"name":35,"slug":36,"description":7,"createdAt":37,"updatedAt":37},"文化導賞","cultural","2023-02-12T02:38:55.943Z",{"id":22,"attributes":39},{"name":40,"slug":41,"description":7,"createdAt":42,"updatedAt":42},"遊山玩水","hiking","2023-02-12T02:38:55.946Z",{"id":44,"attributes":45},5,{"name":46,"slug":18,"description":7,"createdAt":42,"updatedAt":42},"健體運動",{"id":48,"attributes":49},6,{"name":50,"slug":5,"description":7,"createdAt":51,"updatedAt":51},"活學營養","2023-02-12T02:38:55.947Z",{"id":10,"attributes":53},{"name":54,"slug":55,"description":7,"createdAt":56,"updatedAt":57},"名人面對面","be-our-guest","2023-02-12T02:38:55.942Z","2023-03-08T13:16:12.875Z"],"uses":{"dependencies":["http://127.0.0.1:1337/api/categories?","http://127.0.0.1:1337/api/event-categories?"]},"slash":"always"},{"type":"data","data":[{"data":1,"meta":190},[2,23,41,55,73,91,105,119,131,145,159,172],{"id":3,"attributes":4},29,{"title":5,"content":6,"start_date":7,"excerpt":8,"slug":9,"end_date":10,"tags":11,"createdAt":12,"updatedAt":12,"event_categories":13,"image":22},"傳媒生涯樂與怒","\n\n講題：\u003Cbr\u003E\n－ 回顧30年傳媒生涯，分享當中的樂與怒\u003Cbr\u003E\n－ 香港特區政府新內閣及未來施政展望\n\n楊健興先生Chris：\u003Cbr\u003E\n－ 香港浸會大學傳理系畢業\u003Cbr\u003E\n－ 南華早報前政治版編輯及副總編輯\u003Cbr\u003E\n－ 信報前副總編輯\u003Cbr\u003E\n－ 現眾新聞網報主筆及\u003Cbr\u003E\n－ 香港記者協會主席\n\n日期：2017年8月13日(星期日) \n時間：晚上7:15-9:30\u003Cbr\u003E\n地點：九龍旺角登打士街56號柏裕商業中心15樓安利體驗館\u003Cbr\u003E\n費用：$150\n","2017-08-13","香港記者協會主席楊健興先生Chris","chris-yeung",null,"","2017-08-13T00:00:00.000Z",{"data":14},[15],{"id":16,"attributes":17},2,{"name":18,"slug":19,"description":10,"createdAt":20,"updatedAt":21},"名人面對面","be-our-guest","2023-02-12T02:38:55.942Z","2023-03-08T13:16:12.875Z",{"data":10},{"id":24,"attributes":25},28,{"title":26,"content":27,"start_date":28,"excerpt":11,"slug":29,"end_date":10,"tags":30,"createdAt":31,"updatedAt":31,"event_categories":32,"image":40},"七百萬個故仔，成就一個香⋯「港故事」","\n\n七百萬人的地方，由七百萬個故事組成。每一個故事均支持這地方發展至今，不分你我他，發光發熱，燃亮人生。七百萬個故仔，成就一個香...... 「港故仔」。\n由武術家葉準，至「繩神」沈保衡、「生果革命」王嘉雯……每星期一集，逢星期六上載至「港故仔」Facebook專頁；由2016年7月1日Kick Off片出街，不經不覺經已50集，即已播放了50星期。「港故仔」的目標，是拍攝100個香港故仔，讓更多人見識香港正面、積極、發光的一面。\n\nEmpower榮幸邀得「港故仔」三位年青創辦人 ─　Angus、Colon、Wallace（他們同場出現真的很難得呢😄），分享他們如何在繁忙的生活中，利用工餘時間，尋覓不同的生命見證，在不收分文的情況下，自資拍攝一條又一條的勵志短片，叫更多香港人的故事得以延續，讓世界看見香港的美好，並展現人性的光輝。\n讓我們一起細心聆聽三位年青人的港故仔，讓香港變得更美。\n\n日期：2017年7月14日（星期五）\u003Cbr\u003E\n時間：晚上7:30\u003Cbr\u003E\n地點：九龍旺角登打士街56號柏裕商業中心15樓安利體驗館會議室B\u003Cbr\u003E\n費用：$50（三人同行每人$30）","2017-07-14","hkstory1707","香港故事","2017-07-14T00:00:00.000Z",{"data":33},[34],{"id":35,"attributes":36},3,{"name":37,"slug":38,"description":10,"createdAt":39,"updatedAt":39},"文化導賞","cultural","2023-02-12T02:38:55.943Z",{"data":10},{"id":42,"attributes":43},22,{"title":44,"content":45,"start_date":46,"excerpt":11,"slug":47,"end_date":10,"tags":48,"createdAt":49,"updatedAt":49,"event_categories":50,"image":54},"不一樣的太極體驗導賞團","\n\n【北崇少林，南尊武當】, 【武當太極】, 原來不是武俠小說虛構故事而是真實存在! 坊間存在各式各派太極, 較多人接觸的是【陳、楊、吳、武、孫】這五大派別, 當中有又什麼分別?\n\n【太極】只是適合長輩的緩慢運動? 原來真正的太極除了健生養生作用外，動靜佳宜，適合不同年齡和身體狀況人仕修習。太極含豐富的技擊自衛元素、文化內涵和人生哲理,是修身養性的一種不可多得的全面運動。\n\n本導賞體驗團將會透過兩個環節讓大家對太極拳有更深入了解。\n\nEmpower很榮幸邀請了【師虛太極養生學院】的創辦人【師虛師傅】(詳見 http:\u002F\u002Fwww.wdgf.hk) 來為大家作講解及教授體驗武當及陳式太極拳。\n\n【師虛師傅】文武兼備，習武十多年，其中四年在太極的發源地武當山和陳家溝跟隨掌門全職研習太極氣功四年。分別為【武當三豐派】、【武當玄武派】及【陳家溝陳式太極】掌門之入室弟子。師虛師傅深入太極武術發源地深造多年，其事蹟廣為媒體報導，定能為大家帶來不一樣的太極體驗!\n\n第一個環節師虛師傅將與大家一同遊覽【九龍公園】，觀看不同群組演練的太極拳，並細說各派之特色。\n\n第二個環節師虛師傅將傳授大家武當及陳式太極拳，讓大家體驗此兩門派太極拳的分別。體驗後，我們將於附近一同午膳交流.師虛太極養生學院也會送出禮品給各參加者。\n\n日期: 2017年7月9日\u003Cbr\u003E\n時間: (也可以單報名第二環節，請於報名時註明)\u003Cbr\u003E\n第一環節: 9-11am ，9:00am於九龍公園海防道入口內集合\u003Cbr\u003E\n第二環節:11-1pm (11am於師虛太極養生學院集合, 香港九龍佐敦渡船街1-4號金霞閣2樓A座)\u003Cbr\u003E\n地點: 九龍公園及師虛太極養生學院\u003Cbr\u003E\n費用: 全免 (午膳自費)","2017-07-09","taichi1707","太極","2017-07-09T00:00:00.000Z",{"data":51},[52],{"id":35,"attributes":53},{"name":37,"slug":38,"description":10,"createdAt":39,"updatedAt":39},{"data":10},{"id":56,"attributes":57},26,{"title":58,"content":59,"start_date":60,"excerpt":11,"slug":61,"end_date":10,"tags":62,"createdAt":63,"updatedAt":63,"event_categories":64,"image":72},"讀書會：歷史·遊記","\n\n從文字遊覽五大洲七大洋，觀看萬千世界；從歷史了解各民族興衰成敗，感受各地文化。\u003Cbr\u003E\n今次讀書會，我們特別選擇了分享歷史及遊記類書籍，讀萬卷書也行萬里路，了解不同地區歷史文化，感受各民族的風土人情。\u003Cbr\u003E\n誠邀你一起分享閱讀體驗，一同感受由文字所帶出的美妙世界。\u003Cbr\u003E\n歡迎大家，一起閱讀、一起分享、共同啟發！\u003Cbr\u003E\n說書人：4位 (每位15分鐘)\u003Cbr\u003E\n愛書人：10位\u003Cbr\u003E\n日期：8\u002F7\u002F2017 (星期六)\u003Cbr\u003E\n時間：14:00-16:00\u003Cbr\u003E\n地點：Coffee Break @旺角通菜街2Q-2Z號鴻輝大廈地下4號舖\u003Cbr\u003E\n費用：自費在餐廳點單\u003Cbr\u003E\n名額：14人 (請各說書人於7月2日前通知書名）","2017-07-08","booksharing1707","歷史遊記","2017-07-08T00:00:00.000Z",{"data":65},[66],{"id":67,"attributes":68},1,{"name":69,"slug":70,"description":10,"createdAt":71,"updatedAt":71},"讀書會","book-sharing","2023-02-12T02:38:55.939Z",{"data":10},{"id":74,"attributes":75},27,{"title":76,"content":77,"start_date":78,"excerpt":11,"slug":79,"end_date":10,"tags":80,"createdAt":81,"updatedAt":81,"event_categories":82,"image":90},"週末郊遊鬆一鬆:香港郊野十景之一-河貝水塘","\n\n平時侷促在辦公室及煩囂市區，放假一於逃離市區抖抖氣！\n\n今次我們會漫步往曾獲選為香港十景之一的河貝水塘。由元朗雷公田出發，沿引水道前往河貝水塘。沿途景色開揚，俯瞰錦田八鄉並遠眺元朗市中心。\n起步不久，即會經過農場鮮奶小食店，大家可品嚐農場馳名的薑汁撞奶。\n\n行完山，一齊食埋晏先走！\n\n預計行山時間為2.5小時。\n\n備註：沿途是柏油路，平緩路段，只有河背村附近一段是斜路。\u003Cbr\u003E\n日期：25\u002F6\u002F2016 星期日\u003Cbr\u003E\n集合時間：上午9:30，不見即散 (若不午餐，預計13:15到河貝村坐小巴到元朗市中心)\u003Cbr\u003E\n集合地點：西鐵荃灣西站A1出口集合 (前往坐51號巴士) （預計10:30到雷公田起步）\u003Cbr\u003E\n路線： 雷公田-\u003E清潭水塘-\u003E河貝水塘\u003Cbr\u003E\n午餐暫定13:45-15:00，地點稍後確定。\u003Cbr\u003E\n若不午餐，請報名時註明。","2017-06-25","hiking1706","雷公田,河貝水塘","2017-06-25T00:00:00.000Z",{"data":83},[84],{"id":85,"attributes":86},4,{"name":87,"slug":88,"description":10,"createdAt":89,"updatedAt":89},"遊山玩水","hiking","2023-02-12T02:38:55.946Z",{"data":10},{"id":92,"attributes":93},21,{"title":94,"content":95,"start_date":96,"excerpt":11,"slug":97,"end_date":10,"tags":98,"createdAt":99,"updatedAt":99,"event_categories":100,"image":104},"旅遊分享系列：旅行就是生命","\n\n旅遊分享系列：The Purpose of Life is to Travel 旅行就是生命\n\n俗語說「讀萬卷書不如行萬里路」，Debbie更認為「旅遊就是人生」。熱愛背包旅遊的她，不足30歲已踏足35個國家。旅遊，讓她感受生命；在旅遊及義工服務交流期間，更讓她反思人生。\n\n曾到雲南、桂林及柬埔寨作義工服務交流團，義務工作讓她體驗反思自己的生活和別人的需要，在回歸簡單純樸的國度更感受生命的可貴。\n今天的她，旅遊是人生的一部份，在路上與不同的人交流，了解不同的故事，以有限的生命體會無限的可能。\n\nEMPOWER榮幸邀得Debbie，分享她的旅行人生！\u003Cbr\u003E\n日期：2017年6月24日 (星期六)\u003Cbr\u003E\n時間：下午7:45-9:15 (下午7:30開始入座）\u003Cbr\u003E\n地點：九龍旺角登打士街56號柏裕商業中心15樓安利體驗館\u003Cbr\u003E\n費用：$50","2017-06-24","travelsharing1706","旅遊義工","2017-06-24T00:00:00.000Z",{"data":101},[102],{"id":35,"attributes":103},{"name":37,"slug":38,"description":10,"createdAt":39,"updatedAt":39},{"data":10},{"id":106,"attributes":107},20,{"title":108,"content":109,"start_date":110,"excerpt":111,"slug":112,"end_date":10,"tags":11,"createdAt":113,"updatedAt":113,"event_categories":114,"image":118},"該如何讀中國這本書？","\n\n香港回歸20周年，許多香港人對祖國，就如子女對父母一樣，既有愛與關懷，又帶批評與抱怨。人長大後，希望對父母認識更多；面對中國，我們的認識全面嗎？所謂「國情」，我們又了解多少？\n\nEmpower榮幸邀得對中國近代及現代史、中國共產黨歷史與思想、當代中國發展，以至兩岸及港台關係極具研究的陸人龍教授，以風趣幽默的手法，深入淺出地為我們解讀中國這博大精深的書典。\n\n陸教授曾任香港大學歷史系高級講師及文學院副院長、香港大學專業進修學院常務副院長，以及香港教育學院助理院長(行政)。曾參與並主持多項「國情研究」及「公共政策研究」計劃，包括為香港特區政府高層提供的「中國國情研究」和「港台關係研究」，長期參與兩岸及港台關係的活動和研究工作，多次應上海東亞研究所及國際問題研究所邀請出席研討會並發表論文。近年，陸教授為香港特區政府公務員培訓處設計國家事務入門課程及中國區域系列講座並擔任講者，另在政府多個部門擔任有關香港及中國內地不同專題的講者。\n\n日期：2017年6月17日(星期六)\u003Cbr\u003E\n時間：晚上7:15-9:30\u003Cbr\u003E\n地點：九龍旺角登打士街56號柏裕商業中心15樓安利體驗館C室\u003Cbr\u003E\n費用：$150 (包括有營晚餐)\n","2017-06-17","中國近代及現代史專家、香港大學文學院前副院長陸人龍教授","dr-luk1706","2017-06-17T00:00:00.000Z",{"data":115},[116],{"id":16,"attributes":117},{"name":18,"slug":19,"description":10,"createdAt":20,"updatedAt":21},{"data":10},{"id":120,"attributes":121},25,{"title":122,"content":123,"start_date":110,"excerpt":11,"slug":124,"end_date":10,"tags":125,"createdAt":113,"updatedAt":113,"event_categories":126,"image":130},"保赤安良－保良局歷史博物館導賞","\n\n\"保良局”三字，香港人並不陌生。\u003Cbr\u003E\n保良局由1880年起伴隨香港度過不同的歷史階段，由最初協助掃除拐風，保赤安良，到收容婦孺，再發展至現今龐大而多元化的社會服務。了解保良局的歷史，正是了解香港的發展故事。\n保良局歷史博物館坐落的，是於1932年落成的二級歷史建築物，尤具歷史價值與意義。\u003Cbr\u003E\n我們冀透過是次的導賞參觀，更深入了解香港的昔日面貌，追本溯源，鑑古知今。\u003Cbr\u003E\n參觀後，我們將於附近一同午膳。\n\n日期：2017年6月17日(星期六)\u003Cbr\u003E\n時間：上午10:15至中午11:30\u003Cbr\u003E\n午飯時間：中午11:45-13:00\u003Cbr\u003E\n地點：香港銅鑼灣禮頓道66號保良局歷史博物館\u003Cbr\u003E\n費用：參觀免費，午餐自費","cultural1706","保良局歷史博物館,本土文化",{"data":127},[128],{"id":35,"attributes":129},{"name":37,"slug":38,"description":10,"createdAt":39,"updatedAt":39},{"data":10},{"id":132,"attributes":133},19,{"title":134,"content":135,"start_date":136,"excerpt":11,"slug":137,"end_date":10,"tags":138,"createdAt":139,"updatedAt":139,"event_categories":140,"image":144},"堅毅轉身 - 職場女強人變身太極女俠","\n\n生活的壓力、環境的變遷、舒適的安舒均可能讓我們距離夢想越來越遠。我們有多少人會慨嘆現實就是現實，但只要提起勇氣踏出第一步，夢想並不遙遠。\n\n師虛師傅Michelle擁有優秀學歷 -- 英國工商管理碩士MBA、美國註冊會計師CPA和add美國註冊管理會計師CMA、中國清華大學法律學士LLB。而且仕途順暢，曾在多間跨國上市集團如UBM亞洲總部擔任業務發展總監、美國通用氣車在國內的大型合資企業中擔任副總經理等職位多年。\n\n擁有高薪厚職的她，數年前毅然放棄多年經營的專業，追尋兒時的功夫夢想，上山學武，遠赴太極發源地中國武當山和陳家溝，分別跟隨掌門全職鑽研太極及氣功內丹4年，以非一般的堅毅，以\"高齡\"成為正宗傳承人，並考取了國家的各種武術專業認證。回港後努力推廣養生，將愛好變成事業和公益，故事被國內外和國際傳媒廣泛報導。\n是甚麼讓她啟動追尋夢想之路，並讓她堅持下去？當中的心路歷程又是如何？\n師虛師傅除分享她的傳奇經歷之外，更會即場表演嫡傳武當\u002F陳式太極，不容錯過！\n\n日期：2017年5月21日(星期日)\u003Cbr\u003E\n時間：晚上7:15-9:30\u003Cbr\u003E\n地點：九龍旺角登打士街56號柏裕商業中心15樓安利體驗館\u003Cbr\u003E\n費用：$150（包括有營晚餐）","2017-05-21","shisu1705","太極,武當山","2017-05-21T00:00:00.000Z",{"data":141},[142],{"id":16,"attributes":143},{"name":18,"slug":19,"description":10,"createdAt":20,"updatedAt":21},{"data":10},{"id":146,"attributes":147},24,{"title":148,"content":149,"start_date":150,"excerpt":11,"slug":151,"end_date":10,"tags":152,"createdAt":153,"updatedAt":153,"event_categories":154,"image":158},"週末郊遊鬆一鬆:湖光山色— 流水響及鶴藪水塘","\n\n平時侷促在辦公室及煩囂市區，放假一於逃離市區抖抖氣！\n\n今次我們同時走訪2個灌溉水塘－流水響水塘及鶴藪水塘。流水響水塘塘邊滿佈白千層及落羽松，平靜碧綠的水邊倒影處處，天空之鏡呈現眼前！\n行完山，一齊食埋晏先走！\n\n預計行山時間為2.5小時。\n\n備註：途中中段有一段上斜幅度較大的斜路及有上落梯級\u003Cbr\u003E\n日期：20\u002F5\u002F2016 星期六\u003Cbr\u003E\n集合時間：上午9:30，不見即散 (若不午餐，預計13:00到鶴藪坐小巴回粉嶺)\u003Cbr\u003E\n集合地點：港鐵粉嶺站C出口集合 (前往坐52B小巴)\u003Cbr\u003E\n路線： 流水響-\u003E流水響水塘-\u003E鶴藪水塘-\u003E鶴藪營地-\u003E鶴藪道\u003Cbr\u003E\n午餐暫定13:30-14:30，地點稍後確定。\u003Cbr\u003E\n若不午餐，請報名時註明。","2017-05-20","hiking1705","流水響,鶴藪水塘","2017-05-20T00:00:00.000Z",{"data":155},[156],{"id":85,"attributes":157},{"name":87,"slug":88,"description":10,"createdAt":89,"updatedAt":89},{"data":10},{"id":160,"attributes":161},23,{"title":162,"content":163,"start_date":164,"excerpt":11,"slug":165,"end_date":10,"tags":11,"createdAt":166,"updatedAt":166,"event_categories":167,"image":171},"5月讀書會主題：心靈·勵志","\n\n雞蛋從外打破是食物，從內打破是生命；人生從外打破是壓力，從內打破是成長。\u003Cbr\u003E\n生活壓力四方八面，幸好遇壓時總有書籍能助我們向前邁進。\u003Cbr\u003E\n今次讀書會，我們特別選擇分享心靈及勵志類書籍，讓大家共同成長，同時拓展我們生命的寬度及深度。\u003Cbr\u003E\n誠邀你一起分享閱讀體驗，一同感受由文字所帶出的美妙世界。\u003Cbr\u003E\n歡迎大家一起閱讀，一起分享，相互啟發！\u003Cbr\u003E\n\n說書人：3-4位 (每位20分鐘)\u003Cbr\u003E\n備註：分享書籍的朋友，請於22\u002F4或之前通知我們書名及作者，最好有網址連結讓參與者得知分享書本內容，讓分享會更順暢進行 🙏\u003Cbr\u003E\n日期：6\u002F5\u002F2017 (星期六)\u003Cbr\u003E\n時間：14:00-16:00\u003Cbr\u003E\n地點：待定 (自費在餐廳點餐)\u003Cbr\u003E\n費用：自費在餐廳點單\u003Cbr\u003E\n名額：15人","2017-05-06","bookshare1705","2017-05-06T00:00:00.000Z",{"data":168},[169],{"id":67,"attributes":170},{"name":69,"slug":70,"description":10,"createdAt":71,"updatedAt":71},{"data":10},{"id":173,"attributes":174},18,{"title":175,"content":176,"start_date":177,"excerpt":11,"slug":178,"end_date":10,"tags":179,"createdAt":180,"updatedAt":180,"event_categories":181,"image":189},"如何提昇小孩專注力?","\n\n如何提昇小孩專注力? 專注力同飲食有密切關係?\n\n沒吃早餐又或吃錯食物, 原來是會讓孩子專注力不集中. 研究指出, 飲食失調與缺乏微量元素均會造成過動現象. 若果孩子過度活潑好動, 可能只要從日常飲食習慣作出調整, 便能讓孩子變得安靜而且注意力集中!\n講座內容:\n\n- 如何透過調整飲食習慣提昇孩子專注力\u003Cbr\u003E\n- 取代糖果糖品飲料，自製讓孩子食得健康的簡單小食\n\n日期：29\u002F4\u002F2017 星期六\u003Cbr\u003E\n時間：15:00-16:30\u003Cbr\u003E\n地點：荃灣海盛路祈德尊新村商業中心三樓，香港青年協會-荃灣室內體育中心\u003Cbr\u003E\n費用：免費","2017-04-29","nutrition1704","專注力,兒童營養","2017-04-29T00:00:00.000Z",{"data":182},[183],{"id":184,"attributes":185},6,{"name":186,"slug":187,"description":10,"createdAt":188,"updatedAt":188},"活學營養","nutrition","2023-02-12T02:38:55.947Z",{"data":10},{"pagination":191},{"page":192,"pageSize":193,"pageCount":194,"total":195},13,12,16,188],"uses":{"dependencies":["http://127.0.0.1:1337/api/events?sort=start_date%3Adesc&populate[author]=true&populate[event_categories]=true&populate[image]=true&pagination[page]=13&pagination[pageSize]=12"],"params":["page","category"]}}]}