{"type":"data","nodes":[{"type":"data","data":[{"categories":1,"event_categories":27},[2,9,15,21],{"id":3,"attributes":4},1,{"slug":5,"name":6,"description":7,"createdAt":8,"updatedAt":8},"nutrition","營養隨筆",null,"2023-02-12T02:39:02.691Z",{"id":10,"attributes":11},2,{"slug":12,"name":13,"description":7,"createdAt":14,"updatedAt":14},"reflection","感悟隨筆","2023-02-12T02:39:02.692Z",{"id":16,"attributes":17},3,{"slug":18,"name":19,"description":7,"createdAt":20,"updatedAt":20},"fitness","運動筆記","2023-02-12T02:39:02.697Z",{"id":22,"attributes":23},4,{"slug":24,"name":25,"description":7,"createdAt":26,"updatedAt":26},"spiritual","心靈勵志","2023-02-12T02:39:02.698Z",[28,33,38,43,47,52],{"id":3,"attributes":29},{"name":30,"slug":31,"description":7,"createdAt":32,"updatedAt":32},"讀書會","book-sharing","2023-02-12T02:38:55.939Z",{"id":16,"attributes":34},{"name":35,"slug":36,"description":7,"createdAt":37,"updatedAt":37},"文化導賞","cultural","2023-02-12T02:38:55.943Z",{"id":22,"attributes":39},{"name":40,"slug":41,"description":7,"createdAt":42,"updatedAt":42},"遊山玩水","hiking","2023-02-12T02:38:55.946Z",{"id":44,"attributes":45},5,{"name":46,"slug":18,"description":7,"createdAt":42,"updatedAt":42},"健體運動",{"id":48,"attributes":49},6,{"name":50,"slug":5,"description":7,"createdAt":51,"updatedAt":51},"活學營養","2023-02-12T02:38:55.947Z",{"id":10,"attributes":53},{"name":54,"slug":55,"description":7,"createdAt":56,"updatedAt":57},"名人面對面","be-our-guest","2023-02-12T02:38:55.942Z","2023-03-08T13:16:12.875Z"],"uses":{"dependencies":["http://127.0.0.1:1337/api/categories?","http://127.0.0.1:1337/api/event-categories?"]},"slash":"always"},{"type":"data","data":[{"data":1,"meta":313},[2,27,57,79,104,128,162,190,221,243,265,290],{"id":3,"attributes":4},152,{"title":5,"excerpt":6,"content":7,"slug":8,"createdAt":9,"updatedAt":9,"author":10,"categories":11,"tags":19,"image":26},"Happy New Year",null,"\n\n2019年對香港人而言是難忘的一年，對Empower亦然。在這紛亂的時局，談正能量與身心靈健康殊不容易，辦活動更是挑戰重重。幸有大家的鼎力支持和鼓勵🥰🥰，Empower繼續乘風破浪，過去一年舉辦了：\n\n🌈9️⃣次遊山玩水，暢遊纜車徑、小夏威夷徑、大帽山、山頂西高山，以及4大水塘：城門、藍地、香港仔、萬宜水庫；\n\n🌈5️⃣場讀書會，涉獵心靈勵志、健康養生、人物傳記、經濟商業、歷史與未來；\n\n🌈3️⃣場文化導賞，先在蘇校長帶領下，到澳門探索其歷史與美食文化😁，繼而參觀大英博物館全球巡迴展覽香港站《百物看世界》，以及在Coffee Lover試做並品嚐愛爾蘭咖啡，體驗舌尖上的愛❤️；\n\n🌈9️⃣場名人面對面，由不同界別的達人分享其專業知識、獨特經驗與精闢見解，計有莊太量教授（經濟）、丁新豹博士（歷史）、胡煒權博士（日本文化）、古星輝先生（電訊）、梁佩鳳女士（公平貿易）、馮珍今女士（中亞三國）、陳坤耀教授（環球政經局勢）、鄭少武先生（紥作）及葉少康先生（潛能突破）。\n\n活學營養講座辦了9️⃣場，分別探討「大寒養生」、「遠離濕疹」、「擊退三高」、「擺脫糖尿」、「明目養晴」、「活絡關節」、「活得有骨氣 預防骨質疏鬆」；另有線上講座📡，分享空氣質素對身體的影響、水的迷思及逆轉亞健康的營養。\n💃活學營養Keep Fit工作坊🕺逢星期一早上舉行，年終無休，至少辦了50場，參加人數由起初僅3-4人增至現在18-20人🎉🎉；更與再生會合辦了一場別注版Keep Fit班，專供紅斑狼瘡病友及其他傷健人士參與。年底又推出了Keep Fit 2.0，主力教授拉筋動作，線上線下一起做，將健康及運動概念普及至不同家庭及社區。\n\n此外還有「愛笑瑜伽ｘ減壓飲食貼士工作坊」、「保齡球同樂」、「陳校長跑步工作坊」，以及大受歡迎的「秋冬滋補蛇讌」😋。\n\n展望2020年，Empower將進一步整合O2O資源🤳🏻，讓參加者能夠將所學到的營養及運動知識活學活用，更有效地傳遞給家人朋友👨‍👩‍👧‍👧，令正確的身心靈健康觀念得以由一個點延展至一條線，再推展至一個面！\n\n🎊大年初四Empower將一如既往，帶領大家新春行大運 —— 為了讓大家鼠年能龍騰虎躍，我們會由龍躍徑起步，沿砵甸乍山郊遊徑到大浪灣。\n去年底本邀請了極地專家何建宗教授在名人面對面分享，但因社會事件延期。2020年首次名人面對面將於2月22日舉行，屆時何教授將展示南北極地貌和生物多樣性的珍貴照片及錄像片段😀，並分享其研究成果如何與我們日常生活及環保息息相關，萬勿錯過！\n\n2020年，期待與大家繼續攜手並肩，Empower Ourselves，Empower the Community！💪🏻💪🏻\n","post200101","2020-01-01T00:00:00.000Z",{"data":6},{"data":12},[13],{"id":14,"attributes":15},2,{"slug":16,"name":17,"description":6,"createdAt":18,"updatedAt":18},"reflection","感悟隨筆","2023-02-12T02:39:02.692Z",{"data":20},[21],{"id":22,"attributes":23},165,{"name":24,"createdAt":25,"updatedAt":25},"","2023-02-12T03:32:01.365Z",{"data":6},{"id":28,"attributes":29},153,{"title":30,"excerpt":6,"content":31,"slug":32,"createdAt":33,"updatedAt":33,"author":34,"categories":41,"tags":49,"image":56},"優質蛋白質-五穀加豆","\n\n說到蛋白質，大家會想起甚麼呢？\n\n很多人自然地想到牛肉🐂、豬肉🐷、雞肉🐔或雞蛋。雞蛋是營養豐富的食物，而肉類的蛋白質似乎更豐富，但肉類通常需要最少四小時消化，而身體只能吸收其中部份的蛋白質。\n\n蛋白質由氨基酸組成，動物性蛋白質有齊人體必需的9種氨基酸，但肉類的氨基酸比例與人體差異很大，未能最符合人體需要。\n\n優質的蛋白質應是容易吸收又可完全利用。來自植物的蛋白質如大豆正是優質蛋白質。大豆蛋白質雖然缺乏一種名為蛋氨酸的氨基酸，但其他都是優質蛋白質。所謂「五穀加豆可團圓」，大米含有蛋氨酸，米加豆就有齊9種氨基酸，故此紅豆飯或其他類型的豆飯，以至豆漿配飯糰，都是補充蛋白質的理想餐膳😃。\n\n想對蛋白質或其他營養有更多了解，來1月份的營養班一起學習吧！","post191227","2019-12-27T00:00:00.000Z",{"data":35},{"id":36,"attributes":37},6,{"name":38,"slug":39,"profile":6,"createdAt":40,"updatedAt":40},"Mang Ng","mang","2023-02-12T02:39:06.688Z",{"data":42},[43],{"id":44,"attributes":45},1,{"slug":46,"name":47,"description":6,"createdAt":48,"updatedAt":48},"nutrition","營養隨筆","2023-02-12T02:39:02.691Z",{"data":50},[51],{"id":52,"attributes":53},144,{"name":54,"createdAt":55,"updatedAt":55},"蛋白質","2023-02-12T03:32:01.351Z",{"data":6},{"id":58,"attributes":59},150,{"title":60,"excerpt":6,"content":61,"slug":62,"createdAt":63,"updatedAt":63,"author":64,"categories":65,"tags":69,"image":78},"優質禽肉-火雞","\n\n踏入12月中，到處響起聖誕歌曲🎅🏼，自然想起火雞🐔。小時候吃過火雞，覺得太難吃了😖，肉質很粗糙。長大後一次聖誕派對，發現火雞原來可以那麼嫩滑可口😳，讓我對火雞改觀。\n\n唸營養後更發現火雞相較其他禽肉不但脂肪量低，蛋白質含量也較高😀，每100克火雞肉已含有21克蛋白質。\n\n蛋白質是我們必需的宏量營養素，是身體組織主要的構建材料，亦是細胞和肌肉的基石。因此不是鍛煉肌肉才需要蛋白質，我們的五臟六腑也極之需要。舉例來說，患有胃痛或胃潰瘍的朋友，若能攝取容易消化吸收的蛋白質，重建胃黏膜，胃病自可舒緩。\n\n甚麼蛋白質才容易被消化吸收？下回分解😉。\n\n今天冬至，祝各位Empower友好和家人冬至愉快，暖意洋洋慶團圓🥰；也預祝大家聖誕快樂，merry Christmas！🎊\n","post191222","2019-12-22T00:00:00.000Z",{"data":6},{"data":66},[67],{"id":44,"attributes":68},{"slug":46,"name":47,"description":6,"createdAt":48,"updatedAt":48},{"data":70},[71,73],{"id":52,"attributes":72},{"name":54,"createdAt":55,"updatedAt":55},{"id":74,"attributes":75},164,{"name":76,"createdAt":77,"updatedAt":77},"火雞","2023-02-12T03:32:01.364Z",{"data":6},{"id":80,"attributes":81},161,{"title":82,"excerpt":6,"content":83,"slug":84,"createdAt":85,"updatedAt":85,"author":86,"categories":87,"tags":91,"image":103},"以形補形？","\n\n有見近來的交通情況，大家在路上的步伐都比以往快🏃🏻，可謂歸心似箭。要行得快，就要有好的骨骼關節🦴。\n\n中國人說\"以形補形\" -- 豬腳、雞腳湯等，真的可以補腳骨🦴嗎？\n\n豬腳的膠質雖多，卻沒有研究證實直接對關節有益🤔。營養師說如用雞腳湯補鈣，是需要飲一個浴缸那麼多😲！\n\n豬腳的蛋白質又如何？其實我們吃任何蛋白質食物，身體都會消化分解為胺基酸重新利用，所以吃豬腳或其他肉類分別不大，因為都會分解為胺基酸，再重組為蛋白質，並由身體按需要分配給不同部位😃。\n\n那麼該如何補鈣呢？可以多吃深綠色的蔬菜🥦，以及大豆製品如豆漿🥛、豆腐，同時也要注重鎂質的攝取，並多曬太陽以吸收維他命D，這樣才有助提升骨質密度💪🏻💪🏻！\n\n骨質密度與關節健康息息相關。想更深入了解如何保養關節，12月14日早上11時活學營養《活絡關節 步履輕盈》就萬勿錯過！☺","post191204","2019-12-04T00:00:00.000Z",{"data":6},{"data":88},[89],{"id":44,"attributes":90},{"slug":46,"name":47,"description":6,"createdAt":48,"updatedAt":48},{"data":92},[93,97,101],{"id":94,"attributes":95},162,{"name":96,"createdAt":77,"updatedAt":77},"骨質密度",{"id":98,"attributes":99},163,{"name":100,"createdAt":77,"updatedAt":77},"關節",{"id":52,"attributes":102},{"name":54,"createdAt":55,"updatedAt":55},{"data":6},{"id":105,"attributes":106},149,{"title":107,"excerpt":6,"content":108,"slug":109,"createdAt":110,"updatedAt":110,"author":111,"categories":112,"tags":116,"image":127},"維他命C：增強免疫力之王","\n\n上星期提及硒和維他命E可幫助阻隔污染物粒子進入肺部，若想事半功倍，就必須多加攝取維他命C💪💪\n\n白血球是人體迎擊病毒和形成免疫力的功臣，維他命C正可強化其功效，並加速白血球調動。此外維他命C可還原解毒，將毒素中和分解，減少身體所受的毒害。芸芸營養素中，維他命C在維護免疫系統方面名列首位，絕非浪得虛名🤩\n\n不少水果皆富含維他命C。🍊橘子類固然含有維他命C，但其實番石榴、士多啤梨和奇異果的維他命C含量都較橙和柑豐富，其中100克番石榴所含維他命C達228毫克，是橙的4倍😱\n\n🥰溫馨提示：維他命C非常容易氧化，故水果切開後應立即食用。維他命C也是水溶性的，短短2、3小時就會經汗水或尿液排出體外，故必須在3餐中充份攝取。","post19127","2019-11-27T00:00:00.000Z",{"data":6},{"data":113},[114],{"id":44,"attributes":115},{"slug":46,"name":47,"description":6,"createdAt":48,"updatedAt":48},{"data":117},[118,123],{"id":119,"attributes":120},156,{"name":121,"createdAt":122,"updatedAt":122},"維他命C","2023-02-12T03:32:01.361Z",{"id":28,"attributes":124},{"name":125,"createdAt":126,"updatedAt":126},"免疫力","2023-02-12T03:32:01.357Z",{"data":6},{"id":119,"attributes":129},{"title":130,"excerpt":6,"content":131,"slug":132,"createdAt":133,"updatedAt":133,"author":134,"categories":135,"tags":139,"image":161},"硒+E：解毒之王","\n\n近日大家較容易從空氣吸入不同類型的毒素☠，今次介紹兩種特別有助肺部抵禦空氣污染的微量元素，大家可多加留意攝取😊\n\n大家對硒或較為陌生，但對「世界長壽之鄉」巴馬應有印象；除巴馬外，廣西還有18個縣市獲授「中國長壽之鄉」的稱號😍。專家認為一大原因，是這些地區的土壤和農產品均富含硒。\n\n硒有抗癌之王的美譽，可以抑制癌細胞，清除體內的自由基，並維持心臟正常運作，防止血管硬化。而且是水銀、鎘等重金屬的天然解毒劑，有助身體排出毒素，同時增強免疫力💪🏻💪🏻，防禦空氣污染對呼吸器官黏膜的損害。沙甸魚、蠔、🥚蛋、大蒜均富含硒。\n\n至於維他命E，女士們應很熟悉，因維他命E有「靚女E」之稱💆🏻‍♀，攝取充足有助預防皮膚老化尤其是老人斑的形成。此外，維他命E是細胞呼吸的必需促進因子，研究發現體內維他命E的水平越高，越能抵抗污染物粒子進入肺部。堅果、🥑牛油果、菠菜都含有豐富維他命E。","post91117","2019-11-17T00:00:00.000Z",{"data":6},{"data":136},[137],{"id":44,"attributes":138},{"slug":46,"name":47,"description":6,"createdAt":48,"updatedAt":48},{"data":140},[141,146,151,154,156],{"id":142,"attributes":143},146,{"name":144,"createdAt":145,"updatedAt":145},"硒","2023-02-12T03:32:01.354Z",{"id":147,"attributes":148},151,{"name":149,"createdAt":150,"updatedAt":150},"維他命E","2023-02-12T03:32:01.356Z",{"id":3,"attributes":152},{"name":153,"createdAt":126,"updatedAt":126},"抗癌",{"id":28,"attributes":155},{"name":125,"createdAt":126,"updatedAt":126},{"id":157,"attributes":158},138,{"name":159,"createdAt":160,"updatedAt":160},"排毒","2023-02-12T03:32:01.347Z",{"data":6},{"id":142,"attributes":163},{"title":164,"excerpt":6,"content":165,"slug":166,"createdAt":167,"updatedAt":167,"author":168,"categories":169,"tags":173,"image":189},"這個冬天不太冷","\n\n立冬剛過，🥶怕冷的朋友又是時候進補。Empower_天前剛舉辦蛇宴，蛇湯、蛇羹、羊腩煲、糯米飯😍……一眾老饕吃得好不暢快，但心裡又怕虛不受補會上火甚至爆瘡😵。究竟應如何進補是好？\n\n古代人飲食清淡，鮮有肉吃；現代人飲食則常高脂高糖，三高、糖尿問題不絕於耳。故此若本身已有這些代謝問題的朋友，並不建議常吃以上溫熱食物進補；即使手腳冰冷，也是血液循環問題，有機會再講如何處理😉\n\n其實立冬及小雪最重要是補脾健胃，補腎壯腰；脾腎皆壯，自然不怕冷💪💪。栗子被譽為「千果之王」，唐代名醫孫思邈更稱之為「腎之果」，營食豐富，蛋白質、維他命、礦物質、不飽和脂肪酸及膳食纖維一應俱全，除可補腎和脾胃外，對防治高血壓、冠心病和動脈硬化等亦有功效👍🤗","post191112","2019-11-12T00:00:00.000Z",{"data":6},{"data":170},[171],{"id":44,"attributes":172},{"slug":46,"name":47,"description":6,"createdAt":48,"updatedAt":48},{"data":174},[175,180,185],{"id":176,"attributes":177},148,{"name":178,"createdAt":179,"updatedAt":179},"補脾健胃","2023-02-12T03:32:01.355Z",{"id":181,"attributes":182},155,{"name":183,"createdAt":184,"updatedAt":184},"栗子","2023-02-12T03:32:01.360Z",{"id":186,"attributes":187},154,{"name":188,"createdAt":184,"updatedAt":184},"腎",{"data":6},{"id":191,"attributes":192},176,{"title":193,"excerpt":6,"content":194,"slug":195,"createdAt":196,"updatedAt":196,"author":197,"categories":204,"tags":208,"image":220},"痛風不可食蛋白質？","\n\n常說痛風是一種富貴病，太過大魚大肉就會中招，食太多肉類、海產尤其容易發作😖，痛起上黎風吹都頂唔順😱！坊間說痛風不能吃肉類的原因是肉類含有高度蛋白質，究竟蛋白質是否引起痛風的主因呢？痛風患者是否不能吃蛋白質食物呢？\n\n其實痛風的真正主因是由嘌呤轉化的「尿酸」引起。過量吸收嘌呤而未能分解，會在體內轉變成尿酸，形成結晶卡在手指、腳趾(特別是大拇指)、膝頭等手腳關節內，產生紅、腫、熱、痛的發炎反應，俗稱「痛風」。近年有研究指出，體內三分二的嘌呤是由身體製造而成，外部吸收的僅佔三分之一。因此要解決尿酸問題，必須內外夾擊！\n\n高嘌呤食品包括動物內臟、貝殼類海產及紅肉，切勿吃過量。若想補充蛋白質又怕嘌呤超標？可以選擇植物性蛋白質、雞蛋、海參等，亦可選擇去嘌呤的大豆分離蛋白，直接吸收蛋白質。\n\n識得揀嘢食減少了嘌呤吸收，身體產生而積聚的嘌呤又應該如何處理呢？請看下回分解","post191101","2019-11-01T00:00:00.000Z",{"data":198},{"id":199,"attributes":200},4,{"name":201,"slug":202,"profile":6,"createdAt":203,"updatedAt":203},"King","king","2023-02-12T02:39:06.684Z",{"data":205},[206],{"id":44,"attributes":207},{"slug":46,"name":47,"description":6,"createdAt":48,"updatedAt":48},{"data":209},[210,213,218],{"id":105,"attributes":211},{"name":212,"createdAt":179,"updatedAt":179},"痛風",{"id":214,"attributes":215},142,{"name":216,"createdAt":217,"updatedAt":217},"尿酸","2023-02-12T03:32:01.350Z",{"id":52,"attributes":219},{"name":54,"createdAt":55,"updatedAt":55},{"data":6},{"id":176,"attributes":222},{"title":223,"excerpt":6,"content":224,"slug":225,"createdAt":226,"updatedAt":226,"author":227,"categories":228,"tags":235,"image":242},"夢想還是要有，萬一實現了呢","\n\n這是馬雲非常著名的金句，也印在紀念阿里巴巴在美國上市的特製T裇上，足見它的份量。馬雲創業由零開始，沒有「父幹」，只好不斷努力。阿里爸爸的成功，令他相信凡事皆有可能，故以此話勉勵年青人，要有夢想，並要相信自己有能力將夢想實現！💪💪\n\n另一位內地傳奇創業家、新東方教育集團的創辦人俞敏洪表示，人生有兩種活法：一種是平庸地度過，不願放棄自己擁有的東西，過得很舒服，很平穩，但沒甚麼奇蹟發生😐；另一種是不甘平庸地度過，不是突破現狀，更多是突破自己，找到全新的自我，不害怕失敗，不氣餒，相信自己終會成功。🤗「敢於放棄，是放棄平庸，走向創造；放棄迷茫，走向堅定。有時候，放棄以後你可能甚麼也得不到，依然從平庸走向平庸，但總比你一直待在那個地方平庸要好，因為你至少已努力過了。」\n\n學會相信自己，並相信自己的人生將越來越燦爛 ---- 明天比今天更好，明年比今年更好，之後的五年比現在的五年更好。有了渴望，人生自會被引領，不斷向前！","post191022","2019-10-22T00:00:00.000Z",{"data":6},{"data":229},[230],{"id":199,"attributes":231},{"slug":232,"name":233,"description":6,"createdAt":234,"updatedAt":234},"spiritual","心靈勵志","2023-02-12T02:39:02.698Z",{"data":236},[237],{"id":238,"attributes":239},130,{"name":240,"createdAt":241,"updatedAt":241},"夢想","2023-02-12T03:32:01.316Z",{"data":6},{"id":244,"attributes":245},166,{"title":246,"excerpt":6,"content":247,"slug":248,"createdAt":249,"updatedAt":249,"author":250,"categories":251,"tags":255,"image":264},"眼袋、黑眼圈也跟腎有關？","w\n\n\n眼睛是靈魂之窗，許多女士都特別著重眼部肌膚護理；可惜無論用多貴價的眼霜，眼袋、黑眼圈依然揮之不去😣，甚至到美容院花過萬元做了去眼袋療程，過一段時間後眼袋又死灰復燃…….那怎麼辦才好？🙄\n\n眼袋、黑眼圈的成因林林總總，大多與氣血循環有關，當中在腎虛者極為常見。腎主水，其色為黑；腎虛有礙水液代謝，容易導致下眼瞼浮腫。若下眼瞼皮膚既鬆且黑🐼，且長時間未能消褪，就要好好護腎了。\n\n如上周六的＜補腎強身＞講座所言，維他命B、鈣及鎂都是補腎的營養素。其中鈣鎂的攝取比例必需為2:1，這樣才可有效防止鈣質沉積於腎臟等軟組織，防止腎結石形石💪💪。世上並沒有任何一種食物的鎂含量特別多，最豐富的可謂堅果類，其次為魚、海藻、蔬菜、豆類。故此，與以肉類為主的西方飲食相比，包含魚、海藻和納豆的日本和食🍱是攝取鎂的較佳方式。食用營養補充品時，也務必選擇天然有機、鈣鎂比例相符的補充品，切忌大劑量地單一補鈣。","post191016","2019-10-16T00:00:00.000Z",{"data":6},{"data":252},[253],{"id":44,"attributes":254},{"slug":46,"name":47,"description":6,"createdAt":48,"updatedAt":48},{"data":256},[257,262],{"id":258,"attributes":259},140,{"name":260,"createdAt":261,"updatedAt":261},"眼睛","2023-02-12T03:32:01.349Z",{"id":186,"attributes":263},{"name":188,"createdAt":184,"updatedAt":184},{"data":6},{"id":186,"attributes":266},{"title":267,"excerpt":6,"content":268,"slug":269,"createdAt":270,"updatedAt":270,"author":271,"categories":272,"tags":276,"image":289},"腎功能與尾指長度有關？","\n\n慈禧太后尾指常戴指甲套，可能因為腎唔好？😱\n\n看古裝片經常看到慈禧太后或其他妃嬪都在尾指戴長長的指甲套😮，除了突顯身份地位並保護她們長長的指甲外，不知會否是知道尾指越長，代表腎功能越好，人就越青春有活力呢？😄\n\n男左女右，尾指的長度若在無名指第三指節的橫紋之上，反映腎功能天生較佳❤，通常是父母35歲前孕育出來的。當然若父母操勞而壓力又大，即使35歲前生兒育女，孩子的尾指也可能較短。\n\n腎不好，容易尿頻甚至夜尿、腰痛、眼肚大、脫髮、記性差😖，但絕對可透過飲食和運動改善。歡迎大家一起來本周六(10月12日)上午的《補腎強身》營養講座，了解如何固本培元，令身體自我修復，腎氣足，精神好！","post20191010","2019-10-10T00:00:00.000Z",{"data":6},{"data":273},[274],{"id":44,"attributes":275},{"slug":46,"name":47,"description":6,"createdAt":48,"updatedAt":48},{"data":277},[278,280,285],{"id":186,"attributes":279},{"name":188,"createdAt":184,"updatedAt":184},{"id":281,"attributes":282},139,{"name":283,"createdAt":284,"updatedAt":284},"尿頻","2023-02-12T03:32:01.348Z",{"id":286,"attributes":287},147,{"name":288,"createdAt":145,"updatedAt":145},"記性",{"data":6},{"id":52,"attributes":291},{"title":292,"excerpt":6,"content":293,"slug":294,"createdAt":295,"updatedAt":295,"author":296,"categories":297,"tags":301,"image":312},"腋下、手踭烏卒卒，可能是糖尿警號？","\n\n行街搭車，應該都會見過有人頸後、手踭或膝頭特別烏黑，有些甚至腋下或指間也是如此😖，尤以長者和肥胖人士為甚。原來這未必是清潔不善，而是胰島素分泌過多，形成「黑色棘皮症」所致。\n\n胰島素是由胰臟分泌的荷爾蒙，令葡萄糖得以進入細胞作為能量來源，使血糖保持穩定。現代人常吃加工食品🍔，又或暴飲暴食🎂，致血糖急促上升，長時間反複積累，導致胰島素分泌過盛，刺激皮下細胞增生，令皮膚變黑變厚且粗糙，在較多皮膚聚集的摺紋位置尤為明顯。\n\n「黑色棘皮症」與被稱為糖尿病前身的胰島素阻抗的增加有關😮。如發現有此病癥，且本身身型肥胖，或家族有糖尿病患，建議盡快檢驗血糖，以確定是否罹患糖尿病，及早治療。\n\n想知道如何有效預防或根治糖尿，歡迎出席下周一10月7日＜活學營養：擺脫糖尿 活得輕鬆＞🤗\n我的健康我作主，打造健康生活圈！","post191002","2019-10-02T00:00:00.000Z",{"data":6},{"data":298},[299],{"id":44,"attributes":300},{"slug":46,"name":47,"description":6,"createdAt":48,"updatedAt":48},{"data":302},[303,308],{"id":304,"attributes":305},137,{"name":306,"createdAt":307,"updatedAt":307},"糖尿","2023-02-12T03:32:01.346Z",{"id":309,"attributes":310},143,{"name":311,"createdAt":217,"updatedAt":217},"胰島素",{"data":6},{"pagination":314},{"page":315,"pageSize":316,"pageCount":317,"total":318},9,12,10,116],"uses":{"dependencies":["http://127.0.0.1:1337/api/posts?sort=createdAt%3Adesc&populate[author]=true&populate[categories]=true&populate[tags]=true&populate[image]=true&pagination[page]=9&pagination[pageSize]=12"],"params":["page","category"]}}]}