{"type":"data","nodes":[null,{"type":"data","data":[{"data":1,"meta":360},[2,37,62,84,114,149,189,211,235,270,300,336],{"id":3,"attributes":4},774,{"title":5,"excerpt":6,"content":7,"slug":8,"createdAt":9,"updatedAt":9,"author":10,"categories":11,"tags":19,"image":36},"最有效的藥物，是人的免疫力",null,"\n\n標題這句話，是上海新冠肺炎臨床救治專家組組長、復旦大學附屬華山醫院感染科主任張文宏的名言。的確，在沒有特效藥的情況下，所有最先進的救命設備，起到的只是支援作用；我們自身的免疫力，才是最好的“醫生”！故此鍾南山院士也多次強調：“防控的關鍵還是自己！”💪🏻💪🏻\n\n免疫力是身體抵抗外來侵襲，維護體內環境穩定的能力，受眾多因素影響，包括：\u003Cbr\u003E\n1. 年齡\u003Cbr\u003E\n人體免疫細胞數量和增殖能力隨年齡增長而下降，60歲時免疫力較20歲下跌約60%😖，消滅細菌、病毒、癌變細胞的能力也會減弱。\n\n2. 睡眠\u003Cbr\u003E\n長期通宵熬夜，嚴重破壞人體免疫系統。美國芝加哥大學研究發現，每晚只睡4小時的人，體內抵禦流感的抗體較每晚睡7.5至8.5小時的人減少50%😨。\n\n3. 營養\u003Cbr\u003E\n飲食均衡是確保身體各項機能正常，維持免疫力的基礎。然而，要做到膳食均衡並不容易，微量營養素尤其容易攝取不足。根據美國癌症協會及台灣癌症基金會提倡的「蔬果579」飲食觀念，12歲以下兒童每日應攝取至少5份新鮮蔬果，12歲以上女士及男士則應分別攝取7份及9份蔬菜水果。香港衛生署表示，逾90%港人一天食用少於5份蔬果😓，加上食物營養貶值及高溫烹調，均令營養難以均衡。\n\n對一般人來說，提升免疫力最簡便的方法，是每天補充維他命C😙。維他命C是人體免疫系統必需的維他命，在提升免疫力方面具3大功效：\u003Cbr\u003E\n1. 加速調動白血球，促進中性粒細胞的功能和活動性，從而加速免疫細胞反應；\u003Cbr\u003E\n2. 製造干擾素，令身體有足夠時間製造抗體；\u003Cbr\u003E\n3. 還原解毒，將毒素中和分解，減少身體所受的毒害。\n\n維他命C作為人體必需的水溶性維他命，自身無法生產，只能通過飲食攝取。中國營養學會建議成人每日的維他命C攝入量為100毫克，可耐受最高攝入量為2000毫克。維他命C受熱易被破壞，而我們華人的飲食習慣傾向熱食，故食材中的維他命C往往在烹調過程中受破壞，致使維他命C的攝取不足。常見水果中，番石榴的維他命C含量最豐富，每100克含228毫克維C；其次為黑加侖子，維C含量為181毫克；之後依次為🥝奇異果、檸檬和蘋果。\n\n針葉櫻桃(acerola cherry)是世上維C含量最豐富的天然來源之一，每100克含逾1500毫克維C👍🏻😀。選取維他命C補充品時，提煉自有機針葉櫻桃的當為首選，輔以柑橘生物類黃酮，可促進維C吸收，並進一步提升抗氧化效能和免疫力。","post201211","2020-12-11T00:00:00.000Z",{"data":6},{"data":12},[13],{"id":14,"attributes":15},1,{"slug":16,"name":17,"description":6,"createdAt":18,"updatedAt":18},"nutrition","營養隨筆","2023-02-07T08:03:25.893Z",{"data":20},[21,26,31],{"id":22,"attributes":23},26,{"name":24,"createdAt":25,"updatedAt":25},"免疫力","2023-02-07T08:03:09.575Z",{"id":27,"attributes":28},27,{"name":29,"createdAt":30,"updatedAt":30},"維他命C","2023-02-07T08:03:09.582Z",{"id":32,"attributes":33},88,{"name":34,"createdAt":35,"updatedAt":35},"針葉櫻桃","2023-02-07T08:03:10.289Z",{"data":6},{"id":38,"attributes":39},771,{"title":40,"excerpt":6,"content":41,"slug":42,"createdAt":43,"updatedAt":43,"author":44,"categories":45,"tags":49,"image":61},"最最最重要的蛋白質","\n\n蛋白質Protein源自於希臘文的proteios，代表「第一品質」；又或來自於protos，意思是「第一」🥳。全身細胞皆由蛋白質組成，膽汁及尿液除外。\n\n胺基酸是構成蛋白質的單位，當中9種為必需胺基酸：組胺酸、異亮胺酸、亮胺酸、賴胺酸、甲硫胺酸、苯丙胺酸、蘇胺酸、色胺酸和纈胺酸；這些胺基酸身體無法合成，必須從食物取得。身體利用這9種必需胺基酸，合成22種胺基酸💪🏻。\n\n確定蛋白質品質較常用的方法被稱為“蛋白質消化率校正胺基酸評分”（PDCAAS），最高分數是1，代表蛋白質消化後，每單位蛋白質提供人體所需的100%必要胺基酸。\n\n疫情與流感肆虐，蛋白質如何有助我們提升免疫力呢？🧐呼吸系統助我們對抗空氣污染和細菌病毒的侵害，當中氣管壁長著纖毛，能夠分泌黏液黏著空氣中的污染物，並且單向向上抖動，抖出來的就是痰。若吸了一口氣，剛好有一個肺結核菌或新冠病毒在氣流中間，沒被黏住；沒被黏住就沒法靠痰排出來，那如何是好？😱\n\n幸好人體所有管腔包括消化道、腸道和泌尿道的細胞都有分泌型免疫球蛋白，即我們常說的抗體。這抗體可以被噴到管腔中間，抓住並消滅病毒和細菌，而合成這抗體的原料就是蛋白質。所以若蛋白質不足，相當於子彈不足😟，即使管腔內架設了槍，也無法及時殺滅敵人，以致容易發生呼吸道、泌尿道及消化道感染。\n\n下星期的《活學營養》將與大家探討蛋白質的其他特質，以及如何抗疲勞🤩。","post201121","2020-11-21T00:00:00.000Z",{"data":6},{"data":46},[47],{"id":14,"attributes":48},{"slug":16,"name":17,"description":6,"createdAt":18,"updatedAt":18},{"data":50},[51,56],{"id":52,"attributes":53},20,{"name":54,"createdAt":55,"updatedAt":55},"蛋白質","2023-02-07T08:03:09.445Z",{"id":57,"attributes":58},87,{"name":59,"createdAt":60,"updatedAt":60},"胺基酸","2023-02-07T08:03:10.279Z",{"data":6},{"id":63,"attributes":64},770,{"title":65,"excerpt":6,"content":66,"slug":67,"createdAt":68,"updatedAt":68,"author":69,"categories":70,"tags":74,"image":83},"兒童肥胖\u002F瘦削，如何調整營養攝取？","\n\n兒童無論肥胖或瘦削，都與宏量營養素即蛋白質、脂肪及碳水化合物的攝入不合標準相關。這必須透過調整飲食結構去扭轉，不能單純壓縮或拼命增加能量的攝入😉。\n\n調整飲食結構，就要調整三大宏量營養素的攝入：想令肥胖的孩子脂肪降低，就要減少其對脂肪和碳水化合物的攝取，加強蛋白質的攝入；對於瘦削的孩子，要令他不能太挑食或偏食，另外也需要提供更多蛋白質，來促進身體的生長與發育。由此可見，蛋白質的補充對兒童非常重要！💪🏻💪🏻\n\n成長階段的嬰幼兒、兒童及青少年，身體各項組織、機能正在發展，對蛋白質的需求量大增。一般建議：\u003Cbr\u003E\n嬰幼兒時期的蛋白質攝取量為體重（公斤）Ｘ1.4（克）\u003Cbr\u003E\n兒童、青少年的蛋日質攝取量為體重（公斤）Ｘ1.2~1.4（克）\n\n舉例而言，若兒童的體重為40公斤，每日約需要48至56克的蛋白質；然而，兒童的胃容量只有成年男士的1\u002F6，但每日所需的蛋白質可媲美成年男性😱，那如何是好？\n\n家長應讓孩子2\u002F3的蛋白質攝取量為容易消化吸收的蛋白質，例如雞蛋、魚，以及豆漿和全植物蛋白質粉等植物性蛋白質，並少食多餐😉。","post201101","2020-11-01T00:00:00.000Z",{"data":6},{"data":71},[72],{"id":14,"attributes":73},{"slug":16,"name":17,"description":6,"createdAt":18,"updatedAt":18},{"data":75},[76,81],{"id":77,"attributes":78},76,{"name":79,"createdAt":80,"updatedAt":80},"兒童營養","2023-02-07T08:03:10.193Z",{"id":52,"attributes":82},{"name":54,"createdAt":55,"updatedAt":55},{"data":6},{"id":85,"attributes":86},769,{"title":87,"excerpt":6,"content":88,"slug":89,"createdAt":90,"updatedAt":90,"author":91,"categories":92,"tags":96,"image":113},"輔酵素Q10 為細胞快速充電","\n\n人體由數十萬億細胞構成，細胞健康，就像電池充滿電，能量充沛，幹勁十足💪🏻！正如煤、石油等須通過發電機轉化為電，家裡的電器才能運作；我們吃了碳水化合物、脂肪或蛋白質這些產生能量的食物後，須先經過消化吸收，然後在細胞的線粒體轉化為細胞的能量貨幣ATP，方能被人體運用。輔酵素Q10正是把能量物質轉化為ATP的核心發電機🤓。\n\n英國的彼得米切爾教授(Peter D. Mitchell)因發現人體一切細胞能量的轉換必須有輔酵素Q10的參與，而獲得第78屆諾貝爾化學獎💡。在西方國家，輔酵素Q10被視為護心補品，不少西醫在幫助心臟患者復健的處方中，都包括輔酵素Q10👍🏻，而不少研究結果反映輔酵素Q10在改善心律不正、心絞痛及心臟衰竭方面均有顯著功效。\n\n除了心臟健康外，若數十萬億細胞皆能量充沛，人就會精神奕奕。腦細胞能量充足，自然思維敏捷。細胞能量運轉充份，還會消耗更多脂肪，加速體內脂肪代謝。同時為肌膚抗衰老，減少長斑長痘💁🏻‍♀️💁🏻‍♂️。\n\n20歲起，人體合成輔酵素Q10的量開始減少；至40歲，大部份人的輔酵素Q10都已降至較低水平。合成不足，又因熬夜、空氣污染、壓力等因素而增加消耗，故此必須適時補充輔酵素Q10，才能避免身體透支。\n\n歐美國家建議健康成年人每天補充30毫克輔酵素Q10，亞健康的人應增加補充；若心臟或其他器官的功能明顯下降，就要額外再添。如欲一天補充90毫克輔酵素Q10，需要吃1500克沙甸魚或3000克牛肉😅，並不容易，故此一般人一天通常只能攝取3至5毫克輔酵素Q10，其餘必須靠營養補充品補充。選擇輔酵素Q10補充品，除了著眼於是否天然有機外，最好選擇複方，例如輔以左旋肉鹸、氨基乙磺酸及柑橘類生物類黃酮，全面提升細胞能量並對抗自由基，倍添心臟動力、燃脂力🔥、體力及肌膚活力！💪🏻","post201023","2020-10-23T00:00:00.000Z",{"data":6},{"data":93},[94],{"id":14,"attributes":95},{"slug":16,"name":17,"description":6,"createdAt":18,"updatedAt":18},{"data":97},[98,103,108],{"id":99,"attributes":100},85,{"name":101,"createdAt":102,"updatedAt":102},"輔酵素Q10","2023-02-07T08:03:10.250Z",{"id":104,"attributes":105},84,{"name":106,"createdAt":107,"updatedAt":107},"心臟健康","2023-02-07T08:03:10.234Z",{"id":109,"attributes":110},86,{"name":111,"createdAt":112,"updatedAt":112},"抗衰老","2023-02-07T08:03:10.262Z",{"data":6},{"id":115,"attributes":116},767,{"title":117,"excerpt":6,"content":118,"slug":119,"createdAt":120,"updatedAt":120,"author":121,"categories":122,"tags":126,"image":148},"你的骨質每天收支平衡嗎？","\n\n我們每天不單生活有基本開支，原來鈣質也有每天的基本支出呢🤔！就如生活基本開支，若收入低於支出，就需要從銀行提款；若我們每天從飲食攝取的鈣質不足，身體便會從骨頭內提取鈣質使用，久而久之容易引致骨質疏鬆😨。\n\n成年人每天需要攝取1000毫克鈣質，50歲後（更年期後）每天需要攝取1500毫克鈣質。據國際骨質疏鬆基金會於2018年對全球74個國家鈣質攝取的研究發現，中國內地平均每天從飲食攝取的鈣量只有338毫克。另一項調查發現，香港女性每日平均的鈣攝取量低於600毫克😱。\n\n為何鈣攝取量會遠低於我們的日常所需呢？除了跟飲食文化有關，與鈣質的吸收率也不無關係。一般而言，人體對食物中鈣質的吸收率約為30%。例如，芥蘭屬於高鈣食物，每100克含180毫克的鈣質，吸收率屬不錯，有50%，即約90毫克鈣質；人體對豆腐鈣質的吸收率約30%，每100克豆腐約有300毫克鈣質，即人體可吸收的鈣約為90毫克。\n\n還須注意的是，身體需要鈣、鎂及磷這三種礦物質按比例吸收才能建構骨質，而理想的磷與鈣比例是1：1。若果磷質攝取過剩以致血液中的磷濃度上升，骨骼中的鈣質便會被釋放到血液，令血液回復鈣與磷的平衡狀態⚖️。香港流行速食文化，加工食品如汽水、罐頭、香腸大量添加磷酸鹽，若經常食用，攝取磷質便會過量，從而導致骨質疏鬆的傾向。所以，我們除了要積極攝取高鈣食物，如蝦皮、豆製品、連骨小魚、深綠色蔬菜之外，也要避免進食加工食品呢🤓！\n\n如欲了解更多關於鈣、鎂及磷這三種礦物質的黃金比例，請觀看15分鐘mini talk營一世影片 https:\u002F\u002Fyoutu.be\u002FRovz9o6B86Y","post201017","2020-10-17T00:00:00.000Z",{"data":6},{"data":123},[124],{"id":14,"attributes":125},{"slug":16,"name":17,"description":6,"createdAt":18,"updatedAt":18},{"data":127},[128,133,138,143],{"id":129,"attributes":130},80,{"name":131,"createdAt":132,"updatedAt":132},"骨質","2023-02-07T08:03:10.215Z",{"id":134,"attributes":135},82,{"name":136,"createdAt":137,"updatedAt":137},"鈣","2023-02-07T08:03:10.218Z",{"id":139,"attributes":140},81,{"name":141,"createdAt":142,"updatedAt":142},"骨質疏鬆","2023-02-07T08:03:10.216Z",{"id":144,"attributes":145},83,{"name":146,"createdAt":147,"updatedAt":147},"鎂","2023-02-07T08:03:10.227Z",{"data":6},{"id":150,"attributes":151},768,{"title":152,"excerpt":6,"content":153,"slug":154,"createdAt":155,"updatedAt":155,"author":156,"categories":157,"tags":161,"image":188},"卵磷脂四大功效","\n\n細胞是組成人體最基本的單位，細胞健康是人體健康的基礎；而人體所有細胞膜都由卵磷脂構成，故此卵磷脂是基礎營養素，人人皆需要💪🏻。\n\n卵磷脂有4️⃣大功能，分別為：\u003Cbr\u003E\n1）血管清道夫\u003Cbr\u003E\n2）肝膽淨化劑\u003Cbr\u003E\n3）皮膚保濕霜\u003Cbr\u003E\n4）健腦營養素\n\n只有血管健康，方能確保所有營養成份能夠及時運送至五臟六腑。卵磷脂可以把血管裡積存的油乳化，也可以降低甘油三酯和膽固醇的水平❤️。\n\n此外，卵磷脂缺乏，容易導致脂肪肝😖。吃了脂肪後，先被送到肝臟，在肝臟重新組合成為人體的脂肪，此時需要一輛車把脂肪從肝臟運出去。缺乏卵磷脂，等於車沒有車輪，脂肪不能及時運出去，累積在肝臟的脂肪就會增加。膽方面，卵磷脂可減少膽固醇沉澱並增加其溶解度，讓膽囊裡的膽固醇更好地溶入血液並帶走，減少膽結石的病發率。\n\n皮膚細胞膜保護不佳，細胞容易破損，通過破口，水份蒸發，就容易乾燥，出現皺紋甚至脫皮。細胞也容易積聚色素，包括脂褐素，俗稱老人斑👵🏻👴🏻。研究發現補充卵磷脂後，細胞的脂褐素含量可大幅下降，含水量則飆升。\n\n人體注意力和記憶力與卵磷脂密切相關，因為所有細胞包括神經細胞的細胞膜都是卵磷脂組成。腦神經細胞中17%-20%是卵磷脂，對神經系統的正常運轉至關重要。神經細胞帶著很長的纖維尾巴，這纖維就是神經線，它的膜也是卵磷脂。神經纖維的傳導，相當於電線的傳導；每條電線都有絕緣皮，神經纖維也包著絕緣皮，這亦是由卵磷脂構成，保證訊號互不干擾。卵磷脂充足，確保小孩神經系統發育正常，長者則可預防腦退化🤩。\n\n卵磷脂極怕氧化也怕熱，故此必須加入可以抗口腔氧化的維他命E，才能被人體運用。符合以下四大特點的，方為「優質卵磷脂」👍🏻😍：\u003Cbr\u003E\n1）天然有機\u003Cbr\u003E\n2）有維他命E保護\u003Cbr\u003E\n3）達致上述四大功效\u003Cbr\u003E\n4）可咀嚼，方便男女老幼食用","post201009","2020-10-09T00:00:00.000Z",{"data":6},{"data":158},[159],{"id":14,"attributes":160},{"slug":16,"name":17,"description":6,"createdAt":18,"updatedAt":18},{"data":162},[163,168,173,178,183],{"id":164,"attributes":165},55,{"name":166,"createdAt":167,"updatedAt":167},"卵磷脂","2023-02-07T08:03:09.958Z",{"id":169,"attributes":170},77,{"name":171,"createdAt":172,"updatedAt":172},"甘油三酯","2023-02-07T08:03:10.200Z",{"id":174,"attributes":175},78,{"name":176,"createdAt":177,"updatedAt":177},"膽固醇","2023-02-07T08:03:10.207Z",{"id":179,"attributes":180},79,{"name":181,"createdAt":182,"updatedAt":182},"注意力","2023-02-07T08:03:10.212Z",{"id":184,"attributes":185},42,{"name":186,"createdAt":187,"updatedAt":187},"記憶力","2023-02-07T08:03:09.758Z",{"data":6},{"id":190,"attributes":191},765,{"title":192,"excerpt":6,"content":193,"slug":194,"createdAt":195,"updatedAt":195,"author":196,"categories":197,"tags":201,"image":210},"兒童應攝取多少鐵？","\n\n上星期＜活學營養＞分享了兒童缺鐵缺血的表癥，以及缺鐵為何有機會導致體內鉛超標😱。今日我們講解兒童應攝取多少鐵，並如何攝取😉。\n\n出生至6個月大BB，每日建議攝取7毫克鐵，7個月至9歲的鐵質建議攝取量為10毫克，10至18歲為15毫克。\n\n100克的菠菜或扁豆含3克鐡，85克紅燒牛肉或鯖魚含2克鐵，1隻雞蛋含1克鐡。因此每日都攝取足夠鐵質，似乎並不容易，天然有機營養素就可協助補充🤗。\n\n鐵在體內儲存和運用的原理，就好像我們有一家經營鐵的店舖，櫃台每賣出一塊鐵，就從倉庫拿出一塊擺上。櫃台上擺的鐵相當於我們日常消耗的鐡，倉庫相當於體內鐵的庫存。如果倉庫裡有存貨，就可保證櫃台上擺得滿，能滿足我的日常所需；如果櫃台擺不滿，就表示倉庫裡一塊鐵也沒有，相當於貧血了😖。補鐵後，先在櫃台擺；擺滿後，身體就不受影響。這時候補貨不能停，因為只補了櫃台，庫存是零，所以必須持續地補，把庫存補滿👍🏻。\n\n給缺鐵缺血的孩子補鐵以後，大約3周，會看到面色變紅潤，不再那麼疲倦💪🏻💪🏻。這時候要將他體內鐵的儲存填滿，同時供應充足的鐵供日常使用，這需要半年以上、每日足量地補鐵。所以家長們發現孩子身體改善以後，也必須繼續規律地補鐵，方能令孩子身體健壯，不會前功盡廢。","post201002","2020-10-02T00:00:00.000Z",{"data":6},{"data":198},[199],{"id":14,"attributes":200},{"slug":16,"name":17,"description":6,"createdAt":18,"updatedAt":18},{"data":202},[203,205],{"id":77,"attributes":204},{"name":79,"createdAt":80,"updatedAt":80},{"id":206,"attributes":207},68,{"name":208,"createdAt":209,"updatedAt":209},"鐵","2023-02-07T08:03:10.147Z",{"data":6},{"id":212,"attributes":213},766,{"title":214,"excerpt":6,"content":215,"slug":216,"createdAt":217,"updatedAt":217,"author":218,"categories":219,"tags":223,"image":234},"兒童營養：缺鐵與貧血","\n\n兒童在不同發育階段，對各種營養的需求量都很大，因為不僅要滿足日常新陳代謝和能量消耗所需，而且還要滿足整個生長發育過程，方能從一個很小的個體👶🏻，長大成人。\n\n缺鐵與貧血是其中一個常見的兒童健康問題😯。據統計在發展中國家和工業化國家，分別有50%以上和30%-40%的兒童和孕婦有貧血的情況。最常見的貧血是缺鐵性貧血，佔所有貧血症的83%-90%，影響全球大約1\u002F4女性和兒童😖。\n\n兒童缺鐵缺血的表癥包括：\u003Cbr\u003E\n1️⃣ 面色較蠟黃或土黃，甚至帶有一點點淡淡的白斑\u003Cbr\u003E\n2️⃣ 異食癖，例如愛咬指甲\u003Cbr\u003E\n3️⃣ 常感疲乏倦怠，愛睡覺，上課時注意力難以集中\u003Cbr\u003E\n4️⃣ 免疫力下降，經常生病😷\n\n隨著缺鐵缺血愈發嚴重，體內的鉛有機會超標😱。為甚麼呢？我們吃的食物包括鐵和其他營養素都在腸道裡，要把食物裡的鐵吸收到血液來，要有一個運轉的系統。這系統好比一個小車，專門運轉營養素。如果鐵是方形，我要將鐵運進來，就要有一個方形的小車，把鐵坐在上面，我一拉，把它拉進來，我就吸收了鐵。食物裡沒有足量的鐵時，這小車就空了，也是方形的鉛趁機坐了上去，我一拉，鉛就進來了。故此當兒童缺鐵久了，日積月累，體內的鉛就容易超標。\n\n要減少鉛的吸收，膳食上必須多補充鐵，用更多的鐡佔住運轉的小車，阻止鉛的吸收。至於已經吸收進來的鉛，可以藉補充維他命C，促進體內鉛的排出，同時幫助鐵的吸收，故此⭐鐵素+維他命C是兒童營養的黃金組合⭐。\n\n下星期＜活學營養＞將分享由BB至18歲的每日建議鐵質攝取量，如何補鐵，以及補多久才見效，萬勿錯過！🤗\n","post200919","2020-09-19T00:00:00.000Z",{"data":6},{"data":220},[221],{"id":14,"attributes":222},{"slug":16,"name":17,"description":6,"createdAt":18,"updatedAt":18},{"data":224},[225,227,232],{"id":206,"attributes":226},{"name":208,"createdAt":209,"updatedAt":209},{"id":228,"attributes":229},75,{"name":230,"createdAt":231,"updatedAt":231},"貧血","2023-02-07T08:03:10.190Z",{"id":77,"attributes":233},{"name":79,"createdAt":80,"updatedAt":80},{"data":6},{"id":236,"attributes":237},763,{"title":238,"excerpt":6,"content":239,"slug":240,"createdAt":241,"updatedAt":241,"author":242,"categories":243,"tags":247,"image":269},"你今日有飲咖啡提神嗎？","\n\n會否已習慣每天都必需一杯甚至兩杯或以上的咖啡，才覺得精神奕奕？\n\n的確，咖啡因對我們的中樞神經系統有興奮作用，能令我們情緒亢奮，思路更清晰敏捷。但切記不要空腹飲用，而且成人每天的咖啡因攝取量不要超過400毫克啊，即是大約兩杯咖啡或奶茶。\n\n🤔歸根究底，咖啡為何能提神呢？\n\n我們工作或活動時，身體逐漸累積疲勞的感覺，大腦釋放神經傳導物質 -- 腺苷Adenosine；當腺苷與身體的受體（接收器）結合後，便會產生睡意。當累積到一定睡意時，便會睡眠了😴。\n\n咖啡因的結構與腺苷相似，咖啡因會取代原本腺苷與受體的作用，阻截大腦產生睡意，故此咖啡並非為我們提神，只是讓我們無法睡著而已🤨。\n\n人體代謝咖啡因的速度因人異議，一般來說，咖啡因的半衰期大約是3小時，大約會在人體停留6至14小時，所以建議大家睡眠前6小時避免攝取咖啡因，否則會影響我們的睡眠質素呢！\n\n其實，身體有睡意是在提示我們要休息。睡眠充足，我們自然會活力充沛，精神奕奕😄，根本毋需依賴咖啡因提神！當然，若是餐後飯氣攻心而產生睡意，則可能是體內維他命B不足，進而影響交感神經及副交感神經的運作，導致我們感覺疲累😔。\n\n大家若想了解更多，歡迎瀏覽Empower YouTube 頻道的「15分鐘mini talk：咖啡因是提神還是吊命」 https:\u002F\u002Fyoutu.be\u002FXRM0UJ17QFw 。","post200911","2020-09-11T00:00:00.000Z",{"data":6},{"data":244},[245],{"id":14,"attributes":246},{"slug":16,"name":17,"description":6,"createdAt":18,"updatedAt":18},{"data":248},[249,254,259,264],{"id":250,"attributes":251},74,{"name":252,"createdAt":253,"updatedAt":253},"咖啡","2023-02-07T08:03:10.189Z",{"id":255,"attributes":256},61,{"name":257,"createdAt":258,"updatedAt":258},"精神","2023-02-07T08:03:10.041Z",{"id":260,"attributes":261},40,{"name":262,"createdAt":263,"updatedAt":263},"維他命B","2023-02-07T08:03:09.723Z",{"id":265,"attributes":266},4,{"name":267,"createdAt":268,"updatedAt":268},"交感神經","2023-02-07T08:03:09.315Z",{"data":6},{"id":271,"attributes":272},764,{"title":273,"excerpt":6,"content":274,"slug":275,"createdAt":276,"updatedAt":276,"author":277,"categories":278,"tags":282,"image":299},"肝繼續保","\n\n正常的肝，摸上去如嘴唇般柔軟；若有脂肪肝或肝炎，肝有一點腫硬，像鼻尖；若有肝癌或肝硬化，肝就會變得堅硬如額頭甚至石頭😖。肝的硬化過程一般持續15至20年，甚至30年。\n\n早前我們探討了飲食不當、熬夜、壓力等皆會傷肝，今次主要論及化學性傷肝因素，包括酒精、藥物、苯並芘、黃曲霉毒素、殘留農藥、亞硝酸鹽、丙烯酰胺及四氯化碳。這些毒素進入人體後，產生大量自由基，大量消耗體內抗氧化劑，致使肝細胞產生炎症反應，引發肝細胞凋亡😨，繼而導致一系列肝臟疾病，包括脂脂肪、肝炎、肝硬化以至肝癌。（如欲了解上述化學因素對肝細胞造成的具體損害，請收看＜營一世：肝繼續保 不忍亂嚟＞mini talk錄播🤗 https:\u002F\u002Fyoutu.be\u002FMS1Db78BAn4 ）\n\n要全方位、點對點切斷這些化學元素對肝的損害，兩類草本營養可幫上忙💪🏻💪🏻：\n一是乳薊果：逾千年來為草本療法採用，研究發現當中的有效成分水飛薊素（Silymarin）可以令肝臟再生速度加快至少一倍，助受損的肝臟細胞自行修復；具強大抗氧化能力，增加分泌穀胱甘肽，保護肝臟細胞免受自由基破壞，效力遠勝於維他命E；更可抑制酵素系統產生的毒素，減少毒素對肝細胞及DNA的破壞。\n\n二是甘草：所謂“見肝之病，知肝傳脾，當先實脾。” 現代藥理學發現甘草酸除了可滋陰健脾外，亦可以保護肝細胞膜，促進肝臟組織再生和功能恢復；同時抑制乙肝病毒破壞肝細胞，並協助肝臟排毒，減少慢性肝炎發病率。\n\n配合上星期《婦科百病由肝治》提及的優質蛋白質、維他命B群、維他命C及薑黃，就可以大大有助肝臟清除自由基，增強抗氧化劑活性，抑制炎症反應，全面改善肝功能！😀當然若能做肝膽排毒，修復將更為徹底。\n","post200828","2020-08-28T00:00:00.000Z",{"data":6},{"data":279},[280],{"id":14,"attributes":281},{"slug":16,"name":17,"description":6,"createdAt":18,"updatedAt":18},{"data":283},[284,289,294],{"id":285,"attributes":286},48,{"name":287,"createdAt":288,"updatedAt":288},"肝","2023-02-07T08:03:09.838Z",{"id":290,"attributes":291},71,{"name":292,"createdAt":293,"updatedAt":293},"乳薊果","2023-02-07T08:03:10.180Z",{"id":295,"attributes":296},73,{"name":297,"createdAt":298,"updatedAt":298},"甘草","2023-02-07T08:03:10.187Z",{"data":6},{"id":301,"attributes":302},761,{"title":303,"excerpt":6,"content":304,"slug":305,"createdAt":306,"updatedAt":306,"author":307,"categories":308,"tags":312,"image":335},"婦科百病由肝治？","\n\n所謂“女子以肝為先天”，肝經循小腹及陰部，經子宮再到乳房，與子宮相關的月經、懷孕，以至生產，都與肝經相關；而女性常見的壓力症候群、失眠、動輒生氣等精神情緒問題，也多半與肝經不順暢有關。中醫有「怒則傷肝」之說，情緒起伏過大，很容易影響肝臟，進而影響每個月的生理周期，甚至引致卵巢囊腫、子宮肌瘤、乳房腫塊，以至甲狀腺亢進等疾病😱。\n\n西方自然醫學發現大部分的生殖系統疾病，皆由不當的淋巴排泄引起。消化系統（包括肝、脾、胰、胃和腸）所有器官的淋巴液均通過胸導管(thoracic duct)排出。若肝膽健康不佳，例如因肝膽系統結石而影響食物的消化吸收，胸導管這個全身最大的淋巴管就會嚴重受阻，繼而影響生殖系統。若女性的骨盆區的淋巴排泄受影響，會造成免疫力低下、經前綜合症、更年期症狀、盆腔炎症、子宮頸炎、卵巢腫瘤、性欲降低以至不孕；胸導管阻塞則導致胸部的淋巴阻塞，滯留的有毒廢棄物可導致發炎、腫塊、乳腺阻塞。\n\n要肝臟健康，維他命B群必不可少：B1分解糖份，B2代謝脂肪，B6促進糖份、脂肪及蛋白質的代謝，B12具造血功能；維他命B群對代謝酒精更是不可或缺。惟現代人甚少吃動物肝臟、小麥胚芽、米糠（糙米）等富含維他命B的食物，大多“低B”😅，故此在家吃飯可刻意多吃糙米，也可透過天然有機的維他命B群多加補充。\n\n此外，蛋白質是肝細胞再生的必需原料，並防止脂肪在肝內堆積。然而，蛋白質在體內代謝過程會產生代謝物，對肝臟造成負擔🙁，故必須攝取100%的優質蛋白質。\n\n具消炎及解毒功效的維他命C，有助保護肝組織免受氧化；配合薑黃，研究發現不但能疏泄肝經，更可提升肝臟解毒能力，修復並賦活肝細胞💪🏻💪🏻。\n\n如欲徹底為肝臟排毒，可於本周日8月16日或下周三19日參加《活學營養：肝膽排毒》線上講座，了解這個具5,000年歴史的自然排毒古方，詳情歡迎Inbox私訊我們查詢🤗。","post200815","2020-08-15T00:00:00.000Z",{"data":6},{"data":309},[310],{"id":14,"attributes":311},{"slug":16,"name":17,"description":6,"createdAt":18,"updatedAt":18},{"data":313},[314,319,321,326,331,333],{"id":315,"attributes":316},70,{"name":317,"createdAt":318,"updatedAt":318},"婦科","2023-02-07T08:03:10.171Z",{"id":285,"attributes":320},{"name":287,"createdAt":288,"updatedAt":288},{"id":322,"attributes":323},69,{"name":324,"createdAt":325,"updatedAt":325},"生殖系統","2023-02-07T08:03:10.160Z",{"id":327,"attributes":328},72,{"name":329,"createdAt":330,"updatedAt":330},"淋巴","2023-02-07T08:03:10.182Z",{"id":260,"attributes":332},{"name":262,"createdAt":263,"updatedAt":263},{"id":52,"attributes":334},{"name":54,"createdAt":55,"updatedAt":55},{"data":6},{"id":337,"attributes":338},762,{"title":339,"excerpt":6,"content":340,"slug":341,"createdAt":342,"updatedAt":342,"author":343,"categories":344,"tags":348,"image":359},"你夠鐵嗎？","\n\n天天沒精打采，提不起勁，原來跟鐵質有關！\n全球有約20億人（30%人口）患有貧血，而導致貧血的最常見原因是缺乏鐵質。\n\n鐵質負責製造紅血球內的血紅素，繼而把氧氣供應給全身細胞；尤其是女士們，每月均有所流失，更需要特別注意鐵質的補充呢！\n\n鐵質攝取不足，會影響細胞的氧氣供給，使身體容易疲倦；此外也會令人容易患上缺鐵性貧血，癥狀包括疲倦、暈眩、面色蒼白、心跳加速、難以集中精神，以及工作及與運動能力降低。\n鐵質的食物來源主要分為動物性的血基鐵質（Heme Iron）及植物性的非血基質鐵（Non-Heme Iron）。血基鐵質的吸收率約為20~30%，而非血基質鐵的吸收率僅約5%，故動物性來源的鐵吸收率為植物性的3倍。\n蠔、紅豆、芝麻、黑木耳、牛肉、羊肉等均含較豐富的鐵質。大家留意進食時，若配合維他命C的食物同時攝取，將有助促進鐵的吸收呢！相反，茶、咖啡、牛奶卻會阻礙鐵質的吸收。一杯茶大約會降低64％的鐵質吸收率，一杯咖啡則會令鐵的吸收率降低39％。所以，餐飲點一杯熱檸檬水，對吸收鐵質有幫助呢！\n當我們鐵質足夠，人就會精神奕奕！","post200809","2020-08-09T00:00:00.000Z",{"data":6},{"data":345},[346],{"id":14,"attributes":347},{"slug":16,"name":17,"description":6,"createdAt":18,"updatedAt":18},{"data":349},[350,352,357],{"id":206,"attributes":351},{"name":208,"createdAt":209,"updatedAt":209},{"id":353,"attributes":354},67,{"name":355,"createdAt":356,"updatedAt":356},"血紅素","2023-02-07T08:03:10.145Z",{"id":255,"attributes":358},{"name":257,"createdAt":258,"updatedAt":258},{"data":6},{"pagination":361},{"page":362,"pageSize":363,"pageCount":364,"total":365},5,12,9,100],"uses":{"dependencies":["http://localhost:1337/api/posts?sort=createdAt%3Adesc&populate[author]=true&populate[categories]=true&populate[tags]=true&populate[image]=true&pagination[page]=5&pagination[pageSize]=12"],"params":["page","category"]}}]}