{"type":"data","nodes":[{"type":"data","data":[{"categories":1,"event_categories":27},[2,9,15,21],{"id":3,"attributes":4},1,{"slug":5,"name":6,"description":7,"createdAt":8,"updatedAt":8},"nutrition","營養隨筆",null,"2023-02-12T02:39:02.691Z",{"id":10,"attributes":11},2,{"slug":12,"name":13,"description":7,"createdAt":14,"updatedAt":14},"reflection","感悟隨筆","2023-02-12T02:39:02.692Z",{"id":16,"attributes":17},3,{"slug":18,"name":19,"description":7,"createdAt":20,"updatedAt":20},"fitness","運動筆記","2023-02-12T02:39:02.697Z",{"id":22,"attributes":23},4,{"slug":24,"name":25,"description":7,"createdAt":26,"updatedAt":26},"spiritual","心靈勵志","2023-02-12T02:39:02.698Z",[28,33,38,43,47,52],{"id":3,"attributes":29},{"name":30,"slug":31,"description":7,"createdAt":32,"updatedAt":32},"讀書會","book-sharing","2023-02-12T02:38:55.939Z",{"id":16,"attributes":34},{"name":35,"slug":36,"description":7,"createdAt":37,"updatedAt":37},"文化導賞","cultural","2023-02-12T02:38:55.943Z",{"id":22,"attributes":39},{"name":40,"slug":41,"description":7,"createdAt":42,"updatedAt":42},"遊山玩水","hiking","2023-02-12T02:38:55.946Z",{"id":44,"attributes":45},5,{"name":46,"slug":18,"description":7,"createdAt":42,"updatedAt":42},"健體運動",{"id":48,"attributes":49},6,{"name":50,"slug":5,"description":7,"createdAt":51,"updatedAt":51},"活學營養","2023-02-12T02:38:55.947Z",{"id":10,"attributes":53},{"name":54,"slug":55,"description":7,"createdAt":56,"updatedAt":57},"名人面對面","be-our-guest","2023-02-12T02:38:55.942Z","2023-03-08T13:16:12.875Z"],"uses":{"dependencies":["http://127.0.0.1:1337/api/categories?","http://127.0.0.1:1337/api/event-categories?"]},"slash":"always"},{"type":"data","data":[{"data":1,"meta":188},[2,22,38,55,69,89,103,117,135,150,162,174],{"id":3,"attributes":4},110,{"title":5,"content":6,"start_date":7,"excerpt":8,"slug":9,"end_date":10,"tags":11,"createdAt":12,"updatedAt":12,"event_categories":13,"image":21},"活學營養Keep Fit工作坊2.0","\n\n四肢變得僵硬或疼痛，關節的活動範圍慢慢收細？\u003Cbr\u003E\n此工作坊針對平日無拉筋習慣的朋友，循序漸進由基礎起步，並配合核心肌肉鍛練，讓大家起動，重拾活力💥\u003Cbr\u003E\n今次Keep Fit 2.0主要做頸及肩膀的伸展拉筋，對預防和舒緩肩梗膊痛、肩周炎以至駝背大有幫助💪🏻💪🏻，最適合日理萬機的都市人😄\n\n日期：2019年12月14日\u003Cbr\u003E\n時間：上午12:45-14:00\u003Cbr\u003E\n地點：旺角家樂坊15樓安利體驗館鑽石房\u003Cbr\u003E\n費用 : $50","2019-12-14","","stretching1912",null,"拉筋,伸展","2019-12-14T00:00:00.000Z",{"data":14},[15],{"id":16,"attributes":17},5,{"name":18,"slug":19,"description":10,"createdAt":20,"updatedAt":20},"健體運動","fitness","2023-02-12T02:38:55.946Z",{"data":10},{"id":23,"attributes":24},106,{"title":25,"content":26,"start_date":7,"excerpt":8,"slug":27,"end_date":10,"tags":28,"createdAt":12,"updatedAt":12,"event_categories":29,"image":37},"活學營養：活絡關節 步履輕盈","\n\n- 年紀增長，退化性關節炎隨之而來；機不離手，也令關節炎年輕化。究竟關節炎有何類型？分別有甚麼症狀呢？\u003Cbr\u003E\n- 膝蓋或其他部位發出啪啪聲，是關節退化嗎？還是只是勞損？\u003Cbr\u003E\n- 公立醫院平均需輪候3至9年才可置換關節，值得嗎？成效與風險如何？\u003Cbr\u003E\n- 怎樣透過飲食營養與運動保護關節，使我們活到老年，也能健步如飛？\n\n日期：12月14日（星期六）\u003Cbr\u003E\n時間：11:00-12:30\u003Cbr\u003E\n地點：旺角登打士街56號家樂坊15樓安利體驗館鑽石房\u003Cbr\u003E\n費用：每堂$30\u003Cbr\u003E\n名額：16人","health1912","關節健康",{"data":30},[31],{"id":32,"attributes":33},6,{"name":34,"slug":35,"description":10,"createdAt":36,"updatedAt":36},"活學營養","nutrition","2023-02-12T02:38:55.947Z",{"data":10},{"id":39,"attributes":40},104,{"title":41,"content":42,"start_date":43,"excerpt":8,"slug":44,"end_date":10,"tags":45,"createdAt":46,"updatedAt":46,"event_categories":47,"image":54},"周末郊遊鬆一鬆古蹟石橋- 香港仔水塘","\n\n平時侷促在辦公室及煩囂市區，放假一於逃離市區抖抖氣！\u003Cbr\u003E\n今次我地由金鐘出發，寶雲道上山，經過警隊博物館，再徐徐下山往香港仔終點。\u003Cbr\u003E\n香港仔水塘於1931年落成，內有四項法定古蹟：上水塘的大壩、大壩石橋、壩上的水掣泵房、下水塘的大壩。\u003Cbr\u003E\n行完山，一齊在香港仔食埋晏歎埋茶先走！\u003Cbr\u003E\n今次登山路線：港安醫院-\u003E寶雲道-\u003E警隊博物館-\u003E香港仔水塘（預計行山時間為3小時）\u003Cbr\u003E\n備註：輕鬆易走\u003Cbr\u003E\n日期：23\u002F11\u002F2019 星期六\u003Cbr\u003E\n時間：09:30-14:30\u003Cbr\u003E\n集合地點：金鐘港鐵站F出口，太古廣場第三期，電梯上到地面的出口等（09：30）\u003Cbr\u003E\n備註：預計13：00到香港仔，13：00-14：30一起自費午餐","2019-11-23","hiking1911","香港仔水塘","2019-11-23T00:00:00.000Z",{"data":48},[49],{"id":50,"attributes":51},4,{"name":52,"slug":53,"description":10,"createdAt":20,"updatedAt":20},"遊山玩水","hiking",{"data":10},{"id":56,"attributes":57},103,{"title":58,"content":59,"start_date":60,"excerpt":8,"slug":61,"end_date":10,"tags":62,"createdAt":63,"updatedAt":63,"event_categories":64,"image":68},"活學營養:明目養睛","\n\n現代人機不離手，令眼睛容易乾澀，流眼水😢，更令近視和散光加深🤓，甚至提早退化，白內障、老花越來越年輕化。\u003Cbr\u003E\n其實只要好好改善飲食及生活習慣，並懂得運用營養，即能好好改善眼睛健康😀，活到80歲，依然雙目炯炯有神！\n日期：11月9日（星期六）\u003Cbr\u003E\n時間：11:00-12:30\u003Cbr\u003E\n地點：旺角登打士街56號家樂坊15樓安利體驗館鑽石房\u003Cbr\u003E\n費用：每堂$30\u003Cbr\u003E\n名額：16人","2019-11-09","health1911","眼睛健康","2019-11-09T00:00:00.000Z",{"data":65},[66],{"id":32,"attributes":67},{"name":34,"slug":35,"description":10,"createdAt":36,"updatedAt":36},{"data":10},{"id":70,"attributes":71},118,{"title":72,"content":73,"start_date":74,"excerpt":75,"slug":76,"end_date":10,"tags":77,"createdAt":78,"updatedAt":78,"event_categories":79,"image":88},"以夢為馬-超越挑戰．突破潛能","\n\n榮幸邀得曾任北京奧運火炬手、名符其實的公職王兼slash代表葉少康先生10月蒞臨，一次過分享他馳騁四方的馬術生涯🐎、跨越挑戰的創業路🛩️，以及近年作為天使投資者的角色👼🏻\n想突破潛能的你，萬勿錯過🤗\n\n分享嘉賓：\u003Cbr\u003E\n騁志發展基金創辦人兼主席葉少康先生, MH\u003Cbr\u003E\n2008年北京殘奧會馬術比賽香港選手\u003Cbr\u003E\n2008年北京奧運會香港區火炬手\u003Cbr\u003E\n獲香港政府頒授榮譽勳章\u003Cbr\u003E\n恒源動力有限公司、誠滙創方有限公司董事長\u003Cbr\u003E\n天使投資基金會合夥人\u003Cbr\u003E\n平等機會委員會委員\u003Cbr\u003E\n可持續發展委員會(策略工作小組委員)\n\n日期：2019年10月30日(星期三）\u003Cbr\u003E\n時間：晚上7:15-9:00\u003Cbr\u003E\n地點：九龍旺角登打士街56號家樂坊15樓安利體驗館會議室B\u003Cbr\u003E\n費用：$90 (包三文治及飲品)","2019-10-30","騁志發展基金創辦人兼主席葉少康先生, MH","nelson-yip","夢想","2019-10-30T00:00:00.000Z",{"data":80},[81],{"id":82,"attributes":83},2,{"name":84,"slug":85,"description":10,"createdAt":86,"updatedAt":87},"名人面對面","be-our-guest","2023-02-12T02:38:55.942Z","2023-03-08T13:16:12.875Z",{"data":10},{"id":90,"attributes":91},100,{"title":92,"content":93,"start_date":94,"excerpt":8,"slug":95,"end_date":10,"tags":96,"createdAt":97,"updatedAt":97,"event_categories":98,"image":102},"活學營養:擺脫糖尿 活得輕鬆","\n\n默默臨近的殺手：糖尿病為香港十大殺手之一 ，據統計每10個香港人就有一位糖尿病患者。糖尿併發症大大影響患者的生活質素，如能及早控制糖尿病就能有效減低患併發症的機會。如何透過飲食及營養降血糖呢？\n\n日期：10月7日（星期一 重陽節公眾假期）\u003Cbr\u003E\n時間：14:30-16:00\u003Cbr\u003E\n地點：旺角登打士街56號家樂坊15樓安利體驗館鑽石房\u003Cbr\u003E\n費用：每堂$30\u003Cbr\u003E\n名額：16人","2019-10-07","health1910","糖尿","2019-10-07T00:00:00.000Z",{"data":99},[100],{"id":32,"attributes":101},{"name":34,"slug":35,"description":10,"createdAt":36,"updatedAt":36},{"data":10},{"id":104,"attributes":105},112,{"title":106,"content":107,"start_date":108,"excerpt":8,"slug":109,"end_date":10,"tags":110,"createdAt":111,"updatedAt":111,"event_categories":112,"image":116},"周末郊遊鬆一鬆：都市綠洲- 藍地水塘","\n\n平時侷促在辦公室及煩囂市區，放假一於逃離市區抖抖氣！\u003Cbr\u003E\n今次我地探訪環境清幽的屯門藍地水塘。\u003Cbr\u003E\n藍地水塘建於1957年，為灌溉水塘之一，水塘雖小，但環境清幽風景如畫。\u003Cbr\u003E\n由屯門市出發，沿途風光明媚，途中可以俯瞰屯門市景色，並經過富有特色的七色彩虹欄杆。\u003Cbr\u003E\n行完山，一齊在嶺大校園內酒樓食埋晏先走！\u003Cbr\u003E\n同場加映：嶺南大學導賞（有意參加的朋友可以午餐後留下，導賞約30分鐘）\u003Cbr\u003E\n今次登山路線：屯門何福堂 》 麥徑十段 》 屯門徑二段 》 沿藍地水塘到大水壩 》 虎地下村\u003Cbr\u003E\n（預計行山時間為3小時）\u003Cbr\u003E\n備註：大部分為石屎路，當中有樓梯上落。\u003Cbr\u003E\n日期：28\u002F9\u002F2019 星期六\u003Cbr\u003E\n時間：9:30-14:30（若不午餐，預計13:00到嶺南大學）\u003Cbr\u003E\n集合地點：屯門西鐵站 A出口杯渡路（9:30）","2019-09-28","hiking1909","藍地水塘","2019-09-28T00:00:00.000Z",{"data":113},[114],{"id":50,"attributes":115},{"name":52,"slug":53,"description":10,"createdAt":20,"updatedAt":20},{"data":10},{"id":118,"attributes":119},108,{"title":120,"content":121,"start_date":122,"excerpt":8,"slug":123,"end_date":10,"tags":124,"createdAt":125,"updatedAt":125,"event_categories":126,"image":134},"讀書會主題: 心靈·勵志","\n\n雞蛋從外打破是食物，從內打破是生命；人生從外打破是壓力，從內打破是成長。\u003Cbr\u003E\n生活壓力四方八面，幸好遇壓時總有書籍能助我們向前邁進。\u003Cbr\u003E\n今次讀書會，我們特別選擇分享心靈及勵志類書籍，讓大家共同成長，同時拓展我們生命的寬度及深度。\u003Cbr\u003E\n誠邀你一起分享閱讀體驗，一同感受由文字所帶出的美妙世界。\u003Cbr\u003E\n歡迎大家一起閱讀，一起分享，相互啟發！\u003Cbr\u003E\n說書人：4位 (每位15分鐘)\u003Cbr\u003E\n愛書人：12位\u003Cbr\u003E\n日期：22\u002F9\u002F2019 (星期日)\u003Cbr\u003E\n時間：11:00-13:15\u003Cbr\u003E\n地點：據點・句點＠石硤尾賽馬會創意藝術中心三樓L306D\u003Cbr\u003E\n費用：$70 (包1杯飲品及小食)\u003Cbr\u003E\n名額：16人","2019-09-22","bookshare1909","心靈,勵志","2019-09-22T00:00:00.000Z",{"data":127},[128],{"id":129,"attributes":130},1,{"name":131,"slug":132,"description":10,"createdAt":133,"updatedAt":133},"讀書會","book-sharing","2023-02-12T02:38:55.939Z",{"data":10},{"id":136,"attributes":137},109,{"title":138,"content":139,"start_date":140,"excerpt":141,"slug":142,"end_date":10,"tags":143,"createdAt":144,"updatedAt":144,"event_categories":145,"image":149},"邂逅·連結·突破·啟發 - 紥作的延續","\n\n內容：\u003Cbr\u003E\n- 手藝的傳統與創新\u003Cbr\u003E\n- 拜師學藝的體會與啟發\u003Cbr\u003E\n- 創業苦與樂\u003Cbr\u003E\n- 現場示範紥籐小技巧\n\n日期：2019年9月21日(星期六)\u003Cbr\u003E\n時間：晚上7:15-9:30\u003Cbr\u003E\n地點：九龍旺角登打士街56號家樂坊15樓安利體驗館會議室B\u003Cbr\u003E\n費用：$90 (包三文治及飲品)","2019-09-21","Draw2Studio創辦人鄭少武Mo","mo","創業,手工創作","2019-09-21T00:00:00.000Z",{"data":146},[147],{"id":82,"attributes":148},{"name":84,"slug":85,"description":10,"createdAt":86,"updatedAt":87},{"data":10},{"id":151,"attributes":152},101,{"title":153,"content":154,"start_date":140,"excerpt":8,"slug":155,"end_date":10,"tags":156,"createdAt":144,"updatedAt":144,"event_categories":157,"image":161},"活學營養-活得有骨氣．預防骨質疏鬆","\n\n活學營養：活得有骨氣．預防骨質疏鬆\u003Cbr\u003E\n養骨活滑腰骨直，有牙力，腸胃睡眠無得頂\u003Cbr\u003E\n是否年紀大才有骨質疏鬆？\u003Cbr\u003E\n西方人飲食含大量鈣質，為何也會骨質疏鬆？\u003Cbr\u003E\n骨質跟腸胃、情緒和睡眠質素息息相關？\u003Cbr\u003E\n飲食和營養如何調理，才能令我們更有骨氣？\n\n日期：9月21日（星期六）\u003Cbr\u003E\n時間：11:00-12:30\u003Cbr\u003E\n地點：旺角登打士街56號家樂坊15樓安利體驗館鑽石房\u003Cbr\u003E\n費用：每堂$30\u003Cbr\u003E\n名額：16人","health1909","骨質疏鬆",{"data":158},[159],{"id":32,"attributes":160},{"name":34,"slug":35,"description":10,"createdAt":36,"updatedAt":36},{"data":10},{"id":163,"attributes":164},107,{"title":138,"content":165,"start_date":140,"excerpt":166,"slug":167,"end_date":10,"tags":168,"createdAt":144,"updatedAt":144,"event_categories":169,"image":173},"\n\n內容：\u003Cbr\u003E\n- 手藝的傳統與創新\u003Cbr\u003E\n- 拜師學藝的體會與啟發\u003Cbr\u003E\n- 創業苦與樂\u003Cbr\u003E\n- 現場示範紥籐小技巧","鄭少武Mo- Draw2 Studio 創辦人","mo-cheng","紥籐,紥作,燈籠",{"data":170},[171],{"id":82,"attributes":172},{"name":84,"slug":85,"description":10,"createdAt":86,"updatedAt":87},{"data":10},{"id":175,"attributes":176},95,{"title":177,"content":178,"start_date":179,"excerpt":8,"slug":180,"end_date":10,"tags":181,"createdAt":182,"updatedAt":182,"event_categories":183,"image":187},"愛笑瑜伽體驗 x 減壓飲食貼士工作坊","\n\n「笑一笑，世界更美妙」\u003Cbr\u003E\n在這不一樣的社會氣候，情緒壓力容易爆燈。\u003Cbr\u003E\n壓力不單單影響情緒，更會影響免疫力、消化系統⋯⋯\n\n內容：\u003Cbr\u003E\n愛笑瑜伽的起源\u003Cbr\u003E\n愛笑瑜伽4步曲\u003Cbr\u003E\n呼吸練習\u003Cbr\u003E\n減壓飲食貼士\n\n愛笑瑜伽介紹：\u003Cbr\u003E\nLaughter Yoga 愛笑瑜伽，由印度醫生 Dr Kataria 於1995年創立，把呼吸结合各種笑的動作，達致減壓，改善情绪，並增强免疫力。至今全球已有超過一百個國家及地區舉行，成立過萬個愛笑俱樂部。\n","2019-09-10","laughing-yoga","愛笑瑜伽","2019-09-10T00:00:00.000Z",{"data":184},[185],{"id":16,"attributes":186},{"name":18,"slug":19,"description":10,"createdAt":20,"updatedAt":20},{"data":10},{"pagination":189},{"page":32,"pageSize":190,"pageCount":191,"total":192},12,16,188],"uses":{"dependencies":["http://127.0.0.1:1337/api/events?sort=start_date%3Adesc&populate[author]=true&populate[event_categories]=true&populate[image]=true&pagination[page]=6&pagination[pageSize]=12"],"params":["page","category"]}}]}