{"type":"data","nodes":[{"type":"data","data":[{"categories":1,"event_categories":27},[2,9,15,21],{"id":3,"attributes":4},1,{"slug":5,"name":6,"description":7,"createdAt":8,"updatedAt":8},"nutrition","營養隨筆",null,"2023-02-07T08:03:25.893Z",{"id":10,"attributes":11},2,{"slug":12,"name":13,"description":7,"createdAt":14,"updatedAt":14},"spiritual","心靈勵志","2023-02-07T08:03:25.896Z",{"id":16,"attributes":17},3,{"slug":18,"name":19,"description":7,"createdAt":20,"updatedAt":20},"fitness","運動筆記","2023-02-07T08:03:25.905Z",{"id":22,"attributes":23},4,{"slug":24,"name":25,"description":7,"createdAt":26,"updatedAt":26},"reflection","感悟隨筆","2023-02-07T08:03:25.906Z",[28,33,38,43,47,52],{"id":3,"attributes":29},{"name":30,"slug":31,"description":7,"createdAt":32,"updatedAt":32},"名人面對面","be-our-guess","2023-02-07T08:03:24.223Z",{"id":10,"attributes":34},{"name":35,"slug":36,"description":7,"createdAt":37,"updatedAt":37},"文化導賞","cultural","2023-02-07T08:03:24.230Z",{"id":16,"attributes":39},{"name":40,"slug":41,"description":7,"createdAt":42,"updatedAt":42},"遊山玩水","hiking","2023-02-07T08:03:24.235Z",{"id":22,"attributes":44},{"name":45,"slug":5,"description":7,"createdAt":46,"updatedAt":46},"活學營養","2023-02-07T08:03:24.241Z",{"id":48,"attributes":49},5,{"name":50,"slug":18,"description":7,"createdAt":51,"updatedAt":51},"健體運動","2023-02-07T08:03:24.256Z",{"id":53,"attributes":54},6,{"name":55,"slug":56,"description":7,"createdAt":57,"updatedAt":57},"讀書會","book-sharing","2023-02-07T08:03:24.257Z"],"uses":{"dependencies":["http://localhost:1337/api/categories?","http://localhost:1337/api/event-categories?"]},"slash":"always"},{"type":"data","data":[{"data":1,"meta":130},[2,27,44,61,78,95,110],{"id":3,"attributes":4},805,{"createdAt":5,"title":6,"excerpt":7,"content":8,"slug":9,"updatedAt":5,"author":10,"categories":11,"tags":19,"image":26},"2022-01-01T00:00:00.000Z","Happy New Year 2022",null,"\n\n2021，香港疫情依然，但恐慌減少，Empower恢復了部份實體活動，包括名人面對面、活學營養、伸展拉筋工作坊。\n\n#名人面對面 由投資基本功，到建築與築愛、美食與文化交融、咖啡杯測Cupping、書店形態、親子調解，覆蓋不同層面，線上線下O2O同步進行。感謝嘉賓們大力配合，完會後更留下繼續與實體出席的朋友交流。若情況許可，鼓勵大家實體參與名人面對面呢，氣氛與溫度真的不一樣😉。\n\n肝膽排毒、強化骨骼、杜絕肌少症，都是 #活學營養 大受歡迎的題目。配合伸展拉筋與經絡拍打，就肝膽更強健，更有骨氣，更有肌力💪🏻！\n\n去年首次涉獵 #生命密碼 與 #血型飲食 課題，發現不少朋友甚感興趣，希望今年可更深入探討。\n\n蛇宴雖未能如期舉行，幸年底時仍有機會與一眾饕客品嚐禦寒羊腩煲及生炒糯米飯等冬日美饌，為 #美食文化 活動添上一筆。\n\n1月名人面對面，將由再生勇士龔黃螢敏女士Linda打響頭炮，分享其身患癌，體有憾，但心無缺的精彩人生，為2022年注入滿滿正能量！🔥詳情請參閱： https:\u002F\u002Fempower.hk\u002Fevent\u002Flinda-220115 或 https:\u002F\u002Ffb.me\u002Fe\u002F3YpPj5HJK\n\n2月Empower也會首次舉辦太極班，由獲獎無數的陳婉珍師傅Annie小班教學👏🏻👏🏻。所謂名師出高徒，各學員「打得」 之餘，更可有效提升腿部肌力、平衡力、靈活度，同時預防腦退化🤯。\n\n㊗️各方友好2022年繼續Empower ourselves，Empower the community，無論靈性、健康、家庭、事業皆勝舊年！❤️","new-year-2022",{"data":7},{"data":12},[13],{"id":14,"attributes":15},4,{"slug":16,"name":17,"description":7,"createdAt":18,"updatedAt":18},"reflection","感悟隨筆","2023-02-07T08:03:25.906Z",{"data":20},[21],{"id":22,"attributes":23},31,{"name":24,"createdAt":25,"updatedAt":25},"","2023-02-07T08:03:09.642Z",{"data":7},{"id":28,"attributes":29},778,{"createdAt":30,"title":31,"excerpt":7,"content":32,"slug":33,"updatedAt":30,"author":34,"categories":35,"tags":39,"image":43},"2021-02-12T00:00:00.000Z","牛轉乾坤","\n\n謝謝各方友好一直以來對Empower的鼎力支持！🥰🥰\u003Cbr\u003E\n㊗️大家🐮年\u003Cbr\u003E\n🌟工作：\u003Cbr\u003E\n縱如牛埋頭苦幹，也不忘抬頭看看👀\u003Cbr\u003E\n🌟同伴：\u003Cbr\u003E\n看顧彼此，家庭、信仰、事業牪皆相隨❤️\u003Cbr\u003E\n🌟自己：\u003Cbr\u003E\n隨心瀟灑，遊歷人生，犇向新天新地🎆\u003Cbr\u003E\n新一年我們定必繼續努力，為大家提供更多富足身心靈的資訊與服務，Empower the Community！💪🏻🥰\n","cny2021",{"data":7},{"data":36},[37],{"id":14,"attributes":38},{"slug":16,"name":17,"description":7,"createdAt":18,"updatedAt":18},{"data":40},[41],{"id":22,"attributes":42},{"name":24,"createdAt":25,"updatedAt":25},{"data":7},{"id":45,"attributes":46},773,{"createdAt":47,"title":48,"excerpt":7,"content":49,"slug":50,"updatedAt":47,"author":51,"categories":52,"tags":56,"image":60},"2021-01-01T00:00:00.000Z","🌙2020，一字記之曰：驚。","\n\n🥺驚心動魄 -- 新型冠狀病毒肆虐全球，令人驚歎生命之脆弱。Empower備受歡迎的行山活動、文化導賞及讀書會均告暫停；慶幸科技進步，名人面對面、HP纖體增肌\u002F健康管理工作坊、活學營養講座及Keep Fit工作坊得以在網上舉行。當中名人面對面2.0，相繼邀得極地專家何建宗教授、插畫師兼平面設計師陳健殷小姐Christa、香港首位女性國際咖啡師監考官文桂芳博士Dr May Man、瑜茶舍創辦人容德如小姐Catherine，以及國際級啤酒評審方啟聰先生Tomy擔任分享嘉賓，透過大氣電波與參加者互動交流。\n\n😯拍案驚奇 -- 8月初在毫無預兆的情況下，被包租人擅改租約逼令遷出，教人自相驚擾。然而感恩有此契機，Empower得以自立門戶，開展一片新天地。斜陽映照小空間，經歴練就大智慧，歡迎各友好蒞臨參觀，暢談西東🤗。\n\n🥰受寵若驚 -- 感謝Sosoc全力贊助及各方友好鼎力支持，Empower專屬應用程式於6月驚喜面世，在Apple Store及Play Store均可免費下載，讓大家可一站式獲取Empower活動的最新資訊，也可以足版重溫星期二至四的mini talk，以及瀏覽運動及美容示範短片。稍後我們將開放活動報名及其他新功能， 大家拭目以待！\n\n🌞2021，Empower將繼續與大家攜手前行，即使偶有驚惶，依然處變不驚，愛澤互勉🙌🏻；期盼新一年更能驚喜交集，甚至一鳴驚人，Empower ourselves，Empower our community！💪🏻💪🏻","newyear2021",{"data":7},{"data":53},[54],{"id":14,"attributes":55},{"slug":16,"name":17,"description":7,"createdAt":18,"updatedAt":18},{"data":57},[58],{"id":22,"attributes":59},{"name":24,"createdAt":25,"updatedAt":25},{"data":7},{"id":62,"attributes":63},742,{"createdAt":64,"title":65,"excerpt":7,"content":66,"slug":67,"updatedAt":64,"author":68,"categories":69,"tags":73,"image":77},"2020-01-25T00:00:00.000Z","瑞鼠迎春","\n\n謝謝大家在豬年對Empower的鼎力支持！🥰🥰\n踏入鼠年，我們再次以Empower五位創辦人的名字為題，祝願大家：\n⭐️瑞氣盈門三陽泰，鼠年康寧百事興。迎樂接福納千祥，春滿花田萬山萌⭐️\n\n#瑞鼠迎春 #新年勝舊年","post200125",{"data":7},{"data":70},[71],{"id":14,"attributes":72},{"slug":16,"name":17,"description":7,"createdAt":18,"updatedAt":18},{"data":74},[75],{"id":22,"attributes":76},{"name":24,"createdAt":25,"updatedAt":25},{"data":7},{"id":79,"attributes":80},741,{"createdAt":81,"title":82,"excerpt":7,"content":83,"slug":84,"updatedAt":81,"author":85,"categories":86,"tags":90,"image":94},"2020-01-01T00:00:00.000Z","Happy New Year","\n\n2019年對香港人而言是難忘的一年，對Empower亦然。在這紛亂的時局，談正能量與身心靈健康殊不容易，辦活動更是挑戰重重。幸有大家的鼎力支持和鼓勵🥰🥰，Empower繼續乘風破浪，過去一年舉辦了：\n\n🌈9️⃣次遊山玩水，暢遊纜車徑、小夏威夷徑、大帽山、山頂西高山，以及4大水塘：城門、藍地、香港仔、萬宜水庫；\n\n🌈5️⃣場讀書會，涉獵心靈勵志、健康養生、人物傳記、經濟商業、歷史與未來；\n\n🌈3️⃣場文化導賞，先在蘇校長帶領下，到澳門探索其歷史與美食文化😁，繼而參觀大英博物館全球巡迴展覽香港站《百物看世界》，以及在Coffee Lover試做並品嚐愛爾蘭咖啡，體驗舌尖上的愛❤️；\n\n🌈9️⃣場名人面對面，由不同界別的達人分享其專業知識、獨特經驗與精闢見解，計有莊太量教授（經濟）、丁新豹博士（歷史）、胡煒權博士（日本文化）、古星輝先生（電訊）、梁佩鳳女士（公平貿易）、馮珍今女士（中亞三國）、陳坤耀教授（環球政經局勢）、鄭少武先生（紥作）及葉少康先生（潛能突破）。\n\n活學營養講座辦了9️⃣場，分別探討「大寒養生」、「遠離濕疹」、「擊退三高」、「擺脫糖尿」、「明目養晴」、「活絡關節」、「活得有骨氣 預防骨質疏鬆」；另有線上講座📡，分享空氣質素對身體的影響、水的迷思及逆轉亞健康的營養。\n💃活學營養Keep Fit工作坊🕺逢星期一早上舉行，年終無休，至少辦了50場，參加人數由起初僅3-4人增至現在18-20人🎉🎉；更與再生會合辦了一場別注版Keep Fit班，專供紅斑狼瘡病友及其他傷健人士參與。年底又推出了Keep Fit 2.0，主力教授拉筋動作，線上線下一起做，將健康及運動概念普及至不同家庭及社區。\n\n此外還有「愛笑瑜伽ｘ減壓飲食貼士工作坊」、「保齡球同樂」、「陳校長跑步工作坊」，以及大受歡迎的「秋冬滋補蛇讌」😋。\n\n展望2020年，Empower將進一步整合O2O資源🤳🏻，讓參加者能夠將所學到的營養及運動知識活學活用，更有效地傳遞給家人朋友👨‍👩‍👧‍👧，令正確的身心靈健康觀念得以由一個點延展至一條線，再推展至一個面！\n\n🎊大年初四Empower將一如既往，帶領大家新春行大運 —— 為了讓大家鼠年能龍騰虎躍，我們會由龍躍徑起步，沿砵甸乍山郊遊徑到大浪灣。\n去年底本邀請了極地專家何建宗教授在名人面對面分享，但因社會事件延期。2020年首次名人面對面將於2月22日舉行，屆時何教授將展示南北極地貌和生物多樣性的珍貴照片及錄像片段😀，並分享其研究成果如何與我們日常生活及環保息息相關，萬勿錯過！\n\n2020年，期待與大家繼續攜手並肩，Empower Ourselves，Empower the Community！💪🏻💪🏻\n","post200101",{"data":7},{"data":87},[88],{"id":14,"attributes":89},{"slug":16,"name":17,"description":7,"createdAt":18,"updatedAt":18},{"data":91},[92],{"id":22,"attributes":93},{"name":24,"createdAt":25,"updatedAt":25},{"data":7},{"id":96,"attributes":97},722,{"createdAt":98,"title":99,"excerpt":7,"content":100,"slug":101,"updatedAt":98,"author":102,"categories":103,"tags":107,"image":109},"2019-02-04T00:00:00.000Z","chinese new year20190204","\n\n\u003Cdiv class=\"text-blue-700\"\u003E\n\twrite your introduction here... (text in blue)\n\u003C\u002Fdiv\u003E\n\nmain content here...\n\n![彈珠人競技枱]({assetsBasePath}\u002F1.jpg \"400\")\n*the image caption*\n\n\u003Cdiv class=\"footnote\"\u003E\n\twrite your footnote here...\n\u003C\u002Fdiv\u003E","chinese-new-year20190204",{"data":7},{"data":104},[105],{"id":14,"attributes":106},{"slug":16,"name":17,"description":7,"createdAt":18,"updatedAt":18},{"data":108},[],{"data":7},{"id":111,"attributes":112},721,{"createdAt":113,"title":114,"excerpt":7,"content":115,"slug":116,"updatedAt":113,"author":117,"categories":118,"tags":122,"image":129},"2017-10-18T00:00:00.000Z","《賦予夢想，賦予方向，賦予使命》","\n\n剛看了《打死不離三父女》，從戲中獲得不同的啟發，也帶有一些疑問。當中特別深刻的，是「爸爸」作為「教練」的啟迪。\n\n無可否認，教練對運動員來說非常重要。教練是否了解運動員的優缺點並配合其特質來作正確的訓練，使其擅長的優勢最大化地發揮？教練能否在比賽關鍵時刻對運動員作出正確的指導，讓其在比賽中發揮極致？教練如何激勵並啟發運動員，令他們盡力爭取佳績？這各方各面，教練對運動員都有著不可或缺的重要性！\n\n電影中的教練爸爸瑪哈維在一開始發掘到女兒的天賦時，便賦予女兒夢想──成為印度全國的冠軍摔挍手；在訓練時，賦予她方向；在關鍵的國際賽事，賦予她使命，讓她不再為個人榮譽而戰，而是為受歧視的女性發聲。（當然，中間可以反駁其他觀點，但暫不能其他評論。）瑪哈維深深明白，\n要取得偉大的成就，不是為個人之榮耀，而是為他人而奮戰。\n\n相對於運動比賽，在日常生活中，我們幾多人有著自己的教練，又或是良師益友？有「教練」的人是非常幸福的！良師，就如同運動員的教練，對我們的生命帶來無限的啟發。在生命中關鍵的時刻，良師總能協助我們撥開迷霧，帶來方向。良師就是總能啟發你尋找生命之火，把生命發揮極致的人。希望各位也能在生命中遇見你的良師！\n","post20171018",{"data":7},{"data":119},[120],{"id":14,"attributes":121},{"slug":16,"name":17,"description":7,"createdAt":18,"updatedAt":18},{"data":123},[124],{"id":125,"attributes":126},2,{"name":127,"createdAt":128,"updatedAt":128},"夢想","2023-02-07T08:03:09.306Z",{"data":7},{"pagination":131},{"page":132,"pageSize":133,"pageCount":132,"total":134},1,12,7],"uses":{"dependencies":["http://localhost:1337/api/posts?sort=createdAt%3Adesc&populate[author]=true&populate[categories]=true&populate[tags]=true&populate[image]=true&pagination[page]=1&pagination[pageSize]=12&filters[categories][slug]=reflection"],"params":["page","category"]}}]}