{"type":"data","nodes":[{"type":"data","data":[{"categories":1,"event_categories":27},[2,9,15,21],{"id":3,"attributes":4},1,{"slug":5,"name":6,"description":7,"createdAt":8,"updatedAt":8},"nutrition","營養隨筆",null,"2023-02-12T02:39:02.691Z",{"id":10,"attributes":11},2,{"slug":12,"name":13,"description":7,"createdAt":14,"updatedAt":14},"reflection","感悟隨筆","2023-02-12T02:39:02.692Z",{"id":16,"attributes":17},3,{"slug":18,"name":19,"description":7,"createdAt":20,"updatedAt":20},"fitness","運動筆記","2023-02-12T02:39:02.697Z",{"id":22,"attributes":23},4,{"slug":24,"name":25,"description":7,"createdAt":26,"updatedAt":26},"spiritual","心靈勵志","2023-02-12T02:39:02.698Z",[28,33,38,43,47,52],{"id":3,"attributes":29},{"name":30,"slug":31,"description":7,"createdAt":32,"updatedAt":32},"讀書會","book-sharing","2023-02-12T02:38:55.939Z",{"id":16,"attributes":34},{"name":35,"slug":36,"description":7,"createdAt":37,"updatedAt":37},"文化導賞","cultural","2023-02-12T02:38:55.943Z",{"id":22,"attributes":39},{"name":40,"slug":41,"description":7,"createdAt":42,"updatedAt":42},"遊山玩水","hiking","2023-02-12T02:38:55.946Z",{"id":44,"attributes":45},5,{"name":46,"slug":18,"description":7,"createdAt":42,"updatedAt":42},"健體運動",{"id":48,"attributes":49},6,{"name":50,"slug":5,"description":7,"createdAt":51,"updatedAt":51},"活學營養","2023-02-12T02:38:55.947Z",{"id":10,"attributes":53},{"name":54,"slug":55,"description":7,"createdAt":56,"updatedAt":57},"名人面對面","be-our-guest","2023-02-12T02:38:55.942Z","2023-03-08T13:16:12.875Z"],"uses":{"dependencies":["http://127.0.0.1:1337/api/categories?","http://127.0.0.1:1337/api/event-categories?"]},"slash":"always"},{"type":"data","data":[{"data":1,"meta":198},[2,23,42,57,72,87,105,120,138,153,167,184],{"id":3,"attributes":4},124,{"title":5,"content":6,"start_date":7,"excerpt":8,"slug":9,"end_date":10,"tags":11,"createdAt":12,"updatedAt":12,"event_categories":13,"image":22},"品味咖啡 探索人生 第二擊","\n\n榮幸邀得Dr Man再次教我們如何沖咖啡，品咖啡，同時解構咖啡的種種迷思，例如：\u003Cbr\u003E\n- 喝咖啡真的會上癮？\u003Cbr\u003E\n- 一天能喝幾杯咖啡？\u003Cbr\u003E\n- 喝咖啡後睡不著，跟咖啡有關還是跟體質有關？\n\nDr Man更會分享疫情下咖啡業界有何新趨勢，萬勿錯過！\n\n日期：2020年9月13日（星期日）\u003Cbr\u003E\n時間：下午3:00至4:00\u003Cbr\u003E\n費用：全免\u003Cbr\u003E\n形式：以Zoom Cloud Meetings軟件現場直播","2020-09-13","香港咖啡業界首位女性國際咖啡師監考官、Coffee Lover咖啡課程總監文桂芳博士 Dr May Man","dr-may-man",null,"咖啡","2020-09-13T00:00:00.000Z",{"data":14},[15],{"id":16,"attributes":17},2,{"name":18,"slug":19,"description":10,"createdAt":20,"updatedAt":21},"名人面對面","be-our-guest","2023-02-12T02:38:55.942Z","2023-03-08T13:16:12.875Z",{"data":10},{"id":24,"attributes":25},121,{"title":26,"content":27,"start_date":28,"excerpt":29,"slug":30,"end_date":10,"tags":31,"createdAt":32,"updatedAt":32,"event_categories":33,"image":41},"補腎強身 遠離痛風","\n🤟🏻腎天生有多好，一看手就知道？\u003Cbr\u003E\n😱黑眼圈、耳鳴、高血壓都與腎有關？\u003Cbr\u003E\n🧐補鈣對腎病者是利多於弊，還是弊多於利？\u003Cbr\u003E\n😈痛風與腎功能關係有多大？\u003Cbr\u003E\n👋🏻DIY排腎石，跟痛風講聲bye？\u003Cbr\u003E\n同場加映：\u003Cbr\u003E\n🧘‍♀「筋長一寸，命長十年」補腎強身拉筋法\n\n主講：Empower創辦人兼營養總監、營養學家、營養師 黃詩田小姐 Melissa Wong","2020-09-06","","health2009","痛風,腎","2020-09-06T00:00:00.000Z",{"data":34},[35],{"id":36,"attributes":37},6,{"name":38,"slug":39,"description":10,"createdAt":40,"updatedAt":40},"活學營養","nutrition","2023-02-12T02:38:55.947Z",{"data":10},{"id":43,"attributes":44},128,{"title":45,"content":46,"start_date":47,"excerpt":48,"slug":49,"end_date":10,"tags":50,"createdAt":51,"updatedAt":51,"event_categories":52,"image":56},"網絡保安 你我都要識","\n\n分享嘉賓：黃廣達先生 Eric Wong\u003Cbr\u003E\n現職羅兵咸永道會計師事務所風險及控制服務高級經理，曾任香港電訊資訊科技保安助理副總裁\n\n- 在家工作及視像會議成為新常態，如何確保網絡安全，免被黑客入侵😖？\u003Cbr\u003E\n- 怎樣強化各社交媒體帳戶的私隱設定💪🏻💪🏻，以免洩露行蹤，或不斷接收曾查看網頁的相關資訊？\u003Cbr\u003E\n- 怎樣設定密碼才最安全？如何使用多重認證？🤔\n\n日期：2020年8月16日（星期日）\u003Cbr\u003E\n時間：下午4:00至5:00\u003Cbr\u003E\n費用：全免\u003Cbr\u003E\n形式：以Zoom Cloud Meetings軟件現場直播，請私訊Inbox我們查詢連結","2020-08-16","黃廣達先生 Eric Wong","eric-wong","網絡保安","2020-08-16T00:00:00.000Z",{"data":53},[54],{"id":16,"attributes":55},{"name":18,"slug":19,"description":10,"createdAt":20,"updatedAt":21},{"data":10},{"id":58,"attributes":59},133,{"title":60,"content":61,"start_date":62,"excerpt":63,"slug":64,"end_date":10,"tags":65,"createdAt":66,"updatedAt":66,"event_categories":67,"image":71},"營型逆疫 -- 增強免疫力 強身抗疫","\n\n新冠肺炎來勢洶洶，除了戴口罩，勤洗手，1:99外，還有更有效的預防及抗疫方法嗎？\n\n致力推廣身心靈健康的 Empower 本周三將特別安排＜營一世：抗疫特別版＞🤩，為大家剖析如何全面增強免疫系統的防禦力和抗擊力，打造強健體魄！💪🏻💪🏻\n\n日期：2020年7月22日（星期三）\u003Cbr\u003E\n時間：下午12:30-1:15\n\n*將以zoom線上直播，歡迎私訊我們查詢連結","2020-07-22","新冠肺炎來勢洶洶，除了戴口罩，勤洗手，1:99外，還有更有效的預防及抗疫方法嗎？","nutrition0722","免疫力","2020-07-22T00:00:00.000Z",{"data":68},[69],{"id":36,"attributes":70},{"name":38,"slug":39,"description":10,"createdAt":40,"updatedAt":40},{"data":10},{"id":73,"attributes":74},120,{"title":75,"content":76,"start_date":77,"excerpt":78,"slug":79,"end_date":10,"tags":80,"createdAt":81,"updatedAt":81,"event_categories":82,"image":86},"以畫會友 傳遞快樂","\n\n榮幸邀得平面設計師及插畫師Christa，細述：\u003Cbr\u003E\n⭐ 平面設計師及插畫師之工作日常\u003Cbr\u003E\n⭐ 自由工作者如何覓得好客戶？\u003Cbr\u003E\n⭐ 四格漫畫構圖小貼士\u003Cbr\u003E\n⭐ 即場示範四格漫畫\u003Cbr\u003E\n萬勿錯過！\n\n日期：2020年6月27日(星期六)\u003Cbr\u003E\n時間：下午5:00-6:00\u003Cbr\u003E\n講座形式：將以Zoom Cloud Meetings軟件作現場直播\u003Cbr\u003E\n費用：全免\u003Cbr\u003E\n備註：請先下載免費應用程式ZOOM，連結確認報名後發放\u003Cbr\u003E\n請先下載免費應用程式ZOOM(詳情請參閱附件) ，連結將於稍後發放。","2020-06-27","香港平面設計師及插畫師陳健殷小姐Christa","christa-chan","插畫,創業","2020-06-27T00:00:00.000Z",{"data":83},[84],{"id":16,"attributes":85},{"name":18,"slug":19,"description":10,"createdAt":20,"updatedAt":21},{"data":10},{"id":88,"attributes":89},122,{"title":90,"content":91,"start_date":92,"excerpt":29,"slug":93,"end_date":10,"tags":94,"createdAt":95,"updatedAt":95,"event_categories":96,"image":104},"活學營養Keep Fit 2.0工作坊（星期一）","\n\n想告別肚腩及手臂ByeBye肉？一於動起來，齊齊塑造理想身型！Keep Fit工作坊針對平日無運動習慣的朋友，循序漸進由基礎起步，讓大家起動💥\n經絡拍打- 疏通經絡，促進血液循環！\n\n全身性運動- 簡單有效的肌力訓練配合心肺功能訓練，塑造理想身型！\n\n日期：逢星期一\n\n時間：10:30-11:20\n\n地點：各自在家進行，透過免費APP”Zoom”進行\n\n費用 : 免費\n\n備註：報名請PM我們以便傳送連結\n","2020-05-18","fitnessworkshop20","肌肉鍛鍊","2020-05-18T00:00:00.000Z",{"data":97},[98],{"id":99,"attributes":100},5,{"name":101,"slug":102,"description":10,"createdAt":103,"updatedAt":103},"健體運動","fitness","2023-02-12T02:38:55.946Z",{"data":10},{"id":106,"attributes":107},117,{"title":108,"content":109,"start_date":110,"excerpt":111,"slug":112,"end_date":10,"tags":113,"createdAt":114,"updatedAt":114,"event_categories":115,"image":119},"極深研幾 通天下志","\n\n榮幸邀得殿堂級極地專家何建宗教授，以深入淺出的方式，細述：\n\n🌟 從環境科學的角度看新冠肺炎疫情\u003Cbr\u003E\n⭐ 南北極的地貌和生物多樣性\u003Cbr\u003E\n⭐ 南北極對科研和環保的重要性\u003Cbr\u003E\n⭐ 香港人的兩極考察歷史、研究方向和成果\u003Cbr\u003E\n⭐ 為何要有一個「香港人的北極研究站」？\n\n屆時將展示南北極風貌的珍貴照片及錄像片段，萬勿錯過！\n\n日期：2020年4月18日(星期六)\u003Cbr\u003E\n時間：下午2:30-3:30\u003Cbr\u003E\n講座形式：將以Zoom Cloud Meetings軟件作現場直播\u003Cbr\u003E\n費用：全免\u003Cbr\u003E\n\n備註：請先下載免費應用程式ZOOM，連結確認報名後發放\n\n請先下載免費應用程式ZOOM(詳情請參閱附件) ，連結將於稍後發放。","2020-04-18","香港極地研究中心創辦人何建宗教授","professor-ho","南北極,環保,保育","2020-04-18T00:00:00.000Z",{"data":116},[117],{"id":16,"attributes":118},{"name":18,"slug":19,"description":10,"createdAt":20,"updatedAt":21},{"data":10},{"id":121,"attributes":122},116,{"title":123,"content":124,"start_date":125,"excerpt":29,"slug":126,"end_date":10,"tags":127,"createdAt":128,"updatedAt":128,"event_categories":129,"image":137},"讀書會2.0-心靈勵志","\n\n雞蛋從外打破是食物，從內打破是生命；人生從外打破是壓力，從內打破是成長。\u003Cbr\u003E\n生活壓力四方八面，幸好遇壓時總有書籍能助我們向前邁進。\u003Cbr\u003E\n今次讀書會，我們特別選擇分享心靈及勵志類書籍，讓大家共同成長，同時拓展我們生命的寬度及深度。\u003Cbr\u003E\n誠邀你一起分享閱讀體驗，一同感受由文字所帶出的美妙世界。\u003Cbr\u003E\n歡迎大家一起閱讀，一起分享，相互啟發！\u003Cbr\u003E\n說書人：4位 (每位8分鐘)\u003Cbr\u003E\n日期：4\u002F4\u002F2020 (星期六)\u003Cbr\u003E\n時間：14:30-16:00\u003Cbr\u003E\n交流形式：將以Zoom Cloud Meetings軟件進行現場直播\u003Cbr\u003E\n費用：全免\u003Cbr\u003E\n備註：請先下載免費應用程式Zoom，連結將於稍後發放\n","2020-04-04","booksharing2004","心靈勵志","2020-04-04T00:00:00.000Z",{"data":130},[131],{"id":132,"attributes":133},1,{"name":134,"slug":135,"description":10,"createdAt":136,"updatedAt":136},"讀書會","book-sharing","2023-02-12T02:38:55.939Z",{"data":10},{"id":139,"attributes":140},115,{"title":141,"content":142,"start_date":143,"excerpt":144,"slug":145,"end_date":10,"tags":146,"createdAt":147,"updatedAt":147,"event_categories":148,"image":152},"2020環球經濟 能否否極泰來？","\n\n🔶 全球股市崩盤式下跌，後市走勢如何？\u003Cbr\u003E\n🔶 新冠肺炎對中國以至全球經濟有何影響？\u003Cbr\u003E\n🔶 國際形勢有何變化？\u003Cbr\u003E\n🔶 石油與商品價格如何走向？\n\n日期：2020年3月15日(星期日)\u003Cbr\u003E\n時間：下午2:30-3:30\u003Cbr\u003E\n講座形式：將以Zoom Cloud Meetings軟件作現場直播\u003Cbr\u003E\n費用：全免\u003Cbr\u003E\n報告：請傳私人訊息給我們報名\u003Cbr\u003E\n備註：請先下載免費應用程式ZOOM，連結確認報名後發放\u003Cbr\u003E\n請先下載免費應用程式ZOOM(詳情請參閱附件) ，連結將於稍後發放。","2020-03-15","劉佐德全球經濟及金融研究所常務所長、香港中文大學經濟學系副教授莊太量教授","pro-chong","金融經濟,股市","2020-03-15T00:00:00.000Z",{"data":149},[150],{"id":16,"attributes":151},{"name":18,"slug":19,"description":10,"createdAt":20,"updatedAt":21},{"data":10},{"id":154,"attributes":155},114,{"title":156,"content":157,"start_date":158,"excerpt":29,"slug":159,"end_date":10,"tags":160,"createdAt":161,"updatedAt":161,"event_categories":162,"image":166},"活學營養: 抗敏抗毒 呼吸暢通","\n\n- 香港幾乎每4人就有1人鼻敏感，也有不少人患氣管敏感、哮喘等過敏症。這些敏感症是遺傳？還是其他原因誘發？\u003Cbr\u003E\n- 如何透過改善飲食及生活習慣，並運用有機營養素，舒緩甚至根治過敏症？\u003Cbr\u003E\n- 面對春夏天氣變化、空氣污染、流感高峰及新型病毒，如何強化免疫系統加以抗衡？\u003Cbr\u003E\n費用：每堂$30","2020-02-15","health2002","鼻敏感","2020-02-15T00:00:00.000Z",{"data":163},[164],{"id":36,"attributes":165},{"name":38,"slug":39,"description":10,"createdAt":40,"updatedAt":40},{"data":10},{"id":168,"attributes":169},111,{"title":170,"content":171,"start_date":172,"excerpt":29,"slug":173,"end_date":10,"tags":174,"createdAt":175,"updatedAt":175,"event_categories":176,"image":183},"新春行大運：砵甸乍山-大浪灣","\n\n❗ *緊急通知*❗\u003Cbr\u003E\n鑑於新型冠狀病毒感染確診及懷疑個案增加，顧及參加者安全，Empower 決定取消年初四(28\u002F1)的新春行山活動，敬希見諒！🙇🏻‍♀\u003Cbr\u003E\n誠盼在Empower其他活動與大家相見。\u003Cbr\u003E\n2月的活動包括：\u003Cbr\u003E\n- 2月15日（星期六）下午2:30 *＜活學營養：抗敏抗毒 呼吸暢通＞專題健康講座*\u003Cbr\u003E\n- 2月22日（星期六）下午2:30 *＜名人面對面：極深研幾 通天下志＞*，邀得殿堂級南北極專家、香港極地研究中心創辦人何建宗教授分享\u003Cbr\u003E\n- 逢星期三晚上10:00 *＜活學營養KeepFit2.0＞*，一起在線上拉筋\u003Cbr\u003E\n詳情請瀏覽：\u003Cbr\u003E\nwww.empower.hk\u003Cbr\u003E\nfacebook.com\u002Fempower.hk\u003Cbr\u003E\nEmpower謹祝大家出入平安，體健心怡！我們將繼續與大家攜手向前，Empower the Community！💪🏻💪🏻\n\n\n新年伊始，我們在小西灣的龍躍徑起步，祝願大家今年龍騰虎躍，朝氣勃勃😉\u003Cbr\u003E\n由龍躍徑起步，沿砵甸乍山郊遊徑到大浪灣，沿途180度無敵海景， 👀鳥瞰柴灣、小西灣、石澳、大浪灣風景。\u003Cbr\u003E\n初段是一段修葺良好的梯級，大約攀升約80米後，路開始沒那麼斜，到達砵甸山觀景台後會經過一段較為平坦的山路，然後開始下山。\u003Cbr\u003E\n行完山，一齊前往筲箕灣食埋晏同甜品先走！🍜\u003Cbr\u003E\n今次登山路線：小西灣海濱花園 》龍躍徑》 砵甸乍山觀景台 》 大浪灣\n（預計行山時間為2小時）\u003Cbr\u003E\n備註：初段梯級\u003Cbr\u003E\n日期：28\u002F1\u002F2020 星期二 (年初四）\u003Cbr\u003E\n時間：9:45-14:30\u003Cbr\u003E\n（預計12:00到大浪灣，大約12:45坐車到達筲箕灣）\u003Cbr\u003E\n集合地點：09:45小西灣南灣半島巴士總站\u003Cbr\u003E\n（乘車資訊：\nhttps:\u002F\u002Fzh.m.wikipedia.org\u002Fwiki\u002F小西灣（藍灣半島）公共運輸交匯處 ）","2020-01-28","hiking2001","大浪灣","2020-01-28T00:00:00.000Z",{"data":177},[178],{"id":179,"attributes":180},4,{"name":181,"slug":182,"description":10,"createdAt":103,"updatedAt":103},"遊山玩水","hiking",{"data":10},{"id":185,"attributes":186},119,{"title":187,"content":188,"start_date":189,"excerpt":29,"slug":190,"end_date":10,"tags":191,"createdAt":192,"updatedAt":192,"event_categories":193,"image":197},"周末郊遊鬆一鬆:古村水庫 - 西貢上窰及萬宜水庫西壩","\n\n平時侷促在辦公室及煩囂市區，放假一於逃離市區抖抖氣！🚶\u003Cbr\u003E\n今次我地出發西貢，由上窰村出發往萬宜水庫西壩，沿途山景海景，終點看水庫的宏偉美景！😀\u003Cbr\u003E\n行山後，一齊到西貢市飲埋茶先走🍜。\u003Cbr\u003E\n今次登山路線：\u003Cbr\u003E\n上窰巴士站-\u003E北潭涌自然教育徑-\u003E上窰民俗文物館-\u003E上窰家樂徑-\u003E萬宜水庫西壩\u003Cbr\u003E\n備註：山路及水泥路\u003Cbr\u003E\n日期：21\u002F12\u002F2019 星期六\u003Cbr\u003E\n時間：9:30-15:00\u003Cbr\u003E\n集合地點：西貢市中心巴士站94號（9:30am)\u003Cbr\u003E\n備註：一起坐巴士到上窰巴士站 （自費），預計13:30到北潭涌坐巴士回西貢市，14:00-15:00一起自費午餐。","2019-12-21","hiking1912","萬宜水庫,上窰家樂徑","2019-12-21T00:00:00.000Z",{"data":194},[195],{"id":179,"attributes":196},{"name":181,"slug":182,"description":10,"createdAt":103,"updatedAt":103},{"data":10},{"pagination":199},{"page":99,"pageSize":200,"pageCount":201,"total":202},12,16,188],"uses":{"dependencies":["http://127.0.0.1:1337/api/events?sort=start_date%3Adesc&populate[author]=true&populate[event_categories]=true&populate[image]=true&pagination[page]=5&pagination[pageSize]=12"],"params":["page","category"]}}]}