{"type":"data","nodes":[{"type":"data","data":[{"categories":1,"event_categories":27},[2,9,15,21],{"id":3,"attributes":4},1,{"slug":5,"name":6,"description":7,"createdAt":8,"updatedAt":8},"nutrition","營養隨筆",null,"2023-02-12T02:39:02.691Z",{"id":10,"attributes":11},2,{"slug":12,"name":13,"description":7,"createdAt":14,"updatedAt":14},"reflection","感悟隨筆","2023-02-12T02:39:02.692Z",{"id":16,"attributes":17},3,{"slug":18,"name":19,"description":7,"createdAt":20,"updatedAt":20},"fitness","運動筆記","2023-02-12T02:39:02.697Z",{"id":22,"attributes":23},4,{"slug":24,"name":25,"description":7,"createdAt":26,"updatedAt":26},"spiritual","心靈勵志","2023-02-12T02:39:02.698Z",[28,33,38,43,47,52],{"id":3,"attributes":29},{"name":30,"slug":31,"description":7,"createdAt":32,"updatedAt":32},"讀書會","book-sharing","2023-02-12T02:38:55.939Z",{"id":16,"attributes":34},{"name":35,"slug":36,"description":7,"createdAt":37,"updatedAt":37},"文化導賞","cultural","2023-02-12T02:38:55.943Z",{"id":22,"attributes":39},{"name":40,"slug":41,"description":7,"createdAt":42,"updatedAt":42},"遊山玩水","hiking","2023-02-12T02:38:55.946Z",{"id":44,"attributes":45},5,{"name":46,"slug":18,"description":7,"createdAt":42,"updatedAt":42},"健體運動",{"id":48,"attributes":49},6,{"name":50,"slug":5,"description":7,"createdAt":51,"updatedAt":51},"活學營養","2023-02-12T02:38:55.947Z",{"id":10,"attributes":53},{"name":54,"slug":55,"description":7,"createdAt":56,"updatedAt":57},"名人面對面","be-our-guest","2023-02-12T02:38:55.942Z","2023-03-08T13:16:12.875Z"],"uses":{"dependencies":["http://127.0.0.1:1337/api/categories?","http://127.0.0.1:1337/api/event-categories?"]},"slash":"always"},{"type":"data","data":[{"data":1,"meta":317},[2,48,98,127,176,218,233,247,261,275,289,303],{"id":3,"attributes":4},187,{"start_date":5,"title":6,"content":7,"excerpt":8,"slug":9,"end_date":5,"tags":8,"createdAt":10,"updatedAt":10,"event_categories":11,"image":19},"2024-01-27","龍年篆書揮春及年畫創作坊","\u003Cp\u003E根據中華傳統習俗，農曆新年在家張貼揮春和年畫，可保護家人，並為家庭祈求幸福。\u003C\u002Fp\u003E\u003Cp\u003EEmpower榮幸邀得兩位藝術大師蒞臨指導 — 「大象老師」結合傳統書法與當代藝術，讓學員極速掌握揮春創作精髓和篆書書法技巧；「太歲老師」指導年畫印製技巧，讓參加者運用拼版模式創作特色作品。\u003C\u002Fp\u003E\u003Cp\u003E日期：1月27日（星期六）\u003Cbr\u003E時間：下午2:30-4:30\u003Cbr\u003E費用：$330\u002F位\u003Cbr\u003E&nbsp; &nbsp; &nbsp; &nbsp; &nbsp; &nbsp; $430\u002F親子2人（5歲以上）\u003Cbr\u003E包2幅年畫、8幅揮春\u003Cbr\u003E\u003Cspan style=\"color:rgb(0,0,0);font-family:ui-sans-serif, system-ui, -apple-system, BlinkMacSystemFont, &quot;Segoe UI&quot;, Roboto, &quot;Helvetica Neue&quot;, Arial, &quot;Noto Sans&quot;, sans-serif, &quot;Apple Color Emoji&quot;, &quot;Segoe UI Emoji&quot;, &quot;Segoe UI Symbol&quot;, &quot;Noto Color Emoji&quot;;\"\u003E報名：請傳電郵到aksempowerhk@gmail.com 或在 Facebook.com\u002Fempower.hk 給我們Messanger 訊息。謝謝！\u003C\u002Fspan\u003E\u003C\u002Fp\u003E\u003Cp\u003EPowered by Empower\u003Cbr\u003Ewww.Empower.hk\u003Cbr\u003EFacebook.com\u002FEmpower.hk\u003Cbr\u003EYouTube.com\u002FEmpowerhk\u003C\u002Fp\u003E",null,"fai_chun_2024","2024-01-07T07:42:35.997Z",{"data":12},[13],{"id":14,"attributes":15},3,{"name":16,"slug":17,"description":8,"createdAt":18,"updatedAt":18},"文化導賞","cultural","2023-02-12T02:38:55.943Z",{"data":20},{"id":21,"attributes":22},38,{"name":23,"alternativeText":8,"caption":8,"width":24,"height":25,"formats":26,"hash":43,"ext":28,"mime":31,"size":44,"url":45,"previewUrl":8,"provider":46,"provider_metadata":8,"createdAt":47,"updatedAt":47},"Unknown.jpeg",720,540,{"small":27,"thumbnail":36},{"ext":28,"url":29,"hash":30,"mime":31,"name":32,"path":8,"size":33,"width":34,"height":35},".jpeg","https:\u002F\u002Fempowerhk.s3.ap-southeast-1.amazonaws.com\u002Fsmall_Unknown_0346eccf4d.jpeg","small_Unknown_0346eccf4d","image\u002Fjpeg","small_Unknown.jpeg",39.99,500,375,{"ext":28,"url":37,"hash":38,"mime":31,"name":39,"path":8,"size":40,"width":41,"height":42},"https:\u002F\u002Fempowerhk.s3.ap-southeast-1.amazonaws.com\u002Fthumbnail_Unknown_0346eccf4d.jpeg","thumbnail_Unknown_0346eccf4d","thumbnail_Unknown.jpeg",9.11,208,156,"Unknown_0346eccf4d",62.47,"https:\u002F\u002Fempowerhk.s3.ap-southeast-1.amazonaws.com\u002FUnknown_0346eccf4d.jpeg","aws-s3","2024-01-07T07:41:29.956Z",{"id":49,"attributes":50},171,{"start_date":51,"title":52,"content":53,"excerpt":8,"slug":54,"end_date":8,"tags":55,"createdAt":56,"updatedAt":57,"event_categories":58,"image":62},"2022-11-04","🆔️生命密碼初探","\u003Cp\u003E\u003Cspan style=\"background-color:rgb(255,255,255);color:rgb(5,5,5);font-family:system-ui, -apple-system, BlinkMacSystemFont, &quot;.SFNSText-Regular&quot;, sans-serif;\"\u003E由出生年月日的數字：\u003C\u002Fspan\u003E\u003Cbr\u003E\u003Cspan style=\"color:rgb(5,5,5);font-family:system-ui, -apple-system, BlinkMacSystemFont, &quot;.SFNSText-Regular&quot;, sans-serif;\"\u003E\u003Cimg src=\"https:\u002F\u002Fstatic.xx.fbcdn.net\u002Fimages\u002Femoji.php\u002Fv9\u002Ft7f\u002F2\u002F16\u002F1f31f.png\" alt=\"🌟\"\u003E\u003C\u002Fspan\u003E\u003Cspan style=\"background-color:rgb(255,255,255);color:rgb(5,5,5);font-family:system-ui, -apple-system, BlinkMacSystemFont, &quot;.SFNSText-Regular&quot;, sans-serif;\"\u003E 了解自己的性格\u003C\u002Fspan\u003E\u003Cbr\u003E\u003Cspan style=\"color:rgb(5,5,5);font-family:system-ui, -apple-system, BlinkMacSystemFont, &quot;.SFNSText-Regular&quot;, sans-serif;\"\u003E\u003Cimg src=\"https:\u002F\u002Fstatic.xx.fbcdn.net\u002Fimages\u002Femoji.php\u002Fv9\u002Ft7f\u002F2\u002F16\u002F1f31f.png\" alt=\"🌟\"\u003E\u003C\u002Fspan\u003E\u003Cspan style=\"background-color:rgb(255,255,255);color:rgb(5,5,5);font-family:system-ui, -apple-system, BlinkMacSystemFont, &quot;.SFNSText-Regular&quot;, sans-serif;\"\u003E 強化自己的優點\u003C\u002Fspan\u003E\u003Cbr\u003E\u003Cspan style=\"color:rgb(5,5,5);font-family:system-ui, -apple-system, BlinkMacSystemFont, &quot;.SFNSText-Regular&quot;, sans-serif;\"\u003E\u003Cimg src=\"https:\u002F\u002Fstatic.xx.fbcdn.net\u002Fimages\u002Femoji.php\u002Fv9\u002Ft7f\u002F2\u002F16\u002F1f31f.png\" alt=\"🌟\"\u003E\u003C\u002Fspan\u003E\u003Cspan style=\"background-color:rgb(255,255,255);color:rgb(5,5,5);font-family:system-ui, -apple-system, BlinkMacSystemFont, &quot;.SFNSText-Regular&quot;, sans-serif;\"\u003E 改善自己的弱點\u003C\u002Fspan\u003E\u003Cbr\u003E\u003Cspan style=\"color:rgb(5,5,5);font-family:system-ui, -apple-system, BlinkMacSystemFont, &quot;.SFNSText-Regular&quot;, sans-serif;\"\u003E\u003Cimg src=\"https:\u002F\u002Fstatic.xx.fbcdn.net\u002Fimages\u002Femoji.php\u002Fv9\u002Ft7f\u002F2\u002F16\u002F1f31f.png\" alt=\"🌟\"\u003E\u003C\u002Fspan\u003E\u003Cspan style=\"background-color:rgb(255,255,255);color:rgb(5,5,5);font-family:system-ui, -apple-system, BlinkMacSystemFont, &quot;.SFNSText-Regular&quot;, sans-serif;\"\u003E 加深認識家人、朋友、同事，從而增進溝通，關係更好\u003C\u002Fspan\u003E\u003Cbr\u003E\u003Cbr\u003E\u003Cspan style=\"background-color:rgb(255,255,255);color:rgb(5,5,5);font-family:system-ui, -apple-system, BlinkMacSystemFont, &quot;.SFNSText-Regular&quot;, sans-serif;\"\u003E歡迎大家與親友一起探索出生數字所代表的性格特質。\u003C\u002Fspan\u003E\u003Cbr\u003E\u003Cbr\u003E\u003Cspan style=\"background-color:rgb(255,255,255);color:rgb(5,5,5);font-family:system-ui, -apple-system, BlinkMacSystemFont, &quot;.SFNSText-Regular&quot;, sans-serif;\"\u003E日期：2022年11月4日（星期五）\u003C\u002Fspan\u003E\u003Cbr\u003E\u003Cspan style=\"background-color:rgb(255,255,255);color:rgb(5,5,5);font-family:system-ui, -apple-system, BlinkMacSystemFont, &quot;.SFNSText-Regular&quot;, sans-serif;\"\u003E時間：晚上7:30-9:00\u003C\u002Fspan\u003E\u003Cbr\u003E\u003Cspan style=\"background-color:rgb(255,255,255);color:rgb(5,5,5);font-family:system-ui, -apple-system, BlinkMacSystemFont, &quot;.SFNSText-Regular&quot;, sans-serif;\"\u003E地點：旺角家樂坊15樓安利體驗館美妍教室\u003C\u002Fspan\u003E\u003Cbr\u003E\u003Cspan style=\"background-color:rgb(255,255,255);color:rgb(5,5,5);font-family:system-ui, -apple-system, BlinkMacSystemFont, &quot;.SFNSText-Regular&quot;, sans-serif;\"\u003E費用：$50\u003C\u002Fspan\u003E\u003Cbr\u003E\u003Cspan style=\"background-color:rgb(255,255,255);color:rgb(5,5,5);font-family:system-ui, -apple-system, BlinkMacSystemFont, &quot;.SFNSText-Regular&quot;, sans-serif;\"\u003E備註：報名請Inbox留訊息&nbsp;\u003C\u002Fspan\u003E\u003Cbr\u003E\u003Cbr\u003E\u003Cspan style=\"background-color:rgb(255,255,255);color:rgb(5,5,5);font-family:system-ui, -apple-system, BlinkMacSystemFont, &quot;.SFNSText-Regular&quot;, sans-serif;\"\u003EPowered by Empower\u003C\u002Fspan\u003E\u003Cbr\u003E\u003Ca href=\"https:\u002F\u002Fl.facebook.com\u002Fl.php?u=http%3A%2F%2Fwww.Empower.hk%2F%3Ffbclid%3DIwAR0hX7RiVwkkXONHBA582FqWVuZ5Edf2bOqOEPkd9qyHz21QriPzta8QFLM&amp;h=AT09OqCKOES33v51wMpQZD0TeIhCEW65eWmG2mq0yg6moU6hjeqxv_L9fjAkgkmCtO046vmSLACl0PrOgHKLWGY740p3wHlkAK8oW83o8Yj3DNl15igz0-6fPoEOYb6s3y8LSqI&amp;__tn__=-UK*F&amp;c[0]=AT3cKWDsTSiCoM24SFSLxkQ82ddN-T77KI_EbttACyVxoXOesyDEk6ToZ27-givEpjG5v4BGFMt3bHxXhfXO4ZFZsRAdfAfX4nDaW9HQW1OgxVdRKj077TLh7EXrB0g163GvdnQiqIGxgn4vS_cgJmKIy4cjmmQYovM8XBwIz2KWm0LHRPHzzIWZZOtUbdix_yDSVc-eHKD-Gw\"\u003E\u003Cspan style=\"color:rgb(5,5,5);font-family:system-ui, -apple-system, BlinkMacSystemFont, &quot;.SFNSText-Regular&quot;, sans-serif;\"\u003Ewww.Empower.hk\u003C\u002Fspan\u003E\u003C\u002Fa\u003E\u003Cbr\u003E\u003Ca href=\"https:\u002F\u002Ffacebook.com\u002FEmpower.hk?__cft__[0]=AZWJaWu66aKvJhagUUjhSfEALJ_3CClRkscVltrQs7E28Xjb7vRUuYOgU2n--oScnRLg0y5F4VMlvQ9mNe1Yku0QQ325sYt04Pr9ZzIGEqtdowS-qLQaeFu-Ax53p8zMzX_kfYU-mG6eyI9wSCzfDQJIxjFV3qeLDl30xIxjWW9U8BJ6t0ICThm-IVH8L5uHht4&amp;__tn__=-UK*F\"\u003E\u003Cspan style=\"color:rgb(5,5,5);font-family:system-ui, -apple-system, BlinkMacSystemFont, &quot;.SFNSText-Regular&quot;, sans-serif;\"\u003EFacebook.com\u002FEmpower.hk\u003C\u002Fspan\u003E\u003C\u002Fa\u003E\u003Cbr\u003E\u003Ca href=\"https:\u002F\u002Fyoutube.com\u002FEmpowerhk?fbclid=IwAR1Dpkkw7HLBxs0ypC1nfqtdkis36r5AuPa-Z1jI7n8yCpK5pLvpReh88w0\"\u003E\u003Cspan style=\"color:rgb(5,5,5);font-family:system-ui, -apple-system, BlinkMacSystemFont, &quot;.SFNSText-Regular&quot;, sans-serif;\"\u003EYouTube.com\u002FEmpowerhk\u003C\u002Fspan\u003E\u003C\u002Fa\u003E\u003C\u002Fp\u003E","event","生命密碼","2023-03-17T01:59:10.899Z","2023-07-19T11:04:54.449Z",{"data":59},[60],{"id":14,"attributes":61},{"name":16,"slug":17,"description":8,"createdAt":18,"updatedAt":18},{"data":63},{"id":64,"attributes":65},4,{"name":66,"alternativeText":8,"caption":8,"width":67,"height":68,"formats":69,"hash":94,"ext":71,"mime":31,"size":95,"url":96,"previewUrl":8,"provider":46,"provider_metadata":8,"createdAt":97,"updatedAt":97},"310970711_5782637858423103_7695343569265848846_n.jpg",1440,1080,{"large":70,"small":78,"medium":83,"thumbnail":89},{"ext":71,"url":72,"hash":73,"mime":31,"name":74,"path":8,"size":75,"width":76,"height":77},".jpg","https:\u002F\u002Fempowerhk.s3.ap-southeast-1.amazonaws.com\u002Flarge_310970711_5782637858423103_7695343569265848846_n_1518db8b58.jpg","large_310970711_5782637858423103_7695343569265848846_n_1518db8b58","large_310970711_5782637858423103_7695343569265848846_n.jpg",94.39,1000,750,{"ext":71,"url":79,"hash":80,"mime":31,"name":81,"path":8,"size":82,"width":34,"height":35},"https:\u002F\u002Fempowerhk.s3.ap-southeast-1.amazonaws.com\u002Fsmall_310970711_5782637858423103_7695343569265848846_n_1518db8b58.jpg","small_310970711_5782637858423103_7695343569265848846_n_1518db8b58","small_310970711_5782637858423103_7695343569265848846_n.jpg",32.89,{"ext":71,"url":84,"hash":85,"mime":31,"name":86,"path":8,"size":87,"width":77,"height":88},"https:\u002F\u002Fempowerhk.s3.ap-southeast-1.amazonaws.com\u002Fmedium_310970711_5782637858423103_7695343569265848846_n_1518db8b58.jpg","medium_310970711_5782637858423103_7695343569265848846_n_1518db8b58","medium_310970711_5782637858423103_7695343569265848846_n.jpg",60.72,563,{"ext":71,"url":90,"hash":91,"mime":31,"name":92,"path":8,"size":93,"width":41,"height":42},"https:\u002F\u002Fempowerhk.s3.ap-southeast-1.amazonaws.com\u002Fthumbnail_310970711_5782637858423103_7695343569265848846_n_1518db8b58.jpg","thumbnail_310970711_5782637858423103_7695343569265848846_n_1518db8b58","thumbnail_310970711_5782637858423103_7695343569265848846_n.jpg",7.91,"310970711_5782637858423103_7695343569265848846_n_1518db8b58",164.84,"https:\u002F\u002Fempowerhk.s3.ap-southeast-1.amazonaws.com\u002F310970711_5782637858423103_7695343569265848846_n_1518db8b58.jpg","2023-03-17T01:58:27.124Z",{"id":99,"attributes":100},172,{"start_date":51,"title":52,"content":53,"excerpt":8,"slug":101,"end_date":51,"tags":8,"createdAt":102,"updatedAt":102,"event_categories":103,"image":107},"discover-numerology-221104","2023-07-19T11:24:12.146Z",{"data":104},[105],{"id":14,"attributes":106},{"name":16,"slug":17,"description":8,"createdAt":18,"updatedAt":18},{"data":108},{"id":109,"attributes":110},6,{"name":66,"alternativeText":8,"caption":8,"width":67,"height":68,"formats":111,"hash":124,"ext":71,"mime":31,"size":95,"url":125,"previewUrl":8,"provider":46,"provider_metadata":8,"createdAt":126,"updatedAt":126},{"large":112,"small":115,"medium":118,"thumbnail":121},{"ext":71,"url":113,"hash":114,"mime":31,"name":74,"path":8,"size":75,"width":76,"height":77},"https:\u002F\u002Fempowerhk.s3.ap-southeast-1.amazonaws.com\u002Flarge_310970711_5782637858423103_7695343569265848846_n_d0dd0154c1.jpg","large_310970711_5782637858423103_7695343569265848846_n_d0dd0154c1",{"ext":71,"url":116,"hash":117,"mime":31,"name":81,"path":8,"size":82,"width":34,"height":35},"https:\u002F\u002Fempowerhk.s3.ap-southeast-1.amazonaws.com\u002Fsmall_310970711_5782637858423103_7695343569265848846_n_d0dd0154c1.jpg","small_310970711_5782637858423103_7695343569265848846_n_d0dd0154c1",{"ext":71,"url":119,"hash":120,"mime":31,"name":86,"path":8,"size":87,"width":77,"height":88},"https:\u002F\u002Fempowerhk.s3.ap-southeast-1.amazonaws.com\u002Fmedium_310970711_5782637858423103_7695343569265848846_n_d0dd0154c1.jpg","medium_310970711_5782637858423103_7695343569265848846_n_d0dd0154c1",{"ext":71,"url":122,"hash":123,"mime":31,"name":92,"path":8,"size":93,"width":41,"height":42},"https:\u002F\u002Fempowerhk.s3.ap-southeast-1.amazonaws.com\u002Fthumbnail_310970711_5782637858423103_7695343569265848846_n_d0dd0154c1.jpg","thumbnail_310970711_5782637858423103_7695343569265848846_n_d0dd0154c1","310970711_5782637858423103_7695343569265848846_n_d0dd0154c1","https:\u002F\u002Fempowerhk.s3.ap-southeast-1.amazonaws.com\u002F310970711_5782637858423103_7695343569265848846_n_d0dd0154c1.jpg","2023-07-19T11:22:41.670Z",{"id":128,"attributes":129},182,{"start_date":130,"title":131,"content":132,"excerpt":8,"slug":133,"end_date":130,"tags":8,"createdAt":134,"updatedAt":134,"event_categories":135,"image":139},"2022-10-29","饒宗頤文化館～歷史文化美食深度半天遊","\u003Cp style=\"margin-left:0.0px;\"\u003EEmpower榮幸邀得香港中華文化促進中心理事Jimmy盧志明先生，為我們作星級導賞！\u003C\u002Fp\u003E\u003Cp style=\"margin-left:0.0px;\"\u003E精彩行程如下：\u003C\u002Fp\u003E\u003Cp style=\"margin-left:0.0px;\"\u003E💡在下區藝術館看饒宗頤生平(南饒北季)，到保育館了解饒館的前世今生👍🏻\u003C\u002Fp\u003E\u003Cp style=\"margin-left:0.0px;\"\u003E💡遊覽中區漢字起源&lt; 活字生香&gt;館\u003C\u002Fp\u003E\u003Cp style=\"margin-left:0.0px;\"\u003E💡參觀＜修學講堂＞及＜演講廳＞\u003C\u002Fp\u003E\u003Cp style=\"margin-left:0.0px;\"\u003E💡悅滿軒午膳（太平洋吞拿澳洲肉眼扒及紐西蘭羊膝無得輸）😚\u003C\u002Fp\u003E\u003Cp style=\"margin-left:0.0px;\"\u003E💡到上區翠雅山房 boutique hotel（共89間房）的&lt;琴\u002F棋\u002F詩\u002F書\u002F畫&gt; 五座樓去查房😎\u003C\u002Fp\u003E\u003Cp style=\"margin-left:0.0px;\"\u003E💡在中區文青打卡熱點Coffee Flow，嘆杯手沖咖啡\u002F冷萃咖啡配自家製抹茶芝士蛋糕☕🍰\u003C\u002Fp\u003E\u003Cp style=\"margin-left:0.0px;\"\u003E為參觀1895清朝関廠\u002F赴南非豬仔館\u002F檢疫中心\u002F監獄\u002F精神病院\u002F麻瘋病康復院\u002F長者療養院\u002F饒宗頤文化館劃上完滿的句號👏\u003C\u002Fp\u003E\u003Cp style=\"margin-left:0.0px;\"\u003E日期：2022年10月29日（星期六）\u003Cbr\u003E集合時間：上午10:15\u003Cbr\u003E集合地點：九龍美孚青山道800號饒宗頤文化館入口\u003Cbr\u003E費用：$20（全數捐助饒館），午餐及下午茶自費\u003Cbr\u003E名額：20人\u003C\u002Fp\u003E\u003Cp style=\"margin-left:0.0px;\"\u003EPowered by Empower\u003Cbr\u003E\u003Ca href=\"www.Empower.hk\"\u003Ewww.Empower.hk\u003C\u002Fa\u003E\u003Cbr\u003EFacebook.com\u002FEmpower.hk\u003Cbr\u003EYouTube.com\u002FEmpowerhk\u003C\u002Fp\u003E","JaoTsung-221029","2023-10-18T12:23:12.660Z",{"data":136},[137],{"id":14,"attributes":138},{"name":16,"slug":17,"description":8,"createdAt":18,"updatedAt":18},{"data":140},{"id":141,"attributes":142},27,{"name":143,"alternativeText":8,"caption":8,"width":144,"height":145,"formats":146,"hash":172,"ext":71,"mime":31,"size":173,"url":174,"previewUrl":8,"provider":46,"provider_metadata":8,"createdAt":175,"updatedAt":175},"IMG_0588.jpg",2400,1250,{"large":147,"small":153,"medium":159,"thumbnail":165},{"ext":71,"url":148,"hash":149,"mime":31,"name":150,"path":8,"size":151,"width":76,"height":152},"https:\u002F\u002Fempowerhk.s3.ap-southeast-1.amazonaws.com\u002Flarge_IMG_0588_1afe5eb926.jpg","large_IMG_0588_1afe5eb926","large_IMG_0588.jpg",129.26,521,{"ext":71,"url":154,"hash":155,"mime":31,"name":156,"path":8,"size":157,"width":34,"height":158},"https:\u002F\u002Fempowerhk.s3.ap-southeast-1.amazonaws.com\u002Fsmall_IMG_0588_1afe5eb926.jpg","small_IMG_0588_1afe5eb926","small_IMG_0588.jpg",43.27,260,{"ext":71,"url":160,"hash":161,"mime":31,"name":162,"path":8,"size":163,"width":77,"height":164},"https:\u002F\u002Fempowerhk.s3.ap-southeast-1.amazonaws.com\u002Fmedium_IMG_0588_1afe5eb926.jpg","medium_IMG_0588_1afe5eb926","medium_IMG_0588.jpg",82.34,391,{"ext":71,"url":166,"hash":167,"mime":31,"name":168,"path":8,"size":169,"width":170,"height":171},"https:\u002F\u002Fempowerhk.s3.ap-southeast-1.amazonaws.com\u002Fthumbnail_IMG_0588_1afe5eb926.jpg","thumbnail_IMG_0588_1afe5eb926","thumbnail_IMG_0588.jpg",11.26,245,127,"IMG_0588_1afe5eb926",457.65,"https:\u002F\u002Fempowerhk.s3.ap-southeast-1.amazonaws.com\u002FIMG_0588_1afe5eb926.jpg","2023-10-18T12:22:05.593Z",{"id":177,"attributes":178},181,{"start_date":179,"title":180,"content":181,"excerpt":8,"slug":182,"end_date":179,"tags":8,"createdAt":183,"updatedAt":183,"event_categories":184,"image":188},"2022-10-02","敦煌 — 千載情緣的故事","\u003Cp style=\"margin-left:0.0px;\"\u003EEmpower文化導賞團回來了！🥳\u003C\u002Fp\u003E\u003Cp style=\"margin-left:0.0px;\"\u003E2018年「數碼敦煌 — 天上人間的故事」導賞團大受歡迎，Empower再次榮幸邀得熟諳敦煌歷史與文化的⭐星級導賞員Rosa Chiu，帶領我們遊走「敦煌 — 千載情緣的故事」，透過藝術科技及多媒體展示，深度欣賞敦煌出土文物、石窟壁畫、臨摹絹畫及複製榆林窟第25窟，感受敦煌世界中尊天、敬地、愛人的豐富情感❤️。\u003C\u002Fp\u003E\u003Cp style=\"margin-left:0.0px;\"\u003E日期：2022年10月2日(星期日)&nbsp;\u003C\u002Fp\u003E\u003Cp style=\"margin-left:0.0px;\"\u003E集合時間：上午10:10&nbsp;\u003C\u002Fp\u003E\u003Cp style=\"margin-left:0.0px;\"\u003E集合地點：新界沙田文林路1號香港文化博物館大堂\u003C\u002Fp\u003E\u003Cp style=\"margin-left:0.0px;\"\u003E門券：$10 (持博物館通行證免費入場）\u003C\u002Fp\u003E\u003Cp style=\"margin-left:0.0px;\"\u003E名額：10人\u003C\u002Fp\u003E\u003Cp style=\"margin-left:0.0px;\"\u003E導賞時間：2-2.5小時\u003C\u002Fp\u003E\u003Cp\u003E午膳時間：12:45-14:00 (自費用膳)\u003Cbr\u003E\u003Cbr\u003EPowered by Empower\u003Cbr\u003E\u003Ca href=\"www.Empower.hk\"\u003Ewww.Empower.hk\u003C\u002Fa\u003E\u003Cbr\u003EFacebook.com\u002FEmpower.hk\u003Cbr\u003EYouTube.com\u002FEmpowerhk\u003C\u002Fp\u003E","Dunhuang-221002","2023-10-18T12:20:22.801Z",{"data":185},[186],{"id":14,"attributes":187},{"name":16,"slug":17,"description":8,"createdAt":18,"updatedAt":18},{"data":189},{"id":190,"attributes":191},26,{"name":192,"alternativeText":8,"caption":8,"width":144,"height":145,"formats":193,"hash":214,"ext":71,"mime":31,"size":215,"url":216,"previewUrl":8,"provider":46,"provider_metadata":8,"createdAt":217,"updatedAt":217},"IMG_0585.jpg",{"large":194,"small":199,"medium":204,"thumbnail":209},{"ext":71,"url":195,"hash":196,"mime":31,"name":197,"path":8,"size":198,"width":76,"height":152},"https:\u002F\u002Fempowerhk.s3.ap-southeast-1.amazonaws.com\u002Flarge_IMG_0585_2bd27431d3.jpg","large_IMG_0585_2bd27431d3","large_IMG_0585.jpg",109.95,{"ext":71,"url":200,"hash":201,"mime":31,"name":202,"path":8,"size":203,"width":34,"height":158},"https:\u002F\u002Fempowerhk.s3.ap-southeast-1.amazonaws.com\u002Fsmall_IMG_0585_2bd27431d3.jpg","small_IMG_0585_2bd27431d3","small_IMG_0585.jpg",36.76,{"ext":71,"url":205,"hash":206,"mime":31,"name":207,"path":8,"size":208,"width":77,"height":164},"https:\u002F\u002Fempowerhk.s3.ap-southeast-1.amazonaws.com\u002Fmedium_IMG_0585_2bd27431d3.jpg","medium_IMG_0585_2bd27431d3","medium_IMG_0585.jpg",69.47,{"ext":71,"url":210,"hash":211,"mime":31,"name":212,"path":8,"size":213,"width":170,"height":171},"https:\u002F\u002Fempowerhk.s3.ap-southeast-1.amazonaws.com\u002Fthumbnail_IMG_0585_2bd27431d3.jpg","thumbnail_IMG_0585_2bd27431d3","thumbnail_IMG_0585.jpg",10.04,"IMG_0585_2bd27431d3",386.96,"https:\u002F\u002Fempowerhk.s3.ap-southeast-1.amazonaws.com\u002FIMG_0585_2bd27431d3.jpg","2023-10-18T12:19:26.921Z",{"id":219,"attributes":220},163,{"start_date":221,"title":222,"content":223,"excerpt":224,"slug":225,"end_date":8,"tags":226,"createdAt":227,"updatedAt":227,"event_categories":228,"image":232},"2021-11-17","生命密碼再探","\n\n❤️ 認識自己的性格特質，更瞭解自己，更瞭解他人\u003Cbr\u003E\n❤️ 命運數的組合？命運數以外的數字？\u003Cbr\u003E\n❤️ 如何補足自己性格的不足？\n\n日期：2021年11月27日（星期六）\u003Cbr\u003E\n時間：上午11:30-13:00\u003Cbr\u003E\n地點：旺角家樂坊15樓安利體驗館會議室C\u003Cbr\u003E\n費用 : $50\u003Cbr\u003E\n報名方式：請inbox訊息給我們報名及索取付款詳情","","discover-numerology-2","生命密碼,性格分析","2021-11-27T00:00:00.000Z",{"data":229},[230],{"id":14,"attributes":231},{"name":16,"slug":17,"description":8,"createdAt":18,"updatedAt":18},{"data":8},{"id":234,"attributes":235},149,{"start_date":236,"title":237,"content":238,"excerpt":224,"slug":239,"end_date":8,"tags":240,"createdAt":241,"updatedAt":241,"event_categories":242,"image":246},"2021-10-14","生命密碼初探","\n\n❤️ 認識自己的性格特質\u003Cbr\u003E\n❤️ 更瞭解自己，更瞭解他人\u003Cbr\u003E\n❤️ 增進有效溝通\n\n日期：2021年10月14日（星期四，假期）\u003Cbr\u003E\n時間：下午2:00-3:15\u003Cbr\u003E\n地點：旺角家樂坊15樓安利體驗館會議室B\u003Cbr\u003E\n費用 : $50\u003Cbr\u003E\n報名優惠：以優惠價$80一併報名當天3:30-4:45的血型飲食法\u003Cbr\u003E\n報名方式：請inbox訊息給我們報名及索取付款詳情","discovering-numerology","生命密碼,自我探索","2021-10-14T00:00:00.000Z",{"data":243},[244],{"id":14,"attributes":245},{"name":16,"slug":17,"description":8,"createdAt":18,"updatedAt":18},{"data":8},{"id":248,"attributes":249},93,{"start_date":250,"title":251,"content":252,"excerpt":224,"slug":253,"end_date":8,"tags":254,"createdAt":255,"updatedAt":255,"event_categories":256,"image":260},"2019-05-18","愛爾蘭咖啡(Irish Coffee) 舌尖上的愛","\n\n有人說：\n「愛爾蘭咖啡是以咖啡為名的雞尾酒，是最美麗卻最真實的謊言。」\n\n香醇的愛爾蘭威士忌，以其獨特的果香襯托著香濃的咖啡，再配以杯邊香滑的忌廉，三種截然不同的味道，碰撞出難以言喻的感覺。令人心醉，又令人一次一次昏昏欲睡。\n\n源於酒吧的愛爾蘭咖啡，背後隱藏牽動人心的愛情故事。\nEmpower 是次邀得著名咖啡師 Dr May Man 親自教授我們如何調配純正的愛爾蘭咖啡，讓我們陶醉於其醇香的同時，真切感受背後純正的愛","irish-coffee","愛爾蘭咖啡，咖啡工作坊","2019-05-18T00:00:00.000Z",{"data":257},[258],{"id":14,"attributes":259},{"name":16,"slug":17,"description":8,"createdAt":18,"updatedAt":18},{"data":8},{"id":262,"attributes":263},64,{"start_date":264,"title":265,"content":266,"excerpt":224,"slug":267,"end_date":8,"tags":268,"createdAt":269,"updatedAt":269,"event_categories":270,"image":274},"2018-10-14","「數碼敦煌—天上人間的故事","\n\n此乃香港文化博物館本年度的重點展覽，展品逾100件，包括首次在香港展出、建於西魏時期而極具代表性的莫高窟285窟，按1:1比例複製，重現洞內的壁畫和塑像，還有以數碼技術展現的莫高窟61窟的五代時期大型壁畫《五臺山圖》，以及都督夫人禮佛圖、勞度叉鬥聖變、彌勒下生經變、各國王子聽法圖等；亦有各時代的精美飛天、藻井圖案，全方位展現敦煌的歷史、文化與藝術。\n\nEmpower 榮幸邀得深諳敦煌歷史文化的李婉賢女士(Rosa)任嘉賓導賞，帶領一眾 Empower 友好深入認識敦煌，細味佛國世界與平凡眾生的故事。\n\n日期：2018年10月14日(星期日)\u003Cbr\u003E\n時間：上午10時 (博物館於上午10時開館)\u003Cbr\u003E\n地點：新界沙田文林路1號香港文化博物館大堂\u003Cbr\u003E\n門券：$10 (持博物館通行證免費入場)\u003Cbr\u003E\n名額：35人\u003Cbr\u003E\n午膳時間：12:45-14:00 (自費用膳)\u003Cbr\u003E\n鼓勵大家留下一起午膳，互相交流","cultural1810","數碼敦煌","2018-10-14T00:00:00.000Z",{"data":271},[272],{"id":14,"attributes":273},{"name":16,"slug":17,"description":8,"createdAt":18,"updatedAt":18},{"data":8},{"id":276,"attributes":277},53,{"start_date":278,"title":279,"content":280,"excerpt":224,"slug":281,"end_date":8,"tags":282,"createdAt":283,"updatedAt":283,"event_categories":284,"image":288},"2018-08-05","文化導賞: 奢華世代：從亞述到亞歷山大","\n\n由亞述青銅器、腓尼基象牙、巴比倫石器、阿契美尼德黃金，到希臘玻璃，這些價值連城的寶物，盡現古代中東文明的奢華風尚。\u003Cbr\u003E\n大英博物館以香港作為是次全球巡展的首站，展出逾200件橫跨公元前900年至300年的生活奢侈品。\u003Cbr\u003E\nEmpower 將安排導賞團，讓大家窺探從前的有錢人過着怎樣奢華的生活，了解背後的文化底蘊，並反思生活的意義。\n\n日期：2018年8月5日\u003Cbr\u003E\n時間：上午10:05 (博物館上午10時開館)\u003Cbr\u003E\n地點：尖沙咀漆咸道南100號香港歷史博物館大堂\u003Cbr\u003E\n門券：$10 (持博物館通行證免費入場)\u003Cbr\u003E\n名額：20人\u003Cbr\u003E\n午飯時間：11:30-12:30 (自費用膳)\u003Cbr\u003E\n鼓勵大家留下一起午膳，互相交流","cultural1808","奢華世代,歷史","2018-08-05T00:00:00.000Z",{"data":285},[286],{"id":14,"attributes":287},{"name":16,"slug":17,"description":8,"createdAt":18,"updatedAt":18},{"data":8},{"id":290,"attributes":291},49,{"start_date":292,"title":293,"content":294,"excerpt":224,"slug":295,"end_date":8,"tags":296,"createdAt":297,"updatedAt":297,"event_categories":298,"image":302},"2018-06-09","1 小時玩轉程式","\n\n－推動香港普及編程教育至所有年齡、性別，以及各行各業人士\u003Cbr\u003E\n－把在香港想學習編程和想教授編程的人連繫一起\n\n主理：香港城市大學電子工程學系副教授兼『香港一小時編程』創辦人張澤松博士\u003Cbr\u003E\n日期：2018年6月9日（六）\u003Cbr\u003E\n時間：早上10:30-12:00\u003Cbr\u003E\n地點：香港城市大學 Apps Lab\u003Cbr\u003E\n費用：HoC免費，之後與Dr Ray一起自費在城大午膳\u003Cbr\u003E\n備註：請自備電腦","coding1806","編程","2018-06-09T00:00:00.000Z",{"data":299},[300],{"id":14,"attributes":301},{"name":16,"slug":17,"description":8,"createdAt":18,"updatedAt":18},{"data":8},{"id":304,"attributes":305},46,{"start_date":306,"title":307,"content":308,"excerpt":224,"slug":309,"end_date":8,"tags":310,"createdAt":311,"updatedAt":311,"event_categories":312,"image":316},"2018-03-03","活化歷史·永續生活 -綠匯學院","\n\n綠匯學院前身為舊大埔警署，是殖民地政府在1899年接管新界時舉行升旗禮的地點。作為殖民地政府於新界建設的首間永久警署，舊大埔警署是昔日殖民地政府管治新界的權力象徵，現為香港一級歷史建築。\n除了作為活化歷史建築項目，亦同時是本地重要的鷺鳥繁殖地。\n\nEmpower 特別安排了專人導賞，除介紹舊大埔警署的歷史、建築及生態特色外，也會講解綠匯學苑的綜合保育設計。\n\n日期：2018年3月3日(星期六)\u003Cbr\u003E\n時間：上午11:45至中午15:15\u003Cbr\u003E\n地點：香港新界大埔運頭角里11 號\u003Cbr\u003E\n費用：午餐自費，參觀免費\u003Cbr\u003E\n集合時間：11:45大埔港鐵站A1出口\u003Cbr\u003E\n我們將一起午飯，再一同前往綠滙學院，當中已預留時間供大家拍照 😊","culturalvisit1803","綠匯學院","2018-03-03T00:00:00.000Z",{"data":313},[314],{"id":14,"attributes":315},{"name":16,"slug":17,"description":8,"createdAt":18,"updatedAt":18},{"data":8},{"pagination":318},{"page":319,"pageSize":320,"pageCount":321,"total":322},1,12,2,24],"uses":{"dependencies":["http://127.0.0.1:1337/api/events?sort=start_date%3Adesc&populate[author]=true&populate[event_categories]=true&populate[image]=true&pagination[page]=1&pagination[pageSize]=12&filters[event_categories][slug]=cultural"],"params":["page","category"]}}]}