{"type":"data","nodes":[{"type":"data","data":[{"categories":1,"event_categories":27},[2,9,15,21],{"id":3,"attributes":4},1,{"slug":5,"name":6,"description":7,"createdAt":8,"updatedAt":8},"nutrition","營養隨筆",null,"2023-02-12T02:39:02.691Z",{"id":10,"attributes":11},2,{"slug":12,"name":13,"description":7,"createdAt":14,"updatedAt":14},"reflection","感悟隨筆","2023-02-12T02:39:02.692Z",{"id":16,"attributes":17},3,{"slug":18,"name":19,"description":7,"createdAt":20,"updatedAt":20},"fitness","運動筆記","2023-02-12T02:39:02.697Z",{"id":22,"attributes":23},4,{"slug":24,"name":25,"description":7,"createdAt":26,"updatedAt":26},"spiritual","心靈勵志","2023-02-12T02:39:02.698Z",[28,33,38,43,47,52],{"id":3,"attributes":29},{"name":30,"slug":31,"description":7,"createdAt":32,"updatedAt":32},"讀書會","book-sharing","2023-02-12T02:38:55.939Z",{"id":16,"attributes":34},{"name":35,"slug":36,"description":7,"createdAt":37,"updatedAt":37},"文化導賞","cultural","2023-02-12T02:38:55.943Z",{"id":22,"attributes":39},{"name":40,"slug":41,"description":7,"createdAt":42,"updatedAt":42},"遊山玩水","hiking","2023-02-12T02:38:55.946Z",{"id":44,"attributes":45},5,{"name":46,"slug":18,"description":7,"createdAt":42,"updatedAt":42},"健體運動",{"id":48,"attributes":49},6,{"name":50,"slug":5,"description":7,"createdAt":51,"updatedAt":51},"活學營養","2023-02-12T02:38:55.947Z",{"id":10,"attributes":53},{"name":54,"slug":55,"description":7,"createdAt":56,"updatedAt":57},"名人面對面","be-our-guest","2023-02-12T02:38:55.942Z","2023-03-08T13:16:12.875Z"],"uses":{"dependencies":["http://127.0.0.1:1337/api/categories?","http://127.0.0.1:1337/api/event-categories?"]},"slash":"always"},{"type":"data","data":[{"data":1,"meta":179},[2,22,42,58,72,84,98,110,124,138,152,166],{"id":3,"attributes":4},12,{"title":5,"content":6,"start_date":7,"excerpt":8,"slug":9,"end_date":10,"tags":11,"createdAt":12,"updatedAt":12,"event_categories":13,"image":21},"金庸迷大喜訊：萬眾期待的金庸館終於開幕！","\n\n金庸迷大喜訊：萬眾期待的金庸館終於開幕！\u003Cbr\u003E\nEmpower 榮幸邀得著名漫畫家李志清老師為我們導賞“繪畫・金庸”展覽，並獲文化博物館特別安排為我們導賞金庸館。\u003Cbr\u003E\n李老師於1997年與查良鏞先生創立明河(創文)出版有限公司，替金庸小說畫漫畫，作品包括《射鵰英雄傳》、《笑傲江湖》。獲獎無數，包括日本第一屆國際漫畫獎最優秀作品獎、香港星島集團「傑出領袖獎」、香港特別行政區政府「行政長官社區服務獎」等。\n\n日期：2017年3月25日(星期六)\u003Cbr\u003E\n時間：下午2:15至3:30\u003Cbr\u003E\n地點：香港文化博物館","2017-03-25","","cultural170325",null,"金庸館","2017-03-25T00:00:00.000Z",{"data":14},[15],{"id":16,"attributes":17},3,{"name":18,"slug":19,"description":10,"createdAt":20,"updatedAt":20},"文化導賞","cultural","2023-02-12T02:38:55.943Z",{"data":10},{"id":23,"attributes":24},16,{"title":25,"content":26,"start_date":27,"excerpt":28,"slug":29,"end_date":10,"tags":30,"createdAt":31,"updatedAt":31,"event_categories":32,"image":41},"閒談香港地產市場","\n\n據統計，全球10大最難買房的地區中，香港連續7年位居首位，一個家庭要18年不吃不喝的錢才能相抵樓價。究竟香港樓價會否繼續居高不下？甚麼時候才是置業良機？香港樓市是否有泡沫？\n\nEmpower 榮幸邀得新鴻基地產前執行董事Michael 黃奕鑑為我們分享其經驗，論述對置業及樓市的見解。Michael 任職新鴻基地產近30年，退休前是新地執行董事，主管公司發展及策略、投資、房地產硏究分析、基礎建設、企業傳訊等工作。公職方面，曾任香港青年旅舍恊會主席，參與保育香港第一代公屋深水埗美荷樓，現為香港中文大學新亞書院校董及香港公開大學校董會主席。\n\nMichael 就其在地産界的豐富經驗及精闢見解，為大家講解香港地產市道，並與大家分享有意置業人士經常提出的問題。\n\n日期：2017年3月18日(星期六) \u003Cbr\u003E\n時間：晚上7:15-9:30\u003Cbr\u003E\n地點：九龍旺角登打士街56號柏裕商業中心15樓安利體驗館\u003Cbr\u003E\n費用：$150 (包括有營晚餐)\n","2017-03-18","新鴻基地產前執行董事黃奕鑑先生 (Michael)","michael-wong","香港樓市,地產,置業","2017-03-18T00:00:00.000Z",{"data":33},[34],{"id":35,"attributes":36},2,{"name":37,"slug":38,"description":10,"createdAt":39,"updatedAt":40},"名人面對面","be-our-guest","2023-02-12T02:38:55.942Z","2023-03-08T13:16:12.875Z",{"data":10},{"id":43,"attributes":44},11,{"title":45,"content":46,"start_date":27,"excerpt":8,"slug":47,"end_date":10,"tags":48,"createdAt":31,"updatedAt":31,"event_categories":49,"image":57},"週末郊遊鬆一鬆@鄉土情懷·西貢古道","\n\n平時侷促在辦公室及煩囂市區，放假一於逃離市區抖抖氣！🚶\n\n今次我們選擇充滿鄉土情懷的西貢古道，走訪百花林，途經逾百年的國父孫中山先生母親楊太君夫人墓，俯瞰西貢及白沙灣一帶幽美景色。古道沿途細味田園風光，再訪有逾400年歷史，現已列為一級歷史建築的車公古廟。\n行完山，一齊食埋晏先走！🍜\n\n預計行山時間為3小時。\u003Cbr\u003E\n備註：全程主要為下坡路段，近九成為混凝土小徑，輕鬆易行，其餘為地衣處處的石砌古道。\u003Cbr\u003E\n日期：18\u002F3\u002F2016 星期六\u003Cbr\u003E\n集合時間：上午9:30，不見即散 (若不午餐，預計13:00到西貢蠔涌)\u003Cbr\u003E\n集合地點：港鐵鑽石山站C2地面出口集合 (前往坐92號巴士，「德望中學」下車)\u003Cbr\u003E\n路線：飛鵝山道\u003E百花林(孫中山母親之墓)\u003E大藍湖\u003E蠔涌\u003Cbr\u003E\n🍚 午餐暫定13:00-14:30，地點稍後確定。\u003Cbr\u003E\n若不午餐，請報名時註明。","hiking1703","西貢古道",{"data":50},[51],{"id":52,"attributes":53},4,{"name":54,"slug":55,"description":10,"createdAt":56,"updatedAt":56},"遊山玩水","hiking","2023-02-12T02:38:55.946Z",{"data":10},{"id":59,"attributes":60},14,{"title":61,"content":62,"start_date":63,"excerpt":8,"slug":64,"end_date":10,"tags":65,"createdAt":66,"updatedAt":66,"event_categories":67,"image":71},"旅遊分享系列：尋夢•追夢•完夢","\n\n她，年過半百才開始人生第一次自由行 ─ 西藏。\u003Cbr\u003E\n此後，懷著對夢想的追求，她獨自遊歷了別人喻為背包客高級班的印度、踏足神秘的伊拉克庫爾斯坦、深入香港人足跡少至的格魯吉亞……\u003Cbr\u003E\n每個獨特的地方，都是推動著她尋夢的力量。\u003Cbr\u003E\n她有隻身旅行的勇氣。敞開心扉去感受世界，交結不同地域的朋友。\u003Cbr\u003E\n但她亦從不抗拒與人同途作伴。無論是認識的朋友，還是在旅遊討論區裡素未謀面的，只要志同道合，皆可成為同行互助的旅伴。\u003Cbr\u003E\n追尋夢想的力量，讓她克服了路上的孤單、言語的障礙、對人心險惡的恐懼。異國文化的氣氛與風土人情，吸引著她一次又一次踏上每一處興趣盎然的土地。\u003Cbr\u003E\n年近七十的她，今天依然充滿著夢想，腳踏實地走在追夢的路上……\u003Cbr\u003E\nEMPOWER榮幸邀得大地行者 MAY 姐，施嘉宜女士，分享她的尋夢之旅！\n\n日期：2017年3月11日 (星期六)\u003Cbr\u003E\n時間：下午2:30-4:00\u003Cbr\u003E\n地點：九龍旺角登打士街56號柏裕商業中心15樓安利體驗館B室\u003Cbr\u003E\n費用：$50","2017-03-11","travelsharing","旅遊分享,自助遊,背包遊","2017-03-11T00:00:00.000Z",{"data":68},[69],{"id":16,"attributes":70},{"name":18,"slug":19,"description":10,"createdAt":20,"updatedAt":20},{"data":10},{"id":73,"attributes":74},9,{"title":75,"content":76,"start_date":63,"excerpt":8,"slug":77,"end_date":10,"tags":78,"createdAt":66,"updatedAt":66,"event_categories":79,"image":83},"都市淨土- 志蓮淨苑及南蓮園池","\n\n中國傳統唐式庭園和建築不僅演繹中華文化的藝術，更承載厚重的中華歷史、天人合一的哲學觀及注重個人修養的文化。\u003Cbr\u003E\n【南蓮園池】以唐代園林設計為藍本，配合北面【志蓮淨苑】復建唐代木構建築群，兩者相互毗連，為繁華喧鬧的市區帶來一片淨土。\u003Cbr\u003E\n我們冀透過是次的導賞參觀，更深入了解中國園林藝術及佛教文化；透過靜心遊觀，淨化心靈，暫時忘卻世俗的煩囂壓力。\u003Cbr\u003E\n參觀後，我們將於寺內「龍門樓」品嚐志蓮淨苑素菜。\u003Cbr\u003E\n日期：2017年3月11日(星期六)\u003Cbr\u003E\n時間：上午10:00至中午12:00\u003Cbr\u003E\n午飯時間：中午12:00-13:30\u003Cbr\u003E\n地點：九龍鑽石山志蓮淨苑及南蓮園池\u003Cbr\u003E\n費用：參觀免費，午餐自費","cultural1703","志蓮淨苑,南蓮園池",{"data":80},[81],{"id":16,"attributes":82},{"name":18,"slug":19,"description":10,"createdAt":20,"updatedAt":20},{"data":10},{"id":85,"attributes":86},7,{"title":87,"content":88,"start_date":89,"excerpt":8,"slug":90,"end_date":10,"tags":91,"createdAt":92,"updatedAt":92,"event_categories":93,"image":97},"活化歷史, 文化傳承- 饒宗頤文化館","\n\n饒宗頤文化館前身為荔枝角醫院，為香港三級歷史建築。為服務當時社會的需求，之前曾為“豬仔館”、監獄、隔離站，歷盡社會變遷。\u003Cbr\u003E\n作為活化歷史建築項目，設計優雅的饒館繼續延續其社會任務，透過保育館、舊更亭和古石牆等歷史景點，展現饒館的今昔及保育過程。作為以國學大師饒宗頤命名的文化館，藝術館展出饒教授的藝術作品，並透過多媒體介紹饒教授的生平事蹟。\n\nEmpower 特別揀選元宵佳節，參觀這座有“城市綠洲”之稱的文化建築，與大家一起參與本地歷史文化的傳承，豐富我們的文化生活。\u003Cbr\u003E\n\n日期：2017年2月11日 (星期六)\u003Cbr\u003E\n時間：上午10:00-11:30\u003Cbr\u003E\n地點：九龍青山道800號饒宗頤文化館\u003Cbr\u003E\n費用：免費","2017-02-11","cultural1702","饒宗頤文化館","2017-02-11T00:00:00.000Z",{"data":94},[95],{"id":16,"attributes":96},{"name":18,"slug":19,"description":10,"createdAt":20,"updatedAt":20},{"data":10},{"id":99,"attributes":100},8,{"title":101,"content":102,"start_date":89,"excerpt":8,"slug":103,"end_date":10,"tags":104,"createdAt":92,"updatedAt":92,"event_categories":105,"image":109},"春日品茶趣·輕茶道","\n\n一片春日的落英，搭配微微的茶香，好不愜意。\u003Cbr\u003E\nEmpower 榮幸邀得瑜茶舍創辦人 Catherine，為我們開辦“春日品茶趣·輕茶道”工作坊，內容包括：\u003Cbr\u003E\n- 茶藝表演\u003Cbr\u003E\n- 茶文化及茶藝講解\u003Cbr\u003E\n- 何謂六大茶類\u003Cbr\u003E\n- 茶器運用\u003Cbr\u003E\n- 茶與禮儀\u003Cbr\u003E\n- 品茗一至兩種茶品\u003Cbr\u003E\n- 問答環節\u003Cbr\u003E\n⭐ 導師：Ms Catherine Yung，自幼跟隨經營普洱茶葉生意的媽媽穿梭中港兩地，拜訪不同茶道老師，登雲南茶山採茶葉。為令茶道年青化和時尚化，4年前創辦瑜茶舍，以平易近人的品茗體驗，讓更多年輕人能透過實地教學，領略傳統茶道之美","tea1702","茶道,荼藝",{"data":106},[107],{"id":16,"attributes":108},{"name":18,"slug":19,"description":10,"createdAt":20,"updatedAt":20},{"data":10},{"id":111,"attributes":112},10,{"title":113,"content":114,"start_date":115,"excerpt":8,"slug":116,"end_date":10,"tags":117,"createdAt":118,"updatedAt":118,"event_categories":119,"image":123},"新春行山團- 暢遊南丫島","\n\n雞年伊始，我們特選暢遊南丫島，讓我們乘風破浪，舉目四方，海闊天空！祝願大家身體健康、日日心曠神怡！\u003Cbr\u003E\n今次路線由榕樹灣出發，浴途景色開揚。\u003Cbr\u003E\n行完山，一齊食埋晏先走！🍜\u003Cbr\u003E\n預計行山時間為1.5小時\u003Cbr\u003E\n日期：31\u002F1\u002F2017 初四星期二\u003Cbr\u003E\n時間：10:30-13:30（若不午餐，預計13:30到索罟灣碼頭）\u003Cbr\u003E\n集合地點：10:05中環往南丫島4號碼頭集合（坐10:30船出發，預計人多，請提早集合，太遲有機會無船位）\u003Cbr\u003E\n路線：中環＞榕樹灣＞索罟灣","2017-01-31","hiking1702","南丫島","2017-01-31T00:00:00.000Z",{"data":120},[121],{"id":52,"attributes":122},{"name":54,"slug":55,"description":10,"createdAt":56,"updatedAt":56},{"data":10},{"id":125,"attributes":126},6,{"title":127,"content":128,"start_date":129,"excerpt":8,"slug":130,"end_date":10,"tags":131,"createdAt":132,"updatedAt":132,"event_categories":133,"image":137},"新年登高步步高陞- 大帽山俯瞰大地四方","\n\n平時侷促在辦公室及煩囂市區，放假一於逃離市區抖抖氣！\u003Cbr\u003E\n1月新年伊始，我們今次選擇了登上香港之巔－大帽山(957米高)，祝願大家今年都步步高陞。今次路線由荃錦坳(478米高)出發，沿途景色開揚壯觀，若天朗氣清，能俯瞰全港景色，西北的錦田元朗、東西的大埔馬鞍山、南面的九龍港島等都一覽無遺。\u003Cbr\u003E\n行完山，一齊飲埋茶，食埋晏先走！\u003Cbr\u003E\n預計行山時間為3小時\u003Cbr\u003E\n備註：海拔較高，請帶備足夠外套保暖並請帶備防曬用品\u003Cbr\u003E\n日期：2017年1月21日(星期六)\u003Cbr\u003E\n時間：09:30至13:00\u003Cbr\u003E\n集合地點：09：30於荃港鐵荃灣西站A1出口集合（前往坐51號巴士到效野公園站下車），不見即散\u003Cbr\u003E\n路線：荃錦坳＞大帽山道＞大㡌山山頂＞大帽山道＞荃錦坳\u003Cbr\u003E\n活動結束後將返回荃灣一起午膳\u003Cbr\u003E","2017-01-21","hiking1701","大帽山","2017-01-21T00:00:00.000Z",{"data":134},[135],{"id":52,"attributes":136},{"name":54,"slug":55,"description":10,"createdAt":56,"updatedAt":56},{"data":10},{"id":139,"attributes":140},5,{"title":141,"content":142,"start_date":143,"excerpt":8,"slug":144,"end_date":10,"tags":145,"createdAt":146,"updatedAt":146,"event_categories":147,"image":151},"蛻變・美荷樓","\n\n2017年，Empower將安排各類歷史文化與藝術導賞團。1月我們將率先參觀被評為二級歷史建築的美荷樓。\u003Cbr\u003E\n美荷樓建於1954年，為現時碩果僅存的H型徒置大廈，亦是香港最早期公屋。活化後的美荷樓今日用作青年旅舍，並設有名為「美荷樓生活館」的展覽館，展示1950至70年代居民的生活寫照，以及他們艱苦奮進、自強不息的感人故事。\nEmpower榮幸邀得親身參與美荷樓活化工程的香港青年旅舍協會前主席黃奕鑑先生(Michael)為我們作星級導賞。Michael為新鴻基集團前執行董事，現為香港公開大學校董會主席。Michael 將引領我們走進美荷樓從徒置大廈蛻變為現代青年旅舍的超時空旅程，介紹老一輩香港人的生活起居，分享大導演吳宇森、資深大律師陳志海等名人的童年往事，體現無懼艱辛、肯捱肯搏的香港精神。\u003Cbr\u003E","2017-01-14","cultural170114","美荷樓","2017-01-14T00:00:00.000Z",{"data":148},[149],{"id":16,"attributes":150},{"name":18,"slug":19,"description":10,"createdAt":20,"updatedAt":20},{"data":10},{"id":52,"attributes":153},{"title":154,"content":155,"start_date":156,"excerpt":157,"slug":158,"end_date":10,"tags":159,"createdAt":160,"updatedAt":160,"event_categories":161,"image":165},"擁抱改變，乘勢而起，創出科網新天地","\n\n⭐英國海歸的Kevin，於香港大學會計及金融專業畢業後，隨己身興趣從事TMT(Technology, Media, Telecommunications) 領域之工作，工作數年有見中國內地科技及互聯網迅速發展，Kevin 捉緊機會，孤身一人北上至北京創業。首次創業已參與內地互聯網業務，以 COO及合夥人身份在北京中關村參與創建國內首個互聯網互動手機媒體平臺台－miniV，為國內最早基於地理位置定位技術的視頻交友社區之一。\n\n⭐公司產品上線並被併購後，於2011年回到香港創立紅點子創作(香港)有限公司，早著先機，專注於開發自家的AR、VR和3D等高新科技視覺技術領域業務，相關科技亦於近年逐步冒起，多年累積的經驗和技術造就了公司於此領域的領先地位，公司業務遍及中港澳台、日本、加拿大及歐洲等地。\n\n⭐積極擁抱改變，捕捉社會趨勢。是甚麼個人理想令Kevin可以堅持渡過創業時期的艱辛？經歷中又有甚麼反思？Kevin會帶我們一一細味。\n\n日期：2016年12月17日(星期六)\u003Cbr\u003E\n時間：晚上7:15-9:30\u003Cbr\u003E\n地點：九龍旺角登打士街56號柏裕商業中心15樓安利體驗館\u003Cbr\u003E\n費用：$150 (包括社企有營輕食)\n","2016-12-17","紅點子創作創辦人兼行政總裁 李嘉俊先生(Kevin) ","kevin-lee","創業","2016-12-17T00:00:00.000Z",{"data":162},[163],{"id":35,"attributes":164},{"name":37,"slug":38,"description":10,"createdAt":39,"updatedAt":40},{"data":10},{"id":16,"attributes":167},{"title":168,"content":169,"start_date":170,"excerpt":171,"slug":172,"end_date":10,"tags":159,"createdAt":173,"updatedAt":173,"event_categories":174,"image":178},"以天賦與興趣　改寫人生方程式","\n\n看Stephen履歷，百份百是人生勝利組：會考十優狀元，香港中文大學訊息工程系學士，美國史丹福大學電子工程系碩士，畢業後獲聘為雅虎香港第二位程式員。回港後獲邀到剛成立的TVB.com出任首席技術官(CTO)，開發TVB首個互聯網產品 myTV。擁有高薪厚職，Stephen卻毅然放棄，與兩位中學同學成立遊戲發佈平台Memoriki，並領導原公司旗下項目QooApp自立門戶，專門服務日韓遊戲玩家。成立兩年來，在不費一文宣傳下，已在全球錄得逾1,100萬次下載，成為廣受歡迎的日韓手機遊戲平台。\n\n如此少年得志，卻沒半點飛揚跋扈，與Stephen的童年經歷不無關係。Stephen幼年喪父，母親靠綜援獨力把他和兩個弟弟撫養成人。故此其童年夢想很簡單，就是希望如學校排球隊其他隊員般，擁有一雙像樣的運動鞋，不用只穿「白飯魚」。選擇創立遊戲平台，也是源於自小喜歡打機，按興趣把事情專心做好。\n\n由科網熱、web2.0、Facebook app到手遊平台，Stephen每次都在最合適的時機轉換跑道。他是如何有此眼光？成長的經歷，對他打工和創業又有何影響？同時，Stephen亦會解構備受青少年熱愛的二次元文化為何物，以及二次元文化對今後社會經濟舉足輕重的影響。\n\n日期：2016年11月27日(星期日)\u003Cbr\u003E\n時間：晚上7:15-9:30\u003Cbr\u003E\n地點：九龍旺角登打士街56號柏裕商業中心15樓安利體驗館C室\u003Cbr\u003E\n費用：$150 (包括自家製美味沙律及社企有營輕食)\n","2016-11-27","QooApp創辦人蒲得志先生(Stephen)","stephen","2016-11-27T00:00:00.000Z",{"data":175},[176],{"id":35,"attributes":177},{"name":37,"slug":38,"description":10,"createdAt":39,"updatedAt":40},{"data":10},{"pagination":180},{"page":23,"pageSize":3,"pageCount":181,"total":182},18,209],"uses":{"dependencies":["http://127.0.0.1:1337/api/events?sort=start_date%3Adesc&populate[author]=true&populate[event_categories]=true&populate[image]=true&pagination[page]=16&pagination[pageSize]=12"],"params":["page","category"]}}]}