{"type":"data","nodes":[null,{"type":"data","data":[{"data":1,"meta":334},[2,32,59,84,121,151,178,200,227,252,284,309],{"id":3,"attributes":4},738,{"createdAt":5,"title":6,"excerpt":7,"content":8,"slug":9,"updatedAt":5,"author":10,"categories":11,"tags":19,"image":31},"2019-12-22T00:00:00.000Z","優質禽肉-火雞",null,"\n\n踏入12月中，到處響起聖誕歌曲🎅🏼，自然想起火雞🐔。小時候吃過火雞，覺得太難吃了😖，肉質很粗糙。長大後一次聖誕派對，發現火雞原來可以那麼嫩滑可口😳，讓我對火雞改觀。\n\n唸營養後更發現火雞相較其他禽肉不但脂肪量低，蛋白質含量也較高😀，每100克火雞肉已含有21克蛋白質。\n\n蛋白質是我們必需的宏量營養素，是身體組織主要的構建材料，亦是細胞和肌肉的基石。因此不是鍛煉肌肉才需要蛋白質，我們的五臟六腑也極之需要。舉例來說，患有胃痛或胃潰瘍的朋友，若能攝取容易消化吸收的蛋白質，重建胃黏膜，胃病自可舒緩。\n\n甚麼蛋白質才容易被消化吸收？下回分解😉。\n\n今天冬至，祝各位Empower友好和家人冬至愉快，暖意洋洋慶團圓🥰；也預祝大家聖誕快樂，merry Christmas！🎊\n","post191222",{"data":7},{"data":12},[13],{"id":14,"attributes":15},1,{"slug":16,"name":17,"description":7,"createdAt":18,"updatedAt":18},"nutrition","營養隨筆","2023-02-07T08:03:25.893Z",{"data":20},[21,26],{"id":22,"attributes":23},20,{"name":24,"createdAt":25,"updatedAt":25},"蛋白質","2023-02-07T08:03:09.445Z",{"id":27,"attributes":28},30,{"name":29,"createdAt":30,"updatedAt":30},"火雞","2023-02-07T08:03:09.622Z",{"data":7},{"id":33,"attributes":34},737,{"createdAt":35,"title":36,"excerpt":7,"content":37,"slug":38,"updatedAt":35,"author":39,"categories":40,"tags":44,"image":58},"2019-12-04T00:00:00.000Z","以形補形？","\n\n有見近來的交通情況，大家在路上的步伐都比以往快🏃🏻，可謂歸心似箭。要行得快，就要有好的骨骼關節🦴。\n\n中國人說\"以形補形\" -- 豬腳、雞腳湯等，真的可以補腳骨🦴嗎？\n\n豬腳的膠質雖多，卻沒有研究證實直接對關節有益🤔。營養師說如用雞腳湯補鈣，是需要飲一個浴缸那麼多😲！\n\n豬腳的蛋白質又如何？其實我們吃任何蛋白質食物，身體都會消化分解為胺基酸重新利用，所以吃豬腳或其他肉類分別不大，因為都會分解為胺基酸，再重組為蛋白質，並由身體按需要分配給不同部位😃。\n\n那麼該如何補鈣呢？可以多吃深綠色的蔬菜🥦，以及大豆製品如豆漿🥛、豆腐，同時也要注重鎂質的攝取，並多曬太陽以吸收維他命D，這樣才有助提升骨質密度💪🏻💪🏻！\n\n骨質密度與關節健康息息相關。想更深入了解如何保養關節，12月14日早上11時活學營養《活絡關節 步履輕盈》就萬勿錯過！☺","post191204",{"data":7},{"data":41},[42],{"id":14,"attributes":43},{"slug":16,"name":17,"description":7,"createdAt":18,"updatedAt":18},{"data":45},[46,51,56],{"id":47,"attributes":48},28,{"name":49,"createdAt":50,"updatedAt":50},"骨質密度","2023-02-07T08:03:09.608Z",{"id":52,"attributes":53},29,{"name":54,"createdAt":55,"updatedAt":55},"關節","2023-02-07T08:03:09.611Z",{"id":22,"attributes":57},{"name":24,"createdAt":25,"updatedAt":25},{"data":7},{"id":60,"attributes":61},735,{"createdAt":62,"title":63,"excerpt":7,"content":64,"slug":65,"updatedAt":62,"author":66,"categories":67,"tags":71,"image":83},"2019-11-27T00:00:00.000Z","維他命C：增強免疫力之王","\n\n上星期提及硒和維他命E可幫助阻隔污染物粒子進入肺部，若想事半功倍，就必須多加攝取維他命C💪💪\n\n白血球是人體迎擊病毒和形成免疫力的功臣，維他命C正可強化其功效，並加速白血球調動。此外維他命C可還原解毒，將毒素中和分解，減少身體所受的毒害。芸芸營養素中，維他命C在維護免疫系統方面名列首位，絕非浪得虛名🤩\n\n不少水果皆富含維他命C。🍊橘子類固然含有維他命C，但其實番石榴、士多啤梨和奇異果的維他命C含量都較橙和柑豐富，其中100克番石榴所含維他命C達228毫克，是橙的4倍😱\n\n🥰溫馨提示：維他命C非常容易氧化，故水果切開後應立即食用。維他命C也是水溶性的，短短2、3小時就會經汗水或尿液排出體外，故必須在3餐中充份攝取。","post19127",{"data":7},{"data":68},[69],{"id":14,"attributes":70},{"slug":16,"name":17,"description":7,"createdAt":18,"updatedAt":18},{"data":72},[73,78],{"id":74,"attributes":75},27,{"name":76,"createdAt":77,"updatedAt":77},"維他命C","2023-02-07T08:03:09.582Z",{"id":79,"attributes":80},26,{"name":81,"createdAt":82,"updatedAt":82},"免疫力","2023-02-07T08:03:09.575Z",{"data":7},{"id":85,"attributes":86},736,{"createdAt":87,"title":88,"excerpt":7,"content":89,"slug":90,"updatedAt":87,"author":91,"categories":92,"tags":96,"image":120},"2019-11-17T00:00:00.000Z","硒+E：解毒之王","\n\n近日大家較容易從空氣吸入不同類型的毒素☠，今次介紹兩種特別有助肺部抵禦空氣污染的微量元素，大家可多加留意攝取😊\n\n大家對硒或較為陌生，但對「世界長壽之鄉」巴馬應有印象；除巴馬外，廣西還有18個縣市獲授「中國長壽之鄉」的稱號😍。專家認為一大原因，是這些地區的土壤和農產品均富含硒。\n\n硒有抗癌之王的美譽，可以抑制癌細胞，清除體內的自由基，並維持心臟正常運作，防止血管硬化。而且是水銀、鎘等重金屬的天然解毒劑，有助身體排出毒素，同時增強免疫力💪🏻💪🏻，防禦空氣污染對呼吸器官黏膜的損害。沙甸魚、蠔、🥚蛋、大蒜均富含硒。\n\n至於維他命E，女士們應很熟悉，因維他命E有「靚女E」之稱💆🏻‍♀，攝取充足有助預防皮膚老化尤其是老人斑的形成。此外，維他命E是細胞呼吸的必需促進因子，研究發現體內維他命E的水平越高，越能抵抗污染物粒子進入肺部。堅果、🥑牛油果、菠菜都含有豐富維他命E。","post91117",{"data":7},{"data":93},[94],{"id":14,"attributes":95},{"slug":16,"name":17,"description":7,"createdAt":18,"updatedAt":18},{"data":97},[98,103,108,113,115],{"id":99,"attributes":100},23,{"name":101,"createdAt":102,"updatedAt":102},"硒","2023-02-07T08:03:09.515Z",{"id":104,"attributes":105},24,{"name":106,"createdAt":107,"updatedAt":107},"維他命E","2023-02-07T08:03:09.529Z",{"id":109,"attributes":110},25,{"name":111,"createdAt":112,"updatedAt":112},"抗癌","2023-02-07T08:03:09.556Z",{"id":79,"attributes":114},{"name":81,"createdAt":82,"updatedAt":82},{"id":116,"attributes":117},9,{"name":118,"createdAt":119,"updatedAt":119},"排毒","2023-02-07T08:03:09.334Z",{"data":7},{"id":122,"attributes":123},734,{"createdAt":124,"title":125,"excerpt":7,"content":126,"slug":127,"updatedAt":124,"author":128,"categories":129,"tags":133,"image":150},"2019-11-12T00:00:00.000Z","這個冬天不太冷","\n\n立冬剛過，🥶怕冷的朋友又是時候進補。Empower_天前剛舉辦蛇宴，蛇湯、蛇羹、羊腩煲、糯米飯😍……一眾老饕吃得好不暢快，但心裡又怕虛不受補會上火甚至爆瘡😵。究竟應如何進補是好？\n\n古代人飲食清淡，鮮有肉吃；現代人飲食則常高脂高糖，三高、糖尿問題不絕於耳。故此若本身已有這些代謝問題的朋友，並不建議常吃以上溫熱食物進補；即使手腳冰冷，也是血液循環問題，有機會再講如何處理😉\n\n其實立冬及小雪最重要是補脾健胃，補腎壯腰；脾腎皆壯，自然不怕冷💪💪。栗子被譽為「千果之王」，唐代名醫孫思邈更稱之為「腎之果」，營食豐富，蛋白質、維他命、礦物質、不飽和脂肪酸及膳食纖維一應俱全，除可補腎和脾胃外，對防治高血壓、冠心病和動脈硬化等亦有功效👍🤗","post191112",{"data":7},{"data":130},[131],{"id":14,"attributes":132},{"slug":16,"name":17,"description":7,"createdAt":18,"updatedAt":18},{"data":134},[135,140,145],{"id":136,"attributes":137},21,{"name":138,"createdAt":139,"updatedAt":139},"補脾健胃","2023-02-07T08:03:09.466Z",{"id":141,"attributes":142},22,{"name":143,"createdAt":144,"updatedAt":144},"栗子","2023-02-07T08:03:09.493Z",{"id":146,"attributes":147},16,{"name":148,"createdAt":149,"updatedAt":149},"腎","2023-02-07T08:03:09.378Z",{"data":7},{"id":152,"attributes":153},733,{"createdAt":154,"title":155,"excerpt":7,"content":156,"slug":157,"updatedAt":154,"author":158,"categories":159,"tags":163,"image":177},"2019-11-01T00:00:00.000Z","痛風不可食蛋白質？","\n\n常說痛風是一種富貴病，太過大魚大肉就會中招，食太多肉類、海產尤其容易發作😖，痛起上黎風吹都頂唔順😱！坊間說痛風不能吃肉類的原因是肉類含有高度蛋白質，究竟蛋白質是否引起痛風的主因呢？痛風患者是否不能吃蛋白質食物呢？\n\n其實痛風的真正主因是由嘌呤轉化的「尿酸」引起。過量吸收嘌呤而未能分解，會在體內轉變成尿酸，形成結晶卡在手指、腳趾(特別是大拇指)、膝頭等手腳關節內，產生紅、腫、熱、痛的發炎反應，俗稱「痛風」。近年有研究指出，體內三分二的嘌呤是由身體製造而成，外部吸收的僅佔三分之一。因此要解決尿酸問題，必須內外夾擊！\n\n高嘌呤食品包括動物內臟、貝殼類海產及紅肉，切勿吃過量。若想補充蛋白質又怕嘌呤超標？可以選擇植物性蛋白質、雞蛋、海參等，亦可選擇去嘌呤的大豆分離蛋白，直接吸收蛋白質。\n\n識得揀嘢食減少了嘌呤吸收，身體產生而積聚的嘌呤又應該如何處理呢？請看下回分解","post191101",{"data":7},{"data":160},[161],{"id":14,"attributes":162},{"slug":16,"name":17,"description":7,"createdAt":18,"updatedAt":18},{"data":164},[165,170,175],{"id":166,"attributes":167},18,{"name":168,"createdAt":169,"updatedAt":169},"痛風","2023-02-07T08:03:09.398Z",{"id":171,"attributes":172},19,{"name":173,"createdAt":174,"updatedAt":174},"尿酸","2023-02-07T08:03:09.419Z",{"id":22,"attributes":176},{"name":24,"createdAt":25,"updatedAt":25},{"data":7},{"id":179,"attributes":180},732,{"createdAt":181,"title":182,"excerpt":7,"content":183,"slug":184,"updatedAt":181,"author":185,"categories":186,"tags":190,"image":199},"2019-10-16T00:00:00.000Z","眼袋、黑眼圈也跟腎有關？","w\n\n\n眼睛是靈魂之窗，許多女士都特別著重眼部肌膚護理；可惜無論用多貴價的眼霜，眼袋、黑眼圈依然揮之不去😣，甚至到美容院花過萬元做了去眼袋療程，過一段時間後眼袋又死灰復燃…….那怎麼辦才好？🙄\n\n眼袋、黑眼圈的成因林林總總，大多與氣血循環有關，當中在腎虛者極為常見。腎主水，其色為黑；腎虛有礙水液代謝，容易導致下眼瞼浮腫。若下眼瞼皮膚既鬆且黑🐼，且長時間未能消褪，就要好好護腎了。\n\n如上周六的＜補腎強身＞講座所言，維他命B、鈣及鎂都是補腎的營養素。其中鈣鎂的攝取比例必需為2:1，這樣才可有效防止鈣質沉積於腎臟等軟組織，防止腎結石形石💪💪。世上並沒有任何一種食物的鎂含量特別多，最豐富的可謂堅果類，其次為魚、海藻、蔬菜、豆類。故此，與以肉類為主的西方飲食相比，包含魚、海藻和納豆的日本和食🍱是攝取鎂的較佳方式。食用營養補充品時，也務必選擇天然有機、鈣鎂比例相符的補充品，切忌大劑量地單一補鈣。","post191016",{"data":7},{"data":187},[188],{"id":14,"attributes":189},{"slug":16,"name":17,"description":7,"createdAt":18,"updatedAt":18},{"data":191},[192,197],{"id":193,"attributes":194},15,{"name":195,"createdAt":196,"updatedAt":196},"眼睛","2023-02-07T08:03:09.375Z",{"id":146,"attributes":198},{"name":148,"createdAt":149,"updatedAt":149},{"data":7},{"id":201,"attributes":202},731,{"createdAt":203,"title":204,"excerpt":7,"content":205,"slug":206,"updatedAt":203,"author":207,"categories":208,"tags":212,"image":226},"2019-10-10T00:00:00.000Z","腎功能與尾指長度有關？","\n\n慈禧太后尾指常戴指甲套，可能因為腎唔好？😱\n\n看古裝片經常看到慈禧太后或其他妃嬪都在尾指戴長長的指甲套😮，除了突顯身份地位並保護她們長長的指甲外，不知會否是知道尾指越長，代表腎功能越好，人就越青春有活力呢？😄\n\n男左女右，尾指的長度若在無名指第三指節的橫紋之上，反映腎功能天生較佳❤，通常是父母35歲前孕育出來的。當然若父母操勞而壓力又大，即使35歲前生兒育女，孩子的尾指也可能較短。\n\n腎不好，容易尿頻甚至夜尿、腰痛、眼肚大、脫髮、記性差😖，但絕對可透過飲食和運動改善。歡迎大家一起來本周六(10月12日)上午的《補腎強身》營養講座，了解如何固本培元，令身體自我修復，腎氣足，精神好！","post20191010",{"data":7},{"data":209},[210],{"id":14,"attributes":211},{"slug":16,"name":17,"description":7,"createdAt":18,"updatedAt":18},{"data":213},[214,216,221],{"id":146,"attributes":215},{"name":148,"createdAt":149,"updatedAt":149},{"id":217,"attributes":218},14,{"name":219,"createdAt":220,"updatedAt":220},"尿頻","2023-02-07T08:03:09.371Z",{"id":222,"attributes":223},17,{"name":224,"createdAt":225,"updatedAt":225},"記性","2023-02-07T08:03:09.381Z",{"data":7},{"id":228,"attributes":229},729,{"createdAt":230,"title":231,"excerpt":7,"content":232,"slug":233,"updatedAt":230,"author":234,"categories":235,"tags":239,"image":251},"2019-10-02T00:00:00.000Z","腋下、手踭烏卒卒，可能是糖尿警號？","\n\n行街搭車，應該都會見過有人頸後、手踭或膝頭特別烏黑，有些甚至腋下或指間也是如此😖，尤以長者和肥胖人士為甚。原來這未必是清潔不善，而是胰島素分泌過多，形成「黑色棘皮症」所致。\n\n胰島素是由胰臟分泌的荷爾蒙，令葡萄糖得以進入細胞作為能量來源，使血糖保持穩定。現代人常吃加工食品🍔，又或暴飲暴食🎂，致血糖急促上升，長時間反複積累，導致胰島素分泌過盛，刺激皮下細胞增生，令皮膚變黑變厚且粗糙，在較多皮膚聚集的摺紋位置尤為明顯。\n\n「黑色棘皮症」與被稱為糖尿病前身的胰島素阻抗的增加有關😮。如發現有此病癥，且本身身型肥胖，或家族有糖尿病患，建議盡快檢驗血糖，以確定是否罹患糖尿病，及早治療。\n\n想知道如何有效預防或根治糖尿，歡迎出席下周一10月7日＜活學營養：擺脫糖尿 活得輕鬆＞🤗\n我的健康我作主，打造健康生活圈！","post191002",{"data":7},{"data":236},[237],{"id":14,"attributes":238},{"slug":16,"name":17,"description":7,"createdAt":18,"updatedAt":18},{"data":240},[241,246],{"id":242,"attributes":243},11,{"name":244,"createdAt":245,"updatedAt":245},"糖尿","2023-02-07T08:03:09.345Z",{"id":247,"attributes":248},12,{"name":249,"createdAt":250,"updatedAt":250},"胰島素","2023-02-07T08:03:09.351Z",{"data":7},{"id":253,"attributes":254},728,{"createdAt":255,"title":256,"excerpt":7,"content":257,"slug":258,"updatedAt":255,"author":259,"categories":260,"tags":264,"image":283},"2019-09-20T00:00:00.000Z","甩脂果王 - 蘋果","\n\n大家中秋節又食節日飯又食月餅，脂肪積蓄應有不少進帳！今天為大家介紹甩脂果王 -- 蘋果，協助大家消消脂！\n\n「一日一蘋果，醫生遠離我。」蘋果有益健康是大家熟知的，但原來蘋果也有助消脂清腸排毒呢！\n\n1. 蘋果酸：降低膽固醇，加速代謝，促進脂肪分解\u003Cbr\u003E\n2. 果膠：可溶性纖維，與膽固醇結合，將體內多餘的膽固醇排出體外\u003Cbr\u003E\n3. 熊果酸：蘋果皮中的熊果酸能促進棕色脂肪的增生，棕色脂肪能協助燃燒體內卡路里，有助加快身體新陳代謝\u003Cbr\u003E\n4. 膳食纖維：促進腸胃蠕動，幫助排毒\n\n蘋果含豐富營養素：維他命C有助抗氧化；鋅促進大腦發育，增強智力與記憶力；維他命A和硒可保護視力；鉀鹽能降低高血壓；可溶性纖維可調節血糖。\n\n進食蘋果好處多，但緊記我們每天要進食5色蔬果。如果只偏愛蘋果，就變得偏食了！\n\n此外，日常飲食也要相應配合，並有規律地運動，才能健康地減脂呢！","post190920",{"data":7},{"data":261},[262],{"id":14,"attributes":263},{"slug":16,"name":17,"description":7,"createdAt":18,"updatedAt":18},{"data":265},[266,271,276,281],{"id":267,"attributes":268},6,{"name":269,"createdAt":270,"updatedAt":270},"蘋果","2023-02-07T08:03:09.323Z",{"id":272,"attributes":273},7,{"name":274,"createdAt":275,"updatedAt":275},"消脂","2023-02-07T08:03:09.328Z",{"id":277,"attributes":278},8,{"name":279,"createdAt":280,"updatedAt":280},"清腸","2023-02-07T08:03:09.333Z",{"id":116,"attributes":282},{"name":118,"createdAt":119,"updatedAt":119},{"data":7},{"id":285,"attributes":286},726,{"createdAt":287,"title":288,"excerpt":7,"content":289,"slug":290,"updatedAt":287,"author":291,"categories":292,"tags":296,"image":308},"2019-09-13T00:00:00.000Z","看見藍天白雲，人特別醒神？","\n\n陰天雨天情緒則相對低落？\n\n曬太陽有助合成維他命D。維他命D能夠增加血液中的血清素濃度，從而穩定情緒。若血清素分泌不足，會引起焦躁、衝動、情緒低落，甚至憂鬱等問題。😨\n\n每天曬5至10分鐘太陽，吸收的維他命D已有助心情開朗。😄\n\n大家可把握午飯時間到戶外散步，紓解心情之餘也增加運動量啊！🚶🏻‍♂🚶🏻‍♀\n\n食物中，油脂較高的魚類（例如三文魚、沙甸魚、吞拿魚）、蛋黃、肝臟等也含較豐富維他命D呢！😉","post190913",{"data":7},{"data":293},[294],{"id":14,"attributes":295},{"slug":16,"name":17,"description":7,"createdAt":18,"updatedAt":18},{"data":297},[298,303],{"id":299,"attributes":300},10,{"name":301,"createdAt":302,"updatedAt":302},"維他命D","2023-02-07T08:03:09.340Z",{"id":304,"attributes":305},5,{"name":306,"createdAt":307,"updatedAt":307},"血清素","2023-02-07T08:03:09.318Z",{"data":7},{"id":310,"attributes":311},725,{"createdAt":312,"title":313,"excerpt":7,"content":314,"slug":315,"updatedAt":312,"author":316,"categories":317,"tags":321,"image":333},"2019-09-06T00:00:00.000Z","每逢考試、開會、報告前夕，就會腹痛腹瀉？","\n\n每逢考試、開會、報告前夕，就會腹痛腹瀉？情緒緊張或突如其來的壓力引致的腹瀉，可能是跟腸躁症有關 -- 腸胃道自律神經失調，只要面對壓力刺激，腸道就過度敏感，影響腸道蠕動。而腸躁症原來與神經系統也息息相關呢！\n\n自律神經分為交感神經及副交感神經。\n交感神經負責處理「緊張情緒」，副交感神經負責掌管「放鬆情緒」。在正常的情況下，自律神經能讓交感神經及副交感神經達致平衡，讓我們的情緒、身體、血液循環、大腸收縮等功能均保持穩定。但若長期受壓或情緒起伏不定，將令交感神經處於亢奮狀態，導致自律神經失去平衡，讓身體處於警戒中，引起腸道問題。\n\n通常性格追求完美、工作壓力大、容易緊張的人都較容易患上腸躁症。除了腸胃道問題外，多半還會伴隨精神緊張、焦慮、易怒、失眠多夢等症狀。\n\n要告別壓力所引起的腸道問題，穩定「自律神經」是當務之急。學習自我放鬆，保持心情愉快，作息定時、規律運動，均有助自律神經逐漸重拾平衡，讓腸道回復正常蠕動。\n飲食小貼士：平日可以多吃健脾食物，例如准山、扁豆、紅棗，避免食用西瓜、冷飲及乳製品。多吸收高鈣食物也能穩定情緒，協助調整自律神經啊！","pressure190906",{"data":7},{"data":318},[319],{"id":14,"attributes":320},{"slug":16,"name":17,"description":7,"createdAt":18,"updatedAt":18},{"data":322},[323,328],{"id":324,"attributes":325},3,{"name":326,"createdAt":327,"updatedAt":327},"自律神經","2023-02-07T08:03:09.310Z",{"id":329,"attributes":330},4,{"name":331,"createdAt":332,"updatedAt":332},"交感神經","2023-02-07T08:03:09.315Z",{"data":7},{"pagination":335},{"page":272,"pageSize":247,"pageCount":277,"total":336},85],"uses":{"dependencies":["http://localhost:1337/api/posts?sort=createdAt%3Adesc&populate[author]=true&populate[categories]=true&populate[tags]=true&populate[image]=true&pagination[page]=7&pagination[pageSize]=12&filters[categories][slug]=nutrition"],"params":["page","category"]}}]}