{"type":"data","nodes":[null,{"type":"data","data":[{"data":1,"meta":30},[2],{"id":3,"attributes":4},724,{"createdAt":5,"title":6,"excerpt":7,"content":8,"slug":9,"updatedAt":5,"author":10,"categories":11,"tags":19,"image":29},"2019-08-30T00:00:00.000Z","眼眉跳",null,"\n\n眼眉跳不停，你試過咪？\n\n第一心理反應係問左吉右凶，定右吉左凶？\n\n莫問吉凶，休息不足、用眼過度、壓力大、自律神經出現異常，都會導致眼眉跳！\n\n當自律神經異常，肌肉便會不由自主地放鬆抽搐。其中一項影響自律神經系統的，就是體內鉀和鈣是否平衡。\n下次眼尾跳，大家可嘗試熱敷眼睛，多作休息，並刻意多攝取富含鈣質的食物呢！\n","eye190830",{"data":7},{"data":12},[13],{"id":14,"attributes":15},1,{"slug":16,"name":17,"description":7,"createdAt":18,"updatedAt":18},"nutrition","營養隨筆","2023-02-07T08:03:25.893Z",{"data":20},[21,24],{"id":14,"attributes":22},{"name":6,"createdAt":23,"updatedAt":23},"2023-02-07T08:03:09.305Z",{"id":25,"attributes":26},3,{"name":27,"createdAt":28,"updatedAt":28},"自律神經","2023-02-07T08:03:09.310Z",{"data":7},{"pagination":31},{"page":32,"pageSize":33,"pageCount":32,"total":34},8,12,85],"uses":{"dependencies":["http://localhost:1337/api/posts?sort=createdAt%3Adesc&populate[author]=true&populate[categories]=true&populate[tags]=true&populate[image]=true&pagination[page]=8&pagination[pageSize]=12&filters[categories][slug]=nutrition"],"params":["page","category"]}}]}