{"type":"data","nodes":[null,{"type":"data","data":[{"data":1,"meta":87},[2,30,49,68],{"id":3,"attributes":4},724,{"title":5,"excerpt":6,"content":7,"slug":8,"createdAt":9,"updatedAt":9,"author":10,"categories":11,"tags":19,"image":29},"眼眉跳",null,"\n\n眼眉跳不停，你試過咪？\n\n第一心理反應係問左吉右凶，定右吉左凶？\n\n莫問吉凶，休息不足、用眼過度、壓力大、自律神經出現異常，都會導致眼眉跳！\n\n當自律神經異常，肌肉便會不由自主地放鬆抽搐。其中一項影響自律神經系統的，就是體內鉀和鈣是否平衡。\n下次眼尾跳，大家可嘗試熱敷眼睛，多作休息，並刻意多攝取富含鈣質的食物呢！\n","eye190830","2019-08-30T00:00:00.000Z",{"data":6},{"data":12},[13],{"id":14,"attributes":15},1,{"slug":16,"name":17,"description":6,"createdAt":18,"updatedAt":18},"nutrition","營養隨筆","2023-02-07T08:03:25.893Z",{"data":20},[21,24],{"id":14,"attributes":22},{"name":5,"createdAt":23,"updatedAt":23},"2023-02-07T08:03:09.305Z",{"id":25,"attributes":26},3,{"name":27,"createdAt":28,"updatedAt":28},"自律神經","2023-02-07T08:03:09.310Z",{"data":6},{"id":31,"attributes":32},722,{"title":33,"excerpt":6,"content":34,"slug":35,"createdAt":36,"updatedAt":36,"author":37,"categories":38,"tags":46,"image":48},"chinese new year20190204","\n\n\u003Cdiv class=\"text-blue-700\"\u003E\n\twrite your introduction here... (text in blue)\n\u003C\u002Fdiv\u003E\n\nmain content here...\n\n![彈珠人競技枱]({assetsBasePath}\u002F1.jpg \"400\")\n*the image caption*\n\n\u003Cdiv class=\"footnote\"\u003E\n\twrite your footnote here...\n\u003C\u002Fdiv\u003E","chinese-new-year20190204","2019-02-04T00:00:00.000Z",{"data":6},{"data":39},[40],{"id":41,"attributes":42},4,{"slug":43,"name":44,"description":6,"createdAt":45,"updatedAt":45},"reflection","感悟隨筆","2023-02-07T08:03:25.906Z",{"data":47},[],{"data":6},{"id":50,"attributes":51},723,{"title":52,"excerpt":6,"content":53,"slug":54,"createdAt":55,"updatedAt":55,"author":56,"categories":57,"tags":65,"image":67},"happy new year 2018","\n\n時光荏苒，不知不覺Empower已一周歲了！\n\n感謝各方友好的支持，過去一年Empower舉辦了：\n\n6場文化導賞，參觀了美荷樓、饒宗頤文化館、志蓮淨苑與南蓮園池、金庸館、慈山寺及保良局歷史博物館；\n\n5場讀書會，涉獵心靈勵志、人物傳記、歷史遊記、商業經濟，以至我最喜愛的金庸筆下女角色五大範疇；\n\n3場旅遊分享，感受西藏、東非、柬埔寨等地的風土人情；\n\n8次遊山玩水，暢遊大帽山、南丫島、西貢古道、赤徑，以及4大水塘：鶴藪、河貝、香港仔、大潭；\n\n10場名人面對面，由不同界別的達人分享其專業知識、獨特經驗與精闢見解，計有涂國彬先生（金融）、黃奕鑑太平紳士（地產）、陳國禧醫生（NLP）、師虛師傅（太極）、陸人龍教授（歷史）、楊健興先生（傳媒）、趙舜茹小姐（社企）、張倩儀女士（出版）及麥秋先生（戲劇）。\n此外還有一場「港故仔」分享會，以及與瑜茶舍協辦的茶藝工作坊。\n\n感恩相遇相知，與大學同學Mang及學弟King，以及姊弟檔好友Joyce及Cliff共同創辦Empower，在舉辦各項活動、構建網站和開設Facebook專頁的過程中，各自發揮所長，互補不足，長知識，長經驗，長默契，成就更好的自己，Empower Ourselves！\n\n2018年Empower將繼續努力向前，1月率先邀得創辦全港首家apps lab的張澤松博士，為大家分享其稱之為「第四次工業革命」的電腦程式浪潮，對我們特別是我這等不懂coding的人有何影響。同月讀書會的主題為健康·養生，看看已報名朋友所列出的書籍，屆時一定能攫取不少四季養生甚至逆齡貼士 😀\n有靜必有動，月底「遊山玩水」將由元朗楊屋村出發，漫步至大欖林道，飽覽壯麗海景，俯瞰有「香港千島湖」之稱的大欖涌水塘，路程輕鬆，老幼咸宜。\n\nEmpower謹祝大家在新的一年繼續燃亮自己，燃亮世界，寫下精彩的人生篇章！","happy-new-year-2018","2018-01-01T00:00:00.000Z",{"data":6},{"data":58},[59],{"id":60,"attributes":61},2,{"slug":62,"name":63,"description":6,"createdAt":64,"updatedAt":64},"spiritual","心靈勵志","2023-02-07T08:03:25.896Z",{"data":66},[],{"data":6},{"id":69,"attributes":70},721,{"title":71,"excerpt":6,"content":72,"slug":73,"createdAt":74,"updatedAt":74,"author":75,"categories":76,"tags":80,"image":86},"《賦予夢想，賦予方向，賦予使命》","\n\n剛看了《打死不離三父女》，從戲中獲得不同的啟發，也帶有一些疑問。當中特別深刻的，是「爸爸」作為「教練」的啟迪。\n\n無可否認，教練對運動員來說非常重要。教練是否了解運動員的優缺點並配合其特質來作正確的訓練，使其擅長的優勢最大化地發揮？教練能否在比賽關鍵時刻對運動員作出正確的指導，讓其在比賽中發揮極致？教練如何激勵並啟發運動員，令他們盡力爭取佳績？這各方各面，教練對運動員都有著不可或缺的重要性！\n\n電影中的教練爸爸瑪哈維在一開始發掘到女兒的天賦時，便賦予女兒夢想──成為印度全國的冠軍摔挍手；在訓練時，賦予她方向；在關鍵的國際賽事，賦予她使命，讓她不再為個人榮譽而戰，而是為受歧視的女性發聲。（當然，中間可以反駁其他觀點，但暫不能其他評論。）瑪哈維深深明白，\n要取得偉大的成就，不是為個人之榮耀，而是為他人而奮戰。\n\n相對於運動比賽，在日常生活中，我們幾多人有著自己的教練，又或是良師益友？有「教練」的人是非常幸福的！良師，就如同運動員的教練，對我們的生命帶來無限的啟發。在生命中關鍵的時刻，良師總能協助我們撥開迷霧，帶來方向。良師就是總能啟發你尋找生命之火，把生命發揮極致的人。希望各位也能在生命中遇見你的良師！\n","post20171018","2017-10-18T00:00:00.000Z",{"data":6},{"data":77},[78],{"id":41,"attributes":79},{"slug":43,"name":44,"description":6,"createdAt":45,"updatedAt":45},{"data":81},[82],{"id":60,"attributes":83},{"name":84,"createdAt":85,"updatedAt":85},"夢想","2023-02-07T08:03:09.306Z",{"data":6},{"pagination":88},{"page":89,"pageSize":90,"pageCount":89,"total":91},9,12,100],"uses":{"dependencies":["http://localhost:1337/api/posts?sort=createdAt%3Adesc&populate[author]=true&populate[categories]=true&populate[tags]=true&populate[image]=true&pagination[page]=9&pagination[pageSize]=12"],"params":["page","category"]}}]}