{"type":"data","nodes":[{"type":"data","data":[{"categories":1,"event_categories":27},[2,9,15,21],{"id":3,"attributes":4},1,{"slug":5,"name":6,"description":7,"createdAt":8,"updatedAt":8},"nutrition","營養隨筆",null,"2023-02-12T02:39:02.691Z",{"id":10,"attributes":11},2,{"slug":12,"name":13,"description":7,"createdAt":14,"updatedAt":14},"reflection","感悟隨筆","2023-02-12T02:39:02.692Z",{"id":16,"attributes":17},3,{"slug":18,"name":19,"description":7,"createdAt":20,"updatedAt":20},"fitness","運動筆記","2023-02-12T02:39:02.697Z",{"id":22,"attributes":23},4,{"slug":24,"name":25,"description":7,"createdAt":26,"updatedAt":26},"spiritual","心靈勵志","2023-02-12T02:39:02.698Z",[28,33,38,43,47,52],{"id":3,"attributes":29},{"name":30,"slug":31,"description":7,"createdAt":32,"updatedAt":32},"讀書會","book-sharing","2023-02-12T02:38:55.939Z",{"id":16,"attributes":34},{"name":35,"slug":36,"description":7,"createdAt":37,"updatedAt":37},"文化導賞","cultural","2023-02-12T02:38:55.943Z",{"id":22,"attributes":39},{"name":40,"slug":41,"description":7,"createdAt":42,"updatedAt":42},"遊山玩水","hiking","2023-02-12T02:38:55.946Z",{"id":44,"attributes":45},5,{"name":46,"slug":18,"description":7,"createdAt":42,"updatedAt":42},"健體運動",{"id":48,"attributes":49},6,{"name":50,"slug":5,"description":7,"createdAt":51,"updatedAt":51},"活學營養","2023-02-12T02:38:55.947Z",{"id":10,"attributes":53},{"name":54,"slug":55,"description":7,"createdAt":56,"updatedAt":57},"名人面對面","be-our-guest","2023-02-12T02:38:55.942Z","2023-03-08T13:16:12.875Z"],"uses":{"dependencies":["http://127.0.0.1:1337/api/categories?","http://127.0.0.1:1337/api/event-categories?"]},"slash":"always"},{"type":"data","data":[{"data":1,"meta":315},[2,37,71,99,123,151,179,215,237,256,277,298],{"id":3,"attributes":4},173,{"createdAt":5,"title":6,"excerpt":7,"content":8,"slug":9,"updatedAt":5,"author":10,"categories":11,"tags":19,"image":36},"2020-06-06T00:00:00.000Z","飲用牛奶恐增健康風險？",null,"\n\n越來越多研究發現，飲用牛奶與多種健康風險具潛在關係，包括：\n\n1. 乳糖不耐症\u003Cbr\u003E\n不少人尤其是中國人未能完全消化牛奶中的乳糖，在飲用牛奶後出現乳糖不耐症狀，例如腹瀉、腹脹和腹痛😖。\n\n2. 致敏原\u003Cbr\u003E\n牛奶中的蛋白質可刺激人體的免疫系統，誘發過敏症狀。\n\n3. 暗瘡皮膚\u003Cbr\u003E\n不少牛奶含有激素，刺激胰島素生長因子-1（IGF-1）的產生，從而增加體內雄性荷爾蒙的製造，導致皮脂分泌活躍，因而產生粉刺、暗瘡問題。當中脫脂奶最容易導致粉刺及暗瘡😳，原因可能是去除乳脂的加工過程使牛奶中的激素較易刺激身體細胞。\n\n4．癌症\u003Cbr\u003E\n美國加州洛馬琳達大學公共衛生學院疾病預防中心的研究團隊追蹤52,795位婦女（平均年齡57.1歲）長達7.9年，分析婦女長期喝牛奶或喝豆漿與罹患乳癌的風險。研究結果於本年2月公佈，發現喝牛奶越多，罹患乳癌的風險越高😱。該研究指出，對於停經後婦女，每天只喝1\u002F4～1\u002F3杯牛奶的，罹患乳癌的風險增加30％；每天喝1杯牛奶的婦女，相關的風險高達50％；至於每天喝2至3杯牛奶的婦女，風險更增加至70～80％。\n\n領導該研究的弗雷澤教授（Gary Fraser）表示：「數據顯示，用豆漿代替乳製品的風險將顯著降低。」👍🏻\n\n下星期的活學營養文章，將與大家探討豆奶及其他植物奶的營養價值😉。","post200806",{"data":7},{"data":12},[13],{"id":14,"attributes":15},1,{"slug":16,"name":17,"description":7,"createdAt":18,"updatedAt":18},"nutrition","營養隨筆","2023-02-12T02:39:02.691Z",{"data":20},[21,26,31],{"id":22,"attributes":23},177,{"name":24,"createdAt":25,"updatedAt":25},"牛奶","2023-02-12T03:32:01.371Z",{"id":27,"attributes":28},197,{"name":29,"createdAt":30,"updatedAt":30},"乳糖不耐症","2023-02-12T03:32:01.380Z",{"id":32,"attributes":33},181,{"name":34,"createdAt":35,"updatedAt":35},"致敏原","2023-02-12T03:32:01.372Z",{"data":7},{"id":38,"attributes":39},164,{"createdAt":40,"title":41,"excerpt":7,"content":42,"slug":43,"updatedAt":40,"author":44,"categories":45,"tags":49,"image":70},"2020-05-31T00:00:00.000Z","痱滋bye bye舒服哂","\n\n痱滋又稱為口瘡、口腔炎或口腔潰瘍，成因有創傷性的（即不小心咬傷😖），也有其他原因如內分泌變化（月經期間體內䧳激素下降）、抵抗力下降、情緒精神受壓或睡眠不佳、常吃煎炸油膩食物；哮喘患者使用吸入性類固醇後若忘記漱口，也容易有痱滋。\n\n痱滋膏或含阿士匹靈，12歲以下小孩使用的話，或會引致罕見病如雷爾氏綜合症；其他外用消炎藥也可能含有少許類固醇成分，必須注意💡。至於粗鹽「乸」痱滋，原理是鹽具有消炎殺菌功效，令細菌因細胞缺水而死亡。但這做法不但很痛，更有可能令潰瘍位置流血，甚至令傷口再次發炎或細菌感染😱。\n\n如要根治痱滋，必須補充維他命B，以助解熱氣，抗壓力，並提升免疫力。肝臟、酵母粉、小麥胚芽、米糠（糙米）都富含維他命B，惟現代人攝取不多，故不少均屬“低B”一族🙈 ，必須刻意補充。\n\n此外，蛋白質也極為重要，可以提升免疫力，重建和修復細胞，令傷口盡快癒合💪🏻💪🏻。","post200531",{"data":7},{"data":46},[47],{"id":14,"attributes":48},{"slug":16,"name":17,"description":7,"createdAt":18,"updatedAt":18},{"data":50},[51,56,60,65],{"id":52,"attributes":53},189,{"name":54,"createdAt":55,"updatedAt":55},"痱滋","2023-02-12T03:32:01.376Z",{"id":57,"attributes":58},180,{"name":59,"createdAt":35,"updatedAt":35},"口腔潰瘍",{"id":61,"attributes":62},167,{"name":63,"createdAt":64,"updatedAt":64},"維他命B","2023-02-12T03:32:01.366Z",{"id":66,"attributes":67},144,{"name":68,"createdAt":69,"updatedAt":69},"蛋白質","2023-02-12T03:32:01.351Z",{"data":7},{"id":72,"attributes":73},171,{"createdAt":74,"title":75,"excerpt":7,"content":76,"slug":77,"updatedAt":74,"author":78,"categories":79,"tags":83,"image":98},"2020-05-23T00:00:00.000Z","清肝利膽","\n\n中年以後，膽管系統容易結石😖；根據所處位置，分為肝內膽管結石、總膽管結石及膽囊結石。\n\n膽管系統將肝細胞產生的膽汁，藉由管狀結構輸送至十二指腸，幫助食物消化。膽汁中的膽汁酸、卵磷脂及膽固醇必需保持一定的比例，才能維持膽汁液體的穩定性。當膽汁酸及卵磷脂減少而膽固醇增加時，膽固醇被沉澱析出，慢慢累積而形成結石😱。喝水不足，口味偏濃，食無定時，不吃早餐，飲食過量，尤其是糖、脂肪（特別是反式脂肪）吃得太多，皆是原因。飯後容易脹氣者，較大機會肝膽已有結石🙈。\n\n蛋白質是肝細胞再生的必需成分，且防止脂肪在肝內堆積；惟蛋白質在體內會產生氨氣，若肝功能下降，無法有效代謝氨氣，會傷肝及其他器官，所以必需選擇優質蛋白質😉。此外，維他命B是護肝的主要營養素：B1分解糖分，B2代謝脂肪，B6促進糖分、脂肪及蛋白質的代謝，膽素和肌醇能將多餘脂肪帶離肝臟。米飯可選擇以糙米取代部分白米，多加補充維他命B。\n\n本周日【活學營養：肝膽排毒】將進一步解構肝膽結石的種類與成因，並講解具五千年歴史的肝膽排毒DIY古方，萬勿錯過！💪🏻🤗請發訊息給我們獲取相關資訊及連結。","post200523",{"data":7},{"data":80},[81],{"id":14,"attributes":82},{"slug":16,"name":17,"description":7,"createdAt":18,"updatedAt":18},{"data":84},[85,89,91,96],{"id":86,"attributes":87},179,{"name":88,"createdAt":25,"updatedAt":25},"膽結石",{"id":66,"attributes":90},{"name":68,"createdAt":69,"updatedAt":69},{"id":92,"attributes":93},170,{"name":94,"createdAt":95,"updatedAt":95},"肝","2023-02-12T03:32:01.367Z",{"id":61,"attributes":97},{"name":63,"createdAt":64,"updatedAt":64},{"data":7},{"id":100,"attributes":101},169,{"createdAt":102,"title":103,"excerpt":7,"content":104,"slug":105,"updatedAt":102,"author":106,"categories":107,"tags":111,"image":122},"2020-05-15T00:00:00.000Z","告別口罩瘡","\n\n炎炎夏日，皮膚本身已較黐𥹉，而長時間戴口罩，所覆蓋皮膚的溫度上升，進一步刺激油脂分泌；加上呼出的空氣帶有水分，提高口罩內的濕度，令細菌更易滋生😖。\n\n皮膚本來就存在很多微生物如細菌，臉上的微生物及皮脂分泌「封在一起」，容易侵害皮膚，引致發炎，刺激粉刺、黑頭、暗瘡甚至痤瘡生長😭。若本來就容易長暗瘡，又或本身皮膚抵抗力較差，問題會更為嚴重。\n\n要加強皮膚的免疫力並修復皮膚，蛋白質極為重要💪🏻💪🏻。蛋白質更有助細胞鎖水，改善皮膚水油平衡。建議可多攝取植物性蛋白質☘️，包括豆類及堅果類，🥛奶類飲品也可選擇植物性的，例如豆奶、杏仁奶及燕麥奶。\n\n大豆和堅果同時含豐富卵磷脂，可促進皮膚新陳代謝，排除皮膚表面的毒素，減少粉刺、黑頭、暗瘡的形成，並有助去斑，亦有助皮膚水油平衡👍🏻🤗。\n\n此外，奧米加三脂肪酸Omega-3可減少身體發炎和㾗癢，提升免疫力，滋潤皮膚。Omega-3無法自行合成，必須從飲食攝取。香港人喜歡吃的三文魚、鯖魚和沙甸魚均含豐富Omega-3，惟必須注意所來自海域有否受重金屬污染，否則得不償失。","post200515",{"data":7},{"data":108},[109],{"id":14,"attributes":110},{"slug":16,"name":17,"description":7,"createdAt":18,"updatedAt":18},{"data":112},[113,115,118],{"id":66,"attributes":114},{"name":68,"createdAt":69,"updatedAt":69},{"id":100,"attributes":116},{"name":117,"createdAt":64,"updatedAt":64},"奧米加三",{"id":119,"attributes":120},178,{"name":121,"createdAt":25,"updatedAt":25},"皮膚",{"data":7},{"id":124,"attributes":125},163,{"createdAt":126,"title":127,"excerpt":7,"content":128,"slug":129,"updatedAt":126,"author":130,"categories":131,"tags":135,"image":150},"2020-05-06T00:00:00.000Z","3秒記憶有救星","\n\n3秒記憶，不期然想起《逃學威龍》內的曾sir🤣，現實中也有不少人覺得自己越來越健忘🙈。原因之一，是現代人經常multi-tasking，致使專注力下降，精神容易渙散🙄。記憶力某程度是天生的，但後天的營養攝取，絕對有助保持以至提升記憶力。\n\n隨著年紀增長，腦內神經傳導物質「乙醯膽鹼」的分泌越來越少，造成記憶力減退，反應變得遲鈍😖。作為製造「乙醯膽鹼」的主要材料，卵磷脂能修復受損的細胞膜，令腦部更加靈活，並提升記憶力。豆製品如豆腐、豆漿，以及雞蛋（尤其糖心蛋😍）都富含卵磷脂。\n\n大家經常聽到omega-3能促進腦細胞發育，原來這必需脂肪酸還能降低失智及認知衰退的風險，改善專注力和記憶力。奧米加三脂肪酸無法靠人體自行合成，必須從飲食中攝取，野生三文魚、沙丁魚及鯷魚都是好的來源，惟須注意有否受重金屬污染😉。選擇營養補充品的話，應留意有否加入維他命E，否則脂肪酸容易氧化，得不償失。\n\n此外，正如《髮的疑惑》一文所述，我們全身細胞幾乎全由蛋白質構成，蛋白質攝取必須充足，方能維持腦細胞健康💪🏻💪🏻。\n","post200506",{"data":7},{"data":132},[133],{"id":14,"attributes":134},{"slug":16,"name":17,"description":7,"createdAt":18,"updatedAt":18},{"data":136},[137,139,143,145],{"id":66,"attributes":138},{"name":68,"createdAt":69,"updatedAt":69},{"id":140,"attributes":141},168,{"name":142,"createdAt":64,"updatedAt":64},"記憶力",{"id":100,"attributes":144},{"name":117,"createdAt":64,"updatedAt":64},{"id":146,"attributes":147},187,{"name":148,"createdAt":149,"updatedAt":149},"專注力","2023-02-12T03:32:01.375Z",{"data":7},{"id":152,"attributes":153},174,{"createdAt":154,"title":155,"excerpt":7,"content":156,"slug":157,"updatedAt":154,"author":158,"categories":159,"tags":163,"image":178},"2020-04-10T00:00:00.000Z","髮的疑惑","\n\n有頭髮邊個想做癩痢？大家都害怕脫髮，或擔心頭髮稀薄😖。遺傳是一大原因，此外飲食不當、減肥方法有誤或懷孕，也容易令蛋白質、維他命B及鐵等營養不足，造成脫髮問題。\n\n身體細胞幾乎全由蛋白質構成，蛋白質攝取必須充足，方能滋養頭皮和頭髮。每日蛋白質攝取量當為體重千分之一，再乘1至1.5，如60公斤體重人士，每天必須攝取60至90克蛋白質才足夠。\n\n維他命B群也是補髮法寶，當中的生物素更有「頭髮維他命」之稱。肝臟、酵母粉、米糠（糙米）含豐富維他命B，可惜都市人較少吃，以致我們不少都「低B」😅。\n\n鐵製造紅血球，有助輸送養分給頭髮。紅肉、肝臟、深綠色蔬菜富含鐵質；前兩者現代人較少吃，植物性鐵質則須配合維他命C，以提高吸收率。\n\n中醫所講的補腎養髮食物，例如黑豆、木耳、紫米、黑芝麻，其實也是富含蛋白質、維他命B及鐵的食物，可見中醫學與營養學皆醫食同源，異曲同工😊。","post200410",{"data":7},{"data":160},[161],{"id":14,"attributes":162},{"slug":16,"name":17,"description":7,"createdAt":18,"updatedAt":18},{"data":164},[165,169,171,176],{"id":166,"attributes":167},172,{"name":168,"createdAt":95,"updatedAt":95},"頭髮",{"id":66,"attributes":170},{"name":68,"createdAt":69,"updatedAt":69},{"id":172,"attributes":173},166,{"name":174,"createdAt":175,"updatedAt":175},"鐵質","2023-02-12T03:32:01.365Z",{"id":61,"attributes":177},{"name":63,"createdAt":64,"updatedAt":64},{"data":7},{"id":140,"attributes":180},{"createdAt":181,"title":182,"excerpt":7,"content":183,"slug":184,"updatedAt":181,"author":185,"categories":186,"tags":190,"image":214},"2020-04-03T00:00:00.000Z","腸道健康與睡眠息息相關","\n\n有人體「第二大腦🧠」之稱的腸道，不僅是人體7成以上免疫細胞的聚集地方，腸道的微生物更影響我們的睡眠周期💤。\n\n腸道的微生物能透過免疫調節通道、神經內分泌通道和迷走神經通道與大腦交流，並通過這雙向交流🔛的\"腸道 -- 大腦軸\"來調節我們的睡眠周期、睡眠質量及睡眠時間。\n\n研究發現，若腸道內的微生物菌叢種類越多，睡眠質量與時間也越好。\n\n若果我們改變睡眠時間，便會干擾我們的生物鐘，從而改變腸道微生物群的組成比例與健康狀況。若我們因壓力、時差、捱夜等而導致睡眠不足或睡眠質素下降，這樣會破壞腸道內微生物的生態，從而影響我們整體的健康狀況。\n\n同樣，若我們經常進食高脂高糖食物，常服抗生素或壓力過大，也會導致腸道的微生物失衡，不單影響自身的免疫力，也影響我們的睡眠質量。\n\n✅研究顯示，若我們以植物性餐膳為主，並進食優質碳水化合物、高纖維、低飽和脂肪的食物，可以減低我們晚上睡眠時醒來的次數，且延長深層睡眠的時間。\n\n若要提升睡眠質量，大家也可以從腸道入手，改善飲食🥗。如前一篇貼文所分享：\u003Cbr\u003E\n- 不要胡亂服用抗生素，以免破壞腸道益菌\u003Cbr\u003E\n- 多吃蔬果及其他高纖食物，有助增加腸道益菌\u003Cbr\u003E\n- 少吃含添加劑的食物和加工食品，因添加劑會破壞腸道益菌，引致腸道發炎，更可能導致肥胖或炎症性腸病\u003Cbr\u003E\n- 適量補充益生菌，但必須注意菌株和菌種，以及能否有效黏附於腸道細胞上，單看宣稱的益菌數量意義不大","post200403",{"data":7},{"data":187},[188],{"id":14,"attributes":189},{"slug":16,"name":17,"description":7,"createdAt":18,"updatedAt":18},{"data":191},[192,197,202,207,211],{"id":193,"attributes":194},158,{"name":195,"createdAt":196,"updatedAt":196},"腸道健康","2023-02-12T03:32:01.362Z",{"id":198,"attributes":199},153,{"name":200,"createdAt":201,"updatedAt":201},"免疫力","2023-02-12T03:32:01.357Z",{"id":203,"attributes":204},161,{"name":205,"createdAt":206,"updatedAt":206},"睡眠","2023-02-12T03:32:01.363Z",{"id":208,"attributes":209},160,{"name":210,"createdAt":206,"updatedAt":206},"失眠",{"id":72,"attributes":212},{"name":213,"createdAt":95,"updatedAt":95},"生物鐘",{"data":7},{"id":61,"attributes":216},{"createdAt":217,"title":218,"excerpt":7,"content":219,"slug":220,"updatedAt":217,"author":221,"categories":222,"tags":226,"image":236},"2020-03-23T00:00:00.000Z","3歲定80？","\n\n所謂「3歲定80」，原來也適用於腸道菌叢😯。從母親懷孕至孩子3歲前，腸道微生物十分不穩定，容易受環境影響，因此3歲前是建立有益腸道菌群的黃金時期，對孩子日後的健康攸關重要。\n\n不少研究發現當腸道微生物失衡，即惡菌增加而益菌減少的時候，會引致不同疾病，例如炎症性腸病、糖尿病、肥胖，嚴重者更可誘發癌症😖。而兒童皮膚過敏、濕疹、自閉症等，更與腸道細菌息息相關。中大醫學院一項研究比較了150名自閉症兒童與健康兒童的腸道細菌群，發現自閉症兒童的腸道多出5至6種「惡菌」，少了3至4種「益菌」😱。研究結果顯示如能盡早發現腸道菌群不平衡，可望更有效預防並治療自閉症。\n\n那麼過了3歲，是否就無法逆轉腸道菌群失衡呢？幸好答案並非如此😌。我們可以透過不同方法改變腸道微生物，包括：\n\n🔶 不要胡亂服用抗生素，以免破壞腸道益菌\n\n🔶 多吃蔬果及其他高纖食物，有助增加腸道益菌\n\n🔶 少吃含添加劑的食物和加工食品，因添加劑會破壞腸道益菌，引致腸道發炎，更可能導致肥胖或炎症性腸病\n\n🔶 多做運動，有研究指出馬拉松跑手的腸道益生菌較沒有跑馬拉松的人為多\n\n🔶 適量補充益生菌，但必須注意菌株和菌種，以及能否有效黏","post200323",{"data":7},{"data":223},[224],{"id":14,"attributes":225},{"slug":16,"name":17,"description":7,"createdAt":18,"updatedAt":18},{"data":227},[228,230,232],{"id":198,"attributes":229},{"name":200,"createdAt":201,"updatedAt":201},{"id":193,"attributes":231},{"name":195,"createdAt":196,"updatedAt":196},{"id":233,"attributes":234},159,{"name":235,"createdAt":196,"updatedAt":196},"益生菌",{"data":7},{"id":238,"attributes":239},162,{"createdAt":240,"title":241,"excerpt":7,"content":242,"slug":243,"updatedAt":240,"author":244,"categories":245,"tags":249,"image":255},"2020-03-13T00:00:00.000Z","保腸保命保健康","\n\n不少人都知道，70%免疫細胞在腸道生成；這些免疫細胞的防禦作戰能力🤺，決定了能否阻擋細菌病毒進入體內肆虐。\n\n腸道的神經系統有1億以上的神經細胞🤯，透過迷走神經影響全身的器官，包括大腦。\n\n被譽為快樂荷爾蒙的血清素😄，95%居住在腸道，與我們的睡眠、食慾、喜怒哀樂息息相關。\n\n連血液的品質，也是由腸道決定😱。唯有優質的血液可以被充份運送到身體每個細胞，我們才能享受真正的健康。\n\n由此可見，腸道並不單單是垃圾車，把人體代謝出來的廢棄物收走，更是守護我們健康的堅固長城💪🏻💪🏻。\n\n未來兩星期我們將講解如何透過調整飲食營養與生活習慣，全面提升腸道健康，讓我們百毒不侵，頭腦靈活，心境舒暢🤗！","post200313",{"data":7},{"data":246},[247],{"id":14,"attributes":248},{"slug":16,"name":17,"description":7,"createdAt":18,"updatedAt":18},{"data":250},[251,253],{"id":193,"attributes":252},{"name":195,"createdAt":196,"updatedAt":196},{"id":198,"attributes":254},{"name":200,"createdAt":201,"updatedAt":201},{"data":7},{"id":193,"attributes":257},{"createdAt":258,"title":259,"excerpt":7,"content":260,"slug":261,"updatedAt":258,"author":262,"categories":263,"tags":267,"image":276},"2020-02-29T00:00:00.000Z","維他命C吃多少才足夠？","\n\n上一篇＜活學營養＞文章提及維他命C可有效增強免疫力，基本上凡哺乳類動物都會自行製造維他命C，只有四類不會，就是人類、猴子、天竺鼠及蝙蝠。原始人沒速食文化，沒珍珠奶茶🙈，大多以蔬果維生，推算一天可以從食物中攝取2,300毫克維他命C，相當足夠；反之現代人常吃加工食品，且高溫煮食令維他命C及其他營養素流失，據統計美國人一天的維他命C攝取量平均僅為70毫克😯。\n\n現代大部份疾病都與身體發炎有關，補充維他命C可抗發炎，抗衰老，抗癌化💪💪。此外，有助體能改善的肉鹼、抗壓力的腎上腺荷爾蒙，以及令皮膚緊緻的膠原蛋白等的合成，都需要維他命C。\n\n維他命C那麼重要，那麼一天需攝取多少維他命C才足夠呢？兩奪諾貝爾獎的著名科學家萊納斯鮑林（Linus Pauling）表示，維他命C有兩種劑量：一是政府所建議「免於死亡」的劑量，通常為一天75至100毫克；二是令身體健康不生病的劑量，鮑林博士沒硬性建議多少，他自己一天則攝取3,000至18,000毫克。\n\n後者份量看似驚人，但與人類體重相似的山羊，每天會自行製造13,000毫克維他命C；生病或受傷時，更會製造高達100,000毫克維他命C😱！只要我們攝取的維他命C是提取自天然蔬果（有機更佳），蘊含生物類黃酮及其他植物營養素☘，即使過量，身體也只會輕瀉排掉，不會產生結石或其他副作用，大家不用擔心😉。\n","post200229",{"data":7},{"data":264},[265],{"id":14,"attributes":266},{"slug":16,"name":17,"description":7,"createdAt":18,"updatedAt":18},{"data":268},[269,274],{"id":270,"attributes":271},156,{"name":272,"createdAt":273,"updatedAt":273},"維他命C","2023-02-12T03:32:01.361Z",{"id":198,"attributes":275},{"name":200,"createdAt":201,"updatedAt":201},{"data":7},{"id":233,"attributes":278},{"createdAt":279,"title":280,"excerpt":7,"content":281,"slug":282,"updatedAt":279,"author":283,"categories":284,"tags":288,"image":297},"2020-02-20T00:00:00.000Z","理性面對COVID-19　慎而不慌","\n\n關於新型冠狀病毒，坊間資訊繁多📖，在此整理一下：這新型病毒是一種冠狀病毒，SARS和MERS都屬於這類型。此類病毒可以由飛沫🗣傳播，也可以經氣溶膠即霧化傳播。這特性與流感病毒一樣，故此並非如肺結核般能經空氣傳染的類型。\n\n簡而言之，如不少研究所指，新冠肺炎病毒要騎著重重的水點💧才可以飛行；若要四處飛，就要有人刻意製造霧化，或向對方迎面噴出帶有病毒的水點才行。觸摸到病毒不用擔心，因病毒是不會穿透皮膚的；但若觸摸到病毒而沒洗手，然後又觸摸了眼口鼻，就有很大機會感染。所以要勤洗手🤲，就是這個原因。\n\n😷口罩方面，配戴N95是否更好？當然不是。N95是用來防止空氣傳染，除非你在做霧化程序，製造了氣溶膠，否則N95是不會帶來額外保護的。若N95戴得不舒服，又不斷用髒手將口罩弄來弄去，感染風險反而會大大增加。\n\n一個人是否生病，要看病毒到達呼吸道的多寡並令其發病的能力，而最重要的就是看我們的抵抗力💪。武漢大學中南醫院重症醫學科主任彭志勇教授上周透露，其團隊正在進行以大劑量維他命C治療新冠肺炎的臨床試驗，同時明確表示普羅大眾也可以服用維C來預防新冠病毒。「當年非典的時候，我們每個人都發了維生素C泡騰片，確實有預防效果。」上月底中央電視台專訪國家醫療救治專家組童朝暉教授，他亦表示「維C已經有大量證據證明是可以抗病毒，所以說我們日常吃蔬菜也好，補充維C也好，是可以增強機體的防禦能力，能夠抗擊病毒，包括新型冠狀病毒。」\n\n補充維他命C時，宜選擇有機蔬果🍎，營養補充品亦然。合成維他命C人體未必能完全吸收，故應當選擇由有機植物萃取的維他命C，後者含植物營養素「生物類黃酮」，可以大大提升維他命C的生物利用率至單純維他命C的1.63倍，增強免疫力就事半功倍！","post200220",{"data":7},{"data":285},[286],{"id":14,"attributes":287},{"slug":16,"name":17,"description":7,"createdAt":18,"updatedAt":18},{"data":289},[290,295],{"id":291,"attributes":292},150,{"name":293,"createdAt":294,"updatedAt":294},"病毒","2023-02-12T03:32:01.356Z",{"id":270,"attributes":296},{"name":272,"createdAt":273,"updatedAt":273},{"data":7},{"id":299,"attributes":300},157,{"createdAt":301,"title":302,"excerpt":7,"content":303,"slug":304,"updatedAt":301,"author":305,"categories":306,"tags":310,"image":314},"2020-02-03T00:00:00.000Z","病毒是甚麼？","\n近來令人聞風喪膽的武漢肺炎，是由一種傳播力極高的新型病毒所引起。讓我們一起了解對手，裝備自己。\n\n病毒被定義為非生物粒子，必須依賴寄主例如人類、動物、植物甚至細菌來幫忙為自己繁殖後代。\n\n病毒是可怕的，現今近乎沒有無害病毒的存在。絕大部份的病毒均會為動物及人類帶來疾病，釀成大量豬隻死亡的非洲豬瘟病毒，以及引起非典型肺炎的SARS和武漢肺炎的WARS便是近來常在新聞聽到的病毒名字。\n\n暫時全世界皆未有疫苗可以直接應付這種病毒(2003年SARS病毒的疫苗需要6個月時間才成功研發並量產)，抗生素亦對病毒起不了任何作用。那麼我們應該如何自處？下一篇文章會與大家一起探討。\n\n參考影片：https:\u002F\u002Fyoutu.be\u002FE46_veB0DPU","post200203",{"data":7},{"data":307},[308],{"id":14,"attributes":309},{"slug":16,"name":17,"description":7,"createdAt":18,"updatedAt":18},{"data":311},[312],{"id":291,"attributes":313},{"name":293,"createdAt":294,"updatedAt":294},{"data":7},{"pagination":316},{"page":317,"pageSize":318,"pageCount":319,"total":320},7,12,9,99],"uses":{"dependencies":["http://127.0.0.1:1337/api/posts?sort=createdAt%3Adesc&populate[author]=true&populate[categories]=true&populate[tags]=true&populate[image]=true&pagination[page]=7&pagination[pageSize]=12&filters[categories][slug]=nutrition"],"params":["page","category"]}}]}