{"type":"data","nodes":[{"type":"data","data":[{"categories":1,"event_categories":27},[2,9,15,21],{"id":3,"attributes":4},1,{"slug":5,"name":6,"description":7,"createdAt":8,"updatedAt":8},"nutrition","營養隨筆",null,"2023-02-12T02:39:02.691Z",{"id":10,"attributes":11},2,{"slug":12,"name":13,"description":7,"createdAt":14,"updatedAt":14},"reflection","感悟隨筆","2023-02-12T02:39:02.692Z",{"id":16,"attributes":17},3,{"slug":18,"name":19,"description":7,"createdAt":20,"updatedAt":20},"fitness","運動筆記","2023-02-12T02:39:02.697Z",{"id":22,"attributes":23},4,{"slug":24,"name":25,"description":7,"createdAt":26,"updatedAt":26},"spiritual","心靈勵志","2023-02-12T02:39:02.698Z",[28,33,38,43,47,52],{"id":3,"attributes":29},{"name":30,"slug":31,"description":7,"createdAt":32,"updatedAt":32},"讀書會","book-sharing","2023-02-12T02:38:55.939Z",{"id":16,"attributes":34},{"name":35,"slug":36,"description":7,"createdAt":37,"updatedAt":37},"文化導賞","cultural","2023-02-12T02:38:55.943Z",{"id":22,"attributes":39},{"name":40,"slug":41,"description":7,"createdAt":42,"updatedAt":42},"遊山玩水","hiking","2023-02-12T02:38:55.946Z",{"id":44,"attributes":45},5,{"name":46,"slug":18,"description":7,"createdAt":42,"updatedAt":42},"健體運動",{"id":48,"attributes":49},6,{"name":50,"slug":5,"description":7,"createdAt":51,"updatedAt":51},"活學營養","2023-02-12T02:38:55.947Z",{"id":10,"attributes":53},{"name":54,"slug":55,"description":7,"createdAt":56,"updatedAt":57},"名人面對面","be-our-guest","2023-02-12T02:38:55.942Z","2023-03-08T13:16:12.875Z"],"uses":{"dependencies":["http://127.0.0.1:1337/api/categories?","http://127.0.0.1:1337/api/event-categories?"]},"slash":"always"},{"type":"data","data":[{"data":1,"meta":185},[2,23,38,53,65,80,95,110,125,140,155,170],{"id":3,"attributes":4},115,{"start_date":5,"title":6,"content":7,"excerpt":8,"slug":9,"end_date":10,"tags":11,"createdAt":12,"updatedAt":12,"event_categories":13,"image":22},"2020-03-15","2020環球經濟 能否否極泰來？","\n\n🔶 全球股市崩盤式下跌，後市走勢如何？\u003Cbr\u003E\n🔶 新冠肺炎對中國以至全球經濟有何影響？\u003Cbr\u003E\n🔶 國際形勢有何變化？\u003Cbr\u003E\n🔶 石油與商品價格如何走向？\n\n日期：2020年3月15日(星期日)\u003Cbr\u003E\n時間：下午2:30-3:30\u003Cbr\u003E\n講座形式：將以Zoom Cloud Meetings軟件作現場直播\u003Cbr\u003E\n費用：全免\u003Cbr\u003E\n報告：請傳私人訊息給我們報名\u003Cbr\u003E\n備註：請先下載免費應用程式ZOOM，連結確認報名後發放\u003Cbr\u003E\n請先下載免費應用程式ZOOM(詳情請參閱附件) ，連結將於稍後發放。","劉佐德全球經濟及金融研究所常務所長、香港中文大學經濟學系副教授莊太量教授","pro-chong",null,"金融經濟,股市","2020-03-15T00:00:00.000Z",{"data":14},[15],{"id":16,"attributes":17},2,{"name":18,"slug":19,"description":10,"createdAt":20,"updatedAt":21},"名人面對面","be-our-guest","2023-02-12T02:38:55.942Z","2023-03-08T13:16:12.875Z",{"data":10},{"id":24,"attributes":25},118,{"start_date":26,"title":27,"content":28,"excerpt":29,"slug":30,"end_date":10,"tags":31,"createdAt":32,"updatedAt":32,"event_categories":33,"image":37},"2019-10-30","以夢為馬-超越挑戰．突破潛能","\n\n榮幸邀得曾任北京奧運火炬手、名符其實的公職王兼slash代表葉少康先生10月蒞臨，一次過分享他馳騁四方的馬術生涯🐎、跨越挑戰的創業路🛩️，以及近年作為天使投資者的角色👼🏻\n想突破潛能的你，萬勿錯過🤗\n\n分享嘉賓：\u003Cbr\u003E\n騁志發展基金創辦人兼主席葉少康先生, MH\u003Cbr\u003E\n2008年北京殘奧會馬術比賽香港選手\u003Cbr\u003E\n2008年北京奧運會香港區火炬手\u003Cbr\u003E\n獲香港政府頒授榮譽勳章\u003Cbr\u003E\n恒源動力有限公司、誠滙創方有限公司董事長\u003Cbr\u003E\n天使投資基金會合夥人\u003Cbr\u003E\n平等機會委員會委員\u003Cbr\u003E\n可持續發展委員會(策略工作小組委員)\n\n日期：2019年10月30日(星期三）\u003Cbr\u003E\n時間：晚上7:15-9:00\u003Cbr\u003E\n地點：九龍旺角登打士街56號家樂坊15樓安利體驗館會議室B\u003Cbr\u003E\n費用：$90 (包三文治及飲品)","騁志發展基金創辦人兼主席葉少康先生, MH","nelson-yip","夢想","2019-10-30T00:00:00.000Z",{"data":34},[35],{"id":16,"attributes":36},{"name":18,"slug":19,"description":10,"createdAt":20,"updatedAt":21},{"data":10},{"id":39,"attributes":40},107,{"start_date":41,"title":42,"content":43,"excerpt":44,"slug":45,"end_date":10,"tags":46,"createdAt":47,"updatedAt":47,"event_categories":48,"image":52},"2019-09-21","邂逅·連結·突破·啟發 - 紥作的延續","\n\n內容：\u003Cbr\u003E\n- 手藝的傳統與創新\u003Cbr\u003E\n- 拜師學藝的體會與啟發\u003Cbr\u003E\n- 創業苦與樂\u003Cbr\u003E\n- 現場示範紥籐小技巧","鄭少武Mo- Draw2 Studio 創辦人","mo-cheng","紥籐,紥作,燈籠","2019-09-21T00:00:00.000Z",{"data":49},[50],{"id":16,"attributes":51},{"name":18,"slug":19,"description":10,"createdAt":20,"updatedAt":21},{"data":10},{"id":54,"attributes":55},109,{"start_date":41,"title":42,"content":56,"excerpt":57,"slug":58,"end_date":10,"tags":59,"createdAt":47,"updatedAt":47,"event_categories":60,"image":64},"\n\n內容：\u003Cbr\u003E\n- 手藝的傳統與創新\u003Cbr\u003E\n- 拜師學藝的體會與啟發\u003Cbr\u003E\n- 創業苦與樂\u003Cbr\u003E\n- 現場示範紥籐小技巧\n\n日期：2019年9月21日(星期六)\u003Cbr\u003E\n時間：晚上7:15-9:30\u003Cbr\u003E\n地點：九龍旺角登打士街56號家樂坊15樓安利體驗館會議室B\u003Cbr\u003E\n費用：$90 (包三文治及飲品)","Draw2Studio創辦人鄭少武Mo","mo","創業,手工創作",{"data":61},[62],{"id":16,"attributes":63},{"name":18,"slug":19,"description":10,"createdAt":20,"updatedAt":21},{"data":10},{"id":66,"attributes":67},105,{"start_date":68,"title":69,"content":70,"excerpt":71,"slug":72,"end_date":10,"tags":73,"createdAt":74,"updatedAt":74,"event_categories":75,"image":79},"2019-08-24","環球局勢千變萬化，香港如何自處","\n\n講題：\u003Cbr\u003E\n從金融、科技、地緣政治剖析環球局勢\u003Cbr\u003E\n中美、日韓相繼爆發貿易戰，英國脫歐談判陷入僵局，中東局勢不穩，全球經濟增長放緩；香港自身的社會矛盾日益加劇，零售市道低迷......面對重重挑戰，香港如何自處？\n\nEmpower榮幸邀得著名經濟學家、英國牛津大學博士、嶺南大學前校長陳坤耀教授親臨8月名人面對面，從地緣政治、金融經濟及科技發展三方面，宏觀剖析環球局勢，微觀探討香港的危與機；曾任前海創新研究院院長的陳教授，亦會就香港與內地合作關係的變化及前海深港合作的成效，闡釋其獨到見解。相信陳教授的一席話，定能助大家釐清思緒，掌握當今時局；早著先機，規劃未來方向。\n\n日期：2019年8月24日(星期六)\u003Cbr\u003E\n時間：晚上6:20-9:00\u003Cbr\u003E\n地點：九龍旺角登打士街56號家樂坊15樓安利體驗館會議室B\u003Cbr\u003E\n費用：$90 (包三文治及飲品)\n\n陳坤耀教授, GBS, CBE, JP：\u003Cbr\u003E\n英國牛津大學經濟學哲學博士\u003Cbr\u003E\n香港大學專業進修學院董事局主席\u003Cbr\u003E\n香港大學香港人文社會研究所傑出院士\u003Cbr\u003E\n香港金融管理局香港金融研究中心顧問委員會主席\u003Cbr\u003E\n深圳市前海創新研究院前院長\u003Cbr\u003E\n九龍倉、第一太平等多家上市公司的獨立董事\n","陳坤耀教授, GBS, CBE, JP","edward-chan","金融經濟,教育制度,環球局勢","2019-08-24T00:00:00.000Z",{"data":76},[77],{"id":16,"attributes":78},{"name":18,"slug":19,"description":10,"createdAt":20,"updatedAt":21},{"data":10},{"id":81,"attributes":82},113,{"start_date":83,"title":84,"content":85,"excerpt":86,"slug":87,"end_date":10,"tags":88,"createdAt":89,"updatedAt":89,"event_categories":90,"image":94},"2019-07-13","穿梭中亞三國-談歷史，說故事","\n\n主講嘉賓：自由創作人馮珍今女士\u003Cbr\u003E\n-香港中文大學中文系文學士及教育碩士\u003Cbr\u003E\n-資深教育工作者，致力推動文學教育\u003Cbr\u003E\n-近年愛遊走四方，並樂於寫作，分享人生路上的見聞感思\u003Cbr\u003E\n-著有散文集《見雪在巴黎》、《我的學生二三事》、《字裏風景》，童書《奇幻泡泡與石頭貓》、《中國人的故事：詩人和小說家的才華》，遊記《走進中亞三國--尋找絲路的故事》、《字旅相逢--香港文化人訪談錄》等。\n\n講題：\n絲路萬里，六千里在中亞；中國與中亞的關係千絲萬縷，為你帶來看不盡的人生風景！\n\n日期：2019年7月13日(星期六)\u003Cbr\u003E\n時間：晚上7:15-9:30\u003Cbr\u003E\n地點：九龍旺角登打士街56號家樂坊15樓安利體驗館會議室B\u003Cbr\u003E\n費用：$90 (包三文治及飲品) ","自由創作人馮珍今女士","ms-fung","中亞,旅遊分享","2019-07-13T00:00:00.000Z",{"data":91},[92],{"id":16,"attributes":93},{"name":18,"slug":19,"description":10,"createdAt":20,"updatedAt":21},{"data":10},{"id":96,"attributes":97},98,{"start_date":98,"title":99,"content":100,"excerpt":101,"slug":102,"end_date":10,"tags":103,"createdAt":104,"updatedAt":104,"event_categories":105,"image":109},"2019-06-15","一個理念，改寫人生-公平貿易與可持續發展","\n\n梁佩鳯女士：\u003Cbr\u003E\n- 澳洲新南威爾斯大學經濟及政策研究學士\u003Cbr\u003E\n- 香港公平貿易聯盟創會主席\u003Cbr\u003E\n- 樂施會前籌募總監，曾任世貿部長級會議－國際樂施會代表團成員\n\n講題：\u003Cbr\u003E\n💡如何在香港開創公平貿易的先河？當中有何理念、得著與挑戰？\u003Cbr\u003E\n💡公平貿易、可持續發展與城鄉均衡發展的關係\n\n日期：2019年6月15日(星期六)\u003Cbr\u003E\n時間：晚上7:15-9:30\u003Cbr\u003E\n地點：九龍旺角登打士街56號家樂坊15樓安利體驗館會議室B\u003Cbr\u003E\n費用：$90 (包三文治及飲品)","公平棧創辦人梁佩鳯女士","ms-leung","公平貿易,創業","2019-06-15T00:00:00.000Z",{"data":106},[107],{"id":16,"attributes":108},{"name":18,"slug":19,"description":10,"createdAt":20,"updatedAt":21},{"data":10},{"id":111,"attributes":112},96,{"start_date":113,"title":114,"content":115,"excerpt":116,"slug":117,"end_date":10,"tags":118,"createdAt":119,"updatedAt":119,"event_categories":120,"image":124},"2019-05-25","5 G 發展新方向 + 職場音樂星輝路","\n\n- 縱橫電訊業逾 23 年，於 2006 年加入和黃集團，2014 年出任流動通訊業務的企業及國際業務總監；之後短暫離開集團本部，前赴越南及印尼開拓流動通訊業務。2017年重返集團本部出任漫遊及服務發展總監，去年就任行政總裁兼執行董事\u003Cbr\u003E\n- 胡琴演奏家，歷任香港青年中樂團團長及香港青年音樂小組首席","和記電訊香港執行董事兼行政總裁、胡琴高手古星輝先生","mr-ku","5G,電訊","2019-05-25T00:00:00.000Z",{"data":121},[122],{"id":16,"attributes":123},{"name":18,"slug":19,"description":10,"createdAt":20,"updatedAt":21},{"data":10},{"id":126,"attributes":127},90,{"start_date":128,"title":129,"content":130,"excerpt":131,"slug":132,"end_date":10,"tags":133,"createdAt":134,"updatedAt":134,"event_categories":135,"image":139},"2019-04-07","偏見日本 ~ 關於日本文化的三個迷思","\n\n主講嘉賓：日本史學家胡煒權博士\u003Cbr\u003E\n2007年獲日本文部科學省國費留學金留學日本，2010年取得日本廣島大學碩士(歷史與文化遺產學)學位，現為日本國立一橋大學博士，專攻日本中世史(專治戰國史)，是少數懂日本古文的華人學者。\n\n現為戰國史研究會、東北史學會、地方史研究協議會、日本歷史學會等學會會員，其著作《明智光秀與本能寺之變》及《日本戰國織豐時代史》被認為一新國人對日本研究之耳目。\n\n當晚胡博士將為大家解構以下三個迷思：\n1. 日本人歡迎新事物嗎？從電子支付說起\u003Cbr\u003E\n2. 日本人重視傳統還是守殘抱缺？\u003Cbr\u003E\n3. 軍國主義還有市場嗎？","日本史學家胡煒權博士","fritz","日本文化","2019-04-07T00:00:00.000Z",{"data":136},[137],{"id":16,"attributes":138},{"name":18,"slug":19,"description":10,"createdAt":20,"updatedAt":21},{"data":10},{"id":141,"attributes":142},94,{"start_date":143,"title":144,"content":145,"excerpt":146,"slug":147,"end_date":10,"tags":148,"createdAt":149,"updatedAt":149,"event_categories":150,"image":154},"2019-03-22","獅子山下 九龍半島之蛻變","\n\n丁博士笑言：「你住在哪裡？學校在哪裡？教會又在哪裡？如果都腳踏實地，你真係叻喇！」\u003Cbr\u003E\n丁博士將以百年歷史為經緯，細說曾被稱為「不毛之地」，至今已成為全球人口密度最高地區的九龍半島的發展歷程和填海史！","香港歷史博物館前總館長、香港中文大學歷史系客席教授丁新豹博士","professor-ding","香港歷史,填海","2019-03-22T00:00:00.000Z",{"data":151},[152],{"id":16,"attributes":153},{"name":18,"slug":19,"description":10,"createdAt":20,"updatedAt":21},{"data":10},{"id":156,"attributes":157},72,{"start_date":158,"title":159,"content":160,"excerpt":161,"slug":162,"end_date":10,"tags":163,"createdAt":164,"updatedAt":164,"event_categories":165,"image":169},"2019-02-16","品味咖啡 探索人生","\n\n主講嘉賓文桂芳博士(Dr May Man)簡介：\u003Cbr\u003E\n香港咖啡業界首位擔任「國際咖啡師監考官」的女性，在政府、私營及教育機構擔任咖啡講座及培訓課程導師，亦是《沖上雲霄 II》、《 愛‧回家》、《 On Call 36 小時 II》、《分手100次》等劇集和電影的咖啡顧問\n\nDr Man 將分享其曲折起伏的創業經歷，並帶領大家探索咖啡的個性，品味多采的人生！\n","文桂芳博士(Dr May Man)","dr-man","咖啡,創業","2019-02-16T00:00:00.000Z",{"data":166},[167],{"id":16,"attributes":168},{"name":18,"slug":19,"description":10,"createdAt":20,"updatedAt":21},{"data":10},{"id":171,"attributes":172},70,{"start_date":173,"title":174,"content":175,"excerpt":176,"slug":177,"end_date":10,"tags":178,"createdAt":179,"updatedAt":179,"event_categories":180,"image":184},"2019-01-19","解構中美貿易戰－烽煙四起・還是戰火平息？","\n\n主講嘉賓： 莊太量教授\u003Cbr\u003E\n(香港中文大學經濟學系副教授、劉佐德全球經濟及金融研究所常務所長)\u003Cbr\u003E\n－香港中文大學經濟學學士、美國羅徹斯特大 學(University of Rochester)經濟學博士\u003Cbr\u003E\n－ 著有《人生煉金術的7大抉擇》及600餘篇論 文,發表於國際學術期刊及中港報章\u003Cbr\u003E\n－ 曾任世界銀行項目顧問、香港特區政府中央 政策組非全職顧問、標凖工時委員會委員。 現為香港特區政府交通諮詢委員會、土地及 建設諮詢委員會、中小企業發展支援基金及 發展品牌、升級轉型及拓展內銷市場的專項基金評審委員會委員、香港學術及職業資歷評審局專家小組委員、亞太研究所金融市場研究計劃主任，以及多份國際期刊的編輯委員\n\n日期：2019年1月19日(星期六)\u003Cbr\u003E\n時間：晚上7:15-9:30\u003Cbr\u003E\n地點：九龍旺角登打士街56號柏裕商業中心15樓安利體驗館會議室B\u003Cbr\u003E\n費用：$90一位 (包括三文治及飲品)","香港中文大學經濟學系副教授-莊太量教授","professor-chong","經濟,香港股市,香港樓市,投資,金融經濟","2019-01-19T00:00:00.000Z",{"data":181},[182],{"id":16,"attributes":183},{"name":18,"slug":19,"description":10,"createdAt":20,"updatedAt":21},{"data":10},{"pagination":186},{"page":187,"pageSize":188,"pageCount":189,"total":190},3,12,7,76],"uses":{"dependencies":["http://127.0.0.1:1337/api/events?sort=start_date%3Adesc&populate[author]=true&populate[event_categories]=true&populate[image]=true&pagination[page]=3&pagination[pageSize]=12&filters[event_categories][slug]=be-our-guest"],"params":["page","category"]}}]}