{"type":"data","nodes":[{"type":"data","data":[{"categories":1,"event_categories":27},[2,9,15,21],{"id":3,"attributes":4},1,{"slug":5,"name":6,"description":7,"createdAt":8,"updatedAt":8},"nutrition","營養隨筆",null,"2023-02-12T02:39:02.691Z",{"id":10,"attributes":11},2,{"slug":12,"name":13,"description":7,"createdAt":14,"updatedAt":14},"reflection","感悟隨筆","2023-02-12T02:39:02.692Z",{"id":16,"attributes":17},3,{"slug":18,"name":19,"description":7,"createdAt":20,"updatedAt":20},"fitness","運動筆記","2023-02-12T02:39:02.697Z",{"id":22,"attributes":23},4,{"slug":24,"name":25,"description":7,"createdAt":26,"updatedAt":26},"spiritual","心靈勵志","2023-02-12T02:39:02.698Z",[28,33,38,43,47,52],{"id":3,"attributes":29},{"name":30,"slug":31,"description":7,"createdAt":32,"updatedAt":32},"讀書會","book-sharing","2023-02-12T02:38:55.939Z",{"id":16,"attributes":34},{"name":35,"slug":36,"description":7,"createdAt":37,"updatedAt":37},"文化導賞","cultural","2023-02-12T02:38:55.943Z",{"id":22,"attributes":39},{"name":40,"slug":41,"description":7,"createdAt":42,"updatedAt":42},"遊山玩水","hiking","2023-02-12T02:38:55.946Z",{"id":44,"attributes":45},5,{"name":46,"slug":18,"description":7,"createdAt":42,"updatedAt":42},"健體運動",{"id":48,"attributes":49},6,{"name":50,"slug":5,"description":7,"createdAt":51,"updatedAt":51},"活學營養","2023-02-12T02:38:55.947Z",{"id":10,"attributes":53},{"name":54,"slug":55,"description":7,"createdAt":56,"updatedAt":57},"名人面對面","be-our-guest","2023-02-12T02:38:55.942Z","2023-03-08T13:16:12.875Z"],"uses":{"dependencies":["http://127.0.0.1:1337/api/categories?","http://127.0.0.1:1337/api/event-categories?"]},"slash":"always"},{"type":"data","data":[{"data":1,"meta":174},[2,22,36,50,64,78,92,106,120,134,148,160],{"id":3,"attributes":4},49,{"start_date":5,"title":6,"content":7,"excerpt":8,"slug":9,"end_date":10,"tags":11,"createdAt":12,"updatedAt":12,"event_categories":13,"image":21},"2018-06-09","1 小時玩轉程式","\n\n－推動香港普及編程教育至所有年齡、性別，以及各行各業人士\u003Cbr\u003E\n－把在香港想學習編程和想教授編程的人連繫一起\n\n主理：香港城市大學電子工程學系副教授兼『香港一小時編程』創辦人張澤松博士\u003Cbr\u003E\n日期：2018年6月9日（六）\u003Cbr\u003E\n時間：早上10:30-12:00\u003Cbr\u003E\n地點：香港城市大學 Apps Lab\u003Cbr\u003E\n費用：HoC免費，之後與Dr Ray一起自費在城大午膳\u003Cbr\u003E\n備註：請自備電腦","","coding1806",null,"編程","2018-06-09T00:00:00.000Z",{"data":14},[15],{"id":16,"attributes":17},3,{"name":18,"slug":19,"description":10,"createdAt":20,"updatedAt":20},"文化導賞","cultural","2023-02-12T02:38:55.943Z",{"data":10},{"id":23,"attributes":24},46,{"start_date":25,"title":26,"content":27,"excerpt":8,"slug":28,"end_date":10,"tags":29,"createdAt":30,"updatedAt":30,"event_categories":31,"image":35},"2018-03-03","活化歷史·永續生活 -綠匯學院","\n\n綠匯學院前身為舊大埔警署，是殖民地政府在1899年接管新界時舉行升旗禮的地點。作為殖民地政府於新界建設的首間永久警署，舊大埔警署是昔日殖民地政府管治新界的權力象徵，現為香港一級歷史建築。\n除了作為活化歷史建築項目，亦同時是本地重要的鷺鳥繁殖地。\n\nEmpower 特別安排了專人導賞，除介紹舊大埔警署的歷史、建築及生態特色外，也會講解綠匯學苑的綜合保育設計。\n\n日期：2018年3月3日(星期六)\u003Cbr\u003E\n時間：上午11:45至中午15:15\u003Cbr\u003E\n地點：香港新界大埔運頭角里11 號\u003Cbr\u003E\n費用：午餐自費，參觀免費\u003Cbr\u003E\n集合時間：11:45大埔港鐵站A1出口\u003Cbr\u003E\n我們將一起午飯，再一同前往綠滙學院，當中已預留時間供大家拍照 😊","culturalvisit1803","綠匯學院","2018-03-03T00:00:00.000Z",{"data":32},[33],{"id":16,"attributes":34},{"name":18,"slug":19,"description":10,"createdAt":20,"updatedAt":20},{"data":10},{"id":37,"attributes":38},30,{"start_date":39,"title":40,"content":41,"excerpt":8,"slug":42,"end_date":10,"tags":43,"createdAt":44,"updatedAt":44,"event_categories":45,"image":49},"2017-08-26","生而為遊 – 遠眺地獄之門，靜觀閃爍星空，細味土著文化， 非洲，非你所想","\n非洲 ── 在不少香港人的印象中，可能只有貧窮、飢荒、炎熱。然而，非洲的旅遊資源其實多得令人驚嘆，既有原始的土人部落，亦有歷史久遠的宗教聖地；有可供觀賞動物的國家公園，亦有遺世而獨立的古城。當然還有目不暇給的自然景色，包括活火山、琉璜池、鹽湖、窪地……教人歎為觀止。\n\nEmpower 榮幸邀得旅遊攝影達人Man Wong分享他遊歷埃賽俄比亞、贊比亞、烏干達、盧旺達、坦桑尼亞及博茨阿納這東非六國的70天精彩旅程。Man將會為我們揭開非洲的神秘面紗，展現其獨特的奇幻魅力，並為有意遊覽非洲的背包客排解疑難！\n\n日期：2017年8月26日（星期六）\u003Cbr\u003E\n時間：下午2:30-4:00\u003Cbr\u003E\n地點：九龍旺角登打士街56號柏裕商中心15樓安利體驗館B室\u003Cbr\u003E\n費用：$50 （三人同行每人$30）","travelsharing1708","非洲旅遊","2017-08-26T00:00:00.000Z",{"data":46},[47],{"id":16,"attributes":48},{"name":18,"slug":19,"description":10,"createdAt":20,"updatedAt":20},{"data":10},{"id":51,"attributes":52},28,{"start_date":53,"title":54,"content":55,"excerpt":8,"slug":56,"end_date":10,"tags":57,"createdAt":58,"updatedAt":58,"event_categories":59,"image":63},"2017-07-14","七百萬個故仔，成就一個香⋯「港故事」","\n\n七百萬人的地方，由七百萬個故事組成。每一個故事均支持這地方發展至今，不分你我他，發光發熱，燃亮人生。七百萬個故仔，成就一個香...... 「港故仔」。\n由武術家葉準，至「繩神」沈保衡、「生果革命」王嘉雯……每星期一集，逢星期六上載至「港故仔」Facebook專頁；由2016年7月1日Kick Off片出街，不經不覺經已50集，即已播放了50星期。「港故仔」的目標，是拍攝100個香港故仔，讓更多人見識香港正面、積極、發光的一面。\n\nEmpower榮幸邀得「港故仔」三位年青創辦人 ─　Angus、Colon、Wallace（他們同場出現真的很難得呢😄），分享他們如何在繁忙的生活中，利用工餘時間，尋覓不同的生命見證，在不收分文的情況下，自資拍攝一條又一條的勵志短片，叫更多香港人的故事得以延續，讓世界看見香港的美好，並展現人性的光輝。\n讓我們一起細心聆聽三位年青人的港故仔，讓香港變得更美。\n\n日期：2017年7月14日（星期五）\u003Cbr\u003E\n時間：晚上7:30\u003Cbr\u003E\n地點：九龍旺角登打士街56號柏裕商業中心15樓安利體驗館會議室B\u003Cbr\u003E\n費用：$50（三人同行每人$30）","hkstory1707","香港故事","2017-07-14T00:00:00.000Z",{"data":60},[61],{"id":16,"attributes":62},{"name":18,"slug":19,"description":10,"createdAt":20,"updatedAt":20},{"data":10},{"id":65,"attributes":66},22,{"start_date":67,"title":68,"content":69,"excerpt":8,"slug":70,"end_date":10,"tags":71,"createdAt":72,"updatedAt":72,"event_categories":73,"image":77},"2017-07-09","不一樣的太極體驗導賞團","\n\n【北崇少林，南尊武當】, 【武當太極】, 原來不是武俠小說虛構故事而是真實存在! 坊間存在各式各派太極, 較多人接觸的是【陳、楊、吳、武、孫】這五大派別, 當中有又什麼分別?\n\n【太極】只是適合長輩的緩慢運動? 原來真正的太極除了健生養生作用外，動靜佳宜，適合不同年齡和身體狀況人仕修習。太極含豐富的技擊自衛元素、文化內涵和人生哲理,是修身養性的一種不可多得的全面運動。\n\n本導賞體驗團將會透過兩個環節讓大家對太極拳有更深入了解。\n\nEmpower很榮幸邀請了【師虛太極養生學院】的創辦人【師虛師傅】(詳見 http:\u002F\u002Fwww.wdgf.hk) 來為大家作講解及教授體驗武當及陳式太極拳。\n\n【師虛師傅】文武兼備，習武十多年，其中四年在太極的發源地武當山和陳家溝跟隨掌門全職研習太極氣功四年。分別為【武當三豐派】、【武當玄武派】及【陳家溝陳式太極】掌門之入室弟子。師虛師傅深入太極武術發源地深造多年，其事蹟廣為媒體報導，定能為大家帶來不一樣的太極體驗!\n\n第一個環節師虛師傅將與大家一同遊覽【九龍公園】，觀看不同群組演練的太極拳，並細說各派之特色。\n\n第二個環節師虛師傅將傳授大家武當及陳式太極拳，讓大家體驗此兩門派太極拳的分別。體驗後，我們將於附近一同午膳交流.師虛太極養生學院也會送出禮品給各參加者。\n\n日期: 2017年7月9日\u003Cbr\u003E\n時間: (也可以單報名第二環節，請於報名時註明)\u003Cbr\u003E\n第一環節: 9-11am ，9:00am於九龍公園海防道入口內集合\u003Cbr\u003E\n第二環節:11-1pm (11am於師虛太極養生學院集合, 香港九龍佐敦渡船街1-4號金霞閣2樓A座)\u003Cbr\u003E\n地點: 九龍公園及師虛太極養生學院\u003Cbr\u003E\n費用: 全免 (午膳自費)","taichi1707","太極","2017-07-09T00:00:00.000Z",{"data":74},[75],{"id":16,"attributes":76},{"name":18,"slug":19,"description":10,"createdAt":20,"updatedAt":20},{"data":10},{"id":79,"attributes":80},21,{"start_date":81,"title":82,"content":83,"excerpt":8,"slug":84,"end_date":10,"tags":85,"createdAt":86,"updatedAt":86,"event_categories":87,"image":91},"2017-06-24","旅遊分享系列：旅行就是生命","\n\n旅遊分享系列：The Purpose of Life is to Travel 旅行就是生命\n\n俗語說「讀萬卷書不如行萬里路」，Debbie更認為「旅遊就是人生」。熱愛背包旅遊的她，不足30歲已踏足35個國家。旅遊，讓她感受生命；在旅遊及義工服務交流期間，更讓她反思人生。\n\n曾到雲南、桂林及柬埔寨作義工服務交流團，義務工作讓她體驗反思自己的生活和別人的需要，在回歸簡單純樸的國度更感受生命的可貴。\n今天的她，旅遊是人生的一部份，在路上與不同的人交流，了解不同的故事，以有限的生命體會無限的可能。\n\nEMPOWER榮幸邀得Debbie，分享她的旅行人生！\u003Cbr\u003E\n日期：2017年6月24日 (星期六)\u003Cbr\u003E\n時間：下午7:45-9:15 (下午7:30開始入座）\u003Cbr\u003E\n地點：九龍旺角登打士街56號柏裕商業中心15樓安利體驗館\u003Cbr\u003E\n費用：$50","travelsharing1706","旅遊義工","2017-06-24T00:00:00.000Z",{"data":88},[89],{"id":16,"attributes":90},{"name":18,"slug":19,"description":10,"createdAt":20,"updatedAt":20},{"data":10},{"id":93,"attributes":94},25,{"start_date":95,"title":96,"content":97,"excerpt":8,"slug":98,"end_date":10,"tags":99,"createdAt":100,"updatedAt":100,"event_categories":101,"image":105},"2017-06-17","保赤安良－保良局歷史博物館導賞","\n\n\"保良局”三字，香港人並不陌生。\u003Cbr\u003E\n保良局由1880年起伴隨香港度過不同的歷史階段，由最初協助掃除拐風，保赤安良，到收容婦孺，再發展至現今龐大而多元化的社會服務。了解保良局的歷史，正是了解香港的發展故事。\n保良局歷史博物館坐落的，是於1932年落成的二級歷史建築物，尤具歷史價值與意義。\u003Cbr\u003E\n我們冀透過是次的導賞參觀，更深入了解香港的昔日面貌，追本溯源，鑑古知今。\u003Cbr\u003E\n參觀後，我們將於附近一同午膳。\n\n日期：2017年6月17日(星期六)\u003Cbr\u003E\n時間：上午10:15至中午11:30\u003Cbr\u003E\n午飯時間：中午11:45-13:00\u003Cbr\u003E\n地點：香港銅鑼灣禮頓道66號保良局歷史博物館\u003Cbr\u003E\n費用：參觀免費，午餐自費","cultural1706","保良局歷史博物館,本土文化","2017-06-17T00:00:00.000Z",{"data":102},[103],{"id":16,"attributes":104},{"name":18,"slug":19,"description":10,"createdAt":20,"updatedAt":20},{"data":10},{"id":107,"attributes":108},17,{"start_date":109,"title":110,"content":111,"excerpt":8,"slug":112,"end_date":10,"tags":113,"createdAt":114,"updatedAt":114,"event_categories":115,"image":119},"2017-04-08","清幽澄淨- 慈山寺","\n\n坐落於大埔的慈山寺，背山面海，環境清幽。寺院借鑑唐代建築風格，配以現代建築的簡約樸素設計。靜心遊觀，淨化心靈，讓人得以忘卻世俗的煩囂壓力。\u003Cbr\u003E\n要預約慈山寺的團體導賞參觀，往往需時數月至逾年。Empower 非常感恩能組團進內導賞參觀。\n\n日期：2017年4月8日(星期六)\u003Cbr\u003E\n時間：上午10:00至中午13:30 （包括午飯時間，午飯費用自付）\u003Cbr\u003E\n地點：香港新界大埔普門路88號慈山寺\u003Cbr\u003E\n將於09:30在大埔墟火車站集合。","visit1704","慈山寺","2017-04-08T00:00:00.000Z",{"data":116},[117],{"id":16,"attributes":118},{"name":18,"slug":19,"description":10,"createdAt":20,"updatedAt":20},{"data":10},{"id":121,"attributes":122},12,{"start_date":123,"title":124,"content":125,"excerpt":8,"slug":126,"end_date":10,"tags":127,"createdAt":128,"updatedAt":128,"event_categories":129,"image":133},"2017-03-25","金庸迷大喜訊：萬眾期待的金庸館終於開幕！","\n\n金庸迷大喜訊：萬眾期待的金庸館終於開幕！\u003Cbr\u003E\nEmpower 榮幸邀得著名漫畫家李志清老師為我們導賞“繪畫・金庸”展覽，並獲文化博物館特別安排為我們導賞金庸館。\u003Cbr\u003E\n李老師於1997年與查良鏞先生創立明河(創文)出版有限公司，替金庸小說畫漫畫，作品包括《射鵰英雄傳》、《笑傲江湖》。獲獎無數，包括日本第一屆國際漫畫獎最優秀作品獎、香港星島集團「傑出領袖獎」、香港特別行政區政府「行政長官社區服務獎」等。\n\n日期：2017年3月25日(星期六)\u003Cbr\u003E\n時間：下午2:15至3:30\u003Cbr\u003E\n地點：香港文化博物館","cultural170325","金庸館","2017-03-25T00:00:00.000Z",{"data":130},[131],{"id":16,"attributes":132},{"name":18,"slug":19,"description":10,"createdAt":20,"updatedAt":20},{"data":10},{"id":135,"attributes":136},9,{"start_date":137,"title":138,"content":139,"excerpt":8,"slug":140,"end_date":10,"tags":141,"createdAt":142,"updatedAt":142,"event_categories":143,"image":147},"2017-03-11","都市淨土- 志蓮淨苑及南蓮園池","\n\n中國傳統唐式庭園和建築不僅演繹中華文化的藝術，更承載厚重的中華歷史、天人合一的哲學觀及注重個人修養的文化。\u003Cbr\u003E\n【南蓮園池】以唐代園林設計為藍本，配合北面【志蓮淨苑】復建唐代木構建築群，兩者相互毗連，為繁華喧鬧的市區帶來一片淨土。\u003Cbr\u003E\n我們冀透過是次的導賞參觀，更深入了解中國園林藝術及佛教文化；透過靜心遊觀，淨化心靈，暫時忘卻世俗的煩囂壓力。\u003Cbr\u003E\n參觀後，我們將於寺內「龍門樓」品嚐志蓮淨苑素菜。\u003Cbr\u003E\n日期：2017年3月11日(星期六)\u003Cbr\u003E\n時間：上午10:00至中午12:00\u003Cbr\u003E\n午飯時間：中午12:00-13:30\u003Cbr\u003E\n地點：九龍鑽石山志蓮淨苑及南蓮園池\u003Cbr\u003E\n費用：參觀免費，午餐自費","cultural1703","志蓮淨苑,南蓮園池","2017-03-11T00:00:00.000Z",{"data":144},[145],{"id":16,"attributes":146},{"name":18,"slug":19,"description":10,"createdAt":20,"updatedAt":20},{"data":10},{"id":149,"attributes":150},14,{"start_date":137,"title":151,"content":152,"excerpt":8,"slug":153,"end_date":10,"tags":154,"createdAt":142,"updatedAt":142,"event_categories":155,"image":159},"旅遊分享系列：尋夢•追夢•完夢","\n\n她，年過半百才開始人生第一次自由行 ─ 西藏。\u003Cbr\u003E\n此後，懷著對夢想的追求，她獨自遊歷了別人喻為背包客高級班的印度、踏足神秘的伊拉克庫爾斯坦、深入香港人足跡少至的格魯吉亞……\u003Cbr\u003E\n每個獨特的地方，都是推動著她尋夢的力量。\u003Cbr\u003E\n她有隻身旅行的勇氣。敞開心扉去感受世界，交結不同地域的朋友。\u003Cbr\u003E\n但她亦從不抗拒與人同途作伴。無論是認識的朋友，還是在旅遊討論區裡素未謀面的，只要志同道合，皆可成為同行互助的旅伴。\u003Cbr\u003E\n追尋夢想的力量，讓她克服了路上的孤單、言語的障礙、對人心險惡的恐懼。異國文化的氣氛與風土人情，吸引著她一次又一次踏上每一處興趣盎然的土地。\u003Cbr\u003E\n年近七十的她，今天依然充滿著夢想，腳踏實地走在追夢的路上……\u003Cbr\u003E\nEMPOWER榮幸邀得大地行者 MAY 姐，施嘉宜女士，分享她的尋夢之旅！\n\n日期：2017年3月11日 (星期六)\u003Cbr\u003E\n時間：下午2:30-4:00\u003Cbr\u003E\n地點：九龍旺角登打士街56號柏裕商業中心15樓安利體驗館B室\u003Cbr\u003E\n費用：$50","travelsharing","旅遊分享,自助遊,背包遊",{"data":156},[157],{"id":16,"attributes":158},{"name":18,"slug":19,"description":10,"createdAt":20,"updatedAt":20},{"data":10},{"id":161,"attributes":162},7,{"start_date":163,"title":164,"content":165,"excerpt":8,"slug":166,"end_date":10,"tags":167,"createdAt":168,"updatedAt":168,"event_categories":169,"image":173},"2017-02-11","活化歷史, 文化傳承- 饒宗頤文化館","\n\n饒宗頤文化館前身為荔枝角醫院，為香港三級歷史建築。為服務當時社會的需求，之前曾為“豬仔館”、監獄、隔離站，歷盡社會變遷。\u003Cbr\u003E\n作為活化歷史建築項目，設計優雅的饒館繼續延續其社會任務，透過保育館、舊更亭和古石牆等歷史景點，展現饒館的今昔及保育過程。作為以國學大師饒宗頤命名的文化館，藝術館展出饒教授的藝術作品，並透過多媒體介紹饒教授的生平事蹟。\n\nEmpower 特別揀選元宵佳節，參觀這座有“城市綠洲”之稱的文化建築，與大家一起參與本地歷史文化的傳承，豐富我們的文化生活。\u003Cbr\u003E\n\n日期：2017年2月11日 (星期六)\u003Cbr\u003E\n時間：上午10:00-11:30\u003Cbr\u003E\n地點：九龍青山道800號饒宗頤文化館\u003Cbr\u003E\n費用：免費","cultural1702","饒宗頤文化館","2017-02-11T00:00:00.000Z",{"data":170},[171],{"id":16,"attributes":172},{"name":18,"slug":19,"description":10,"createdAt":20,"updatedAt":20},{"data":10},{"pagination":175},{"page":176,"pageSize":121,"pageCount":16,"total":177},2,26],"uses":{"dependencies":["http://127.0.0.1:1337/api/events?sort=start_date%3Adesc&populate[author]=true&populate[event_categories]=true&populate[image]=true&pagination[page]=2&pagination[pageSize]=12&filters[event_categories][slug]=cultural"],"params":["page","category"]}}]}