{"type":"data","nodes":[{"type":"data","data":[{"categories":1,"event_categories":27},[2,9,15,21],{"id":3,"attributes":4},1,{"slug":5,"name":6,"description":7,"createdAt":8,"updatedAt":8},"nutrition","營養隨筆",null,"2023-02-12T02:39:02.691Z",{"id":10,"attributes":11},2,{"slug":12,"name":13,"description":7,"createdAt":14,"updatedAt":14},"reflection","感悟隨筆","2023-02-12T02:39:02.692Z",{"id":16,"attributes":17},3,{"slug":18,"name":19,"description":7,"createdAt":20,"updatedAt":20},"fitness","運動筆記","2023-02-12T02:39:02.697Z",{"id":22,"attributes":23},4,{"slug":24,"name":25,"description":7,"createdAt":26,"updatedAt":26},"spiritual","心靈勵志","2023-02-12T02:39:02.698Z",[28,33,38,43,47,52],{"id":3,"attributes":29},{"name":30,"slug":31,"description":7,"createdAt":32,"updatedAt":32},"讀書會","book-sharing","2023-02-12T02:38:55.939Z",{"id":16,"attributes":34},{"name":35,"slug":36,"description":7,"createdAt":37,"updatedAt":37},"文化導賞","cultural","2023-02-12T02:38:55.943Z",{"id":22,"attributes":39},{"name":40,"slug":41,"description":7,"createdAt":42,"updatedAt":42},"遊山玩水","hiking","2023-02-12T02:38:55.946Z",{"id":44,"attributes":45},5,{"name":46,"slug":18,"description":7,"createdAt":42,"updatedAt":42},"健體運動",{"id":48,"attributes":49},6,{"name":50,"slug":5,"description":7,"createdAt":51,"updatedAt":51},"活學營養","2023-02-12T02:38:55.947Z",{"id":10,"attributes":53},{"name":54,"slug":55,"description":7,"createdAt":56,"updatedAt":57},"名人面對面","be-our-guest","2023-02-12T02:38:55.942Z","2023-03-08T13:16:12.875Z"],"uses":{"dependencies":["http://127.0.0.1:1337/api/categories?","http://127.0.0.1:1337/api/event-categories?"]},"slash":"always"},{"type":"data","data":[{"data":1,"meta":189},[2,22,42,57,71,86,104,119,133,149,163,175],{"id":3,"attributes":4},159,{"title":5,"content":6,"start_date":7,"excerpt":8,"slug":9,"end_date":10,"tags":11,"createdAt":12,"updatedAt":12,"event_categories":13,"image":21},"21日 動起來！Let's Move！","\n\n🎉明天7\u002F3啟動啦🎉\n🤷‍♂️日日留在家，就快宅到筋都緊？\n💁歡迎參加這21天活動，循序漸進地動起來！\n⭐ 輕鬆沒負擔，不用刻意換衫\n⭐ 每次只是2-7分鐘\n由星期一7\u002F3開始，也可以隨時插班，非常彈性。\n如欲了解更多，歡迎PM查詢😉\n👏👏歡迎邀請親友一起參與，每天ZOOM快閃7️⃣分鐘，輕輕鬆鬆，一齊動動，好快就夠鐘😉","2022-03-07","","21-days-lets-move-march",null,"在家運動","2022-03-06T00:00:00.000Z",{"data":14},[15],{"id":16,"attributes":17},5,{"name":18,"slug":19,"description":10,"createdAt":20,"updatedAt":20},"健體運動","fitness","2023-02-12T02:38:55.946Z",{"data":10},{"id":23,"attributes":24},155,{"title":25,"content":26,"start_date":27,"excerpt":28,"slug":29,"end_date":10,"tags":30,"createdAt":31,"updatedAt":31,"event_categories":32,"image":41},"創業家解鎖：無懼變化而變通 堅守原則致成功","\n\n分享重點：\u003Cbr\u003E\n💡 當日「唔認識寵物行業」下創業， Paul的創業眼光和心態怎樣？\u003Cbr\u003E\n💡 寵物店成行成市，能突圍而出並成為全港最大的寵物連鎖店，Paul做了甚麼重要策略？\u003Cbr\u003E\n💡 面對疫情不斷和創新科技概念的湧現，Paul作爲寵物行業的領航者及擁有豐富經驗的創業者，怎樣為未來定位？\u003Cbr\u003E\nPaul更會解構為何他在內地有工廠和辦事處，不聘請香港人打理，也可以兩年不用北上？🤔\u003Cbr\u003E\n他又如何看區塊鏈NFT與元宇宙Metaverse的趨勢？🤔\u003Cbr\u003E\n歡迎邀請親友一起實體或線上出席！💪🏻🤗\n\nPowered by Empower\u003Cbr\u003E\nwww.Empower.hk\u003Cbr\u003E\nFacebook.com\u002FEmpower.hk\u003Cbr\u003E\nYouTube.com\u002FEmpowerhk","2022-02-20","全港最大寵物用品連鎖店Q-pets創辦人、創業家葉煜明先生Paul","paul-yip-220220","創業","2022-02-20T00:00:00.000Z",{"data":33},[34],{"id":35,"attributes":36},2,{"name":37,"slug":38,"description":10,"createdAt":39,"updatedAt":40},"名人面對面","be-our-guest","2023-02-12T02:38:55.942Z","2023-03-08T13:16:12.875Z",{"data":10},{"id":43,"attributes":44},156,{"title":45,"content":46,"start_date":47,"excerpt":48,"slug":49,"end_date":10,"tags":50,"createdAt":51,"updatedAt":51,"event_categories":52,"image":56},"體有憾 心無缺 生命鬥士活出精彩每一天","\n\n1月名人面對面，Empower榮幸邀得龔黃螢敏女士Linda，為我們分享她不屈不撓的人生奮鬥歷程！💪🏻 \u003Cbr\u003E\n❤️Linda自2007年起在聖雅各福群會擔任婦女義工，長達11年。\u003Cbr\u003E\n❤️2009年不幸發現患上晚期癌症，但依然出任「寄養家庭」家長，10年來照顧31名缺乏家庭溫暖的嬰孩。\u003Cbr\u003E\n❤️2014年起開辦「愛心二手站」，鼓勵社會人士捐出物資，送贈有需要的基層家庭。\u003Cbr\u003E\n❤️12年來接受了218針標靶治療，矢志在抗癌路上幫助同行者與有需要的人。\n\n分享重點：\u003Cbr\u003E\n💡 三子女求學期間，短時間發現自己先後患上乳癌及甲狀腺癌，Linda如何面對？\u003Cbr\u003E\n💡 身患晚期癌症，依然成為緊急寄養家庭照顧嬰孩，是甚麼動力驅使Linda擔當這不一樣的義工？\u003Cbr\u003E\n💡 「愛心二手站」的理念與宗旨為何？與其他慈善義賣店有何分別？\n\n歡迎邀請親友一起實體或線上參與，一同提升正能量！\u003Cbr\u003E\n如欲出席，敬請私訊我們報名留座。謝謝！🤗\n\nPowered by Empower \u003Cbr\u003E\nwww.Empower.hk \u003Cbr\u003E\nFacebook.com\u002FEmpower.hk\nYouTube.com\u002FEmpowerhk ","2022-01-15","龔黃螢敏女士Linda","linda-220115","再生勇士","2022-01-15T00:00:00.000Z",{"data":53},[54],{"id":35,"attributes":55},{"name":37,"slug":38,"description":10,"createdAt":39,"updatedAt":40},{"data":10},{"id":58,"attributes":59},165,{"title":60,"content":61,"start_date":62,"excerpt":8,"slug":63,"end_date":10,"tags":64,"createdAt":65,"updatedAt":65,"event_categories":66,"image":70},"減壓伸展工作坊-實體班","\n\n🌟伸展拉筋，不但可以促進血液循環，消除疲勞，更有助減壓和入眠呢！\u003Cbr\u003E\n透過簡單而有效的動作，齊齊鬆一鬆，減減壓！\u003Cbr\u003E\n日期：12月13日 (星期一）\u003Cbr\u003E\n時間：11:00-12:30\u003Cbr\u003E\n地點：旺角登打士街家樂坊15樓安利體驗館會議室C\u003Cbr\u003E\n費用 : $80\u002F堂（請自備瑜珈墊）\u003Cbr\u003E\n備註：\u003Cbr\u003E\n1. 參加者須全程戴口罩\u003Cbr\u003E\n2. 可以以$10租用瑜珈墊一張\u003Cbr\u003E\n4. 報名請PM訊息給我們查詢報名詳情","2021-12-13","stretching-workshop-dec13","伸展,拉筋","2021-12-13T00:00:00.000Z",{"data":67},[68],{"id":16,"attributes":69},{"name":18,"slug":19,"description":10,"createdAt":20,"updatedAt":20},{"data":10},{"id":72,"attributes":73},154,{"title":74,"content":75,"start_date":76,"excerpt":77,"slug":78,"end_date":10,"tags":79,"createdAt":80,"updatedAt":80,"event_categories":81,"image":85},"善用親子調解 家庭融洽和諧","\n\n主講嘉賓：梁淑瑜小姐Fish\u003Cbr\u003E\n香港十大親子調解專家、香港家庭調解協會總幹事、註冊社工，主講逾600場公開專題講座及培訓工作坊，屢獲粵港澳媒體採訪報道\n\n分享重點：\u003Cbr\u003E\n💡解構Fish獨創的「親子調解」的適用範疇\u003Cbr\u003E\n💡如何有系統和有步驟地解決家庭衝突，達致全方位家庭和諧？\u003Cbr\u003E\n💡由小朋友讀書與生活習慣引起的衝突，或代溝導致的青少年與家長不和，親子調解如何幫得上忙？\n\nPowered by Empower\u003Cbr\u003E\nwww.Empower.hk\u003Cbr\u003E\nFacebook.com\u002FEmpower.hk\u003Cbr\u003E\nYouTube.com\u002FEmpowerhk","2021-12-10","香港十大親子調解專家、香港家庭調解協會總幹事、註冊社工梁淑瑜小姐Fish","fish-leung-communication","調解,親子關係,溝通技巧","2021-12-10T00:00:00.000Z",{"data":82},[83],{"id":35,"attributes":84},{"name":37,"slug":38,"description":10,"createdAt":39,"updatedAt":40},{"data":10},{"id":87,"attributes":88},163,{"title":89,"content":90,"start_date":91,"excerpt":8,"slug":92,"end_date":10,"tags":93,"createdAt":94,"updatedAt":94,"event_categories":95,"image":103},"生命密碼再探","\n\n❤️ 認識自己的性格特質，更瞭解自己，更瞭解他人\u003Cbr\u003E\n❤️ 命運數的組合？命運數以外的數字？\u003Cbr\u003E\n❤️ 如何補足自己性格的不足？\n\n日期：2021年11月27日（星期六）\u003Cbr\u003E\n時間：上午11:30-13:00\u003Cbr\u003E\n地點：旺角家樂坊15樓安利體驗館會議室C\u003Cbr\u003E\n費用 : $50\u003Cbr\u003E\n報名方式：請inbox訊息給我們報名及索取付款詳情","2021-11-17","discover-numerology-2","生命密碼,性格分析","2021-11-27T00:00:00.000Z",{"data":96},[97],{"id":98,"attributes":99},3,{"name":100,"slug":101,"description":10,"createdAt":102,"updatedAt":102},"文化導賞","cultural","2023-02-12T02:38:55.943Z",{"data":10},{"id":105,"attributes":106},160,{"title":107,"content":108,"start_date":109,"excerpt":110,"slug":111,"end_date":10,"tags":112,"createdAt":113,"updatedAt":113,"event_categories":114,"image":118},"兩岸三地書店形態的發展","\n\n疫情改變消費通路，網絡經濟大爆發，兩岸三地書店形態也有著翻天覆地的改變😉。\n\n11月名人面對面，Empower榮幸邀得熟諳中、港、台三地書店演進與轉型的陳萬雄博士擔任主講嘉賓🤗。陳博士曾任香港商務印書館總經過理兼總編輯、聯合出版集團有限公司副董事長兼總裁，亦是著名的出版家。\n\n💡大家不妨想想，甚麼書店才能令你流連忘返？\u003Cbr\u003E\n💡O2O書店如何帶來閱讀新體驗？\u003Cbr\u003E\n💡你心中的夢想書房，又是甚麼樣子？","2021-11-06","曾任香港商務印書館總經理兼總編輯、聯合出版集團有限公司副董事長兼總裁，亦是著名的出版家陳萬雄博士","professor-chan-book","出版商,閱讀,文化","2021-11-06T00:00:00.000Z",{"data":115},[116],{"id":35,"attributes":117},{"name":37,"slug":38,"description":10,"createdAt":39,"updatedAt":40},{"data":10},{"id":120,"attributes":121},149,{"title":122,"content":123,"start_date":124,"excerpt":8,"slug":125,"end_date":10,"tags":126,"createdAt":127,"updatedAt":127,"event_categories":128,"image":132},"生命密碼初探","\n\n❤️ 認識自己的性格特質\u003Cbr\u003E\n❤️ 更瞭解自己，更瞭解他人\u003Cbr\u003E\n❤️ 增進有效溝通\n\n日期：2021年10月14日（星期四，假期）\u003Cbr\u003E\n時間：下午2:00-3:15\u003Cbr\u003E\n地點：旺角家樂坊15樓安利體驗館會議室B\u003Cbr\u003E\n費用 : $50\u003Cbr\u003E\n報名優惠：以優惠價$80一併報名當天3:30-4:45的血型飲食法\u003Cbr\u003E\n報名方式：請inbox訊息給我們報名及索取付款詳情","2021-10-14","discovering-numerology","生命密碼,自我探索","2021-10-14T00:00:00.000Z",{"data":129},[130],{"id":98,"attributes":131},{"name":100,"slug":101,"description":10,"createdAt":102,"updatedAt":102},{"data":10},{"id":134,"attributes":135},148,{"title":136,"content":137,"start_date":124,"excerpt":8,"slug":138,"end_date":10,"tags":139,"createdAt":127,"updatedAt":127,"event_categories":140,"image":148},"血型飲食法","\n\n🙄 你的靈丹，是我的毒藥？\u003Cbr\u003E\n😯 血型也有演化革命？\u003Cbr\u003E\n🤔 不同血型應如何減肥減壓？\u003Cbr\u003E\n\n日期：2021年10月14日（星期四，假期）\u003Cbr\u003E\n時間：下午3:30-4:45\u003Cbr\u003E\n地點：旺角家樂坊15樓安利體驗館會議室B\u003Cbr\u003E\n費用 : $50\u003Cbr\u003E\n報名優惠：以優惠價$80一併報名當天2:00-3:15的生命密碼初探\u003Cbr\u003E\n報名方式：請inbox訊息給我們報名及索取付款詳情","blood-nutrition","血型飲食",{"data":141},[142],{"id":143,"attributes":144},6,{"name":145,"slug":146,"description":10,"createdAt":147,"updatedAt":147},"活學營養","nutrition","2023-02-12T02:38:55.947Z",{"data":10},{"id":150,"attributes":151},164,{"title":152,"content":153,"start_date":154,"excerpt":8,"slug":155,"end_date":10,"tags":156,"createdAt":157,"updatedAt":157,"event_categories":158,"image":162},"爸媽動起來 肌少症不再","\n\n絆倒了，一位安然無恙，另一位卻骨折😟。除了骨質差，不夠肌肉承托也是主因。\u003Cbr\u003E\n日益普遍的肌少症，不單影響體態，更與骨質密度、心血管疾病以至胃下垂等息息相關😱。\u003Cbr\u003E\n要建構強健的骨質及肌力，必須配合飲食及運動。10月1日公眾假期，就讓我們帶同父母一起動起來，一齊做肌肉訓練運動💪🏻💞\n\n日期：2021年10月1日（星期五）\u003Cbr\u003E\n時間：下午2:00-3:30\u003Cbr\u003E\n地點：旺角家樂坊15樓安利體驗館會議室B\u003Cbr\u003E\n費用 : $150\u002F2人；$200\u002F3人\u003Cbr\u003E\n(請自備瑜珈墊或以$10租用一張瑜珈墊）\u003Cbr\u003E\n名額：12人\u003Cbr\u003E\n備註：需要全程戴口罩\u003Cbr\u003E\n報名優惠：以半價一併參與當天3:45-4:30的《有骨氣 有肌力》講座\u003Cbr\u003E\n報名方式：請inbox訊息給我們報名及索取付款詳情\n\n教練：\n黃海寧 Joyce Wong\u003Cbr\u003E\n團體運動導師 (ACE美國運動協會)\u003Cbr\u003E\n伸展導師","2021-10-01","senior-muscle-training","肌肉鍛鍊,肌少症","2021-10-01T00:00:00.000Z",{"data":159},[160],{"id":16,"attributes":161},{"name":18,"slug":19,"description":10,"createdAt":20,"updatedAt":20},{"data":10},{"id":164,"attributes":165},157,{"title":166,"content":167,"start_date":154,"excerpt":8,"slug":168,"end_date":10,"tags":169,"createdAt":157,"updatedAt":157,"event_categories":170,"image":174},"活學營養：有骨氣 有肌力","\n\n絆倒了，一位安然無恙，另一位卻骨折😟。除了骨質差，不夠肌肉承托也是主因。\u003Cbr\u003E\n日益普遍的肌少症，不單影響體態，更與骨質密度、心血管疾病以至胃下垂等息息相關😱。\u003Cbr\u003E\n要建構強健的骨質及肌力，必須配合飲食及運動。10月1日公眾假期，為你解構：\u003Cbr\u003E\n🤔 是否年紀大才有骨質疏鬆及肌少症？\u003Cbr\u003E\n🤔 西方人飲食含大量鈣質，為何也會骨質疏鬆？\u003Cbr\u003E\n🤔 飲食及營養如何調理，才能令我們建肌造骨？\n\n日期：2021年10月1日（星期五）\u003Cbr\u003E\n時間：下午3:45-4:30\u003Cbr\u003E\n地點：旺角家樂坊15樓安利體驗館會議室B\u003Cbr\u003E\n費用 : $40\u003Cbr\u003E\n講者：W2創辦人兼營養總監、營養學家、國家公共營養師 黃詩田小姐 Melissa Wong\u003Cbr\u003E\n報名方式：請inbox訊息給我們報名及索取付款詳情","bone-muscle-nutrition","骨質疏鬆,肌少症",{"data":171},[172],{"id":143,"attributes":173},{"name":145,"slug":146,"description":10,"createdAt":147,"updatedAt":147},{"data":10},{"id":176,"attributes":177},153,{"title":178,"content":179,"start_date":180,"excerpt":8,"slug":181,"end_date":10,"tags":182,"createdAt":183,"updatedAt":183,"event_categories":184,"image":188},"伸展及肌肉鍛練工作坊","\n\n肌肉鍛練及伸展工作坊-實體班\u003Cbr\u003E\n🌟 想告別肚腩及手臂ByeBye肉？一於動起來，齊齊塑造理想身型！\u003Cbr\u003E\n🌟 伸展拉筋- 舒展筋骨，放鬆僵硬肌肉\u003Cbr\u003E\nKeep Fit工作坊針對平日無運動習慣的朋友，循序漸進由基礎起步，讓大家起動💥\n\n日期：9月22日 (星期三，公眾假期）\u003Cbr\u003E\n時間：11:00-12:15\u003Cbr\u003E\n地點：旺角登打士街家樂坊15樓安利體驗館B室\u003Cbr\u003E\n費用 : $80\u002F堂（請自備瑜珈墊）\u003Cbr\u003E\n備註：\u003Cbr\u003E\n1. 以優惠價$100一併報名當天12:30-13:15的「識得揀先識得減分享會」\u003Cbr\u003E\n2. 參加者須全程戴口罩\u003Cbr\u003E\n3. $10租用瑜珈墊一張\u003Cbr\u003E\n4. 報名請PM訊息給我們查詢報名詳情","2021-09-22","stretching-muscle-training-2021-sep","伸展,肌肉鍛練,拉筋","2021-09-22T00:00:00.000Z",{"data":185},[186],{"id":16,"attributes":187},{"name":18,"slug":19,"description":10,"createdAt":20,"updatedAt":20},{"data":10},{"pagination":190},{"page":98,"pageSize":191,"pageCount":192,"total":193},12,16,188],"uses":{"dependencies":["http://127.0.0.1:1337/api/events?sort=start_date%3Adesc&populate[author]=true&populate[event_categories]=true&populate[image]=true&pagination[page]=3&pagination[pageSize]=12"],"params":["page","category"]}}]}