{"type":"data","nodes":[{"type":"data","data":[{"categories":1,"event_categories":27},[2,9,15,21],{"id":3,"attributes":4},1,{"slug":5,"name":6,"description":7,"createdAt":8,"updatedAt":8},"nutrition","營養隨筆",null,"2023-02-12T02:39:02.691Z",{"id":10,"attributes":11},2,{"slug":12,"name":13,"description":7,"createdAt":14,"updatedAt":14},"reflection","感悟隨筆","2023-02-12T02:39:02.692Z",{"id":16,"attributes":17},3,{"slug":18,"name":19,"description":7,"createdAt":20,"updatedAt":20},"fitness","運動筆記","2023-02-12T02:39:02.697Z",{"id":22,"attributes":23},4,{"slug":24,"name":25,"description":7,"createdAt":26,"updatedAt":26},"spiritual","心靈勵志","2023-02-12T02:39:02.698Z",[28,33,38,43,47,52],{"id":3,"attributes":29},{"name":30,"slug":31,"description":7,"createdAt":32,"updatedAt":32},"讀書會","book-sharing","2023-02-12T02:38:55.939Z",{"id":16,"attributes":34},{"name":35,"slug":36,"description":7,"createdAt":37,"updatedAt":37},"文化導賞","cultural","2023-02-12T02:38:55.943Z",{"id":22,"attributes":39},{"name":40,"slug":41,"description":7,"createdAt":42,"updatedAt":42},"遊山玩水","hiking","2023-02-12T02:38:55.946Z",{"id":44,"attributes":45},5,{"name":46,"slug":18,"description":7,"createdAt":42,"updatedAt":42},"健體運動",{"id":48,"attributes":49},6,{"name":50,"slug":5,"description":7,"createdAt":51,"updatedAt":51},"活學營養","2023-02-12T02:38:55.947Z",{"id":10,"attributes":53},{"name":54,"slug":55,"description":7,"createdAt":56,"updatedAt":57},"名人面對面","be-our-guest","2023-02-12T02:38:55.942Z","2023-03-08T13:16:12.875Z"],"uses":{"dependencies":["http://127.0.0.1:1337/api/categories?","http://127.0.0.1:1337/api/event-categories?"]},"slash":"always"},{"type":"data","data":[{"data":1,"meta":106},[2,22,36,50,64,78,92],{"id":3,"attributes":4},87,{"start_date":5,"title":6,"content":7,"excerpt":8,"slug":9,"end_date":10,"tags":11,"createdAt":12,"updatedAt":12,"event_categories":13,"image":21},"2019-06-08","活學營養：擊退三高","\n\n香港有近五成人超重，當中一半有高血壓、高膽固醇。\u003Cbr\u003E\n- 高血糖、高血壓、高血脂的成因是麼？除食藥控制外，還有更好的方法嗎？\u003Cbr\u003E\n- 膽固醇無分好壞？\u003Cbr\u003E\n- 如何透過改善飲食及生活習慣，並運用有機營養素，撃退三高， 從此輕鬆！\n\n日期： 2019年6月8日(六) 16:30-18:00\u003Cbr\u003E\n地點：旺角登打士街56號家樂坊15樓安利體驗館鑽石房\u003Cbr\u003E\n費用：每堂$30\u003Cbr\u003E\n名額：16人","","health1906",null,"三高,高血壓,高膽固醇,高血脂","2019-06-08T00:00:00.000Z",{"data":14},[15],{"id":16,"attributes":17},6,{"name":18,"slug":19,"description":10,"createdAt":20,"updatedAt":20},"活學營養","nutrition","2023-02-12T02:38:55.947Z",{"data":10},{"id":23,"attributes":24},82,{"start_date":25,"title":26,"content":27,"excerpt":8,"slug":28,"end_date":10,"tags":29,"createdAt":30,"updatedAt":30,"event_categories":31,"image":35},"2019-05-11","活學營養：腸道健康便便暢通","\n\n香港人生活忙又壓力大，便便無定時，甚至無便便。\u003Cbr\u003E\n- 腸道原來跟免疫力、心情好壞息息相關\u003Cbr\u003E\n- 便秘及玻璃肚成因\u003Cbr\u003E\n- 如何透過改善飲食及生活習慣，並運用有機營養素，令腸道舒暢，身心愉快\n\n日期： 2019年5月11日(六) 16:30-18:00\u003Cbr\u003E\n2019年5月25日(六) 11:30-13:00\u003Cbr\u003E\n地點：旺角登打士街56號家樂坊15樓安利體驗館鑽石房\u003Cbr\u003E\n費用：每堂$30\u003Cbr\u003E\n名額：16人\u003Cbr\u003E\n備註：兩課獨立內容，可單獨報名","health1905","腸道健康","2019-05-11T00:00:00.000Z",{"data":32},[33],{"id":16,"attributes":34},{"name":18,"slug":19,"description":10,"createdAt":20,"updatedAt":20},{"data":10},{"id":37,"attributes":38},78,{"start_date":39,"title":40,"content":41,"excerpt":8,"slug":42,"end_date":10,"tags":43,"createdAt":44,"updatedAt":44,"event_categories":45,"image":49},"2019-04-06","活學營養 遠離濕疹","\n\n香港每5人就有一個有濕疹，總有一個係左近。\u003Cbr\u003E\n- 甚麼是濕疹？有何成因？\u003Cbr\u003E\n- 類固醇的好與壞\u003Cbr\u003E\n- 如何透過改善環境、飲食及生活習慣，並運用有機營養素，令濕疹不再痕癢，甚至跟它講👋👋！\n\n日期： 2019年4月6日(六) 11:30-13:00\u003Cbr\u003E\n2019年4月27日(六) 11:30-13:00\u003Cbr\u003E\n地點：旺角登打士街56號家樂坊15樓安利體驗館鑽石房\u003Cbr\u003E\n費用：每堂$30\u003Cbr\u003E\n名額：16人\u003Cbr\u003E\n備註：兩課獨立內容，可單獨報名","health1904","濕疹,類固醇","2019-04-06T00:00:00.000Z",{"data":46},[47],{"id":16,"attributes":48},{"name":18,"slug":19,"description":10,"createdAt":20,"updatedAt":20},{"data":10},{"id":51,"attributes":52},97,{"start_date":53,"title":54,"content":55,"excerpt":8,"slug":56,"end_date":10,"tags":57,"createdAt":58,"updatedAt":58,"event_categories":59,"image":63},"2019-03-24","活學營養：活得有骨氣・預防骨質疏鬆","\n\n都巿人常見的毛病：骨質疏鬆\u003Cbr\u003E\n是否年紀大才有骨質疏鬆？西方人飲食含大量鈣質，為何也會骨質疏鬆？骨質跟腸胃和情緒也有關？飲食和營養如何調理，才能令我們更有骨氣？","health1903","骨質疏鬆","2019-03-24T00:00:00.000Z",{"data":60},[61],{"id":16,"attributes":62},{"name":18,"slug":19,"description":10,"createdAt":20,"updatedAt":20},{"data":10},{"id":65,"attributes":66},79,{"start_date":67,"title":68,"content":69,"excerpt":8,"slug":70,"end_date":10,"tags":71,"createdAt":72,"updatedAt":72,"event_categories":73,"image":77},"2019-02-23","活學營養：護肝利膽・理氣明目","\n\n春天屬木，人體的五臟之中肝也是屬木，故春季是最適合養肝之時。\u003Cbr\u003E\n香港人普遍晚睡，加上食無定時，肝膽首當其衝受累，中年以後不少人更容易積聚膽石。我們如何可在繁忙的生活中護肝養膽？坊間的排膽石之法可靠嗎？\n\n日期：2019年2月23日(六) 11:00 – 12:30\u003Cbr\u003E\n地點：旺角登打士街56號家樂坊15樓安利體驗館鑽石會議室\u003Cbr\u003E\n費用：每堂$30\u003Cbr\u003E\n名額：16人","health1902","膽石","2019-02-02T00:00:00.000Z",{"data":74},[75],{"id":16,"attributes":76},{"name":18,"slug":19,"description":10,"createdAt":20,"updatedAt":20},{"data":10},{"id":79,"attributes":80},77,{"start_date":81,"title":82,"content":83,"excerpt":8,"slug":84,"end_date":10,"tags":85,"createdAt":86,"updatedAt":86,"event_categories":87,"image":91},"2019-01-27","活學營養：驅寒保暖・大寒養生","\n\n大寒為陰陽交接的節氣。大寒(2019年為1月20日）養生養得好，冬天不怕凍，全年身體好！\u003Cbr\u003E\n－大寒氣候特點\u003Cbr\u003E\n－飲食、營養及生活養生妙法\u003Cbr\u003E\n－簡易拉筋及穴位拍打\n\n日期：2019年1月12日(六)及1月27日(日)\u003Cbr\u003E\n時間：下午3：00 - 4：30\u003Cbr\u003E\n地點：旺角登打士街56號家樂坊15樓安利體驗館鑽石房\u003Cbr\u003E\n費用：每堂$30\u003Cbr\u003E\n名額：16人\u003Cbr\u003E\n備註：兩課獨立內容，可單獨報名","health1901","養生,大寒","2019-01-27T00:00:00.000Z",{"data":88},[89],{"id":16,"attributes":90},{"name":18,"slug":19,"description":10,"createdAt":20,"updatedAt":20},{"data":10},{"id":93,"attributes":94},18,{"start_date":95,"title":96,"content":97,"excerpt":8,"slug":98,"end_date":10,"tags":99,"createdAt":100,"updatedAt":100,"event_categories":101,"image":105},"2017-04-29","如何提昇小孩專注力?","\n\n如何提昇小孩專注力? 專注力同飲食有密切關係?\n\n沒吃早餐又或吃錯食物, 原來是會讓孩子專注力不集中. 研究指出, 飲食失調與缺乏微量元素均會造成過動現象. 若果孩子過度活潑好動, 可能只要從日常飲食習慣作出調整, 便能讓孩子變得安靜而且注意力集中!\n講座內容:\n\n- 如何透過調整飲食習慣提昇孩子專注力\u003Cbr\u003E\n- 取代糖果糖品飲料，自製讓孩子食得健康的簡單小食\n\n日期：29\u002F4\u002F2017 星期六\u003Cbr\u003E\n時間：15:00-16:30\u003Cbr\u003E\n地點：荃灣海盛路祈德尊新村商業中心三樓，香港青年協會-荃灣室內體育中心\u003Cbr\u003E\n費用：免費","nutrition1704","專注力,兒童營養","2017-04-29T00:00:00.000Z",{"data":102},[103],{"id":16,"attributes":104},{"name":18,"slug":19,"description":10,"createdAt":20,"updatedAt":20},{"data":10},{"pagination":107},{"page":108,"pageSize":109,"pageCount":108,"total":110},2,12,19],"uses":{"dependencies":["http://127.0.0.1:1337/api/events?sort=start_date%3Adesc&populate[author]=true&populate[event_categories]=true&populate[image]=true&pagination[page]=2&pagination[pageSize]=12&filters[event_categories][slug]=nutrition"],"params":["page","category"]}}]}