{"type":"data","nodes":[{"type":"data","data":[{"categories":1,"event_categories":27},[2,9,15,21],{"id":3,"attributes":4},1,{"slug":5,"name":6,"description":7,"createdAt":8,"updatedAt":8},"nutrition","營養隨筆",null,"2023-02-12T02:39:02.691Z",{"id":10,"attributes":11},2,{"slug":12,"name":13,"description":7,"createdAt":14,"updatedAt":14},"reflection","感悟隨筆","2023-02-12T02:39:02.692Z",{"id":16,"attributes":17},3,{"slug":18,"name":19,"description":7,"createdAt":20,"updatedAt":20},"fitness","運動筆記","2023-02-12T02:39:02.697Z",{"id":22,"attributes":23},4,{"slug":24,"name":25,"description":7,"createdAt":26,"updatedAt":26},"spiritual","心靈勵志","2023-02-12T02:39:02.698Z",[28,33,38,43,47,52],{"id":3,"attributes":29},{"name":30,"slug":31,"description":7,"createdAt":32,"updatedAt":32},"讀書會","book-sharing","2023-02-12T02:38:55.939Z",{"id":16,"attributes":34},{"name":35,"slug":36,"description":7,"createdAt":37,"updatedAt":37},"文化導賞","cultural","2023-02-12T02:38:55.943Z",{"id":22,"attributes":39},{"name":40,"slug":41,"description":7,"createdAt":42,"updatedAt":42},"遊山玩水","hiking","2023-02-12T02:38:55.946Z",{"id":44,"attributes":45},5,{"name":46,"slug":18,"description":7,"createdAt":42,"updatedAt":42},"健體運動",{"id":48,"attributes":49},6,{"name":50,"slug":5,"description":7,"createdAt":51,"updatedAt":51},"活學營養","2023-02-12T02:38:55.947Z",{"id":10,"attributes":53},{"name":54,"slug":55,"description":7,"createdAt":56,"updatedAt":57},"名人面對面","be-our-guest","2023-02-12T02:38:55.942Z","2023-03-08T13:16:12.875Z"],"uses":{"dependencies":["http://127.0.0.1:1337/api/categories?","http://127.0.0.1:1337/api/event-categories?"]},"slash":"always"},{"type":"data","data":[{"data":1,"meta":174},[2,22,36,50,64,78,92,106,120,134,148,160],{"id":3,"attributes":4},73,{"start_date":5,"title":6,"content":7,"excerpt":8,"slug":9,"end_date":10,"tags":11,"createdAt":12,"updatedAt":12,"event_categories":13,"image":21},"2019-02-09","新春行大運：鴨仔山","\n\n新一年繼續步步高陞，今次我們探訪將軍澳區居民的後花園 -- 鴨仔山！\u003Cbr\u003E\n鴨仔山高約152米，上坡幅度平緩適中；浴途俯瞰牛尾海，途經舊無線電線城，以香港科技大學作終點。\u003Cbr\u003E\n行完山，一齊在科技大學校園食埋晏先走！🍜\u003Cbr\u003E\n今次登山路線：寶琳地鐵站 》鴨仔山 》 清水灣道 》 銀影路 》 香港科技大學\u003Cbr\u003E\n（預計行山時間為1.5小時）\u003Cbr\u003E\n備註：大部分為石屎路，當中有樓梯上落。\u003Cbr\u003E\n日期：9\u002F2\u002F2019 星期六 (年初五)\u003Cbr\u003E\n時間：9:30-13:00（若不午餐，預計12:00到科技大學）\u003Cbr\u003E\n集合地點：寶琳地鐵站B出口","","hiking1902",null,"鴨仔山,清水灣道,香港科技大學","2019-02-09T00:00:00.000Z",{"data":14},[15],{"id":16,"attributes":17},4,{"name":18,"slug":19,"description":10,"createdAt":20,"updatedAt":20},"遊山玩水","hiking","2023-02-12T02:38:55.946Z",{"data":10},{"id":23,"attributes":24},75,{"start_date":25,"title":26,"content":27,"excerpt":8,"slug":28,"end_date":10,"tags":29,"createdAt":30,"updatedAt":30,"event_categories":31,"image":35},"2019-01-20","周末郊遊鬆一鬆：新年步步高陞 -- 細味纜車徑","\n\n平時侷促在辦公室及煩囂市區，放假一於逃離市區抖抖氣！\u003Cbr\u003E\n今次我地由中環出發，經中區自然徑（纜車徑）沿纜車軌道而上，回顧殖民時代的點滴，觀賞英式設計的纜車站，途經政務司司長官邸，並飽覽維港兩岸景色，以山頂廣場作終點。\n\n行完山，一齊坐車去灣仔，食埋晏歎埋茶先走！\u003Cbr\u003E\n今次登山路線： 中區自然徑（纜車徑及漆咸徑）-\u003E 白加道 -\u003E 山頂纜車站（預計行山時間為3小時）\u003Cbr\u003E\n由山頂往灣仔約需20分鐘車程。\u003Cbr\u003E\n備註：水泥路面，緩步上山\u003Cbr\u003E\n日期：20\u002F1\u002F2019 星期日\u003Cbr\u003E\n時間：9:30-15:30\u003Cbr\u003E\n集合地點： 長江集團中心正門\u003Cbr\u003E\n由中環港鐵站 J2出口約行5分鐘（9:30，不見即散）\u003Cbr\u003E\n預計最遲1點到灣仔午飯","hiking1901","纜車徑,山頂","2019-01-20T00:00:00.000Z",{"data":32},[33],{"id":16,"attributes":34},{"name":18,"slug":19,"description":10,"createdAt":20,"updatedAt":20},{"data":10},{"id":37,"attributes":38},63,{"start_date":39,"title":40,"content":41,"excerpt":8,"slug":42,"end_date":10,"tags":43,"createdAt":44,"updatedAt":44,"event_categories":45,"image":49},"2018-12-08","周末郊遊鬆一鬆: 香港千島湖- 大欖涌水塘","\n\n侷促在辦公室及煩囂市區，放假一於逃離市區抖抖氣！\u003Cbr\u003E\n今次我地由元朗楊屋村出發，經黃泥墩水塘，沿著麥理浩徑十段，行至大檻掃管笏作終點。\u003Cbr\u003E\n沿途風景優美，飽覧有香港千島湖之稱的大欖涌水塘！\u003Cbr\u003E\n行完山，一齊坐車去三聖村，食埋晏歎埋茶先走！\u003Cbr\u003E\n今次登山路線：大棠楊屋村-\u003E麥理浩徑十段-\u003E掃管笏（預計行山時間為3小時）\u003Cbr\u003E\n備註：\n由朗屏集合坐K66巴士預計半小時，由掃管笏往黃金海岸約需20分鐘。\n水泥路面，輕鬆易走\n日期：8\u002F12\u002F2018 星期六\u003Cbr\u003E\n時間：9:30-15:30\u003Cbr\u003E\n集合地點：朗屏港鐵站B出口（9：30，不見即散）\u003Cbr\u003E\n預計最遲2點會到三聖村午飯","hiking1812","大欖涌水塘,千島湖","2018-12-08T00:00:00.000Z",{"data":46},[47],{"id":16,"attributes":48},{"name":18,"slug":19,"description":10,"createdAt":20,"updatedAt":20},{"data":10},{"id":51,"attributes":52},65,{"start_date":53,"title":54,"content":55,"excerpt":8,"slug":56,"end_date":10,"tags":57,"createdAt":58,"updatedAt":58,"event_categories":59,"image":63},"2018-11-10","周末郊遊鬆一鬆:古蹟石橋- 香港仔水塘","\n\n平時侷促在辦公室及煩囂市區，放假一於逃離市區抖抖氣！\u003Cbr\u003E\n今次我地由金鐘出發，沿灣仔峽道道上山，經過警隊博物館，再徐徐下山往香港仔終點。\u003Cbr\u003E\n香港仔水塘於1931年落成，內有四項法定古蹟：上水塘的大壩、大壩石橋、壩上的水掣泵房、下水塘的大壩。\u003Cbr\u003E\n行完山，一齊在香港仔食埋晏歎埋茶先走！\u003Cbr\u003E\n今次登山路線：灣仔峽道-\u003E寶雲道-\u003E警隊博物館-\u003E香港仔水塘（預計行山時間為2小時）\u003Cbr\u003E\n備註：輕鬆易走，除了前段上山有段長命斜\u003Cbr\u003E\n日期：10\u002F11\u002F2018 星期六\u003Cbr\u003E\n時間：9:30-14:30\u003Cbr\u003E\n集合地點：金鐘地鐵站F出口，太古廣場第三期，電梯上地面的出口地面等！（9:30，不見即散）","hiking1811","香港仔水塘","2018-11-10T00:00:00.000Z",{"data":60},[61],{"id":16,"attributes":62},{"name":18,"slug":19,"description":10,"createdAt":20,"updatedAt":20},{"data":10},{"id":65,"attributes":66},61,{"start_date":67,"title":68,"content":69,"excerpt":8,"slug":70,"end_date":10,"tags":71,"createdAt":72,"updatedAt":72,"event_categories":73,"image":77},"2018-10-13","週末郊遊鬆一鬆：香港郊野十景之一「河背水塘」","\n\n平時侷促在辦公室及煩囂市區，放假一於逃離市區抖抖氣！\u003Cbr\u003E\n今次我們會漫步往曾獲選為香港十景之一的河背水塘。沿途景色開揚，俯瞰錦田八鄉並遠眺元朗市中心。\u003Cbr\u003E\n行完山，一齊食埋晏先走！\u003Cbr\u003E\n預計行山時間為2.5小時。\u003Cbr\u003E\n備註：沿途以平路及林蔭山徑為主，河背村附近一段是斜路。\u003Cbr\u003E\n日期：13\u002F10\u002F2018 星期日\u003Cbr\u003E\n集合時間：上午9:30，不見即散 (若不午餐，預計13:00到河背村坐小巴到元朗市中心)\u003Cbr\u003E\n集合地點：西鐵錦上路站C出口集合 (前往坐71號小巴或的的士)\u003Cbr\u003E\n路線： 河背村-\u003E河背水塘-\u003E河背村\u003Cbr\u003E\n午餐暫定13:45-15:00，於元朗某家酒樓，地點稍後確定。\u003Cbr\u003E\n若不午餐，請報名時註明。","hiking1810","河背水塘","2018-10-13T00:00:00.000Z",{"data":74},[75],{"id":16,"attributes":76},{"name":18,"slug":19,"description":10,"createdAt":20,"updatedAt":20},{"data":10},{"id":79,"attributes":80},56,{"start_date":81,"title":82,"content":83,"excerpt":8,"slug":84,"end_date":10,"tags":85,"createdAt":86,"updatedAt":86,"event_categories":87,"image":91},"2018-06-02","週末郊遊鬆一鬆：城門水塘觀賞白千層","\n\n平時侷促在辦公室及煩囂市區，放假一於逃離市區抖抖氣！\u003Cbr\u003E\n今次我地環繞城門水塘一圈，觀賞塘畔的白千層。漫步水塘、欣賞醉人景緻、細聽猴子猴孫吱吱私語。\u003Cbr\u003E\n行完山，一齊飲埋茶，食埋晏先走！\u003Cbr\u003E\n預計行山時間為3小時\u003Cbr\u003E\n備註：切勿帶膠袋\u002F背心袋\u002F單揹環保袋，沿途不建議邊行邊食小食。\u003Cbr\u003E\n日期：2\u002F6\u002F2018 星期六\u003Cbr\u003E\n時間：9:15-14:30（若不午餐，預計13:30到荃灣）\u003Cbr\u003E\n集合地點：\u003Cbr\u003E\n選項1: 10:00於城門水塘小巴總站\u003Cbr\u003E\n選項2: 09:15於荃灣地鐵站綠楊坊出口等\u003Cbr\u003E\n*若不標明，就當大家是在選項二集合","hiking1806","城門水塘","2018-06-02T00:00:00.000Z",{"data":88},[89],{"id":16,"attributes":90},{"name":18,"slug":19,"description":10,"createdAt":20,"updatedAt":20},{"data":10},{"id":93,"attributes":94},45,{"start_date":95,"title":96,"content":97,"excerpt":8,"slug":98,"end_date":10,"tags":99,"createdAt":100,"updatedAt":100,"event_categories":101,"image":105},"2018-05-22","行山團 - 砲台探秘","\n\n每天工作於侷促的辦公室，行走在煩囂的市區，放假當然要逃出市區抖抖氣！\u003Cbr\u003E\n今次我地由油塘高超道出發，經過魔鬼山砲台，沿途風光明媚，可遠眺港島的柏架山及西灣河一帶，東觀釣魚翁，南瞰鯉魚門及柴灣，西望九龍東、港島北，俯瞰將軍澳，一嘗大地在我腳下的滋味。\u003Cbr\u003E\n行完山，一齊行到將軍澳新都城，食埋晏歎埋茶先走！\u003Cbr\u003E\n今次登山路線：油塘高超道-\u003E魔鬼山-\u003E五桂山-\u003E茅湖山-\u003E靈實醫院\u003Cbr\u003E\n（預計行山時間為3小時）\u003Cbr\u003E\n日期：22\u002F5\u002F2018 星期二（公眾假期）\u003Cbr\u003E\n時間：9:30-14:30 （預計13:00到新都城）\u003Cbr\u003E\n集合地點：油塘港鐵站A2出口（9：30，不見即散）","hiking1805","魔鬼山,五桂山,茅湖山","2018-05-22T00:00:00.000Z",{"data":102},[103],{"id":16,"attributes":104},{"name":18,"slug":19,"description":10,"createdAt":20,"updatedAt":20},{"data":10},{"id":107,"attributes":108},43,{"start_date":109,"title":110,"content":111,"excerpt":8,"slug":112,"end_date":10,"tags":113,"createdAt":114,"updatedAt":114,"event_categories":115,"image":119},"2018-04-21","周末郊遊鬆一鬆：都市綠洲- 藍地水塘","\n\n平時侷促在辦公室及煩囂市區，放假一於逃離市區抖抖氣！\u003Cbr\u003E\n今次我地探訪環境清幽的屯門藍地水塘。\u003Cbr\u003E\n藍地水塘建於1957年，為灌溉水塘之一，水塘雖小，但環境清幽風景如畫。\u003Cbr\u003E\n由屯門市出發，沿途風光明媚，途中可以俯瞰屯門市景色，並經過富有特色的七色彩虹欄杆。\u003Cbr\u003E\n行完山，一齊在嶺大校園內酒樓食埋晏先走！\u003Cbr\u003E\n同場加映：嶺南大學導賞（有意參加的朋友可以午餐後留下，導賞約30分鐘）\u003Cbr\u003E\n今次登山路線：屯門何福堂 》 麥徑十段 》 屯門徑二段 》 沿藍地水塘到大水壩 》 虎地下村\u003Cbr\u003E\n（預計行山時間為3小時）\u003Cbr\u003E\n備註：大部分為石屎路，當中有樓梯上落。\u003Cbr\u003E\n日期：21\u002F4\u002F2018 星期六\u003Cbr\u003E\n時間：9:30-14:30（若不午餐，預計12:30到嶺南大學）\u003Cbr\u003E\n集合地點：屯門西鐵站 A出口杯渡路（9:30，不見即散）","hiking1804","藍地水塘","2018-04-21T00:00:00.000Z",{"data":116},[117],{"id":16,"attributes":118},{"name":18,"slug":19,"description":10,"createdAt":20,"updatedAt":20},{"data":10},{"id":121,"attributes":122},50,{"start_date":123,"title":124,"content":125,"excerpt":8,"slug":126,"end_date":10,"tags":127,"createdAt":128,"updatedAt":128,"event_categories":129,"image":133},"2018-03-11","周末郊遊鬆一鬆：海闊天空 -- 山頂西高山","\n\n平時侷促在辦公室及煩囂市區，放假一於逃離市區抖抖氣！\u003Cbr\u003E\n今次我地由山頂出發，步步高升走樓梯上西高山，沿途飽覽薄扶林水塘、數碼港，並遠眺南丫島，登頂後更可一覽無遺地觀賞維港兩岸景色。\u003Cbr\u003E\n下山時尋找維多利亞城界石及松林炮台遺址 -- 松林廢堡。\u003Cbr\u003E\n行完山，一齊去西營盤食埋晏歎埋茶先走！\u003Cbr\u003E\n今次登山路線：山頂 › 西高山 › 松林廢堡 › 香港大學（預計行山時間為2.5小時）\u003Cbr\u003E\n由中環碼頭集合坐15號巴士\u003Cbr\u003E\n日期：11\u002F3\u002F2018 星期日\u003Cbr\u003E\n時間：9:30-14:30\u003Cbr\u003E\n集合地點：中環5號碼頭巴士總站（9：30，不見即散）坐15巴士前往山頂\u003Cbr\u003E\n預計10:15到山頂\u003Cbr\u003E\n預計12:45-13:00到香港大學附近\u003Cbr\u003E\n預計食晏時間：13:30-14:30","hiking1803","山頂,西高山","2018-03-11T00:00:00.000Z",{"data":130},[131],{"id":16,"attributes":132},{"name":18,"slug":19,"description":10,"createdAt":20,"updatedAt":20},{"data":10},{"id":135,"attributes":136},47,{"start_date":137,"title":138,"content":139,"excerpt":8,"slug":140,"end_date":10,"tags":141,"createdAt":142,"updatedAt":142,"event_categories":143,"image":147},"2018-02-19","新春行大運: 綠風草原- 小夏威夷徑","\n\n侷促在辦公室及煩囂市區，放假一於逃離市區抖抖氣！\u003Cbr\u003E\n今次我地由西貢井欄樹出發，經過百多年前村民的私人遊泳池遺址，並近距離觀看小夏威夷瀑布，遠眺將軍澳市景。\u003Cbr\u003E\n沿途風景優美，雖在冬天亦可以感受到夏天的流水潺潺！\u003Cbr\u003E\n行完山，一齊去寶琳邨食埋晏歎埋茶先走！\u003Cbr\u003E\n今次登山路線：井欄樹 › 衛奕信徑三段 › 小夏威夷徑 › 水壩 › 將軍澳村（預計行山時間為2小時）\u003Cbr\u003E\n由鑽石山港鐵站集合坐91\u002F91M巴士\u003Cbr\u003E\n日期：19\u002F2\u002F2018 星期一（年初四）\u003Cbr\u003E\n時間：9:30-14:30\u003Cbr\u003E\n集合地點：鑽石山港鐵站C2出口（9：30，不見即散）\u003Cbr\u003E\n預計12:30會到寶琳邨午飯","hiking1802","小夏威夷徑,新春行大運","2018-02-19T00:00:00.000Z",{"data":144},[145],{"id":16,"attributes":146},{"name":18,"slug":19,"description":10,"createdAt":20,"updatedAt":20},{"data":10},{"id":149,"attributes":150},41,{"start_date":151,"title":40,"content":152,"excerpt":8,"slug":153,"end_date":10,"tags":43,"createdAt":154,"updatedAt":154,"event_categories":155,"image":159},"2018-01-27","\n平時侷促在辦公室及煩囂市區，放假一於逃離市區抖抖氣！🚶\u003Cbr\u003E\n今次我地由元朗楊屋村出發，經黃泥墩水塘，沿著麥理浩徑十段，行至大檻掃管笏作終點。\u003Cbr\u003E\n沿途風景優美，飽覧有香港千島湖之稱的大欖涌水塘！\u003Cbr\u003E\n行完山，一齊坐車去三聖村，食埋晏歎埋茶先走！🍜\u003Cbr\u003E\n今次登山路線：大棠楊屋村-\u003E麥理浩徑第十段-\u003E掃管笏（預計行山時間為3小時）\n\n備註：\n由朗屏集合坐K66巴士預計半小時，由掃管笏往黃金海岸約需20分鐘。\u003Cbr\u003E\n水泥路面，輕鬆易走\n日期：27\u002F1\u002F2018 星期六\u003Cbr\u003E\n時間：9:30-15:30\u003Cbr\u003E\n集合地點：朗屏港鐵站B出口（9：30，不見即散）\u003Cbr\u003E\n預計最遲2點會到三聖村午飯","hiking1801","2018-01-27T00:00:00.000Z",{"data":156},[157],{"id":16,"attributes":158},{"name":18,"slug":19,"description":10,"createdAt":20,"updatedAt":20},{"data":10},{"id":161,"attributes":162},35,{"start_date":163,"title":164,"content":165,"excerpt":8,"slug":166,"end_date":10,"tags":167,"createdAt":168,"updatedAt":168,"event_categories":169,"image":173},"2017-12-26","周末郊遊鬆一鬆@寫意寧靜－大潭水塘","\n\n平時侷促在辦公室及煩囂市區，放假一於逃離市區抖抖氣！\u003Cbr\u003E\n今次我地由鰂魚涌出發，沿柏架山道上山至300米高的大風坳，再徐徐下山，經過大潭水塘至大潭道終點。\u003Cbr\u003E\n沿途遠眺港島東及九龍東的景色，飽覧大潭上水塘、大潭副水塘、大潭中水塘及大潭篤水塘，細心留意，或會發現松鼠蹤跡呢🐿！\u003Cbr\u003E\n除了自然景色之外，沿途亦經過有百多年歷史，興建於1920代年的紅屋，現被列為香港二級歷史建築。\u003Cbr\u003E\n行完山，一齊坐車返西灣河，食埋晏歎埋茶先走！\u003Cbr\u003E\n今次登山路線：鰂魚涌-\u003E柏架山道-\u003E大風坳-\u003E大潭水塘-\u003E大潭道（預計行山時間為2.5小時）\u003Cbr\u003E\n備註：混凝土路面，輕鬆易走\u003Cbr\u003E\n日期：26\u002F12\u002F2016 星期二（公眾假期）\u003Cbr\u003E\n時間：9:30-14:30\u003Cbr\u003E\n集合地點：鰂魚涌港鐵站A出口（9：30，不見即散）","hiking1712","大潭水塘","2017-12-26T00:00:00.000Z",{"data":170},[171],{"id":16,"attributes":172},{"name":18,"slug":19,"description":10,"createdAt":20,"updatedAt":20},{"data":10},{"pagination":175},{"page":176,"pageSize":177,"pageCount":178,"total":179},2,12,3,31],"uses":{"dependencies":["http://127.0.0.1:1337/api/events?sort=start_date%3Adesc&populate[author]=true&populate[event_categories]=true&populate[image]=true&pagination[page]=2&pagination[pageSize]=12&filters[event_categories][slug]=hiking"],"params":["page","category"]}}]}