{"type":"data","nodes":[{"type":"data","data":[{"categories":1,"event_categories":27},[2,9,15,21],{"id":3,"attributes":4},1,{"slug":5,"name":6,"description":7,"createdAt":8,"updatedAt":8},"nutrition","營養隨筆",null,"2023-02-12T02:39:02.691Z",{"id":10,"attributes":11},2,{"slug":12,"name":13,"description":7,"createdAt":14,"updatedAt":14},"reflection","感悟隨筆","2023-02-12T02:39:02.692Z",{"id":16,"attributes":17},3,{"slug":18,"name":19,"description":7,"createdAt":20,"updatedAt":20},"fitness","運動筆記","2023-02-12T02:39:02.697Z",{"id":22,"attributes":23},4,{"slug":24,"name":25,"description":7,"createdAt":26,"updatedAt":26},"spiritual","心靈勵志","2023-02-12T02:39:02.698Z",[28,33,38,43,47,52],{"id":3,"attributes":29},{"name":30,"slug":31,"description":7,"createdAt":32,"updatedAt":32},"讀書會","book-sharing","2023-02-12T02:38:55.939Z",{"id":16,"attributes":34},{"name":35,"slug":36,"description":7,"createdAt":37,"updatedAt":37},"文化導賞","cultural","2023-02-12T02:38:55.943Z",{"id":22,"attributes":39},{"name":40,"slug":41,"description":7,"createdAt":42,"updatedAt":42},"遊山玩水","hiking","2023-02-12T02:38:55.946Z",{"id":44,"attributes":45},5,{"name":46,"slug":18,"description":7,"createdAt":42,"updatedAt":42},"健體運動",{"id":48,"attributes":49},6,{"name":50,"slug":5,"description":7,"createdAt":51,"updatedAt":51},"活學營養","2023-02-12T02:38:55.947Z",{"id":10,"attributes":53},{"name":54,"slug":55,"description":7,"createdAt":56,"updatedAt":57},"名人面對面","be-our-guest","2023-02-12T02:38:55.942Z","2023-03-08T13:16:12.875Z"],"uses":{"dependencies":["http://127.0.0.1:1337/api/categories?","http://127.0.0.1:1337/api/event-categories?"]},"slash":"always"},{"type":"data","data":[{"data":1,"meta":194},[2,23,42,60,78,90,103,118,135,147,162,176],{"id":3,"attributes":4},105,{"title":5,"content":6,"start_date":7,"excerpt":8,"slug":9,"end_date":10,"tags":11,"createdAt":12,"updatedAt":12,"event_categories":13,"image":22},"環球局勢千變萬化，香港如何自處","\n\n講題：\u003Cbr\u003E\n從金融、科技、地緣政治剖析環球局勢\u003Cbr\u003E\n中美、日韓相繼爆發貿易戰，英國脫歐談判陷入僵局，中東局勢不穩，全球經濟增長放緩；香港自身的社會矛盾日益加劇，零售市道低迷......面對重重挑戰，香港如何自處？\n\nEmpower榮幸邀得著名經濟學家、英國牛津大學博士、嶺南大學前校長陳坤耀教授親臨8月名人面對面，從地緣政治、金融經濟及科技發展三方面，宏觀剖析環球局勢，微觀探討香港的危與機；曾任前海創新研究院院長的陳教授，亦會就香港與內地合作關係的變化及前海深港合作的成效，闡釋其獨到見解。相信陳教授的一席話，定能助大家釐清思緒，掌握當今時局；早著先機，規劃未來方向。\n\n日期：2019年8月24日(星期六)\u003Cbr\u003E\n時間：晚上6:20-9:00\u003Cbr\u003E\n地點：九龍旺角登打士街56號家樂坊15樓安利體驗館會議室B\u003Cbr\u003E\n費用：$90 (包三文治及飲品)\n\n陳坤耀教授, GBS, CBE, JP：\u003Cbr\u003E\n英國牛津大學經濟學哲學博士\u003Cbr\u003E\n香港大學專業進修學院董事局主席\u003Cbr\u003E\n香港大學香港人文社會研究所傑出院士\u003Cbr\u003E\n香港金融管理局香港金融研究中心顧問委員會主席\u003Cbr\u003E\n深圳市前海創新研究院前院長\u003Cbr\u003E\n九龍倉、第一太平等多家上市公司的獨立董事\n","2019-08-24","陳坤耀教授, GBS, CBE, JP","edward-chan",null,"金融經濟,教育制度,環球局勢","2019-08-24T00:00:00.000Z",{"data":14},[15],{"id":16,"attributes":17},2,{"name":18,"slug":19,"description":10,"createdAt":20,"updatedAt":21},"名人面對面","be-our-guest","2023-02-12T02:38:55.942Z","2023-03-08T13:16:12.875Z",{"data":10},{"id":24,"attributes":25},102,{"title":26,"content":27,"start_date":28,"excerpt":29,"slug":30,"end_date":10,"tags":31,"createdAt":32,"updatedAt":32,"event_categories":33,"image":41},"周末鬆一鬆：保齡球同樂","\n\n日期：2019年8月10日(六)\u003Cbr\u003E\n時間：上午11:00-14:00\u003Cbr\u003E\n地點：長沙彎昇悅居會所\u003Cbr\u003E\n費用：$80\u002F位(包括租用一對保齡球鞋費用)\u003Cbr\u003E\n打完保齡，一齊食午餐交流，費用自付，時間預計13:00-14:00","2019-08-10","","bowling1908","保齡","2019-08-10T00:00:00.000Z",{"data":34},[35],{"id":36,"attributes":37},5,{"name":38,"slug":39,"description":10,"createdAt":40,"updatedAt":40},"健體運動","fitness","2023-02-12T02:38:55.946Z",{"data":10},{"id":43,"attributes":44},99,{"title":45,"content":46,"start_date":47,"excerpt":29,"slug":48,"end_date":10,"tags":49,"createdAt":50,"updatedAt":50,"event_categories":51,"image":59},"讀書會 - 主題：經濟·商業","\n\n經濟及商業模式在過去十多年經歷翻天覆地的變化。要探討當中的經濟發展規律及經濟現象成因，離不開剖析社會、政治與民族文化。\u003Cbr\u003E\n是次讀書會以\"經濟·商業\"出發，不僅希望藉閱讀與分享，讓我們加強掌握經邦濟世之道，更希望多方面探索世界，對大環境趨勢加深理解。\u003Cbr\u003E\n誠邀各位一起閱讀，交流討論，集思廣益，共同學習，共同進步！\u003Cbr\u003E\n說書人：4位 (每位15分鐘)\u003Cbr\u003E\n愛書人：12位\u003Cbr\u003E\n日期：21\u002F7\u002F2019 (星期日)\u003Cbr\u003E\n時間：11:00-13:15\u003Cbr\u003E\n地點：據點・句點＠石硤尾賽馬會創意藝術中心三樓L306D\u003Cbr\u003E\n費用：$70 (包1杯飲品及小食)\u003Cbr\u003E\n名額：16人","2019-07-21","bookshare1907","經濟,商業","2019-07-21T00:00:00.000Z",{"data":52},[53],{"id":54,"attributes":55},1,{"name":56,"slug":57,"description":10,"createdAt":58,"updatedAt":58},"讀書會","book-sharing","2023-02-12T02:38:55.939Z",{"data":10},{"id":61,"attributes":62},92,{"title":63,"content":64,"start_date":65,"excerpt":29,"slug":66,"end_date":10,"tags":67,"createdAt":68,"updatedAt":68,"event_categories":69,"image":77},"擊退三高: 控糖護心","\n\n香港有近五成人超重，當中一半有高血壓、高膽固醇。\u003Cbr\u003E\n- 高血糖、高血壓、高血脂的成因是什麼？除食藥控制外，還有更好的方法嗎？\u003Cbr\u003E\n- 如何控糖降糖? 三高可引發心血管病，可如何護心？\u003Cbr\u003E\n- 如何透過改善飲食及生活習慣，並運用有機營養素，撃退三高， 從此輕鬆！\n\n日期： 2019年7月20日(六) 11:00 – 12:30\u003Cbr\u003E\n2019年7月27日(六) 11:00 – 12:30\u003Cbr\u003E\n地點：旺角登打士街56號家樂坊15樓安利體驗館鑽石房\u003Cbr\u003E\n費用：每堂$30\u003Cbr\u003E\n名額：16人\u003Cbr\u003E\n備註：兩課獨立內容，可單獨報名","2019-07-20","health1907","三高,血糖","2019-07-20T00:00:00.000Z",{"data":70},[71],{"id":72,"attributes":73},6,{"name":74,"slug":75,"description":10,"createdAt":76,"updatedAt":76},"活學營養","nutrition","2023-02-12T02:38:55.947Z",{"data":10},{"id":79,"attributes":80},91,{"title":26,"content":81,"start_date":82,"excerpt":29,"slug":83,"end_date":10,"tags":31,"createdAt":84,"updatedAt":84,"event_categories":85,"image":89},"\n\n日期：2019年7月13日(六)\u003Cbr\u003E\n時間：上午11:00-14:00\u003Cbr\u003E\n地點：荃灣灣景花園保齡球場\u003Cbr\u003E\n費用：$80\u002F位(包括租用一對保齡球鞋費用)，\u003Cbr\u003E\n打完保齡，一齊食午餐交流，費用自付，時間預計13:00-14:00","2019-07-13","bowling1907","2019-07-13T00:00:00.000Z",{"data":86},[87],{"id":36,"attributes":88},{"name":38,"slug":39,"description":10,"createdAt":40,"updatedAt":40},{"data":10},{"id":91,"attributes":92},113,{"title":93,"content":94,"start_date":82,"excerpt":95,"slug":96,"end_date":10,"tags":97,"createdAt":84,"updatedAt":84,"event_categories":98,"image":102},"穿梭中亞三國-談歷史，說故事","\n\n主講嘉賓：自由創作人馮珍今女士\u003Cbr\u003E\n-香港中文大學中文系文學士及教育碩士\u003Cbr\u003E\n-資深教育工作者，致力推動文學教育\u003Cbr\u003E\n-近年愛遊走四方，並樂於寫作，分享人生路上的見聞感思\u003Cbr\u003E\n-著有散文集《見雪在巴黎》、《我的學生二三事》、《字裏風景》，童書《奇幻泡泡與石頭貓》、《中國人的故事：詩人和小說家的才華》，遊記《走進中亞三國--尋找絲路的故事》、《字旅相逢--香港文化人訪談錄》等。\n\n講題：\n絲路萬里，六千里在中亞；中國與中亞的關係千絲萬縷，為你帶來看不盡的人生風景！\n\n日期：2019年7月13日(星期六)\u003Cbr\u003E\n時間：晚上7:15-9:30\u003Cbr\u003E\n地點：九龍旺角登打士街56號家樂坊15樓安利體驗館會議室B\u003Cbr\u003E\n費用：$90 (包三文治及飲品) ","自由創作人馮珍今女士","ms-fung","中亞,旅遊分享",{"data":99},[100],{"id":16,"attributes":101},{"name":18,"slug":19,"description":10,"createdAt":20,"updatedAt":21},{"data":10},{"id":104,"attributes":105},98,{"title":106,"content":107,"start_date":108,"excerpt":109,"slug":110,"end_date":10,"tags":111,"createdAt":112,"updatedAt":112,"event_categories":113,"image":117},"一個理念，改寫人生-公平貿易與可持續發展","\n\n梁佩鳯女士：\u003Cbr\u003E\n- 澳洲新南威爾斯大學經濟及政策研究學士\u003Cbr\u003E\n- 香港公平貿易聯盟創會主席\u003Cbr\u003E\n- 樂施會前籌募總監，曾任世貿部長級會議－國際樂施會代表團成員\n\n講題：\u003Cbr\u003E\n💡如何在香港開創公平貿易的先河？當中有何理念、得著與挑戰？\u003Cbr\u003E\n💡公平貿易、可持續發展與城鄉均衡發展的關係\n\n日期：2019年6月15日(星期六)\u003Cbr\u003E\n時間：晚上7:15-9:30\u003Cbr\u003E\n地點：九龍旺角登打士街56號家樂坊15樓安利體驗館會議室B\u003Cbr\u003E\n費用：$90 (包三文治及飲品)","2019-06-15","公平棧創辦人梁佩鳯女士","ms-leung","公平貿易,創業","2019-06-15T00:00:00.000Z",{"data":114},[115],{"id":16,"attributes":116},{"name":18,"slug":19,"description":10,"createdAt":20,"updatedAt":21},{"data":10},{"id":119,"attributes":120},89,{"title":121,"content":122,"start_date":123,"excerpt":29,"slug":124,"end_date":10,"tags":125,"createdAt":126,"updatedAt":126,"event_categories":127,"image":134},"週末郊遊鬆一鬆：城門水塘觀賞白千層","\n\n平時侷促在辦公室及煩囂市區，放假一於逃離市區抖抖氣！\u003Cbr\u003E\n今次我地環繞城門水塘一圈，觀賞塘畔的白千層。漫步水塘、欣賞醉人景緻、細聽猴子猴孫吱吱私語。\u003Cbr\u003E\n行完山，一齊飲埋茶，食埋晏先走！\u003Cbr\u003E\n預計行山時間為3小時\u003Cbr\u003E\n備註：切勿帶膠袋\u002F背心袋\u002F單揹環保袋，沿途不建議邊行邊食小食。\u003Cbr\u003E\n日期：8\u002F6\u002F2019 星期六\u003Cbr\u003E\n時間：9:15-14:30（若不午餐，預計13:30到荃灣）\u003Cbr\u003E\n集合地點：\u003Cbr\u003E\n選項1: 10:00於城門水塘小巴總站\u003Cbr\u003E\n選項2: 09:15於荃灣地鐵站綠楊坊出口等\u003Cbr\u003E\n*若不標明，就當大家是在選項二集合","2019-06-08","hiking1906","城門水塘","2019-06-08T00:00:00.000Z",{"data":128},[129],{"id":130,"attributes":131},4,{"name":132,"slug":133,"description":10,"createdAt":40,"updatedAt":40},"遊山玩水","hiking",{"data":10},{"id":136,"attributes":137},87,{"title":138,"content":139,"start_date":123,"excerpt":29,"slug":140,"end_date":10,"tags":141,"createdAt":126,"updatedAt":126,"event_categories":142,"image":146},"活學營養：擊退三高","\n\n香港有近五成人超重，當中一半有高血壓、高膽固醇。\u003Cbr\u003E\n- 高血糖、高血壓、高血脂的成因是麼？除食藥控制外，還有更好的方法嗎？\u003Cbr\u003E\n- 膽固醇無分好壞？\u003Cbr\u003E\n- 如何透過改善飲食及生活習慣，並運用有機營養素，撃退三高， 從此輕鬆！\n\n日期： 2019年6月8日(六) 16:30-18:00\u003Cbr\u003E\n地點：旺角登打士街56號家樂坊15樓安利體驗館鑽石房\u003Cbr\u003E\n費用：每堂$30\u003Cbr\u003E\n名額：16人","health1906","三高,高血壓,高膽固醇,高血脂",{"data":143},[144],{"id":72,"attributes":145},{"name":74,"slug":75,"description":10,"createdAt":76,"updatedAt":76},{"data":10},{"id":148,"attributes":149},96,{"title":150,"content":151,"start_date":152,"excerpt":153,"slug":154,"end_date":10,"tags":155,"createdAt":156,"updatedAt":156,"event_categories":157,"image":161},"5 G 發展新方向 + 職場音樂星輝路","\n\n- 縱橫電訊業逾 23 年，於 2006 年加入和黃集團，2014 年出任流動通訊業務的企業及國際業務總監；之後短暫離開集團本部，前赴越南及印尼開拓流動通訊業務。2017年重返集團本部出任漫遊及服務發展總監，去年就任行政總裁兼執行董事\u003Cbr\u003E\n- 胡琴演奏家，歷任香港青年中樂團團長及香港青年音樂小組首席","2019-05-25","和記電訊香港執行董事兼行政總裁、胡琴高手古星輝先生","mr-ku","5G,電訊","2019-05-25T00:00:00.000Z",{"data":158},[159],{"id":16,"attributes":160},{"name":18,"slug":19,"description":10,"createdAt":20,"updatedAt":21},{"data":10},{"id":163,"attributes":164},86,{"title":165,"content":166,"start_date":167,"excerpt":29,"slug":168,"end_date":10,"tags":169,"createdAt":170,"updatedAt":170,"event_categories":171,"image":175},"讀書會-主題：人物傳記","\n\n「以銅爲鑒，可正衣冠；以古爲鑒，可知興替；以人爲鑒，可明得失。」\u003Cbr\u003E\n生命影響生命，今次讀書會，我們將分享傳記類書籍。透過別人獨到的經歷，以人為鑒，啟迪智慧與心靈。\u003Cbr\u003E\n誠邀你一起分享閱讀體驗，一同感受由文字所帶出的美妙世界。\u003Cbr\u003E\n歡迎大家，一起閱讀、一起分享、互相啟發！\u003Cbr\u003E\n說書人：4位 (每位15分鐘)\u003Cbr\u003E\n愛書人：12位\u003Cbr\u003E\n備註：分享書籍的朋友，請於16\u002F5或之前通知我們書名及作者，最好有網址連結讓我們大約知道書本內容，讓分享會更順暢進行\u003Cbr\u003E\n日期：19\u002F5\u002F2019 (星期日)\u003Cbr\u003E\n時間：11:00-13:15\u003Cbr\u003E\n地點：據點・句點＠石硤尾賽馬會創意藝術中心三樓L306D\u003Cbr\u003E\n費用：$70一位，包一杯飲品及小食\u003Cbr\u003E\n名額：16人 （四位說書人）","2019-05-19","bookshare1905","人物傳記","2019-05-19T00:00:00.000Z",{"data":172},[173],{"id":54,"attributes":174},{"name":56,"slug":57,"description":10,"createdAt":58,"updatedAt":58},{"data":10},{"id":177,"attributes":178},93,{"title":179,"content":180,"start_date":181,"excerpt":29,"slug":182,"end_date":10,"tags":183,"createdAt":184,"updatedAt":184,"event_categories":185,"image":193},"愛爾蘭咖啡(Irish Coffee) 舌尖上的愛","\n\n有人說：\n「愛爾蘭咖啡是以咖啡為名的雞尾酒，是最美麗卻最真實的謊言。」\n\n香醇的愛爾蘭威士忌，以其獨特的果香襯托著香濃的咖啡，再配以杯邊香滑的忌廉，三種截然不同的味道，碰撞出難以言喻的感覺。令人心醉，又令人一次一次昏昏欲睡。\n\n源於酒吧的愛爾蘭咖啡，背後隱藏牽動人心的愛情故事。\nEmpower 是次邀得著名咖啡師 Dr May Man 親自教授我們如何調配純正的愛爾蘭咖啡，讓我們陶醉於其醇香的同時，真切感受背後純正的愛","2019-05-18","irish-coffee","愛爾蘭咖啡，咖啡工作坊","2019-05-18T00:00:00.000Z",{"data":186},[187],{"id":188,"attributes":189},3,{"name":190,"slug":191,"description":10,"createdAt":192,"updatedAt":192},"文化導賞","cultural","2023-02-12T02:38:55.943Z",{"data":10},{"pagination":195},{"page":196,"pageSize":197,"pageCount":198,"total":199},7,12,16,188],"uses":{"dependencies":["http://127.0.0.1:1337/api/events?sort=start_date%3Adesc&populate[author]=true&populate[event_categories]=true&populate[image]=true&pagination[page]=7&pagination[pageSize]=12"],"params":["page","category"]}}]}