{"type":"data","nodes":[{"type":"data","data":[{"categories":1,"event_categories":27},[2,9,15,21],{"id":3,"attributes":4},1,{"slug":5,"name":6,"description":7,"createdAt":8,"updatedAt":8},"nutrition","營養隨筆",null,"2023-02-12T02:39:02.691Z",{"id":10,"attributes":11},2,{"slug":12,"name":13,"description":7,"createdAt":14,"updatedAt":14},"reflection","感悟隨筆","2023-02-12T02:39:02.692Z",{"id":16,"attributes":17},3,{"slug":18,"name":19,"description":7,"createdAt":20,"updatedAt":20},"fitness","運動筆記","2023-02-12T02:39:02.697Z",{"id":22,"attributes":23},4,{"slug":24,"name":25,"description":7,"createdAt":26,"updatedAt":26},"spiritual","心靈勵志","2023-02-12T02:39:02.698Z",[28,33,38,43,47,52],{"id":3,"attributes":29},{"name":30,"slug":31,"description":7,"createdAt":32,"updatedAt":32},"讀書會","book-sharing","2023-02-12T02:38:55.939Z",{"id":16,"attributes":34},{"name":35,"slug":36,"description":7,"createdAt":37,"updatedAt":37},"文化導賞","cultural","2023-02-12T02:38:55.943Z",{"id":22,"attributes":39},{"name":40,"slug":41,"description":7,"createdAt":42,"updatedAt":42},"遊山玩水","hiking","2023-02-12T02:38:55.946Z",{"id":44,"attributes":45},5,{"name":46,"slug":18,"description":7,"createdAt":42,"updatedAt":42},"健體運動",{"id":48,"attributes":49},6,{"name":50,"slug":5,"description":7,"createdAt":51,"updatedAt":51},"活學營養","2023-02-12T02:38:55.947Z",{"id":10,"attributes":53},{"name":54,"slug":55,"description":7,"createdAt":56,"updatedAt":57},"名人面對面","be-our-guest","2023-02-12T02:38:55.942Z","2023-03-08T13:16:12.875Z"],"uses":{"dependencies":["http://127.0.0.1:1337/api/categories?","http://127.0.0.1:1337/api/event-categories?"]},"slash":"always"},{"type":"data","data":[{"data":1,"meta":187},[2,22,38,52,72,86,100,113,125,140,158,172],{"id":3,"attributes":4},84,{"title":5,"content":6,"start_date":7,"excerpt":8,"slug":9,"end_date":10,"tags":11,"createdAt":12,"updatedAt":12,"event_categories":13,"image":21},"遊山玩水：海闊天空- 山頂西高山","\n\n平時侷促在辦公室及煩囂市區，放假一於逃離市區抖抖氣！🚶\u003Cbr\u003E\n今次我地由山頂出發，步步高升走樓梯上西高山，沿途飽覽薄扶林水塘、數碼港，並遠眺南丫島，登頂後更可一覽無遺地觀賞維港兩岸景色。\u003Cbr\u003E\n下山時尋找維多利亞城界石及松林炮台遺址 -- 松林廢堡。\u003Cbr\u003E\n行完山，一齊去西營盤食埋晏歎埋茶先走！🍜\u003Cbr\u003E\n今次登山路線：山頂 › 西高山 › 松林廢堡 › 香港大學（預計行山時間為2.5小時）\u003Cbr\u003E\n日期：11\u002F5\u002F2019 星期六\u003Cbr\u003E\n時間：9:30-14:30\u003Cbr\u003E\n集合地點：中環站A出口（9：30，不見即散）前往交易廣場坐15號巴士前往山頂\u003Cbr\u003E\n預計13:00到西營盤午餐\u003Cbr\u003E\n預計食晏時間：13:30-14:30","2019-05-11","","hiking1905",null,"山頂,西高山","2019-05-11T00:00:00.000Z",{"data":14},[15],{"id":16,"attributes":17},4,{"name":18,"slug":19,"description":10,"createdAt":20,"updatedAt":20},"遊山玩水","hiking","2023-02-12T02:38:55.946Z",{"data":10},{"id":23,"attributes":24},82,{"title":25,"content":26,"start_date":7,"excerpt":8,"slug":27,"end_date":10,"tags":28,"createdAt":12,"updatedAt":12,"event_categories":29,"image":37},"活學營養：腸道健康便便暢通","\n\n香港人生活忙又壓力大，便便無定時，甚至無便便。\u003Cbr\u003E\n- 腸道原來跟免疫力、心情好壞息息相關\u003Cbr\u003E\n- 便秘及玻璃肚成因\u003Cbr\u003E\n- 如何透過改善飲食及生活習慣，並運用有機營養素，令腸道舒暢，身心愉快\n\n日期： 2019年5月11日(六) 16:30-18:00\u003Cbr\u003E\n2019年5月25日(六) 11:30-13:00\u003Cbr\u003E\n地點：旺角登打士街56號家樂坊15樓安利體驗館鑽石房\u003Cbr\u003E\n費用：每堂$30\u003Cbr\u003E\n名額：16人\u003Cbr\u003E\n備註：兩課獨立內容，可單獨報名","health1905","腸道健康",{"data":30},[31],{"id":32,"attributes":33},6,{"name":34,"slug":35,"description":10,"createdAt":36,"updatedAt":36},"活學營養","nutrition","2023-02-12T02:38:55.947Z",{"data":10},{"id":39,"attributes":40},81,{"title":41,"content":42,"start_date":43,"excerpt":8,"slug":44,"end_date":10,"tags":45,"createdAt":46,"updatedAt":46,"event_categories":47,"image":51},"遊山玩水：大帽山俯瞰大地四方","\n\n平時侷促在辦公室及煩囂市區，放假一於逃離市區抖抖氣！\u003Cbr\u003E\n今次選擇了登上香港之巔－大帽山(957米高)。\u003Cbr\u003E\n由荃錦坳(478米高)出發，沿途景色開揚壯麗，若天朗氣清，能俯瞰全港：西北的錦田元朗、東西的大埔馬鞍山、南面的九龍港島皆一覽無遺。\u003Cbr\u003E\n行完山，一齊飲埋茶，食埋晏先走！\u003Cbr\u003E\n預計行山時間為2.5小時\u003Cbr\u003E\n備註：海拔較高，請帶備足夠外套保暖，並請帶備防曬用品\u003Cbr\u003E\n日期：2019年4月13日(星期六)\u003Cbr\u003E\n時間：09:30至13:00 （預計13:30-14:30午餐）\u003Cbr\u003E\n集合地點：09:30於港鐵荃灣西站 D 出口集合（坐51號巴士到郊野公園站下車），不見即散\u003Cbr\u003E\n路線：荃錦坳＞大帽山道＞大㡌山山頂＞大帽山道＞荃錦坳\u003Cbr\u003E\n活動結束後將返回荃灣一起午膳！","2019-04-13","hiking1904","大帽山","2019-04-13T00:00:00.000Z",{"data":48},[49],{"id":16,"attributes":50},{"name":18,"slug":19,"description":10,"createdAt":20,"updatedAt":20},{"data":10},{"id":53,"attributes":54},90,{"title":55,"content":56,"start_date":57,"excerpt":58,"slug":59,"end_date":10,"tags":60,"createdAt":61,"updatedAt":61,"event_categories":62,"image":71},"偏見日本 ~ 關於日本文化的三個迷思","\n\n主講嘉賓：日本史學家胡煒權博士\u003Cbr\u003E\n2007年獲日本文部科學省國費留學金留學日本，2010年取得日本廣島大學碩士(歷史與文化遺產學)學位，現為日本國立一橋大學博士，專攻日本中世史(專治戰國史)，是少數懂日本古文的華人學者。\n\n現為戰國史研究會、東北史學會、地方史研究協議會、日本歷史學會等學會會員，其著作《明智光秀與本能寺之變》及《日本戰國織豐時代史》被認為一新國人對日本研究之耳目。\n\n當晚胡博士將為大家解構以下三個迷思：\n1. 日本人歡迎新事物嗎？從電子支付說起\u003Cbr\u003E\n2. 日本人重視傳統還是守殘抱缺？\u003Cbr\u003E\n3. 軍國主義還有市場嗎？","2019-04-07","日本史學家胡煒權博士","fritz","日本文化","2019-04-07T00:00:00.000Z",{"data":63},[64],{"id":65,"attributes":66},2,{"name":67,"slug":68,"description":10,"createdAt":69,"updatedAt":70},"名人面對面","be-our-guest","2023-02-12T02:38:55.942Z","2023-03-08T13:16:12.875Z",{"data":10},{"id":73,"attributes":74},78,{"title":75,"content":76,"start_date":77,"excerpt":8,"slug":78,"end_date":10,"tags":79,"createdAt":80,"updatedAt":80,"event_categories":81,"image":85},"活學營養 遠離濕疹","\n\n香港每5人就有一個有濕疹，總有一個係左近。\u003Cbr\u003E\n- 甚麼是濕疹？有何成因？\u003Cbr\u003E\n- 類固醇的好與壞\u003Cbr\u003E\n- 如何透過改善環境、飲食及生活習慣，並運用有機營養素，令濕疹不再痕癢，甚至跟它講👋👋！\n\n日期： 2019年4月6日(六) 11:30-13:00\u003Cbr\u003E\n2019年4月27日(六) 11:30-13:00\u003Cbr\u003E\n地點：旺角登打士街56號家樂坊15樓安利體驗館鑽石房\u003Cbr\u003E\n費用：每堂$30\u003Cbr\u003E\n名額：16人\u003Cbr\u003E\n備註：兩課獨立內容，可單獨報名","2019-04-06","health1904","濕疹,類固醇","2019-04-06T00:00:00.000Z",{"data":82},[83],{"id":32,"attributes":84},{"name":34,"slug":35,"description":10,"createdAt":36,"updatedAt":36},{"data":10},{"id":87,"attributes":88},97,{"title":89,"content":90,"start_date":91,"excerpt":8,"slug":92,"end_date":10,"tags":93,"createdAt":94,"updatedAt":94,"event_categories":95,"image":99},"活學營養：活得有骨氣・預防骨質疏鬆","\n\n都巿人常見的毛病：骨質疏鬆\u003Cbr\u003E\n是否年紀大才有骨質疏鬆？西方人飲食含大量鈣質，為何也會骨質疏鬆？骨質跟腸胃和情緒也有關？飲食和營養如何調理，才能令我們更有骨氣？","2019-03-24","health1903","骨質疏鬆","2019-03-24T00:00:00.000Z",{"data":96},[97],{"id":32,"attributes":98},{"name":34,"slug":35,"description":10,"createdAt":36,"updatedAt":36},{"data":10},{"id":101,"attributes":102},88,{"title":103,"content":104,"start_date":105,"excerpt":8,"slug":106,"end_date":10,"tags":8,"createdAt":107,"updatedAt":107,"event_categories":108,"image":112},"Empower X Trailblazer運動及戶外用品專門店專享特賣","\n\n特備節目\n運動及戶外用品專門店 Trailblazer 將於3月23日下午2-4時為 Empower 舉行特賣😀，無論防跣行山鞋、跑步鞋、休閒鞋，以至衫褲和計時器等用品，均會提供極吸引的折扣優惠， *唯 Empower 友好專享* 。🤗\n\nTrailblazer 也是與正生書院陳校長合作舉行跑步工作坊的機構，並為正生書院舉行 Can Run 籌款。有關 Trailblazer 的介紹，請參考 https:\u002F\u002Ftrbzr.com，或\nFacebook.com\u002Ftrbzr","2019-03-23","trailblazer","2019-03-23T00:00:00.000Z",{"data":109},[110],{"id":16,"attributes":111},{"name":18,"slug":19,"description":10,"createdAt":20,"updatedAt":20},{"data":10},{"id":114,"attributes":115},85,{"title":116,"content":117,"start_date":105,"excerpt":8,"slug":118,"end_date":10,"tags":119,"createdAt":107,"updatedAt":107,"event_categories":120,"image":124},"周末效遊鬆一鬆: 綠風草原- 小夏威夷徑","\n\n侷促在辦公室及煩囂市區，放假一於逃離市區抖抖氣！\u003Cbr\u003E\n今次我地由寶林村出發，前往西貢井欄樹，再返回翠林村。途中經過百多年前村民的私人遊泳池遺址，並近距離觀看小夏威夷瀑布，遠眺將軍澳市景。\u003Cbr\u003E\n沿途風景優美，雖在冬天亦可以感受到夏天的流水潺潺！\u003Cbr\u003E\n行完山，一齊去翠林邨食埋晏歎埋茶先走！\u003Cbr\u003E\n今次登山路線：寶琳地鐵站 › 將軍澳村 › 小夏威夷徑 ›井欄樹 › 衛奕信徑三段 › 翠林村（預計行山時間為2小時）\u003Cbr\u003E\n日期：23\u002F3\u002F2019 星期六\u003Cbr\u003E\n時間：9:30-13:30\u003Cbr\u003E\n集合地點：寶琳港鐵站正門出口（9：30）\u003Cbr\u003E\n預計12:00會到翠林邨午飯","hiking1903","小夏威夷徑",{"data":121},[122],{"id":16,"attributes":123},{"name":18,"slug":19,"description":10,"createdAt":20,"updatedAt":20},{"data":10},{"id":126,"attributes":127},94,{"title":128,"content":129,"start_date":130,"excerpt":131,"slug":132,"end_date":10,"tags":133,"createdAt":134,"updatedAt":134,"event_categories":135,"image":139},"獅子山下 九龍半島之蛻變","\n\n丁博士笑言：「你住在哪裡？學校在哪裡？教會又在哪裡？如果都腳踏實地，你真係叻喇！」\u003Cbr\u003E\n丁博士將以百年歷史為經緯，細說曾被稱為「不毛之地」，至今已成為全球人口密度最高地區的九龍半島的發展歷程和填海史！","2019-03-22","香港歷史博物館前總館長、香港中文大學歷史系客席教授丁新豹博士","professor-ding","香港歷史,填海","2019-03-22T00:00:00.000Z",{"data":136},[137],{"id":65,"attributes":138},{"name":67,"slug":68,"description":10,"createdAt":69,"updatedAt":70},{"data":10},{"id":141,"attributes":142},83,{"title":143,"content":144,"start_date":145,"excerpt":8,"slug":146,"end_date":10,"tags":147,"createdAt":148,"updatedAt":148,"event_categories":149,"image":157},"讀書會：歷史與未來","\n\n歷史塑造了我們的科技、政治和社會，也塑造了我們的思想和夢想。現實彷彿是自然又理所當然。\u003Cbr\u003E\n今次的讀書會，讓我們一起分享讓人們從過去走到現在的事，以不同角度閱讀現在，思考不一樣的未來。\u003Cbr\u003E\n同場加映：《據點。句點》藝術空間舉辦的展覽 — 《無法取得位置 Nothing Can Come Closer》，詳情見 https:\u002F\u002Fwww.facebook.com\u002Fevents\u002F376729836439046\u002F?ti=icl\n\n愛書人：12位\u003Cbr\u003E\n說書人：4位 (每位15分鐘)\u003Cbr\u003E\n分享書藉包括：\u003Cbr\u003E\n－\"Factfulness: Ten Reasons We're Wrong About The World - And Why Things Are Better Than You Think\"- Hans Rosling\u003Cbr\u003E\n－《從中國歷史來看中國民族性及中國文化》錢穆\u003Cbr\u003E\n－《讀史觀勢》張建雄\u003Cbr\u003E\n－《第二次世界大戰史》馬丁・吉爾伯特\u003Cbr\u003E\n日期：10\u002F3\u002F2019 (星期六)\u003Cbr\u003E\n時間：\u003Cbr\u003E\n12:00-14:00（讀書會）\u003Cbr\u003E\n14:00-15:00（展覽導賞）\u003Cbr\u003E\n地點：據點。句點 (石硤尾賽馬會創意藝術中心3樓L306D Floating Project)\u003Cbr\u003E\n費用：$70 (包1杯飲品及小食)\u003Cbr\u003E\n名額：16人","2019-03-10","bookshare1903","歷史","2019-03-10T00:00:00.000Z",{"data":150},[151],{"id":152,"attributes":153},1,{"name":154,"slug":155,"description":10,"createdAt":156,"updatedAt":156},"讀書會","book-sharing","2023-02-12T02:38:55.939Z",{"data":10},{"id":159,"attributes":160},79,{"title":161,"content":162,"start_date":163,"excerpt":8,"slug":164,"end_date":10,"tags":165,"createdAt":166,"updatedAt":166,"event_categories":167,"image":171},"活學營養：護肝利膽・理氣明目","\n\n春天屬木，人體的五臟之中肝也是屬木，故春季是最適合養肝之時。\u003Cbr\u003E\n香港人普遍晚睡，加上食無定時，肝膽首當其衝受累，中年以後不少人更容易積聚膽石。我們如何可在繁忙的生活中護肝養膽？坊間的排膽石之法可靠嗎？\n\n日期：2019年2月23日(六) 11:00 – 12:30\u003Cbr\u003E\n地點：旺角登打士街56號家樂坊15樓安利體驗館鑽石會議室\u003Cbr\u003E\n費用：每堂$30\u003Cbr\u003E\n名額：16人","2019-02-23","health1902","膽石","2019-02-02T00:00:00.000Z",{"data":168},[169],{"id":32,"attributes":170},{"name":34,"slug":35,"description":10,"createdAt":36,"updatedAt":36},{"data":10},{"id":173,"attributes":174},72,{"title":175,"content":176,"start_date":177,"excerpt":178,"slug":179,"end_date":10,"tags":180,"createdAt":181,"updatedAt":181,"event_categories":182,"image":186},"品味咖啡 探索人生","\n\n主講嘉賓文桂芳博士(Dr May Man)簡介：\u003Cbr\u003E\n香港咖啡業界首位擔任「國際咖啡師監考官」的女性，在政府、私營及教育機構擔任咖啡講座及培訓課程導師，亦是《沖上雲霄 II》、《 愛‧回家》、《 On Call 36 小時 II》、《分手100次》等劇集和電影的咖啡顧問\n\nDr Man 將分享其曲折起伏的創業經歷，並帶領大家探索咖啡的個性，品味多采的人生！\n","2019-02-16","文桂芳博士(Dr May Man)","dr-man","咖啡,創業","2019-02-16T00:00:00.000Z",{"data":183},[184],{"id":65,"attributes":185},{"name":67,"slug":68,"description":10,"createdAt":69,"updatedAt":70},{"data":10},{"pagination":188},{"page":189,"pageSize":190,"pageCount":191,"total":192},8,12,16,188],"uses":{"dependencies":["http://127.0.0.1:1337/api/events?sort=start_date%3Adesc&populate[author]=true&populate[event_categories]=true&populate[image]=true&pagination[page]=8&pagination[pageSize]=12"],"params":["page","category"]}}]}