{"type":"data","nodes":[{"type":"data","data":[{"categories":1,"event_categories":27},[2,9,15,21],{"id":3,"attributes":4},1,{"slug":5,"name":6,"description":7,"createdAt":8,"updatedAt":8},"nutrition","營養隨筆",null,"2023-02-12T02:39:02.691Z",{"id":10,"attributes":11},2,{"slug":12,"name":13,"description":7,"createdAt":14,"updatedAt":14},"reflection","感悟隨筆","2023-02-12T02:39:02.692Z",{"id":16,"attributes":17},3,{"slug":18,"name":19,"description":7,"createdAt":20,"updatedAt":20},"fitness","運動筆記","2023-02-12T02:39:02.697Z",{"id":22,"attributes":23},4,{"slug":24,"name":25,"description":7,"createdAt":26,"updatedAt":26},"spiritual","心靈勵志","2023-02-12T02:39:02.698Z",[28,33,38,43,47,52],{"id":3,"attributes":29},{"name":30,"slug":31,"description":7,"createdAt":32,"updatedAt":32},"讀書會","book-sharing","2023-02-12T02:38:55.939Z",{"id":16,"attributes":34},{"name":35,"slug":36,"description":7,"createdAt":37,"updatedAt":37},"文化導賞","cultural","2023-02-12T02:38:55.943Z",{"id":22,"attributes":39},{"name":40,"slug":41,"description":7,"createdAt":42,"updatedAt":42},"遊山玩水","hiking","2023-02-12T02:38:55.946Z",{"id":44,"attributes":45},5,{"name":46,"slug":18,"description":7,"createdAt":42,"updatedAt":42},"健體運動",{"id":48,"attributes":49},6,{"name":50,"slug":5,"description":7,"createdAt":51,"updatedAt":51},"活學營養","2023-02-12T02:38:55.947Z",{"id":10,"attributes":53},{"name":54,"slug":55,"description":7,"createdAt":56,"updatedAt":57},"名人面對面","be-our-guest","2023-02-12T02:38:55.942Z","2023-03-08T13:16:12.875Z"],"uses":{"dependencies":["http://127.0.0.1:1337/api/categories?","http://127.0.0.1:1337/api/event-categories?"]},"slash":"always"},{"type":"data","data":[{"data":1,"meta":184},[2,23,38,53,68,83,96,110,125,140,155,169],{"id":3,"attributes":4},34,{"start_date":5,"title":6,"content":7,"excerpt":8,"slug":9,"end_date":10,"tags":11,"createdAt":12,"updatedAt":12,"event_categories":13,"image":22},"2017-12-16","海峽兩岸與香港","\n\n♦曾任香港大學歷史系高級講師及文學院副院長、香港大學專業進修學院常務副院長，以及香港教育學院助理院長(行政)\u003Cbr\u003E\n♦曾參與並主持多項「國情研究」及「公共政策研究」計劃，包括為香港特區政府高層提供的「中國國情研究」和「港台關係研究」，長期參與兩岸及港台關係的活動和研究工作，多次應上海東亞研究所及國際問題研究所邀請出席研討會並發表論文\u003Cbr\u003E\n♦為香港特區政府公務員培訓處設計國家事務入門課程及中國區域系列講座並擔任講者\n\n陸教授將深入淺出地解構：\u003Cbr\u003E\n💡兩岸關係的歷史背景和演變進程\u003Cbr\u003E\n💡兩岸關係的微妙國際因素\u003Cbr\u003E\n💡香港在兩岸間的角色，以及對香港人特別年青一輩的影響\n\n日期：2017年12月16日(星期六)\n時間：晚上7:15-9:30\u003Cbr\u003E\n地點：九龍旺角登打士街56號柏裕商業中心15樓安利體驗館\u003Cbr\u003E\n費用：$90 (包括三文治及飲品)，三人同行共$230\n","中國近代及現代史專家、香港大學文學院前副院長陸人龍教授","dr-luk",null,"歷史","2017-12-16T00:00:00.000Z",{"data":14},[15],{"id":16,"attributes":17},2,{"name":18,"slug":19,"description":10,"createdAt":20,"updatedAt":21},"名人面對面","be-our-guest","2023-02-12T02:38:55.942Z","2023-03-08T13:16:12.875Z",{"data":10},{"id":24,"attributes":25},38,{"start_date":26,"title":27,"content":28,"excerpt":29,"slug":30,"end_date":10,"tags":31,"createdAt":32,"updatedAt":32,"event_categories":33,"image":37},"2017-11-04","麥秋笑談戲劇人生","\n\n話劇之所以吸引，是因為觀眾往往能從短短兩小時的戲劇中，彷彿看到自己及身邊的人與事，引起共鳴及反思。\u003Cbr\u003E\n馳騁舞台60年，今年80歲的戲劇泰斗麥秋先生，執導並主演過無數經典話劇。現實生活中，麥秋先生多年來在社群前缐服務青少年，甚至令囚犯轉化，對人性、對社會，皆有一番深切體會。\u003Cbr\u003E\n麥秋先生將以其充滿智慧和幽默風趣的言語，為大家道盡遊走戲劇與現實的精彩人生。\n\n日期：2017年11月4日(星期六)\u003Cbr\u003E\n時間：晚上7:15-9:30\u003Cbr\u003E\n地點：九龍旺角登打士街56號柏裕商業中心15樓安利體驗館會議室\u003Cbr\u003E\n費用：$90 (包括三文治及飲品)，三人同行共$230\n\n麥秋老師(James):\u003Cbr\u003E\n♦1987至1997年，經營全國第一家商業劇團中天製作有限公司，期間演出的劇目包括《原野》、著名音樂劇《仙樂飄飄處處聞》及20多齣世界經典名劇。\u003Cbr\u003E\n♦2011年至今，為香港懲教署更生工作部，策劃及主持專為終身囚友而設的「創藝展更生」演藝課程，曾獲懲教署「更生工作卓越成就獎」。\u003Cbr\u003E\n♦曾替多個機構擔任顧問，包括香港演藝學院戲劇學院、香港電台、大中華文化全球協會，並出任香港傷殘青年協會諮詢委員會創會委員及副會長。\u003Cbr\u003E\n♦曾任北京東方新青年文化發展有限公司演藝教育發展總監，以及香港戲劇協會創會委員及副會長。\u003Cbr\u003E\n♦2007年，獲香港演藝學院頒授榮譽院士\u003Cbr\u003E\n♦2016年4月，以80高齡獲香港戲劇協會頒發終身成就獎。","香港戲劇協會終身成就獎得主、戲劇界宗師麥秋(James)","james-mak","戲劇","2017-11-04T00:00:00.000Z",{"data":34},[35],{"id":16,"attributes":36},{"name":18,"slug":19,"description":10,"createdAt":20,"updatedAt":21},{"data":10},{"id":39,"attributes":40},31,{"start_date":41,"title":42,"content":43,"excerpt":44,"slug":45,"end_date":10,"tags":46,"createdAt":47,"updatedAt":47,"event_categories":48,"image":52},"2017-10-07","出版業在國際大都會可以扮演甚麼角色","\n\n張倩儀女士：\n♦ 資深出版人，曾任商務印書館總編輯\u003Cbr\u003E\n♦獲獎作家，深入東西絲路、敦煌、故宮，關注中國近代社會發展\u003Cbr\u003E\n♦著作有遊記《西行找中國》、《文明的足音》（合著）、《歐遊新空間》(合著)；描寫近代社會變化的《另一種童年的告別》《大留學潮》；青少年讀物《領袖和改革家的視野》《現代科學家的毅力》；雜文集《零後風雲》等\n\n講題：\n﻿💡出版的意義\u003Cbr\u003E\n💡國際的印刷中心和出版中心\u003Cbr\u003E\n💡出版的原料、加工與產品\u003Cbr\u003E\n💡城市由貧到富，出版由大到小\u003Cbr\u003E\n💡出版香港再出發\n\n日期：2017年10月7日(星期六)\u003Cbr\u003E\n時間：晚上7:15-9:30\u003Cbr\u003E\n地點：九龍旺角登打士街56號柏裕商業中心15樓安利體驗館會議室B\u003Cbr\u003E\n費用：$90 (包括三文治及飲品)，三人同行共$230\n","商務印書館前總編輯張倩儀女士","ms-cheung","出版業","2017-10-07T00:00:00.000Z",{"data":49},[50],{"id":16,"attributes":51},{"name":18,"slug":19,"description":10,"createdAt":20,"updatedAt":21},{"data":10},{"id":54,"attributes":55},39,{"start_date":56,"title":57,"content":58,"excerpt":59,"slug":60,"end_date":10,"tags":61,"createdAt":62,"updatedAt":62,"event_categories":63,"image":67},"2017-09-16","如何讓一家社企可持續經營並蓬勃發展","\n\n趙舜茹小姐 Bonnie：\u003Cbr\u003E\n－ 香港中文大學環球商業學學士、倫敦政治經濟學院修讀國際關係碩士\u003Cbr\u003E\n－ 年僅24歲，4年前成立非牟利社會企業Lensational，同時擔任英國顧問公司The Social Investment Consultancy董事總經理\u003Cbr\u003E\n－ 短短4年，Lensational 已為本地外籍女傭及15個發展中國家基層女性教授攝影技術，協助她們從鏡頭下展現自己的故事，並冀公眾人士更深入認識弱勢婦女的生活面貌\u003Cbr\u003E\n－ 獲選為福布斯『歐洲30位年輕社會社業家』，並獲邀在TED分享其創立及經營社企的理念及宗旨\n\n講題：\u003Cbr\u003E\n💡創業的理念、得著與挑戰\u003Cbr\u003E\n💡如何讓一家社企可持續經營並蓬勃發展\n\n日期：2017年9月16日(星期六)\n時間：晚上7:15-9:30\u003Cbr\u003E\n地點：九龍旺角登打士街56號柏裕商業中心15樓安利體驗館會議室B\u003Cbr\u003E\n費用：$90 (包括輕食及飲品)，三人同行共$230\n","非牟利社會企業 Lensational 創辦人趙舜茹小姐","lensational","社企,創業","2017-09-16T00:00:00.000Z",{"data":64},[65],{"id":16,"attributes":66},{"name":18,"slug":19,"description":10,"createdAt":20,"updatedAt":21},{"data":10},{"id":69,"attributes":70},29,{"start_date":71,"title":72,"content":73,"excerpt":74,"slug":75,"end_date":10,"tags":76,"createdAt":77,"updatedAt":77,"event_categories":78,"image":82},"2017-08-13","傳媒生涯樂與怒","\n\n講題：\u003Cbr\u003E\n－ 回顧30年傳媒生涯，分享當中的樂與怒\u003Cbr\u003E\n－ 香港特區政府新內閣及未來施政展望\n\n楊健興先生Chris：\u003Cbr\u003E\n－ 香港浸會大學傳理系畢業\u003Cbr\u003E\n－ 南華早報前政治版編輯及副總編輯\u003Cbr\u003E\n－ 信報前副總編輯\u003Cbr\u003E\n－ 現眾新聞網報主筆及\u003Cbr\u003E\n－ 香港記者協會主席\n\n日期：2017年8月13日(星期日) \n時間：晚上7:15-9:30\u003Cbr\u003E\n地點：九龍旺角登打士街56號柏裕商業中心15樓安利體驗館\u003Cbr\u003E\n費用：$150\n","香港記者協會主席楊健興先生Chris","chris-yeung","","2017-08-13T00:00:00.000Z",{"data":79},[80],{"id":16,"attributes":81},{"name":18,"slug":19,"description":10,"createdAt":20,"updatedAt":21},{"data":10},{"id":84,"attributes":85},20,{"start_date":86,"title":87,"content":88,"excerpt":8,"slug":89,"end_date":10,"tags":76,"createdAt":90,"updatedAt":90,"event_categories":91,"image":95},"2017-06-17","該如何讀中國這本書？","\n\n香港回歸20周年，許多香港人對祖國，就如子女對父母一樣，既有愛與關懷，又帶批評與抱怨。人長大後，希望對父母認識更多；面對中國，我們的認識全面嗎？所謂「國情」，我們又了解多少？\n\nEmpower榮幸邀得對中國近代及現代史、中國共產黨歷史與思想、當代中國發展，以至兩岸及港台關係極具研究的陸人龍教授，以風趣幽默的手法，深入淺出地為我們解讀中國這博大精深的書典。\n\n陸教授曾任香港大學歷史系高級講師及文學院副院長、香港大學專業進修學院常務副院長，以及香港教育學院助理院長(行政)。曾參與並主持多項「國情研究」及「公共政策研究」計劃，包括為香港特區政府高層提供的「中國國情研究」和「港台關係研究」，長期參與兩岸及港台關係的活動和研究工作，多次應上海東亞研究所及國際問題研究所邀請出席研討會並發表論文。近年，陸教授為香港特區政府公務員培訓處設計國家事務入門課程及中國區域系列講座並擔任講者，另在政府多個部門擔任有關香港及中國內地不同專題的講者。\n\n日期：2017年6月17日(星期六)\u003Cbr\u003E\n時間：晚上7:15-9:30\u003Cbr\u003E\n地點：九龍旺角登打士街56號柏裕商業中心15樓安利體驗館C室\u003Cbr\u003E\n費用：$150 (包括有營晚餐)\n","dr-luk1706","2017-06-17T00:00:00.000Z",{"data":92},[93],{"id":16,"attributes":94},{"name":18,"slug":19,"description":10,"createdAt":20,"updatedAt":21},{"data":10},{"id":97,"attributes":98},19,{"start_date":99,"title":100,"content":101,"excerpt":76,"slug":102,"end_date":10,"tags":103,"createdAt":104,"updatedAt":104,"event_categories":105,"image":109},"2017-05-21","堅毅轉身 - 職場女強人變身太極女俠","\n\n生活的壓力、環境的變遷、舒適的安舒均可能讓我們距離夢想越來越遠。我們有多少人會慨嘆現實就是現實，但只要提起勇氣踏出第一步，夢想並不遙遠。\n\n師虛師傅Michelle擁有優秀學歷 -- 英國工商管理碩士MBA、美國註冊會計師CPA和add美國註冊管理會計師CMA、中國清華大學法律學士LLB。而且仕途順暢，曾在多間跨國上市集團如UBM亞洲總部擔任業務發展總監、美國通用氣車在國內的大型合資企業中擔任副總經理等職位多年。\n\n擁有高薪厚職的她，數年前毅然放棄多年經營的專業，追尋兒時的功夫夢想，上山學武，遠赴太極發源地中國武當山和陳家溝，分別跟隨掌門全職鑽研太極及氣功內丹4年，以非一般的堅毅，以\"高齡\"成為正宗傳承人，並考取了國家的各種武術專業認證。回港後努力推廣養生，將愛好變成事業和公益，故事被國內外和國際傳媒廣泛報導。\n是甚麼讓她啟動追尋夢想之路，並讓她堅持下去？當中的心路歷程又是如何？\n師虛師傅除分享她的傳奇經歷之外，更會即場表演嫡傳武當\u002F陳式太極，不容錯過！\n\n日期：2017年5月21日(星期日)\u003Cbr\u003E\n時間：晚上7:15-9:30\u003Cbr\u003E\n地點：九龍旺角登打士街56號柏裕商業中心15樓安利體驗館\u003Cbr\u003E\n費用：$150（包括有營晚餐）","shisu1705","太極,武當山","2017-05-21T00:00:00.000Z",{"data":106},[107],{"id":16,"attributes":108},{"name":18,"slug":19,"description":10,"createdAt":20,"updatedAt":21},{"data":10},{"id":111,"attributes":112},15,{"start_date":113,"title":114,"content":115,"excerpt":116,"slug":117,"end_date":10,"tags":118,"createdAt":119,"updatedAt":119,"event_categories":120,"image":124},"2017-04-29","笑看壓力，展開意義人生","\n\n香港生活節奏快，工時長，物價高，工作壓力大，香港人被壓得透不過氣來，究竟如何可以活出有意義的人生?\n\n作為急症室顧問醫生，陳國禧醫生將會透過自己的故事，及在急症室每天面對但鮮為人知的日常事務，分享在壓力下如何管理情緒，從容面對挑戰的秘訣。現任多個正向心理學 (positive psychology)、啟導教練學(coaching) 和靜觀(mindfulness)課程工作坊培訓導師，陳國禧醫生更會向大家派發「積極正向人生錦囊」，讓大家活在當下，活出意義人生!\n\n日期：2017年4月29日(星期六) \u003Cbr\u003E\n時間：晚上7:15-9:30\u003Cbr\u003E\n地點：九龍旺角登打士街56號柏裕商業中心15樓安利體驗館\u003Cbr\u003E\n費用：$150 (包括有營晚餐)\n\n陳國禧醫生小簡介:\u003Cbr\u003E\n瑪嘉烈醫院前急症室部 主管\u003Cbr\u003E\n三屆十年被選為「香港急症科醫學院」名譽司庫\u003Cbr\u003E\n2006年，被委任為明愛醫院建立急症專科病房\u003Cbr\u003E\n香港醫學專科學院院士(急症科)\u003Cbr\u003E\n香港大學社區精神醫學深造文憑\u003Cbr\u003E\n香港大學佛學碩士\u003Cbr\u003E\n南澳洲大學輔導學碩士\u003Cbr\u003E\nAssociate Certified Meta-Coach® (ISNS)\u003Cbr\u003E\nCertified Neuro-Semantic \u002F NLP Trainer (ISNS) \u003Cbr\u003E\nCertified Master NLP Trainer (NLPU)\n","瑪嘉烈醫院前急症室部主管陳國禧醫生","dr-chan","壓力,正向心理學 ,靜觀","2017-04-29T00:00:00.000Z",{"data":121},[122],{"id":16,"attributes":123},{"name":18,"slug":19,"description":10,"createdAt":20,"updatedAt":21},{"data":10},{"id":126,"attributes":127},16,{"start_date":128,"title":129,"content":130,"excerpt":131,"slug":132,"end_date":10,"tags":133,"createdAt":134,"updatedAt":134,"event_categories":135,"image":139},"2017-03-18","閒談香港地產市場","\n\n據統計，全球10大最難買房的地區中，香港連續7年位居首位，一個家庭要18年不吃不喝的錢才能相抵樓價。究竟香港樓價會否繼續居高不下？甚麼時候才是置業良機？香港樓市是否有泡沫？\n\nEmpower 榮幸邀得新鴻基地產前執行董事Michael 黃奕鑑為我們分享其經驗，論述對置業及樓市的見解。Michael 任職新鴻基地產近30年，退休前是新地執行董事，主管公司發展及策略、投資、房地產硏究分析、基礎建設、企業傳訊等工作。公職方面，曾任香港青年旅舍恊會主席，參與保育香港第一代公屋深水埗美荷樓，現為香港中文大學新亞書院校董及香港公開大學校董會主席。\n\nMichael 就其在地産界的豐富經驗及精闢見解，為大家講解香港地產市道，並與大家分享有意置業人士經常提出的問題。\n\n日期：2017年3月18日(星期六) \u003Cbr\u003E\n時間：晚上7:15-9:30\u003Cbr\u003E\n地點：九龍旺角登打士街56號柏裕商業中心15樓安利體驗館\u003Cbr\u003E\n費用：$150 (包括有營晚餐)\n","新鴻基地產前執行董事黃奕鑑先生 (Michael)","michael-wong","香港樓市,地產,置業","2017-03-18T00:00:00.000Z",{"data":136},[137],{"id":16,"attributes":138},{"name":18,"slug":19,"description":10,"createdAt":20,"updatedAt":21},{"data":10},{"id":141,"attributes":142},4,{"start_date":143,"title":144,"content":145,"excerpt":146,"slug":147,"end_date":10,"tags":148,"createdAt":149,"updatedAt":149,"event_categories":150,"image":154},"2016-12-17","擁抱改變，乘勢而起，創出科網新天地","\n\n⭐英國海歸的Kevin，於香港大學會計及金融專業畢業後，隨己身興趣從事TMT(Technology, Media, Telecommunications) 領域之工作，工作數年有見中國內地科技及互聯網迅速發展，Kevin 捉緊機會，孤身一人北上至北京創業。首次創業已參與內地互聯網業務，以 COO及合夥人身份在北京中關村參與創建國內首個互聯網互動手機媒體平臺台－miniV，為國內最早基於地理位置定位技術的視頻交友社區之一。\n\n⭐公司產品上線並被併購後，於2011年回到香港創立紅點子創作(香港)有限公司，早著先機，專注於開發自家的AR、VR和3D等高新科技視覺技術領域業務，相關科技亦於近年逐步冒起，多年累積的經驗和技術造就了公司於此領域的領先地位，公司業務遍及中港澳台、日本、加拿大及歐洲等地。\n\n⭐積極擁抱改變，捕捉社會趨勢。是甚麼個人理想令Kevin可以堅持渡過創業時期的艱辛？經歷中又有甚麼反思？Kevin會帶我們一一細味。\n\n日期：2016年12月17日(星期六)\u003Cbr\u003E\n時間：晚上7:15-9:30\u003Cbr\u003E\n地點：九龍旺角登打士街56號柏裕商業中心15樓安利體驗館\u003Cbr\u003E\n費用：$150 (包括社企有營輕食)\n","紅點子創作創辦人兼行政總裁 李嘉俊先生(Kevin) ","kevin-lee","創業","2016-12-17T00:00:00.000Z",{"data":151},[152],{"id":16,"attributes":153},{"name":18,"slug":19,"description":10,"createdAt":20,"updatedAt":21},{"data":10},{"id":156,"attributes":157},3,{"start_date":158,"title":159,"content":160,"excerpt":161,"slug":162,"end_date":10,"tags":148,"createdAt":163,"updatedAt":163,"event_categories":164,"image":168},"2016-11-27","以天賦與興趣　改寫人生方程式","\n\n看Stephen履歷，百份百是人生勝利組：會考十優狀元，香港中文大學訊息工程系學士，美國史丹福大學電子工程系碩士，畢業後獲聘為雅虎香港第二位程式員。回港後獲邀到剛成立的TVB.com出任首席技術官(CTO)，開發TVB首個互聯網產品 myTV。擁有高薪厚職，Stephen卻毅然放棄，與兩位中學同學成立遊戲發佈平台Memoriki，並領導原公司旗下項目QooApp自立門戶，專門服務日韓遊戲玩家。成立兩年來，在不費一文宣傳下，已在全球錄得逾1,100萬次下載，成為廣受歡迎的日韓手機遊戲平台。\n\n如此少年得志，卻沒半點飛揚跋扈，與Stephen的童年經歷不無關係。Stephen幼年喪父，母親靠綜援獨力把他和兩個弟弟撫養成人。故此其童年夢想很簡單，就是希望如學校排球隊其他隊員般，擁有一雙像樣的運動鞋，不用只穿「白飯魚」。選擇創立遊戲平台，也是源於自小喜歡打機，按興趣把事情專心做好。\n\n由科網熱、web2.0、Facebook app到手遊平台，Stephen每次都在最合適的時機轉換跑道。他是如何有此眼光？成長的經歷，對他打工和創業又有何影響？同時，Stephen亦會解構備受青少年熱愛的二次元文化為何物，以及二次元文化對今後社會經濟舉足輕重的影響。\n\n日期：2016年11月27日(星期日)\u003Cbr\u003E\n時間：晚上7:15-9:30\u003Cbr\u003E\n地點：九龍旺角登打士街56號柏裕商業中心15樓安利體驗館C室\u003Cbr\u003E\n費用：$150 (包括自家製美味沙律及社企有營輕食)\n","QooApp創辦人蒲得志先生(Stephen)","stephen","2016-11-27T00:00:00.000Z",{"data":165},[166],{"id":16,"attributes":167},{"name":18,"slug":19,"description":10,"createdAt":20,"updatedAt":21},{"data":10},{"id":170,"attributes":171},136,{"start_date":172,"title":173,"content":174,"excerpt":175,"slug":176,"end_date":10,"tags":177,"createdAt":178,"updatedAt":178,"event_categories":179,"image":183},"2016-10-29","畢業旋即創業　經歷九死一生","\n\n「100% made in HK」的林曉鋒博士(Alan)，1999年於香港中文大學工程學院機械與自動化工程學系畢業，再取得碩士和博士學位。2004年博士畢業前，當時年僅27歲的他決定創業，創辦以研發動作感應技術為主的Sengital Limited 港科研有限公司，現時服務不同公職並兼任城市大學電子工程學系客席教授和職訓局講師，2015年當選香港十大傑出青年。為進一步推廣閱讀及創意，Alan決定執筆，現已出版多本勵志書、個人化兒童圖書及STEM科技教育叢書。\n \nAlan由研發動作感應遊戲機手掣，至進軍醫療設備，及後轉戰遙控直升機周邊產品，至今時今日涉足設計、餐飲、服裝及出版界，這10年間經歷不夠資金出糧，未能準時出貨而虧損逾700多萬元等窘境，可謂走過高山低谷，經歷「九死一生」。\n \n他指100家初創公司中，5年內近90家倒閉，最終能過渡10年的不足1%。Alan將與我們分享如何克服創業的重重難關，特別是如何把握首5年，善用順境時的資源，應對逆境時的挑戰，並令公司發展步入正軌，平穩渡過第二個5年。他亦會分享如何踏上傑青之路，並成為科技界文青、IT界才子的夢想。\n\n\n日期：2016年10月29日(星期六)\u003Cbr\u003E\n時間：晚上7:15-9:30\u003Cbr\u003E\n地點：九龍旺角登打士街56號柏裕商業中心15樓安利體驗館 C室\u003Cbr\u003E\n費用：$150 (包括自家製美味有營沙律及三文治)\n","科研家、企業家、作家、「不一樣的傑青」林曉鋒博士","alan-lam","年輕創業","2021-01-10T00:00:00.000Z",{"data":180},[181],{"id":16,"attributes":182},{"name":18,"slug":19,"description":10,"createdAt":20,"updatedAt":21},{"data":10},{"pagination":185},{"page":186,"pageSize":187,"pageCount":188,"total":189},5,12,7,76],"uses":{"dependencies":["http://127.0.0.1:1337/api/events?sort=start_date%3Adesc&populate[author]=true&populate[event_categories]=true&populate[image]=true&pagination[page]=5&pagination[pageSize]=12&filters[event_categories][slug]=be-our-guest"],"params":["page","category"]}}]}