{"type":"data","nodes":[{"type":"data","data":[{"categories":1,"event_categories":27},[2,9,15,21],{"id":3,"attributes":4},1,{"slug":5,"name":6,"description":7,"createdAt":8,"updatedAt":8},"nutrition","營養隨筆",null,"2023-02-12T02:39:02.691Z",{"id":10,"attributes":11},2,{"slug":12,"name":13,"description":7,"createdAt":14,"updatedAt":14},"reflection","感悟隨筆","2023-02-12T02:39:02.692Z",{"id":16,"attributes":17},3,{"slug":18,"name":19,"description":7,"createdAt":20,"updatedAt":20},"fitness","運動筆記","2023-02-12T02:39:02.697Z",{"id":22,"attributes":23},4,{"slug":24,"name":25,"description":7,"createdAt":26,"updatedAt":26},"spiritual","心靈勵志","2023-02-12T02:39:02.698Z",[28,33,38,43,47,52],{"id":3,"attributes":29},{"name":30,"slug":31,"description":7,"createdAt":32,"updatedAt":32},"讀書會","book-sharing","2023-02-12T02:38:55.939Z",{"id":16,"attributes":34},{"name":35,"slug":36,"description":7,"createdAt":37,"updatedAt":37},"文化導賞","cultural","2023-02-12T02:38:55.943Z",{"id":22,"attributes":39},{"name":40,"slug":41,"description":7,"createdAt":42,"updatedAt":42},"遊山玩水","hiking","2023-02-12T02:38:55.946Z",{"id":44,"attributes":45},5,{"name":46,"slug":18,"description":7,"createdAt":42,"updatedAt":42},"健體運動",{"id":48,"attributes":49},6,{"name":50,"slug":5,"description":7,"createdAt":51,"updatedAt":51},"活學營養","2023-02-12T02:38:55.947Z",{"id":10,"attributes":53},{"name":54,"slug":55,"description":7,"createdAt":56,"updatedAt":57},"名人面對面","be-our-guest","2023-02-12T02:38:55.942Z","2023-03-08T13:16:12.875Z"],"uses":{"dependencies":["http://127.0.0.1:1337/api/categories?","http://127.0.0.1:1337/api/event-categories?"]},"slash":"always"},{"type":"data","data":[{"data":1,"meta":318},[2,32,57,79,104,125,160,188,219,241,266,289],{"id":3,"attributes":4},160,{"createdAt":5,"title":6,"excerpt":7,"content":8,"slug":9,"updatedAt":5,"author":10,"categories":11,"tags":19,"image":31},"2020-01-12T00:00:00.000Z","免疫力下降成因-身理、心理",null,"\n\n踏入流感高峰期，大家都更關注身體狀況，「增強免疫力」更是各人鎯鎯上口的口頭禪。其實免疫力是衡量一個人身體健康指數最為關鍵的因素之一，一個人的免疫力過低就會引起各種疾病，不利於身體健康。那麼引起人體免疫力下降的原因有哪些呢？\n\n原因大致可分為生理及心理兩方面：\n\n生理方面，主要是內分泌系統不能正常運作，過度勞累、營養失衡、運動不當及身體老化等因素都會令新陳代謝不良，從而影響內分泌系統，再而令免疫力下降。\n\n心理方面，情緒不穩定會影響植物性神經，從而造成更大的疾病。都市人壓力過大便是引致免疫力下降的常見原因。\n\n下回將講解如何從飲食習慣提升免疫力，萬勿錯過啊！","post200112",{"data":7},{"data":12},[13],{"id":14,"attributes":15},1,{"slug":16,"name":17,"description":7,"createdAt":18,"updatedAt":18},"nutrition","營養隨筆","2023-02-12T02:39:02.691Z",{"data":20},[21,26],{"id":22,"attributes":23},153,{"name":24,"createdAt":25,"updatedAt":25},"免疫力","2023-02-12T03:32:01.357Z",{"id":27,"attributes":28},157,{"name":29,"createdAt":30,"updatedAt":30},"內分泌","2023-02-12T03:32:01.361Z",{"data":7},{"id":22,"attributes":33},{"createdAt":34,"title":35,"excerpt":7,"content":36,"slug":37,"updatedAt":34,"author":38,"categories":45,"tags":49,"image":56},"2019-12-27T00:00:00.000Z","優質蛋白質-五穀加豆","\n\n說到蛋白質，大家會想起甚麼呢？\n\n很多人自然地想到牛肉🐂、豬肉🐷、雞肉🐔或雞蛋。雞蛋是營養豐富的食物，而肉類的蛋白質似乎更豐富，但肉類通常需要最少四小時消化，而身體只能吸收其中部份的蛋白質。\n\n蛋白質由氨基酸組成，動物性蛋白質有齊人體必需的9種氨基酸，但肉類的氨基酸比例與人體差異很大，未能最符合人體需要。\n\n優質的蛋白質應是容易吸收又可完全利用。來自植物的蛋白質如大豆正是優質蛋白質。大豆蛋白質雖然缺乏一種名為蛋氨酸的氨基酸，但其他都是優質蛋白質。所謂「五穀加豆可團圓」，大米含有蛋氨酸，米加豆就有齊9種氨基酸，故此紅豆飯或其他類型的豆飯，以至豆漿配飯糰，都是補充蛋白質的理想餐膳😃。\n\n想對蛋白質或其他營養有更多了解，來1月份的營養班一起學習吧！","post191227",{"data":39},{"id":40,"attributes":41},6,{"name":42,"slug":43,"profile":7,"createdAt":44,"updatedAt":44},"Mang Ng","mang","2023-02-12T02:39:06.688Z",{"data":46},[47],{"id":14,"attributes":48},{"slug":16,"name":17,"description":7,"createdAt":18,"updatedAt":18},{"data":50},[51],{"id":52,"attributes":53},144,{"name":54,"createdAt":55,"updatedAt":55},"蛋白質","2023-02-12T03:32:01.351Z",{"data":7},{"id":58,"attributes":59},150,{"createdAt":60,"title":61,"excerpt":7,"content":62,"slug":63,"updatedAt":60,"author":64,"categories":65,"tags":69,"image":78},"2019-12-22T00:00:00.000Z","優質禽肉-火雞","\n\n踏入12月中，到處響起聖誕歌曲🎅🏼，自然想起火雞🐔。小時候吃過火雞，覺得太難吃了😖，肉質很粗糙。長大後一次聖誕派對，發現火雞原來可以那麼嫩滑可口😳，讓我對火雞改觀。\n\n唸營養後更發現火雞相較其他禽肉不但脂肪量低，蛋白質含量也較高😀，每100克火雞肉已含有21克蛋白質。\n\n蛋白質是我們必需的宏量營養素，是身體組織主要的構建材料，亦是細胞和肌肉的基石。因此不是鍛煉肌肉才需要蛋白質，我們的五臟六腑也極之需要。舉例來說，患有胃痛或胃潰瘍的朋友，若能攝取容易消化吸收的蛋白質，重建胃黏膜，胃病自可舒緩。\n\n甚麼蛋白質才容易被消化吸收？下回分解😉。\n\n今天冬至，祝各位Empower友好和家人冬至愉快，暖意洋洋慶團圓🥰；也預祝大家聖誕快樂，merry Christmas！🎊\n","post191222",{"data":7},{"data":66},[67],{"id":14,"attributes":68},{"slug":16,"name":17,"description":7,"createdAt":18,"updatedAt":18},{"data":70},[71,73],{"id":52,"attributes":72},{"name":54,"createdAt":55,"updatedAt":55},{"id":74,"attributes":75},164,{"name":76,"createdAt":77,"updatedAt":77},"火雞","2023-02-12T03:32:01.364Z",{"data":7},{"id":80,"attributes":81},161,{"createdAt":82,"title":83,"excerpt":7,"content":84,"slug":85,"updatedAt":82,"author":86,"categories":87,"tags":91,"image":103},"2019-12-04T00:00:00.000Z","以形補形？","\n\n有見近來的交通情況，大家在路上的步伐都比以往快🏃🏻，可謂歸心似箭。要行得快，就要有好的骨骼關節🦴。\n\n中國人說\"以形補形\" -- 豬腳、雞腳湯等，真的可以補腳骨🦴嗎？\n\n豬腳的膠質雖多，卻沒有研究證實直接對關節有益🤔。營養師說如用雞腳湯補鈣，是需要飲一個浴缸那麼多😲！\n\n豬腳的蛋白質又如何？其實我們吃任何蛋白質食物，身體都會消化分解為胺基酸重新利用，所以吃豬腳或其他肉類分別不大，因為都會分解為胺基酸，再重組為蛋白質，並由身體按需要分配給不同部位😃。\n\n那麼該如何補鈣呢？可以多吃深綠色的蔬菜🥦，以及大豆製品如豆漿🥛、豆腐，同時也要注重鎂質的攝取，並多曬太陽以吸收維他命D，這樣才有助提升骨質密度💪🏻💪🏻！\n\n骨質密度與關節健康息息相關。想更深入了解如何保養關節，12月14日早上11時活學營養《活絡關節 步履輕盈》就萬勿錯過！☺","post191204",{"data":7},{"data":88},[89],{"id":14,"attributes":90},{"slug":16,"name":17,"description":7,"createdAt":18,"updatedAt":18},{"data":92},[93,97,101],{"id":94,"attributes":95},162,{"name":96,"createdAt":77,"updatedAt":77},"骨質密度",{"id":98,"attributes":99},163,{"name":100,"createdAt":77,"updatedAt":77},"關節",{"id":52,"attributes":102},{"name":54,"createdAt":55,"updatedAt":55},{"data":7},{"id":105,"attributes":106},149,{"createdAt":107,"title":108,"excerpt":7,"content":109,"slug":110,"updatedAt":107,"author":111,"categories":112,"tags":116,"image":124},"2019-11-27T00:00:00.000Z","維他命C：增強免疫力之王","\n\n上星期提及硒和維他命E可幫助阻隔污染物粒子進入肺部，若想事半功倍，就必須多加攝取維他命C💪💪\n\n白血球是人體迎擊病毒和形成免疫力的功臣，維他命C正可強化其功效，並加速白血球調動。此外維他命C可還原解毒，將毒素中和分解，減少身體所受的毒害。芸芸營養素中，維他命C在維護免疫系統方面名列首位，絕非浪得虛名🤩\n\n不少水果皆富含維他命C。🍊橘子類固然含有維他命C，但其實番石榴、士多啤梨和奇異果的維他命C含量都較橙和柑豐富，其中100克番石榴所含維他命C達228毫克，是橙的4倍😱\n\n🥰溫馨提示：維他命C非常容易氧化，故水果切開後應立即食用。維他命C也是水溶性的，短短2、3小時就會經汗水或尿液排出體外，故必須在3餐中充份攝取。","post19127",{"data":7},{"data":113},[114],{"id":14,"attributes":115},{"slug":16,"name":17,"description":7,"createdAt":18,"updatedAt":18},{"data":117},[118,122],{"id":119,"attributes":120},156,{"name":121,"createdAt":30,"updatedAt":30},"維他命C",{"id":22,"attributes":123},{"name":24,"createdAt":25,"updatedAt":25},{"data":7},{"id":119,"attributes":126},{"createdAt":127,"title":128,"excerpt":7,"content":129,"slug":130,"updatedAt":127,"author":131,"categories":132,"tags":136,"image":159},"2019-11-17T00:00:00.000Z","硒+E：解毒之王","\n\n近日大家較容易從空氣吸入不同類型的毒素☠，今次介紹兩種特別有助肺部抵禦空氣污染的微量元素，大家可多加留意攝取😊\n\n大家對硒或較為陌生，但對「世界長壽之鄉」巴馬應有印象；除巴馬外，廣西還有18個縣市獲授「中國長壽之鄉」的稱號😍。專家認為一大原因，是這些地區的土壤和農產品均富含硒。\n\n硒有抗癌之王的美譽，可以抑制癌細胞，清除體內的自由基，並維持心臟正常運作，防止血管硬化。而且是水銀、鎘等重金屬的天然解毒劑，有助身體排出毒素，同時增強免疫力💪🏻💪🏻，防禦空氣污染對呼吸器官黏膜的損害。沙甸魚、蠔、🥚蛋、大蒜均富含硒。\n\n至於維他命E，女士們應很熟悉，因維他命E有「靚女E」之稱💆🏻‍♀，攝取充足有助預防皮膚老化尤其是老人斑的形成。此外，維他命E是細胞呼吸的必需促進因子，研究發現體內維他命E的水平越高，越能抵抗污染物粒子進入肺部。堅果、🥑牛油果、菠菜都含有豐富維他命E。","post91117",{"data":7},{"data":133},[134],{"id":14,"attributes":135},{"slug":16,"name":17,"description":7,"createdAt":18,"updatedAt":18},{"data":137},[138,143,148,152,154],{"id":139,"attributes":140},146,{"name":141,"createdAt":142,"updatedAt":142},"硒","2023-02-12T03:32:01.354Z",{"id":144,"attributes":145},151,{"name":146,"createdAt":147,"updatedAt":147},"維他命E","2023-02-12T03:32:01.356Z",{"id":149,"attributes":150},152,{"name":151,"createdAt":25,"updatedAt":25},"抗癌",{"id":22,"attributes":153},{"name":24,"createdAt":25,"updatedAt":25},{"id":155,"attributes":156},138,{"name":157,"createdAt":158,"updatedAt":158},"排毒","2023-02-12T03:32:01.347Z",{"data":7},{"id":139,"attributes":161},{"createdAt":162,"title":163,"excerpt":7,"content":164,"slug":165,"updatedAt":162,"author":166,"categories":167,"tags":171,"image":187},"2019-11-12T00:00:00.000Z","這個冬天不太冷","\n\n立冬剛過，🥶怕冷的朋友又是時候進補。Empower_天前剛舉辦蛇宴，蛇湯、蛇羹、羊腩煲、糯米飯😍……一眾老饕吃得好不暢快，但心裡又怕虛不受補會上火甚至爆瘡😵。究竟應如何進補是好？\n\n古代人飲食清淡，鮮有肉吃；現代人飲食則常高脂高糖，三高、糖尿問題不絕於耳。故此若本身已有這些代謝問題的朋友，並不建議常吃以上溫熱食物進補；即使手腳冰冷，也是血液循環問題，有機會再講如何處理😉\n\n其實立冬及小雪最重要是補脾健胃，補腎壯腰；脾腎皆壯，自然不怕冷💪💪。栗子被譽為「千果之王」，唐代名醫孫思邈更稱之為「腎之果」，營食豐富，蛋白質、維他命、礦物質、不飽和脂肪酸及膳食纖維一應俱全，除可補腎和脾胃外，對防治高血壓、冠心病和動脈硬化等亦有功效👍🤗","post191112",{"data":7},{"data":168},[169],{"id":14,"attributes":170},{"slug":16,"name":17,"description":7,"createdAt":18,"updatedAt":18},{"data":172},[173,178,183],{"id":174,"attributes":175},148,{"name":176,"createdAt":177,"updatedAt":177},"補脾健胃","2023-02-12T03:32:01.355Z",{"id":179,"attributes":180},155,{"name":181,"createdAt":182,"updatedAt":182},"栗子","2023-02-12T03:32:01.360Z",{"id":184,"attributes":185},154,{"name":186,"createdAt":182,"updatedAt":182},"腎",{"data":7},{"id":189,"attributes":190},176,{"createdAt":191,"title":192,"excerpt":7,"content":193,"slug":194,"updatedAt":191,"author":195,"categories":202,"tags":206,"image":218},"2019-11-01T00:00:00.000Z","痛風不可食蛋白質？","\n\n常說痛風是一種富貴病，太過大魚大肉就會中招，食太多肉類、海產尤其容易發作😖，痛起上黎風吹都頂唔順😱！坊間說痛風不能吃肉類的原因是肉類含有高度蛋白質，究竟蛋白質是否引起痛風的主因呢？痛風患者是否不能吃蛋白質食物呢？\n\n其實痛風的真正主因是由嘌呤轉化的「尿酸」引起。過量吸收嘌呤而未能分解，會在體內轉變成尿酸，形成結晶卡在手指、腳趾(特別是大拇指)、膝頭等手腳關節內，產生紅、腫、熱、痛的發炎反應，俗稱「痛風」。近年有研究指出，體內三分二的嘌呤是由身體製造而成，外部吸收的僅佔三分之一。因此要解決尿酸問題，必須內外夾擊！\n\n高嘌呤食品包括動物內臟、貝殼類海產及紅肉，切勿吃過量。若想補充蛋白質又怕嘌呤超標？可以選擇植物性蛋白質、雞蛋、海參等，亦可選擇去嘌呤的大豆分離蛋白，直接吸收蛋白質。\n\n識得揀嘢食減少了嘌呤吸收，身體產生而積聚的嘌呤又應該如何處理呢？請看下回分解","post191101",{"data":196},{"id":197,"attributes":198},4,{"name":199,"slug":200,"profile":7,"createdAt":201,"updatedAt":201},"King","king","2023-02-12T02:39:06.684Z",{"data":203},[204],{"id":14,"attributes":205},{"slug":16,"name":17,"description":7,"createdAt":18,"updatedAt":18},{"data":207},[208,211,216],{"id":105,"attributes":209},{"name":210,"createdAt":177,"updatedAt":177},"痛風",{"id":212,"attributes":213},142,{"name":214,"createdAt":215,"updatedAt":215},"尿酸","2023-02-12T03:32:01.350Z",{"id":52,"attributes":217},{"name":54,"createdAt":55,"updatedAt":55},{"data":7},{"id":220,"attributes":221},166,{"createdAt":222,"title":223,"excerpt":7,"content":224,"slug":225,"updatedAt":222,"author":226,"categories":227,"tags":231,"image":240},"2019-10-16T00:00:00.000Z","眼袋、黑眼圈也跟腎有關？","w\n\n\n眼睛是靈魂之窗，許多女士都特別著重眼部肌膚護理；可惜無論用多貴價的眼霜，眼袋、黑眼圈依然揮之不去😣，甚至到美容院花過萬元做了去眼袋療程，過一段時間後眼袋又死灰復燃…….那怎麼辦才好？🙄\n\n眼袋、黑眼圈的成因林林總總，大多與氣血循環有關，當中在腎虛者極為常見。腎主水，其色為黑；腎虛有礙水液代謝，容易導致下眼瞼浮腫。若下眼瞼皮膚既鬆且黑🐼，且長時間未能消褪，就要好好護腎了。\n\n如上周六的＜補腎強身＞講座所言，維他命B、鈣及鎂都是補腎的營養素。其中鈣鎂的攝取比例必需為2:1，這樣才可有效防止鈣質沉積於腎臟等軟組織，防止腎結石形石💪💪。世上並沒有任何一種食物的鎂含量特別多，最豐富的可謂堅果類，其次為魚、海藻、蔬菜、豆類。故此，與以肉類為主的西方飲食相比，包含魚、海藻和納豆的日本和食🍱是攝取鎂的較佳方式。食用營養補充品時，也務必選擇天然有機、鈣鎂比例相符的補充品，切忌大劑量地單一補鈣。","post191016",{"data":7},{"data":228},[229],{"id":14,"attributes":230},{"slug":16,"name":17,"description":7,"createdAt":18,"updatedAt":18},{"data":232},[233,238],{"id":234,"attributes":235},140,{"name":236,"createdAt":237,"updatedAt":237},"眼睛","2023-02-12T03:32:01.349Z",{"id":184,"attributes":239},{"name":186,"createdAt":182,"updatedAt":182},{"data":7},{"id":184,"attributes":242},{"createdAt":243,"title":244,"excerpt":7,"content":245,"slug":246,"updatedAt":243,"author":247,"categories":248,"tags":252,"image":265},"2019-10-10T00:00:00.000Z","腎功能與尾指長度有關？","\n\n慈禧太后尾指常戴指甲套，可能因為腎唔好？😱\n\n看古裝片經常看到慈禧太后或其他妃嬪都在尾指戴長長的指甲套😮，除了突顯身份地位並保護她們長長的指甲外，不知會否是知道尾指越長，代表腎功能越好，人就越青春有活力呢？😄\n\n男左女右，尾指的長度若在無名指第三指節的橫紋之上，反映腎功能天生較佳❤，通常是父母35歲前孕育出來的。當然若父母操勞而壓力又大，即使35歲前生兒育女，孩子的尾指也可能較短。\n\n腎不好，容易尿頻甚至夜尿、腰痛、眼肚大、脫髮、記性差😖，但絕對可透過飲食和運動改善。歡迎大家一起來本周六(10月12日)上午的《補腎強身》營養講座，了解如何固本培元，令身體自我修復，腎氣足，精神好！","post20191010",{"data":7},{"data":249},[250],{"id":14,"attributes":251},{"slug":16,"name":17,"description":7,"createdAt":18,"updatedAt":18},{"data":253},[254,256,261],{"id":184,"attributes":255},{"name":186,"createdAt":182,"updatedAt":182},{"id":257,"attributes":258},139,{"name":259,"createdAt":260,"updatedAt":260},"尿頻","2023-02-12T03:32:01.348Z",{"id":262,"attributes":263},147,{"name":264,"createdAt":142,"updatedAt":142},"記性",{"data":7},{"id":52,"attributes":267},{"createdAt":268,"title":269,"excerpt":7,"content":270,"slug":271,"updatedAt":268,"author":272,"categories":273,"tags":277,"image":288},"2019-10-02T00:00:00.000Z","腋下、手踭烏卒卒，可能是糖尿警號？","\n\n行街搭車，應該都會見過有人頸後、手踭或膝頭特別烏黑，有些甚至腋下或指間也是如此😖，尤以長者和肥胖人士為甚。原來這未必是清潔不善，而是胰島素分泌過多，形成「黑色棘皮症」所致。\n\n胰島素是由胰臟分泌的荷爾蒙，令葡萄糖得以進入細胞作為能量來源，使血糖保持穩定。現代人常吃加工食品🍔，又或暴飲暴食🎂，致血糖急促上升，長時間反複積累，導致胰島素分泌過盛，刺激皮下細胞增生，令皮膚變黑變厚且粗糙，在較多皮膚聚集的摺紋位置尤為明顯。\n\n「黑色棘皮症」與被稱為糖尿病前身的胰島素阻抗的增加有關😮。如發現有此病癥，且本身身型肥胖，或家族有糖尿病患，建議盡快檢驗血糖，以確定是否罹患糖尿病，及早治療。\n\n想知道如何有效預防或根治糖尿，歡迎出席下周一10月7日＜活學營養：擺脫糖尿 活得輕鬆＞🤗\n我的健康我作主，打造健康生活圈！","post191002",{"data":7},{"data":274},[275],{"id":14,"attributes":276},{"slug":16,"name":17,"description":7,"createdAt":18,"updatedAt":18},{"data":278},[279,284],{"id":280,"attributes":281},137,{"name":282,"createdAt":283,"updatedAt":283},"糖尿","2023-02-12T03:32:01.346Z",{"id":285,"attributes":286},143,{"name":287,"createdAt":215,"updatedAt":215},"胰島素",{"data":7},{"id":290,"attributes":291},145,{"createdAt":292,"title":293,"excerpt":7,"content":294,"slug":295,"updatedAt":292,"author":296,"categories":297,"tags":301,"image":317},"2019-09-20T00:00:00.000Z","甩脂果王 - 蘋果","\n\n大家中秋節又食節日飯又食月餅，脂肪積蓄應有不少進帳！今天為大家介紹甩脂果王 -- 蘋果，協助大家消消脂！\n\n「一日一蘋果，醫生遠離我。」蘋果有益健康是大家熟知的，但原來蘋果也有助消脂清腸排毒呢！\n\n1. 蘋果酸：降低膽固醇，加速代謝，促進脂肪分解\u003Cbr\u003E\n2. 果膠：可溶性纖維，與膽固醇結合，將體內多餘的膽固醇排出體外\u003Cbr\u003E\n3. 熊果酸：蘋果皮中的熊果酸能促進棕色脂肪的增生，棕色脂肪能協助燃燒體內卡路里，有助加快身體新陳代謝\u003Cbr\u003E\n4. 膳食纖維：促進腸胃蠕動，幫助排毒\n\n蘋果含豐富營養素：維他命C有助抗氧化；鋅促進大腦發育，增強智力與記憶力；維他命A和硒可保護視力；鉀鹽能降低高血壓；可溶性纖維可調節血糖。\n\n進食蘋果好處多，但緊記我們每天要進食5色蔬果。如果只偏愛蘋果，就變得偏食了！\n\n此外，日常飲食也要相應配合，並有規律地運動，才能健康地減脂呢！","post190920",{"data":7},{"data":298},[299],{"id":14,"attributes":300},{"slug":16,"name":17,"description":7,"createdAt":18,"updatedAt":18},{"data":302},[303,308,312,315],{"id":304,"attributes":305},135,{"name":306,"createdAt":307,"updatedAt":307},"蘋果","2023-02-12T03:32:01.340Z",{"id":309,"attributes":310},141,{"name":311,"createdAt":237,"updatedAt":237},"消脂",{"id":290,"attributes":313},{"name":314,"createdAt":55,"updatedAt":55},"清腸",{"id":155,"attributes":316},{"name":157,"createdAt":158,"updatedAt":158},{"data":7},{"pagination":319},{"page":320,"pageSize":321,"pageCount":322,"total":323},8,12,9,99],"uses":{"dependencies":["http://127.0.0.1:1337/api/posts?sort=createdAt%3Adesc&populate[author]=true&populate[categories]=true&populate[tags]=true&populate[image]=true&pagination[page]=8&pagination[pageSize]=12&filters[categories][slug]=nutrition"],"params":["page","category"]}}]}