{"type":"data","nodes":[{"type":"data","data":[{"categories":1,"event_categories":27},[2,9,15,21],{"id":3,"attributes":4},1,{"slug":5,"name":6,"description":7,"createdAt":8,"updatedAt":8},"nutrition","營養隨筆",null,"2023-02-12T02:39:02.691Z",{"id":10,"attributes":11},2,{"slug":12,"name":13,"description":7,"createdAt":14,"updatedAt":14},"reflection","感悟隨筆","2023-02-12T02:39:02.692Z",{"id":16,"attributes":17},3,{"slug":18,"name":19,"description":7,"createdAt":20,"updatedAt":20},"fitness","運動筆記","2023-02-12T02:39:02.697Z",{"id":22,"attributes":23},4,{"slug":24,"name":25,"description":7,"createdAt":26,"updatedAt":26},"spiritual","心靈勵志","2023-02-12T02:39:02.698Z",[28,33,38,43,47,52],{"id":3,"attributes":29},{"name":30,"slug":31,"description":7,"createdAt":32,"updatedAt":32},"讀書會","book-sharing","2023-02-12T02:38:55.939Z",{"id":16,"attributes":34},{"name":35,"slug":36,"description":7,"createdAt":37,"updatedAt":37},"文化導賞","cultural","2023-02-12T02:38:55.943Z",{"id":22,"attributes":39},{"name":40,"slug":41,"description":7,"createdAt":42,"updatedAt":42},"遊山玩水","hiking","2023-02-12T02:38:55.946Z",{"id":44,"attributes":45},5,{"name":46,"slug":18,"description":7,"createdAt":42,"updatedAt":42},"健體運動",{"id":48,"attributes":49},6,{"name":50,"slug":5,"description":7,"createdAt":51,"updatedAt":51},"活學營養","2023-02-12T02:38:55.947Z",{"id":10,"attributes":53},{"name":54,"slug":55,"description":7,"createdAt":56,"updatedAt":57},"名人面對面","be-our-guest","2023-02-12T02:38:55.942Z","2023-03-08T13:16:12.875Z"],"uses":{"dependencies":["http://127.0.0.1:1337/api/categories?","http://127.0.0.1:1337/api/event-categories?"]},"slash":"always"},{"type":"data","data":[{"data":1,"meta":188},[2,23,38,53,68,83,98,113,128,143,158,173],{"id":3,"attributes":4},80,{"start_date":5,"title":6,"content":7,"excerpt":8,"slug":9,"end_date":10,"tags":11,"createdAt":12,"updatedAt":12,"event_categories":13,"image":22},"2018-11-30","年青創業＋網絡營銷新趨勢","\n\n主講嘉賓：超凡網絡 (Guru Online) 聯合創辦人兼執行董事尹瑋婷小姐(Karin)\u003Cbr\u003E\n－ 2004年於香港中文大學工商管理學系畢業，先後投身旅遊業及鐘錶界\u003Cbr\u003E\n－ 2007年看準數碼營銷的商機，與幾位朋友合作成立Guru Online，為不同機構及品牌提供形象塑造及社交媒體的營銷服務，客戶包括國泰航空、海洋公園、三星等\u003Cbr\u003E\n－ 近年主力開拓中國大陸市場，協助各省市政府及旅遊委出海，曾參與領導南京青年奧林匹克運動會歷史上首個網絡火炬傳遞、中國首個旅遊外交項目杭州環球行等\u003Cbr\u003E\n－ 2015年公司於創業板上市，成為廣告業界的一時佳話\n\n日期：2018年11月30日(星期五)\u003Cbr\u003E\n時間：晚上7:15-9:30\u003Cbr\u003E\n地點：九龍旺角登打士街56號柏裕商業中心15樓安利體驗館會議室B\u003Cbr\u003E\n費用：$90一位 (包括三文治及飲品)","超凡網絡Guru Online聯合創辦人兼執行董事尹瑋婷小姐Karin","karin",null,"創業,網絡營銷","2018-11-30T00:00:00.000Z",{"data":14},[15],{"id":16,"attributes":17},2,{"name":18,"slug":19,"description":10,"createdAt":20,"updatedAt":21},"名人面對面","be-our-guest","2023-02-12T02:38:55.942Z","2023-03-08T13:16:12.875Z",{"data":10},{"id":24,"attributes":25},71,{"start_date":26,"title":27,"content":28,"excerpt":29,"slug":30,"end_date":10,"tags":31,"createdAt":32,"updatedAt":32,"event_categories":33,"image":37},"2018-11-17","睛彩人生","\n\n分享嘉賓：Dr. Leonard YUEN 源旭眼科專科醫生\u003Cbr\u003E\n-美國哈佛大學碩士畢業\u003Cbr\u003E\n-受訓並執業於英國、美國、新加坡、香港\u003Cbr\u003E\n-熱心慈善活動，如奧比斯、老有所醫義診計劃和其他義工服務\n\n分享重點：\u003Cbr\u003E\n眼科醫學的最新科技發展\u003Cbr\u003E\n慈善活動的感懷與得著\n\n日期：2018年11月17日(星期六)\u003Cbr\u003E\n時間：晚上7:15-9:30\u003Cbr\u003E\n地點：九龍旺角登打士街56號柏裕商業中心15樓安利體驗館會議室A\u003Cbr\u003E\n費用：$90一位 (包括三文治及飲品)","源旭眼科專科醫生","dr-yuen","眼科","2018-11-17T00:00:00.000Z",{"data":34},[35],{"id":16,"attributes":36},{"name":18,"slug":19,"description":10,"createdAt":20,"updatedAt":21},{"data":10},{"id":39,"attributes":40},69,{"start_date":41,"title":42,"content":43,"excerpt":44,"slug":45,"end_date":10,"tags":46,"createdAt":47,"updatedAt":47,"event_categories":48,"image":52},"2018-10-27","領導才能與團隊精神","\n\n名人面對面：領導才能與團隊精神\u003Cbr\u003E\n主講嘉賓：香港警務處榮休處長李明逵先生","香港警務處榮休處長李明逵先生","dick-lee","領導力,團隊精神","2018-10-27T00:00:00.000Z",{"data":49},[50],{"id":16,"attributes":51},{"name":18,"slug":19,"description":10,"createdAt":20,"updatedAt":21},{"data":10},{"id":54,"attributes":55},57,{"start_date":56,"title":57,"content":58,"excerpt":59,"slug":60,"end_date":10,"tags":61,"createdAt":62,"updatedAt":62,"event_categories":63,"image":67},"2018-09-09","飛鷹媽媽‧三半人‧再生勇士鄧英蘭","\n\n日期：2018年9月9日(\b日)\u003Cbr\u003E\n時間：晚上7：15 - 9：30\u003Cbr\u003E\n地點：旺角登打士街56號家樂坊15樓安利體驗館會議室B\u003Cbr\u003E\n費用：$90一位 (包三文治及飲品)","鄧英蘭女士","ms-tang","再生勇士","2018-09-09T00:00:00.000Z",{"data":64},[65],{"id":16,"attributes":66},{"name":18,"slug":19,"description":10,"createdAt":20,"updatedAt":21},{"data":10},{"id":69,"attributes":70},66,{"start_date":71,"title":72,"content":73,"excerpt":74,"slug":75,"end_date":10,"tags":76,"createdAt":77,"updatedAt":77,"event_categories":78,"image":82},"2018-08-10","香港土地供應，何去何從？","\n\n分享嘉賓：葉文祺先生 Ryan\u003Cbr\u003E\n－團結香港基金高級研究員，專攻香港土地及房屋政策\u003Cbr\u003E\n－曾任職於香港金融管理局及仲量聯行\n\n分享重點：\u003Cbr\u003E\n－香港土地供需為何嚴重失衡？如何解決困境？\u003Cbr\u003E\n－政府的需求管理措施對市場有甚麼影響？\n\n日期：2018年8月10日(\b五)\u003Cbr\u003E\n時間：晚上7：15 - 9：30\u003Cbr\u003E\n地點：旺角登打士街56號柏裕商業中心15樓安利體驗館會議室A\u003Cbr\u003E\n費用：$90一位\u002F$230三位 (包三文治及飲品)\u003Cbr\u003E\n備註：必須於網站報名，我們將於收到報名後聯絡閣下以作確認","","ryan-yip","香港樓市,土地供應","2018-08-10T00:00:00.000Z",{"data":79},[80],{"id":16,"attributes":81},{"name":18,"slug":19,"description":10,"createdAt":20,"updatedAt":21},{"data":10},{"id":84,"attributes":85},59,{"start_date":86,"title":87,"content":88,"excerpt":89,"slug":90,"end_date":10,"tags":91,"createdAt":92,"updatedAt":92,"event_categories":93,"image":97},"2018-07-22","中國近代史雜談：從一朵芙蓉花的前世今生說起","\n\n分享重點：\u003Cbr\u003E\n－「阿芙蓉」鴉片如何影響中國以至亞洲其他地區的社會、經濟及文化發展？\u003Cbr\u003E\n－「正斗」、「渣斗」、「吞pok」、「一蚊雞」的由來都與鴉片有關？\n\n分享嘉賓：蘇銳鴻校長\u003Cbr\u003E\n－退休校長、資深教育工作者、歷史學家\u003Cbr\u003E\n－歷任教育局教科書審查委員、中國文化研究院專題審查委員\u003Cbr\u003E\n－現為香港金融管理學院兼任講師、泛亞教育機構顧問、和富社會企業青少年網絡執行委員\u003Cbr\u003E\n－著有《紅船淺探》、《香港百聞》、《國史百聞》等書\n\n日期：2018年7月22日(日)\u003Cbr\u003E\n時間：晚上7：15 - 9：30\u003Cbr\u003E\n地點：旺角登打士街56號家樂坊15樓安利體驗館會議室B\u003Cbr\u003E\n費用：$90一位\u002F$230三位 (包三文治及飲品)","蘇銳鴻校長","mr-so","中國近代史","2018-07-22T00:00:00.000Z",{"data":94},[95],{"id":16,"attributes":96},{"name":18,"slug":19,"description":10,"createdAt":20,"updatedAt":21},{"data":10},{"id":99,"attributes":100},58,{"start_date":101,"title":102,"content":103,"excerpt":104,"slug":105,"end_date":10,"tags":106,"createdAt":107,"updatedAt":107,"event_categories":108,"image":112},"2018-06-16","生・老・病・死","\n\n－曾任『無國界醫生』香港區主席8年\u003Cbr\u003E\n－NGO『毋忘愛』及『醫護行者』創辦人兼主席\u003Cbr\u003E\n－第二屆香港人道年女奬得主\u003Cbr\u003E\n－樹藝技術員\n\n分享重點：\n－老化不是市場，不是災難⋯⋯只是一個力場\u003Cbr\u003E\n－死點測？\n\n日期：2018年6月16日(六)\u003Cbr\u003E\n時間：晚上7：15 - 9：30\u003Cbr\u003E\n地點：旺角登打士街56號柏裕商業中心15樓安利體驗館會議室B\u003Cbr\u003E\n費用：$90一位\u002F$230三位 (包三文治及飲品)\u003Cbr\u003E\n截止報名日期： 2018年6月11日","曾任『無國界醫生』香港區主席、ngo『毋忘愛』及『醫護行者』創辦人兼主席范寧醫生","dr-fan","老化","2018-06-16T00:00:00.000Z",{"data":109},[110],{"id":16,"attributes":111},{"name":18,"slug":19,"description":10,"createdAt":20,"updatedAt":21},{"data":10},{"id":114,"attributes":115},54,{"start_date":116,"title":117,"content":118,"excerpt":119,"slug":120,"end_date":10,"tags":121,"createdAt":122,"updatedAt":122,"event_categories":123,"image":127},"2018-05-25","人人跑步·人人跑數","\n\n分享嘉寳：陳兆焯博士(基督教正生書院校長兼正生會營運總監、香港十大傑出青年)\u003Cbr\u003E\n－ 陳校長春風化雨逾30載，服務社會的邊緣青年20多年。創立本港第一所亦是唯一一所以濫藥青少年為對象的中學「正生書院」，課程兼重學術與職業訓練，讓學生在課餘時間創立各種自負盈虧的生意\u003Cbr\u003E\n－ 15年內走訪逾350所中學及250間機構，向超過13 萬人宣傳濫用藥物的禍害；並透過大眾傳播媒介及其著作，分享其經歷及信念\u003Cbr\u003E\n－ 近年與學生遠赴撒哈拉、雅典、三藩市等地跑馬拉松，藉此鼓勵學生挑戰自已，攜手追夢\n\n分享重點：\u003Cbr\u003E\n陳校長將分享其跑步及跑數經歷，如何戰勝常變世事，戰勝不可能！\n\n日期：2018年5月11日(五)\u003Cbr\u003E\n時間：晚上7：15-9：30\u003Cbr\u003E\n地點：旺角登打士街56號柏裕商業中心15樓安利體驗館會議室B\u003Cbr\u003E\n費用：$90一位\u002F$230三位 (包三文治及飲品)","基督教正生書院校長兼正生會營運總監陳兆焯博士","alman-chan","跑步","2018-05-25T00:00:00.000Z",{"data":124},[125],{"id":16,"attributes":126},{"name":18,"slug":19,"description":10,"createdAt":20,"updatedAt":21},{"data":10},{"id":129,"attributes":130},51,{"start_date":131,"title":132,"content":133,"excerpt":134,"slug":135,"end_date":10,"tags":136,"createdAt":137,"updatedAt":137,"event_categories":138,"image":142},"2018-04-08","蘇東坡的多采人生對現代優質生活的啟示","\n\n- 曾任珠海書院中國文史系主任及中國文史研究所副所長、香港中文大學教育學院兼任講師\u003Cbr\u003E\n- 香港電台清談節目《清晨爽利》及《講東講西》嘉賓主持\n\n分享重點：\n- 在現實人生中，怎樣的生活才是優質生活？\u003Cbr\u003E\n﻿- 怎樣從蘇東坡的多采人生中，學到創造優質生活的本領？\u003Cbr\u003E\n岑教授在報章雜誌發表文章多篇，討論中國歷史文化、管理和人格教育問題。因見解揉合東西及古今文化精華，深受學術界與教育界重視，94年獲中華臺北僑委會海外華文著述學術論著社會人文及科學優等獎\n\n日期：2018年4月8日(日)\u003Cbr\u003E\n時間：晚上7：15 - 9：30\u003Cbr\u003E\n地點：旺角登打士街56號柏裕商業中心15樓安利體驗館會議室B\u003Cbr\u003E\n費用：$90一位\u002F$230三位 (包三文治及飲品)","香港電台清談節目《清晨爽利》及《講東講西》嘉賓主持岑練英教授","professor-sum","蘇東坡","2018-04-08T00:00:00.000Z",{"data":139},[140],{"id":16,"attributes":141},{"name":18,"slug":19,"description":10,"createdAt":20,"updatedAt":21},{"data":10},{"id":144,"attributes":145},55,{"start_date":146,"title":147,"content":148,"excerpt":149,"slug":150,"end_date":10,"tags":151,"createdAt":152,"updatedAt":152,"event_categories":153,"image":157},"2018-03-03","疾風中的神奇女俠","\n\n－ 事業正值高峰時突患嚴重出血性中風，經歷數年艱苦康復，憑努力不懈的精神，取得工商管理學博士及社會科學碩士銜\u003Cbr\u003E\n－ 從「受助者」變為「服務者」，除復康會的工作外，亦是香港電腦學會院士及名譽顧問，並在政府勞工及福利局、社會福利署、教育局及醫院管理局參與諮詢委員會的工作\n\n日期：2018年3月3日(星期六)\u003Cbr\u003E\n時間：晚上7:15-9:30\u003Cbr\u003E\n地點：九龍旺角登打士街56號柏裕商業中心15樓安利體驗館會議室B\u003Cbr\u003E\n費用：$90一位\u002F $230三位 (包括三文治及飲品)","香港賽馬會首位女性資訊科技事務司、 香港復康會副主席莫關雁卿博士Edith","edith","復康","2018-03-03T00:00:00.000Z",{"data":154},[155],{"id":16,"attributes":156},{"name":18,"slug":19,"description":10,"createdAt":20,"updatedAt":21},{"data":10},{"id":159,"attributes":160},42,{"start_date":161,"title":162,"content":163,"excerpt":164,"slug":165,"end_date":10,"tags":166,"createdAt":167,"updatedAt":167,"event_categories":168,"image":172},"2018-02-03","如何透過社交媒體令你愛上一個品牌？","\n\n獲得獎項：\u003Cbr\u003E\n－《iChoice網絡至強人氣大獎頒獎典禮2017》：\u003Cbr\u003E\nUwants及Discuss Forum網民投選「網絡至強人氣至尊數碼市場策劃大獎」－csl 及\u003Cbr\u003E\n「網絡至強人氣顧客獎勵計劃大獎」－The Club\u003Cbr\u003E\n－《都市日報最佳創意廣告2017》頒獎禮：\u003Cbr\u003E\n「最佳數碼媒體營銷䇿略」及「專業評審跨平台大獎」－csl\n\n分享內容：\u003Cbr\u003E\n－ 如何善用社交媒體，與客戶進行深層次交流與銷售？\u003Cbr\u003E\n－ 打造明星（品牌）的竅門\n\n日期：2018年2月3日(星期六)\u003Cbr\u003E\n時間：晚上7:15-9:30\u003Cbr\u003E\n地點：九龍旺角登打士街56號柏裕商業中心15樓安利體驗館會議室B\u003Cbr\u003E\n費用：$90一位\u002F $230三位 (包括三文治及飲品)","csl Mobile & The Club 甄坤儀小姐Methy","methy","社交媒體,營銷䇿略","2018-02-03T00:00:00.000Z",{"data":169},[170],{"id":16,"attributes":171},{"name":18,"slug":19,"description":10,"createdAt":20,"updatedAt":21},{"data":10},{"id":174,"attributes":175},40,{"start_date":176,"title":177,"content":178,"excerpt":179,"slug":180,"end_date":10,"tags":181,"createdAt":182,"updatedAt":182,"event_categories":183,"image":187},"2018-01-20","程式設計，與我何干？","\n\n－香港中文大學計算機工程學士及碩士、倫敦帝國學院計算機工程博士\u003Cbr\u003E\n－香港城市大學電子工程學系副教授兼應用程式實驗室總監，曾獲城大優秀教學獎\n\n分享內容：\n－ 誰寫程式，誰就有改變世界的能力？\u003Cbr\u003E\n－第四次工業革命的機遇與挑戰\n\n日期：2018年1月20日(星期六)\u003Cbr\u003E\n時間：晚上7:15-9:30\u003Cbr\u003E\n地點：九龍旺角登打士街56號柏裕商業中心15樓安利體驗館會議室B\u003Cbr\u003E\n費用：$90 (包括三文治及飲品)","香港首家Apps Lab創辦人張澤松博士Ray","ray-cheung","程式設計","2018-01-20T00:00:00.000Z",{"data":184},[185],{"id":16,"attributes":186},{"name":18,"slug":19,"description":10,"createdAt":20,"updatedAt":21},{"data":10},{"pagination":189},{"page":190,"pageSize":191,"pageCount":192,"total":193},4,12,7,76],"uses":{"dependencies":["http://127.0.0.1:1337/api/events?sort=start_date%3Adesc&populate[author]=true&populate[event_categories]=true&populate[image]=true&pagination[page]=4&pagination[pageSize]=12&filters[event_categories][slug]=be-our-guest"],"params":["page","category"]}}]}