{"type":"data","nodes":[{"type":"data","data":[{"categories":1,"event_categories":27},[2,9,15,21],{"id":3,"attributes":4},1,{"slug":5,"name":6,"description":7,"createdAt":8,"updatedAt":8},"nutrition","營養隨筆",null,"2023-02-12T02:39:02.691Z",{"id":10,"attributes":11},2,{"slug":12,"name":13,"description":7,"createdAt":14,"updatedAt":14},"reflection","感悟隨筆","2023-02-12T02:39:02.692Z",{"id":16,"attributes":17},3,{"slug":18,"name":19,"description":7,"createdAt":20,"updatedAt":20},"fitness","運動筆記","2023-02-12T02:39:02.697Z",{"id":22,"attributes":23},4,{"slug":24,"name":25,"description":7,"createdAt":26,"updatedAt":26},"spiritual","心靈勵志","2023-02-12T02:39:02.698Z",[28,33,38,43,47,52],{"id":3,"attributes":29},{"name":30,"slug":31,"description":7,"createdAt":32,"updatedAt":32},"讀書會","book-sharing","2023-02-12T02:38:55.939Z",{"id":16,"attributes":34},{"name":35,"slug":36,"description":7,"createdAt":37,"updatedAt":37},"文化導賞","cultural","2023-02-12T02:38:55.943Z",{"id":22,"attributes":39},{"name":40,"slug":41,"description":7,"createdAt":42,"updatedAt":42},"遊山玩水","hiking","2023-02-12T02:38:55.946Z",{"id":44,"attributes":45},5,{"name":46,"slug":18,"description":7,"createdAt":42,"updatedAt":42},"健體運動",{"id":48,"attributes":49},6,{"name":50,"slug":5,"description":7,"createdAt":51,"updatedAt":51},"活學營養","2023-02-12T02:38:55.947Z",{"id":10,"attributes":53},{"name":54,"slug":55,"description":7,"createdAt":56,"updatedAt":57},"名人面對面","be-our-guest","2023-02-12T02:38:55.942Z","2023-03-08T13:16:12.875Z"],"uses":{"dependencies":["http://127.0.0.1:1337/api/categories?","http://127.0.0.1:1337/api/event-categories?"]},"slash":"always"},{"type":"data","data":[{"data":1,"meta":193},[2,22,40,59,73,88,102,116,131,146,160,175],{"id":3,"attributes":4},41,{"title":5,"content":6,"start_date":7,"excerpt":8,"slug":9,"end_date":10,"tags":11,"createdAt":12,"updatedAt":12,"event_categories":13,"image":21},"周末郊遊鬆一鬆: 香港千島湖- 大欖涌水塘","\n平時侷促在辦公室及煩囂市區，放假一於逃離市區抖抖氣！🚶\u003Cbr\u003E\n今次我地由元朗楊屋村出發，經黃泥墩水塘，沿著麥理浩徑十段，行至大檻掃管笏作終點。\u003Cbr\u003E\n沿途風景優美，飽覧有香港千島湖之稱的大欖涌水塘！\u003Cbr\u003E\n行完山，一齊坐車去三聖村，食埋晏歎埋茶先走！🍜\u003Cbr\u003E\n今次登山路線：大棠楊屋村-\u003E麥理浩徑第十段-\u003E掃管笏（預計行山時間為3小時）\n\n備註：\n由朗屏集合坐K66巴士預計半小時，由掃管笏往黃金海岸約需20分鐘。\u003Cbr\u003E\n水泥路面，輕鬆易走\n日期：27\u002F1\u002F2018 星期六\u003Cbr\u003E\n時間：9:30-15:30\u003Cbr\u003E\n集合地點：朗屏港鐵站B出口（9：30，不見即散）\u003Cbr\u003E\n預計最遲2點會到三聖村午飯","2018-01-27","","hiking1801",null,"大欖涌水塘,千島湖","2018-01-27T00:00:00.000Z",{"data":14},[15],{"id":16,"attributes":17},4,{"name":18,"slug":19,"description":10,"createdAt":20,"updatedAt":20},"遊山玩水","hiking","2023-02-12T02:38:55.946Z",{"data":10},{"id":23,"attributes":24},36,{"title":25,"content":26,"start_date":27,"excerpt":8,"slug":28,"end_date":10,"tags":29,"createdAt":30,"updatedAt":30,"event_categories":31,"image":39},"讀書會主題：健康·養生","\n\n正所謂，年少不養生，老來養醫生。\u003Cbr\u003E\n壓大很大，糖衣很美。餐廳充斥著高油高脂的美食，高效的社會同時亦帶來高壓。我們並不能抱著「今朝有酒今朝醉，哪管他朝吊鹽水」的心態。\u003Cbr\u003E\n健康，既指肉體上的，亦指心靈上的健康。\u003Cbr\u003E\n達到身心靈的平衡不僅使我們身體健康，亦促使我們成就完滿的人生。\u003Cbr\u003E\n今次讀書會，我們特別選擇了分享健康養生類書籍，共同朝向身心靈整體健康的目標前進。\u003Cbr\u003E\n誠邀你一起分享閱讀體驗，一同感受由文字所帶出的美妙世界。\u003Cbr\u003E\n歡迎大家一起閱讀，一起分享，相互啟發！\u003Cbr\u003E\n說書人：4位 (每位15分鐘)\u003Cbr\u003E\n愛書人：10位\u003Cbr\u003E\n日期：20\u002F01\u002F2018 (星期六)\u003Cbr\u003E\n時間：14:00-16:00\u003Cbr\u003E\n地點：咖啡綠茶＠旺角西洋菜南街38-40號萬高商業大廈3樓\u003Cbr\u003E\n費用：自費在餐廳點單\u003Cbr\u003E\n名額：14人","2018-01-20","booksharing1801","健康","2018-01-07T00:00:00.000Z",{"data":32},[33],{"id":34,"attributes":35},1,{"name":36,"slug":37,"description":10,"createdAt":38,"updatedAt":38},"讀書會","book-sharing","2023-02-12T02:38:55.939Z",{"data":10},{"id":41,"attributes":42},40,{"title":43,"content":44,"start_date":27,"excerpt":45,"slug":46,"end_date":10,"tags":47,"createdAt":48,"updatedAt":48,"event_categories":49,"image":58},"程式設計，與我何干？","\n\n－香港中文大學計算機工程學士及碩士、倫敦帝國學院計算機工程博士\u003Cbr\u003E\n－香港城市大學電子工程學系副教授兼應用程式實驗室總監，曾獲城大優秀教學獎\n\n分享內容：\n－ 誰寫程式，誰就有改變世界的能力？\u003Cbr\u003E\n－第四次工業革命的機遇與挑戰\n\n日期：2018年1月20日(星期六)\u003Cbr\u003E\n時間：晚上7:15-9:30\u003Cbr\u003E\n地點：九龍旺角登打士街56號柏裕商業中心15樓安利體驗館會議室B\u003Cbr\u003E\n費用：$90 (包括三文治及飲品)","香港首家Apps Lab創辦人張澤松博士Ray","ray-cheung","程式設計","2018-01-20T00:00:00.000Z",{"data":50},[51],{"id":52,"attributes":53},2,{"name":54,"slug":55,"description":10,"createdAt":56,"updatedAt":57},"名人面對面","be-our-guest","2023-02-12T02:38:55.942Z","2023-03-08T13:16:12.875Z",{"data":10},{"id":60,"attributes":61},35,{"title":62,"content":63,"start_date":64,"excerpt":8,"slug":65,"end_date":10,"tags":66,"createdAt":67,"updatedAt":67,"event_categories":68,"image":72},"周末郊遊鬆一鬆@寫意寧靜－大潭水塘","\n\n平時侷促在辦公室及煩囂市區，放假一於逃離市區抖抖氣！\u003Cbr\u003E\n今次我地由鰂魚涌出發，沿柏架山道上山至300米高的大風坳，再徐徐下山，經過大潭水塘至大潭道終點。\u003Cbr\u003E\n沿途遠眺港島東及九龍東的景色，飽覧大潭上水塘、大潭副水塘、大潭中水塘及大潭篤水塘，細心留意，或會發現松鼠蹤跡呢🐿！\u003Cbr\u003E\n除了自然景色之外，沿途亦經過有百多年歷史，興建於1920代年的紅屋，現被列為香港二級歷史建築。\u003Cbr\u003E\n行完山，一齊坐車返西灣河，食埋晏歎埋茶先走！\u003Cbr\u003E\n今次登山路線：鰂魚涌-\u003E柏架山道-\u003E大風坳-\u003E大潭水塘-\u003E大潭道（預計行山時間為2.5小時）\u003Cbr\u003E\n備註：混凝土路面，輕鬆易走\u003Cbr\u003E\n日期：26\u002F12\u002F2016 星期二（公眾假期）\u003Cbr\u003E\n時間：9:30-14:30\u003Cbr\u003E\n集合地點：鰂魚涌港鐵站A出口（9：30，不見即散）","2017-12-26","hiking1712","大潭水塘","2017-12-26T00:00:00.000Z",{"data":69},[70],{"id":16,"attributes":71},{"name":18,"slug":19,"description":10,"createdAt":20,"updatedAt":20},{"data":10},{"id":74,"attributes":75},34,{"title":76,"content":77,"start_date":78,"excerpt":79,"slug":80,"end_date":10,"tags":81,"createdAt":82,"updatedAt":82,"event_categories":83,"image":87},"海峽兩岸與香港","\n\n♦曾任香港大學歷史系高級講師及文學院副院長、香港大學專業進修學院常務副院長，以及香港教育學院助理院長(行政)\u003Cbr\u003E\n♦曾參與並主持多項「國情研究」及「公共政策研究」計劃，包括為香港特區政府高層提供的「中國國情研究」和「港台關係研究」，長期參與兩岸及港台關係的活動和研究工作，多次應上海東亞研究所及國際問題研究所邀請出席研討會並發表論文\u003Cbr\u003E\n♦為香港特區政府公務員培訓處設計國家事務入門課程及中國區域系列講座並擔任講者\n\n陸教授將深入淺出地解構：\u003Cbr\u003E\n💡兩岸關係的歷史背景和演變進程\u003Cbr\u003E\n💡兩岸關係的微妙國際因素\u003Cbr\u003E\n💡香港在兩岸間的角色，以及對香港人特別年青一輩的影響\n\n日期：2017年12月16日(星期六)\n時間：晚上7:15-9:30\u003Cbr\u003E\n地點：九龍旺角登打士街56號柏裕商業中心15樓安利體驗館\u003Cbr\u003E\n費用：$90 (包括三文治及飲品)，三人同行共$230\n","2017-12-16","中國近代及現代史專家、香港大學文學院前副院長陸人龍教授","dr-luk","歷史","2017-12-16T00:00:00.000Z",{"data":84},[85],{"id":52,"attributes":86},{"name":54,"slug":55,"description":10,"createdAt":56,"updatedAt":57},{"data":10},{"id":89,"attributes":90},33,{"title":91,"content":92,"start_date":93,"excerpt":8,"slug":94,"end_date":10,"tags":95,"createdAt":96,"updatedAt":96,"event_categories":97,"image":101},"周末郊遊鬆一鬆古蹟石橋- 香港仔水塘","\n\n平時侷促在辦公室及煩囂市區，放假一於逃離市區抖抖氣！\u003Cbr\u003E\n今次我地由金鐘出發，寶雲道上山，經過警隊博物館，再徐徐下山往香港仔終點。\u003Cbr\u003E\n香港仔水塘於1931年落成，內有四項法定古蹟：上水塘的大壩、大壩石橋、壩上的水掣泵房、下水塘的大壩。\u003Cbr\u003E\n行完山，一齊在香港仔食埋晏歎埋茶先走！\u003Cbr\u003E\n今次登山路線：港安醫院-\u003E寶雲道-\u003E警隊博物館-\u003E香港仔水塘（預計行山時間為2小時）\u003Cbr\u003E\n備註：輕鬆易走\u003Cbr\u003E\n日期：25\u002F11\u002F2017 星期六\u003Cbr\u003E\n時間：09:45-12:00\u003Cbr\u003E\n集合地點：金鐘港鐵站F出口地面（09：45，不見即散）","2017-11-25","hiking1711","香港仔水塘","2017-11-25T00:00:00.000Z",{"data":98},[99],{"id":16,"attributes":100},{"name":18,"slug":19,"description":10,"createdAt":20,"updatedAt":20},{"data":10},{"id":103,"attributes":104},32,{"title":105,"content":106,"start_date":107,"excerpt":8,"slug":108,"end_date":10,"tags":109,"createdAt":110,"updatedAt":110,"event_categories":111,"image":115},"讀書會- 主題：商業、經濟","\n\n新創科技進一步進入我們的生活，我們又如何從中捉緊機會，搭上這潮流的快車？\u003Cbr\u003E\n創新科技癲覆了商業世界並迎來新經濟模式，雖然我們無法掌控外在環境，但我們卻可以從政、經、商各方面了解世界，捉緊人生的機會，突圍而出，掌管自己的未來！\u003Cbr\u003E\n誠邀各位一起閱讀，交流討論，集思廣益，共同學習，共同進步！\u003Cbr\u003E\n說書人：4位 (每位15分鐘)\u003Cbr\u003E\n愛書人：10位\u003Cbr\u003E\n日期：11\u002F11\u002F2017 (星期六)\u003Cbr\u003E\n時間：12:00-14:00\u003Cbr\u003E\n地點：咖啡綠茶＠旺角西洋菜南街38-40號萬高商業大廈3樓\u003Cbr\u003E\n費用：自費在餐廳點餐／飲品\u003Cbr\u003E\n名額：14人","2017-11-11","bookshare1711","創新科技","2017-11-11T00:00:00.000Z",{"data":112},[113],{"id":34,"attributes":114},{"name":36,"slug":37,"description":10,"createdAt":38,"updatedAt":38},{"data":10},{"id":117,"attributes":118},38,{"title":119,"content":120,"start_date":121,"excerpt":122,"slug":123,"end_date":10,"tags":124,"createdAt":125,"updatedAt":125,"event_categories":126,"image":130},"麥秋笑談戲劇人生","\n\n話劇之所以吸引，是因為觀眾往往能從短短兩小時的戲劇中，彷彿看到自己及身邊的人與事，引起共鳴及反思。\u003Cbr\u003E\n馳騁舞台60年，今年80歲的戲劇泰斗麥秋先生，執導並主演過無數經典話劇。現實生活中，麥秋先生多年來在社群前缐服務青少年，甚至令囚犯轉化，對人性、對社會，皆有一番深切體會。\u003Cbr\u003E\n麥秋先生將以其充滿智慧和幽默風趣的言語，為大家道盡遊走戲劇與現實的精彩人生。\n\n日期：2017年11月4日(星期六)\u003Cbr\u003E\n時間：晚上7:15-9:30\u003Cbr\u003E\n地點：九龍旺角登打士街56號柏裕商業中心15樓安利體驗館會議室\u003Cbr\u003E\n費用：$90 (包括三文治及飲品)，三人同行共$230\n\n麥秋老師(James):\u003Cbr\u003E\n♦1987至1997年，經營全國第一家商業劇團中天製作有限公司，期間演出的劇目包括《原野》、著名音樂劇《仙樂飄飄處處聞》及20多齣世界經典名劇。\u003Cbr\u003E\n♦2011年至今，為香港懲教署更生工作部，策劃及主持專為終身囚友而設的「創藝展更生」演藝課程，曾獲懲教署「更生工作卓越成就獎」。\u003Cbr\u003E\n♦曾替多個機構擔任顧問，包括香港演藝學院戲劇學院、香港電台、大中華文化全球協會，並出任香港傷殘青年協會諮詢委員會創會委員及副會長。\u003Cbr\u003E\n♦曾任北京東方新青年文化發展有限公司演藝教育發展總監，以及香港戲劇協會創會委員及副會長。\u003Cbr\u003E\n♦2007年，獲香港演藝學院頒授榮譽院士\u003Cbr\u003E\n♦2016年4月，以80高齡獲香港戲劇協會頒發終身成就獎。","2017-11-04","香港戲劇協會終身成就獎得主、戲劇界宗師麥秋(James)","james-mak","戲劇","2017-11-04T00:00:00.000Z",{"data":127},[128],{"id":52,"attributes":129},{"name":54,"slug":55,"description":10,"createdAt":56,"updatedAt":57},{"data":10},{"id":132,"attributes":133},31,{"title":134,"content":135,"start_date":136,"excerpt":137,"slug":138,"end_date":10,"tags":139,"createdAt":140,"updatedAt":140,"event_categories":141,"image":145},"出版業在國際大都會可以扮演甚麼角色","\n\n張倩儀女士：\n♦ 資深出版人，曾任商務印書館總編輯\u003Cbr\u003E\n♦獲獎作家，深入東西絲路、敦煌、故宮，關注中國近代社會發展\u003Cbr\u003E\n♦著作有遊記《西行找中國》、《文明的足音》（合著）、《歐遊新空間》(合著)；描寫近代社會變化的《另一種童年的告別》《大留學潮》；青少年讀物《領袖和改革家的視野》《現代科學家的毅力》；雜文集《零後風雲》等\n\n講題：\n﻿💡出版的意義\u003Cbr\u003E\n💡國際的印刷中心和出版中心\u003Cbr\u003E\n💡出版的原料、加工與產品\u003Cbr\u003E\n💡城市由貧到富，出版由大到小\u003Cbr\u003E\n💡出版香港再出發\n\n日期：2017年10月7日(星期六)\u003Cbr\u003E\n時間：晚上7:15-9:30\u003Cbr\u003E\n地點：九龍旺角登打士街56號柏裕商業中心15樓安利體驗館會議室B\u003Cbr\u003E\n費用：$90 (包括三文治及飲品)，三人同行共$230\n","2017-10-07","商務印書館前總編輯張倩儀女士","ms-cheung","出版業","2017-10-07T00:00:00.000Z",{"data":142},[143],{"id":52,"attributes":144},{"name":54,"slug":55,"description":10,"createdAt":56,"updatedAt":57},{"data":10},{"id":147,"attributes":148},37,{"title":149,"content":150,"start_date":151,"excerpt":8,"slug":152,"end_date":10,"tags":153,"createdAt":154,"updatedAt":154,"event_categories":155,"image":159},"讀書會：人物傳記","\n\n「以銅爲鑒，可正衣冠；以古爲鑒，可知興替；以人爲鑒，可明得失。」\u003Cbr\u003E\n生命影響生命，今次讀書會，我們將分享傳記類書籍。透過別人獨到的經歷，以人為鑒，啟迪智慧與心靈。\u003Cbr\u003E\n誠邀你一起分享閱讀體驗，一同感受由文字所帶出的美妙世界。\u003Cbr\u003E\n歡迎大家，一起閱讀、一起分享、互相啟發！\u003Cbr\u003E\n說書人：4位 (每位15分鐘)\u003Cbr\u003E\n愛書人：10位\u003Cbr\u003E\n日期：23\u002F9\u002F2017 (星期六)\u003Cbr\u003E\n時間：14:00-16:00\u003Cbr\u003E\n地點：待定\u003Cbr\u003E\n費用：咖啡綠茶＠旺角西洋菜南街38-40號萬高商業大廈3樓 (自費在餐廳點餐\u002F飲品)\u003Cbr\u003E\n名額：14人","2017-09-23","bookshare1709","人物傳記","2017-09-23T00:00:00.000Z",{"data":156},[157],{"id":34,"attributes":158},{"name":36,"slug":37,"description":10,"createdAt":38,"updatedAt":38},{"data":10},{"id":161,"attributes":162},39,{"title":163,"content":164,"start_date":165,"excerpt":166,"slug":167,"end_date":10,"tags":168,"createdAt":169,"updatedAt":169,"event_categories":170,"image":174},"如何讓一家社企可持續經營並蓬勃發展","\n\n趙舜茹小姐 Bonnie：\u003Cbr\u003E\n－ 香港中文大學環球商業學學士、倫敦政治經濟學院修讀國際關係碩士\u003Cbr\u003E\n－ 年僅24歲，4年前成立非牟利社會企業Lensational，同時擔任英國顧問公司The Social Investment Consultancy董事總經理\u003Cbr\u003E\n－ 短短4年，Lensational 已為本地外籍女傭及15個發展中國家基層女性教授攝影技術，協助她們從鏡頭下展現自己的故事，並冀公眾人士更深入認識弱勢婦女的生活面貌\u003Cbr\u003E\n－ 獲選為福布斯『歐洲30位年輕社會社業家』，並獲邀在TED分享其創立及經營社企的理念及宗旨\n\n講題：\u003Cbr\u003E\n💡創業的理念、得著與挑戰\u003Cbr\u003E\n💡如何讓一家社企可持續經營並蓬勃發展\n\n日期：2017年9月16日(星期六)\n時間：晚上7:15-9:30\u003Cbr\u003E\n地點：九龍旺角登打士街56號柏裕商業中心15樓安利體驗館會議室B\u003Cbr\u003E\n費用：$90 (包括輕食及飲品)，三人同行共$230\n","2017-09-16","非牟利社會企業 Lensational 創辦人趙舜茹小姐","lensational","社企,創業","2017-09-16T00:00:00.000Z",{"data":171},[172],{"id":52,"attributes":173},{"name":54,"slug":55,"description":10,"createdAt":56,"updatedAt":57},{"data":10},{"id":176,"attributes":177},30,{"title":178,"content":179,"start_date":180,"excerpt":8,"slug":181,"end_date":10,"tags":182,"createdAt":183,"updatedAt":183,"event_categories":184,"image":192},"生而為遊 – 遠眺地獄之門，靜觀閃爍星空，細味土著文化， 非洲，非你所想","\n非洲 ── 在不少香港人的印象中，可能只有貧窮、飢荒、炎熱。然而，非洲的旅遊資源其實多得令人驚嘆，既有原始的土人部落，亦有歷史久遠的宗教聖地；有可供觀賞動物的國家公園，亦有遺世而獨立的古城。當然還有目不暇給的自然景色，包括活火山、琉璜池、鹽湖、窪地……教人歎為觀止。\n\nEmpower 榮幸邀得旅遊攝影達人Man Wong分享他遊歷埃賽俄比亞、贊比亞、烏干達、盧旺達、坦桑尼亞及博茨阿納這東非六國的70天精彩旅程。Man將會為我們揭開非洲的神秘面紗，展現其獨特的奇幻魅力，並為有意遊覽非洲的背包客排解疑難！\n\n日期：2017年8月26日（星期六）\u003Cbr\u003E\n時間：下午2:30-4:00\u003Cbr\u003E\n地點：九龍旺角登打士街56號柏裕商中心15樓安利體驗館B室\u003Cbr\u003E\n費用：$50 （三人同行每人$30）","2017-08-26","travelsharing1708","非洲旅遊","2017-08-26T00:00:00.000Z",{"data":185},[186],{"id":187,"attributes":188},3,{"name":189,"slug":190,"description":10,"createdAt":191,"updatedAt":191},"文化導賞","cultural","2023-02-12T02:38:55.943Z",{"data":10},{"pagination":194},{"page":195,"pageSize":195,"pageCount":196,"total":197},12,16,188],"uses":{"dependencies":["http://127.0.0.1:1337/api/events?sort=start_date%3Adesc&populate[author]=true&populate[event_categories]=true&populate[image]=true&pagination[page]=12&pagination[pageSize]=12"],"params":["page","category"]}}]}